<?xml version="1.0" encoding="UTF-8" standalone="no"?>
<svg
   xmlns:dc="http://purl.org/dc/elements/1.1/"
   xmlns:cc="http://creativecommons.org/ns#"
   xmlns:rdf="http://www.w3.org/1999/02/22-rdf-syntax-ns#"
   xmlns:svg="http://www.w3.org/2000/svg"
   xmlns="http://www.w3.org/2000/svg"
   xmlns:xlink="http://www.w3.org/1999/xlink"
   xmlns:sodipodi="http://sodipodi.sourceforge.net/DTD/sodipodi-0.dtd"
   xmlns:inkscape="http://www.inkscape.org/namespaces/inkscape"
   sodipodi:docname="E37P02.svg"
   height="3503"
   width="2481"
   inkscape:version="1.0 (4035a4fb49, 2020-05-01)"
   version="1.1"
   id="svg2">
  <metadata
     id="metadata8">
    <rdf:RDF>
      <cc:Work
         rdf:about="">
        <dc:format>image/svg+xml</dc:format>
        <dc:type
           rdf:resource="http://purl.org/dc/dcmitype/StillImage" />
        <dc:title />
      </cc:Work>
    </rdf:RDF>
  </metadata>
  <defs
     id="defs6">
    <filter
       height="1.1290045"
       y="-0.064502225"
       width="1.0341555"
       x="-0.017077732"
       id="filter4410"
       style="color-interpolation-filters:sRGB"
       inkscape:collect="always">
      <feGaussianBlur
         id="feGaussianBlur4412"
         stdDeviation="0.3391804"
         inkscape:collect="always" />
    </filter>
    <filter
       height="1.1654879"
       y="-0.082743964"
       width="1.0334413"
       x="-0.016720648"
       id="filter4410-3"
       style="color-interpolation-filters:sRGB"
       inkscape:collect="always">
      <feGaussianBlur
         id="feGaussianBlur4412-6"
         stdDeviation="0.3391804"
         inkscape:collect="always" />
    </filter>
    <filter
       height="1.1463203"
       y="-0.073160156"
       width="1.0440744"
       x="-0.022037198"
       id="filter4410-3-3"
       style="color-interpolation-filters:sRGB"
       inkscape:collect="always">
      <feGaussianBlur
         id="feGaussianBlur4412-6-5"
         stdDeviation="0.3391804"
         inkscape:collect="always" />
    </filter>
    <filter
       height="1.1880985"
       y="-0.094049255"
       width="1.0124739"
       x="-0.0062369639"
       id="filter4410-3-36"
       style="color-interpolation-filters:sRGB"
       inkscape:collect="always">
      <feGaussianBlur
         id="feGaussianBlur4412-6-7"
         stdDeviation="0.3391804"
         inkscape:collect="always" />
    </filter>
    <filter
       height="1.2265324"
       y="-0.11326619"
       width="1.026508"
       x="-0.01325398"
       id="filter4410-3-36-5"
       style="color-interpolation-filters:sRGB"
       inkscape:collect="always">
      <feGaussianBlur
         id="feGaussianBlur4412-6-7-6"
         stdDeviation="0.3391804"
         inkscape:collect="always" />
    </filter>
    <filter
       height="1.1819747"
       y="-0.090987371"
       width="1.0270292"
       x="-0.013514606"
       id="filter4410-3-36-5-1"
       style="color-interpolation-filters:sRGB"
       inkscape:collect="always">
      <feGaussianBlur
         id="feGaussianBlur4412-6-7-6-2"
         stdDeviation="0.3391804"
         inkscape:collect="always" />
    </filter>
    <filter
       height="1.2339792"
       y="-0.1169896"
       width="1.0235762"
       x="-0.011788116"
       id="filter4410-3-36-5-1-3"
       style="color-interpolation-filters:sRGB"
       inkscape:collect="always">
      <feGaussianBlur
         id="feGaussianBlur4412-6-7-6-2-6"
         stdDeviation="0.3391804"
         inkscape:collect="always" />
    </filter>
  </defs>
  <sodipodi:namedview
     inkscape:document-rotation="0"
     inkscape:deskcolor="#d1d1d1"
     inkscape:showpageshadow="0"
     inkscape:pagecheckerboard="0"
     inkscape:current-layer="layer1"
     inkscape:window-maximized="1"
     inkscape:window-y="-8"
     inkscape:window-x="-8"
     inkscape:cy="3100.0949"
     inkscape:cx="1284.4055"
     inkscape:zoom="0.45014485"
     showgrid="false"
     id="namedview4"
     inkscape:window-height="715"
     inkscape:window-width="1366"
     inkscape:pageshadow="2"
     inkscape:pageopacity="0"
     guidetolerance="10"
     gridtolerance="10"
     objecttolerance="10"
     borderopacity="1"
     bordercolor="#666666"
     pagecolor="#ffffff" />
  <g
     sodipodi:insensitive="true"
     inkscape:label="artwork"
     id="layer2"
     inkscape:groupmode="layer">
    <image
       sodipodi:absref="D:\Pepper&amp;Carrot translation\ep37_The-Tears-of-the-Phoenix\lang\gfx_Pepper-and-Carrot_by-David-Revoy_E37P02.png"
       xlink:href="../gfx_Pepper-and-Carrot_by-David-Revoy_E37P02.png"
       y="0"
       x="0"
       id="image10"
       height="3503"
       width="2481" />
  </g>
  <g
     inkscape:label="speechbubbles"
     id="layer3"
     inkscape:groupmode="layer" />
  <g
     inkscape:label="txt"
     id="layer1"
     inkscape:groupmode="layer">
    <text
       transform="matrix(0.69191147,0.10631771,-0.0168561,1.0225213,424.20541,-295.41896)"
       id="text4246-3-6-7-5"
       y="2758.2344"
       x="1026.8136"
       style="font-style:normal;font-variant:normal;font-weight:normal;font-stretch:normal;line-height:0%;font-family:Fondamento;-inkscape-font-specification:'Fondamento, Normal';text-align:center;letter-spacing:3px;word-spacing:0px;writing-mode:lr-tb;text-anchor:middle;display:inline;opacity:0.8;fill:#6d4b35;fill-opacity:1;stroke:#613f2b;stroke-width:3.97675;stroke-miterlimit:4;stroke-dasharray:none;stroke-opacity:1;filter:url(#filter4410-3-36)"
       xml:space="preserve"><tspan
         y="2758.2344"
         x="1028.3136"
         style="font-style:normal;font-variant:normal;font-weight:normal;font-stretch:normal;font-size:39.7038px;line-height:1.27;font-family:Fondamento;-inkscape-font-specification:Fondamento;fill:#6d4b35;fill-opacity:1;stroke:#613f2b;stroke-width:3.97675;stroke-miterlimit:4;stroke-dasharray:none;stroke-opacity:1"
         id="tspan3439-5-3"
         sodipodi:role="line">悬赏抓获</tspan></text>
    <text
       transform="matrix(0.79864736,0.07927837,-0.03786939,1.1484261,103.96483,-544.64594)"
       id="text4246-3-6"
       y="2758.2344"
       x="1026.8136"
       style="font-style:normal;font-variant:normal;font-weight:normal;font-stretch:normal;line-height:0%;font-family:Fondamento;-inkscape-font-specification:'Fondamento, Normal';text-align:center;letter-spacing:3px;word-spacing:0px;writing-mode:lr-tb;text-anchor:middle;display:inline;opacity:0.8;fill:#624737;fill-opacity:1;stroke:#613f2b;stroke-width:3.4914;stroke-miterlimit:4;stroke-dasharray:none;stroke-opacity:1;filter:url(#filter4410)"
       xml:space="preserve"><tspan
         y="2758.2344"
         x="1028.3136"
         style="font-style:normal;font-variant:normal;font-weight:normal;font-stretch:normal;font-size:39.7038px;line-height:1.27;font-family:Fondamento;-inkscape-font-specification:Fondamento;fill:#624737;fill-opacity:1;stroke:#613f2b;stroke-width:3.4914;stroke-miterlimit:4;stroke-dasharray:none;stroke-opacity:1"
         id="tspan3439"
         sodipodi:role="line">香榧子</tspan></text>
    <text
       transform="matrix(0.57086506,0.02677693,-0.01390721,0.81546114,273.98717,722.12396)"
       id="text4246-3-6-7-5-2"
       y="2758.2344"
       x="1026.8136"
       style="font-style:normal;font-variant:normal;font-weight:normal;font-stretch:normal;line-height:0;font-family:Fondamento;-inkscape-font-specification:'Fondamento, Normal';text-align:center;letter-spacing:3px;word-spacing:0px;writing-mode:lr-tb;text-anchor:middle;display:inline;opacity:0.8;fill:#624737;fill-opacity:1;stroke:#613f2b;stroke-width:4.90678;stroke-miterlimit:4;stroke-dasharray:none;stroke-opacity:1;filter:url(#filter4410-3-36-5)"
       xml:space="preserve"><tspan
         y="2758.2344"
         x="1028.3136"
         style="font-style:normal;font-variant:normal;font-weight:normal;font-stretch:normal;font-size:39.7038px;line-height:1.27;font-family:Fondamento;-inkscape-font-specification:Fondamento;fill:#624737;fill-opacity:1;stroke:#613f2b;stroke-width:4.90678;stroke-miterlimit:4;stroke-dasharray:none;stroke-opacity:1"
         id="tspan3439-5-3-9"
         sodipodi:role="line"><tspan
   id="tspan44155"
   style="font-size:52.9132px;line-height:1.27;stroke-width:4.90678">1</tspan>0万珂</tspan></text>
    <text
       transform="matrix(0.69191147,0.06523261,-0.0168561,1.0235222,410.31115,-155.18702)"
       id="text4246-3-6-7"
       y="2758.2344"
       x="1026.8136"
       style="font-style:normal;font-variant:normal;font-weight:normal;font-stretch:normal;line-height:0%;font-family:Fondamento;-inkscape-font-specification:'Fondamento, Normal';text-align:center;letter-spacing:3px;word-spacing:0px;writing-mode:lr-tb;text-anchor:middle;display:inline;opacity:0.8;fill:#624737;fill-opacity:1;stroke:#613f2b;stroke-width:3.97675;stroke-miterlimit:4;stroke-dasharray:none;stroke-opacity:1;filter:url(#filter4410-3)"
       xml:space="preserve"><tspan
         y="2758.2344"
         x="1028.3136"
         style="font-style:normal;font-variant:normal;font-weight:normal;font-stretch:normal;font-size:39.7038px;line-height:1.27;font-family:Fondamento;-inkscape-font-specification:Fondamento;fill:#624737;fill-opacity:1;stroke:#613f2b;stroke-width:3.97675;stroke-miterlimit:4;stroke-dasharray:none;stroke-opacity:1"
         id="tspan3439-5"
         sodipodi:role="line">七味粉</tspan></text>
    <text
       transform="matrix(0.59366631,0.01743274,-0.01446269,0.79041057,507.52029,807.17422)"
       id="text4246-3-6-7-5-2-7"
       y="2758.2344"
       x="1026.8136"
       style="font-style:normal;font-variant:normal;font-weight:normal;font-stretch:normal;line-height:0;font-family:Fondamento;-inkscape-font-specification:'Fondamento, Normal';text-align:center;letter-spacing:3px;word-spacing:0px;writing-mode:lr-tb;text-anchor:middle;display:inline;opacity:0.8;fill:#624737;fill-opacity:1;stroke:#613f2b;stroke-width:4.88792;stroke-miterlimit:4;stroke-dasharray:none;stroke-opacity:1;filter:url(#filter4410-3-36-5-1)"
       xml:space="preserve"><tspan
         y="2758.2344"
         x="1028.3136"
         style="font-style:normal;font-variant:normal;font-weight:normal;font-stretch:normal;font-size:39.7038px;line-height:1.27;font-family:Fondamento;-inkscape-font-specification:Fondamento;fill:#624737;fill-opacity:1;stroke:#613f2b;stroke-width:4.88792;stroke-miterlimit:4;stroke-dasharray:none;stroke-opacity:1"
         id="tspan3439-5-3-9-0"
         sodipodi:role="line">25万珂</tspan></text>
    <text
       inkscape:transform-center-y="-5.4203086"
       inkscape:transform-center-x="171.10045"
       transform="matrix(0.6598721,0.08172047,-0.01607557,0.97156783,687.63337,-14.189848)"
       id="text4246-3-6-7-6"
       y="2758.2344"
       x="1026.8136"
       style="font-style:normal;font-variant:normal;font-weight:normal;font-stretch:normal;line-height:0%;font-family:Fondamento;-inkscape-font-specification:'Fondamento, Normal';text-align:center;letter-spacing:3px;word-spacing:0px;writing-mode:lr-tb;text-anchor:middle;display:inline;opacity:0.8;fill:#624737;fill-opacity:1;stroke:#613f2b;stroke-width:4.17857;stroke-miterlimit:4;stroke-dasharray:none;stroke-opacity:1;filter:url(#filter4410-3-3)"
       xml:space="preserve"><tspan
         y="2758.2344"
         x="1028.3136"
         style="font-style:normal;font-variant:normal;font-weight:normal;font-stretch:normal;font-size:39.7038px;line-height:1.27;font-family:Fondamento;-inkscape-font-specification:Fondamento;fill:#624737;fill-opacity:1;stroke:#613f2b;stroke-width:4.17857;stroke-miterlimit:4;stroke-dasharray:none;stroke-opacity:1"
         id="tspan3439-5-2"
         sodipodi:role="line">小辣椒</tspan></text>
    <text
       transform="matrix(0.519516,0.01814457,-0.01265627,0.82268552,822.41546,718.95715)"
       id="text4246-3-6-7-5-2-7-0"
       y="2758.2344"
       x="1026.8136"
       style="font-style:normal;font-variant:normal;font-weight:normal;font-stretch:normal;line-height:0;font-family:Fondamento;-inkscape-font-specification:'Fondamento, Normal';text-align:center;letter-spacing:3px;word-spacing:0px;writing-mode:lr-tb;text-anchor:middle;display:inline;opacity:0.8;fill:#624737;fill-opacity:1;stroke:#613f2b;stroke-width:5.1216;stroke-miterlimit:4;stroke-dasharray:none;stroke-opacity:1;filter:url(#filter4410-3-36-5-1-3)"
       xml:space="preserve"><tspan
         y="2758.2344"
         x="1028.3136"
         style="font-style:normal;font-variant:normal;font-weight:normal;font-stretch:normal;font-size:39.7038px;line-height:1.27;font-family:Fondamento;-inkscape-font-specification:Fondamento;fill:#624737;fill-opacity:1;stroke:#613f2b;stroke-width:5.1216;stroke-miterlimit:4;stroke-dasharray:none;stroke-opacity:1"
         id="tspan3439-5-3-9-0-6"
         sodipodi:role="line">100万珂</tspan></text>
  </g>
</svg>
