<?xml version="1.0" encoding="UTF-8" standalone="no"?>
<svg
   xmlns:dc="http://purl.org/dc/elements/1.1/"
   xmlns:cc="http://creativecommons.org/ns#"
   xmlns:rdf="http://www.w3.org/1999/02/22-rdf-syntax-ns#"
   xmlns:svg="http://www.w3.org/2000/svg"
   xmlns="http://www.w3.org/2000/svg"
   xmlns:xlink="http://www.w3.org/1999/xlink"
   xmlns:sodipodi="http://sodipodi.sourceforge.net/DTD/sodipodi-0.dtd"
   xmlns:inkscape="http://www.inkscape.org/namespaces/inkscape"
   sodipodi:docname="E37P07.svg"
   height="3503"
   width="2481"
   inkscape:version="1.0 (4035a4fb49, 2020-05-01)"
   version="1.1"
   id="svg2">
  <metadata
     id="metadata8">
    <rdf:RDF>
      <cc:Work
         rdf:about="">
        <dc:format>image/svg+xml</dc:format>
        <dc:type
           rdf:resource="http://purl.org/dc/dcmitype/StillImage" />
        <dc:title />
      </cc:Work>
    </rdf:RDF>
  </metadata>
  <defs
     id="defs6">
    <filter
       height="1.0252408"
       width="1.0142174"
       y="-0.012620398"
       x="-0.007108724"
       inkscape:label="deevad outline effect"
       id="filter4375-4-1-1-1-9-6-9-2-1-5-4"
       style="color-interpolation-filters:sRGB">
      <feFlood
         result="flood"
         flood-color="rgb(0,0,0)"
         flood-opacity="1"
         id="feFlood4377-7-9-0-8-1-0-2-2-06-5-3" />
      <feComposite
         result="composite1"
         operator="in"
         in="flood"
         in2="SourceGraphic"
         id="feComposite4379-3-8-8-2-77-6-0-8-3-8-64" />
      <feMorphology
         result="result3"
         radius="4"
         operator="dilate"
         id="feMorphology4393-1-0-49-8-9-2-2-9-2-7-3" />
      <feComposite
         result="composite2"
         operator="over"
         in="SourceGraphic"
         in2="result3"
         id="feComposite4385-9-5-7-0-8-6-3-7-0-1-1" />
    </filter>
  </defs>
  <sodipodi:namedview
     inkscape:document-rotation="0"
     inkscape:deskcolor="#d1d1d1"
     inkscape:showpageshadow="0"
     inkscape:pagecheckerboard="0"
     inkscape:current-layer="layer3"
     inkscape:window-maximized="1"
     inkscape:window-y="-8"
     inkscape:window-x="-8"
     inkscape:cy="1118.0438"
     inkscape:cx="1184.1142"
     inkscape:zoom="0.46086259"
     showgrid="false"
     id="namedview4"
     inkscape:window-height="715"
     inkscape:window-width="1366"
     inkscape:pageshadow="2"
     inkscape:pageopacity="0"
     guidetolerance="10"
     gridtolerance="10"
     objecttolerance="10"
     borderopacity="1"
     bordercolor="#666666"
     pagecolor="#ffffff" />
  <g
     sodipodi:insensitive="true"
     inkscape:label="artwork"
     id="layer2"
     inkscape:groupmode="layer">
    <image
       sodipodi:absref="D:\Pepper&amp;Carrot translation\ep37_The-Tears-of-the-Phoenix\lang\gfx_Pepper-and-Carrot_by-David-Revoy_E37P07.png"
       xlink:href="../gfx_Pepper-and-Carrot_by-David-Revoy_E37P07.png"
       y="0"
       x="0"
       id="image10"
       height="3503"
       width="2481" />
  </g>
  <g
     inkscape:label="speechbubbles"
     id="layer3"
     inkscape:groupmode="layer">
    <path
       sodipodi:nodetypes="cccccccccccc"
       inkscape:connector-curvature="0"
       id="path4584-8"
       d="m 1921.7927,1520.1844 c -35.9251,-2.1925 -88.0218,13.4421 -57.8055,58.5611 -65.9732,-29.567 -202.9817,-48.1547 -224.7658,1.0987 -3.6662,-60.2413 -39.3862,-51.5044 -75.8826,-36.998 34.734,-24.7327 6.7781,-21.3252 -27.4203,-21.8573 70.8688,-53.3939 32.4763,-68.9295 3.4743,-87.7194 71.4105,12.7179 53.4447,-16.055 61.4812,-32.7562 61.9363,35.9406 106.0033,26.017 140.0668,-9.5823 18.8186,18.4744 25.6222,57.4177 91.4864,-4.2556 -23.4149,52.4495 8.9678,46.2344 60.9433,19.421 -7.7763,17.8595 -56.1072,45.885 26.4484,41.1043 -51.1595,18.0168 -61.3678,41.0217 1.9738,72.9837 z"
       style="display:inline;fill:#ffffff;fill-rule:evenodd;stroke:none;stroke-width:1.11956px;stroke-linecap:butt;stroke-linejoin:miter;stroke-opacity:1" />
    <path
       sodipodi:nodetypes="csssc"
       inkscape:connector-curvature="0"
       id="path3280-8-0-3"
       d="m 1666.7404,1542.0641 c -44.6523,0.4416 -89.9706,7.3429 -129.3335,24.117 -27.6701,11.7896 -45.3115,35.4845 -46.5732,59.6827 -2.9365,22.1628 4.3473,46.0029 24.3896,62.5835 19.3741,16.171 46.397,25.1425 73.2512,31.3589 52.1958,12.1202 107.2327,13.076 161.3169,12.9554 57.8991,-0.5799 116.5174,-5.6646 171.0756,-21.3408 15.6353,-4.5267 31.1467,-10.7794 41.6693,-21.0913 11.1398,-10.1141 17.6127,-22.8321 20.5599,-35.8095 6.9488,-25.9542 -1.6135,-54.5808 -24.7099,-74.4726 -16.3728,-14.4606 -38.9604,-23.947 -62.5689,-29.4338 -32.2378,-7.8594 -66.4626,-8.4382 -99.9664,-7.5049 -36.421,0.5892 -72.8621,0.2707 -109.2593,-0.8679 -6.6162,-0.1035 -13.2335,-0.1893 -19.8513,-0.1767 z"
       style="fill:#ffffff;stroke:none;stroke-width:0.887913" />
    <path
       sodipodi:nodetypes="ccscc"
       inkscape:connector-curvature="0"
       id="path4248"
       d="m 1923.087,1685.5907 c 19.1204,15.4627 39.0722,32.1803 63.6123,29.0086 -15.036,6.0295 -43.8148,9.8246 -66.282,-5.5838 -35.0644,-24.0476 0.2146,-23.9396 0.2146,-23.9396 z"
       style="fill:#ffffff;fill-rule:evenodd;stroke:none;stroke-width:1px;stroke-linecap:butt;stroke-linejoin:miter;stroke-opacity:1" />
    <path
       sodipodi:nodetypes="cccccccccccccc"
       inkscape:connector-curvature="0"
       id="path4489"
       d="m 209.18843,2520.692 c 13.91687,18.6091 30.69058,26.056 55.768,1.0613 20.456,6.0403 20.31799,24.7701 87.33472,2.1218 -38.46395,28.588 -22.32998,30.9026 0,30.236 -32.44044,37.0364 -4.7759,31.2953 7.36561,36.6022 -39.75751,22.3704 -34.5481,32.8673 -15.78336,39.7846 -13.40496,13.5521 -22.77006,26.6965 5.26103,36.0712 -21.92211,3.6978 -52.96264,2.0329 -43.14122,24.4014 -34.8096,-14.1518 -59.10343,-10.2794 -79.96913,-0.5309 -18.00279,-12.9686 -32.62185,-29.3494 -83.12584,-9.548 27.96981,-21.9401 16.90362,-32.9472 -5.26117,-40.8458 41.64075,-21.2391 9.13426,-28.6347 -23.14898,-36.0712 58.36414,-2.5541 41.77684,-26.0994 26.30571,-49.3332 27.32733,4.6669 54.75149,9.6745 68.39463,-33.9494 z"
       style="fill:#ffffff;fill-rule:evenodd;stroke:none;stroke-width:0.84259px;stroke-linecap:butt;stroke-linejoin:miter;stroke-opacity:1" />
    <path
       sodipodi:nodetypes="csccscccccccc"
       inkscape:connector-curvature="0"
       id="path5050-8"
       d="m 194.15137,2627.0953 c 14.3116,13.119 20.5898,27.322 21.7824,31.497 1.1926,4.174 -2.1039,30.52 2.0703,35.291 4.1742,4.77 19.6785,5.366 21.4675,8.944 1.7889,3.578 -3.5779,22.064 0,25.642 3.5779,3.578 28.6232,13.119 29.8159,16.101 1.1926,2.981 7.7521,19.082 19.6784,31.604 -11.33,-31.604 -7.7521,-38.164 -11.9263,-42.934 -4.1742,-4.771 -15.9274,-10.181 -18.3127,-15.548 -2.3853,-5.367 6.711,-25.728 0.086,-28.027 -4.7705,-4.77 -19.8083,-10.267 -19.8083,-10.267 4.1743,-4.771 18.356,-27.854 -1.3225,-55.881 -19.6785,-28.027 -43.5312,3.578 -43.5312,3.578 z"
       style="color:#000000;display:inline;overflow:visible;visibility:visible;fill:#ffffff;fill-opacity:1;fill-rule:nonzero;stroke:none;stroke-width:1px;marker:none;enable-background:accumulate" />
    <path
       sodipodi:nodetypes="cssssc"
       inkscape:connector-curvature="0"
       id="path4546-6-89"
       d="m 1026.0995,2698.1663 c 3.0835,-50.3777 59.9397,-84.1254 199.8526,-75.284 74.9448,4.7367 159.9826,7.6801 156.3336,81.4762 -3.6488,73.7962 -125.8019,72.4521 -150.9651,74.2916 -25.1634,1.8394 -157.3338,-0.49 -180.9373,-25.4802 -14.7753,-15.6437 -24.2951,-39.4049 -24.2838,-55.0036 z"
       style="color:#000000;display:inline;overflow:visible;visibility:visible;fill:#ffffff;fill-opacity:1;fill-rule:nonzero;stroke:none;stroke-width:1.26242px;marker:none;enable-background:accumulate" />
    <path
       sodipodi:nodetypes="cccc"
       inkscape:connector-curvature="0"
       id="path3978-4"
       d="m 1112.3939,2718.8111 c -36.5658,59.4022 -50.7173,145.4159 26.0841,179.4136 -60.0157,-38.5902 -23.0543,-135.4959 8.3656,-161.6817 21.2953,-14.4935 -34.4497,-17.7319 -34.4497,-17.7319 z"
       style="color:#000000;display:inline;overflow:visible;visibility:visible;fill:#ffffff;fill-opacity:1;fill-rule:nonzero;stroke:none;stroke-width:1px;marker:none;enable-background:accumulate" />
    <path
       inkscape:transform-center-y="120.65041"
       inkscape:transform-center-x="-526.35037"
       sodipodi:nodetypes="csszcsc"
       inkscape:connector-curvature="0"
       id="path3365-9"
       d="m 290.17799,829.52801 c -60.91526,0.79122 -122.59426,4.63634 -180.59976,18.27134 -35.332047,8.1654 -66.105489,25.59349 -84.447109,48.03141 -7.379209,11.48369 -6.980023,24.3039 -9.666243,36.51316 -1.882458,14.23291 1.938488,29.51335 15.322547,40.81737 16.698595,15.18599 40.467459,25.59571 64.216999,34.78471 31.628236,11.4409 67.127406,16.808 102.531056,18.56 54.162,4.3908 108.9244,6.0624 163.34438,3.0608 32.51293,-1.6458 65.21148,-3.7683 96.82262,-9.5256 18.35003,-3.3706 35.69197,-8.8743 52.20335,-15.2909 16.60694,-6.41197 32.9393,-13.29245 47.9285,-21.41127 19.63022,-11.28288 34.70053,-27.12977 37.97492,-44.88201 5.59929,-25.0983 -8.82374,-52.23322 -38.18428,-67.78794 -30.20615,-17.66257 -68.69543,-26.5696 -106.81507,-32.23457 -52.68758,-7.93187 -106.899,-9.18416 -160.63191,-8.9065 z"
       style="color:#000000;display:inline;overflow:visible;visibility:visible;fill:#ffffff;fill-opacity:1;fill-rule:nonzero;stroke:none;stroke-width:1.57212px;marker:none;enable-background:accumulate" />
    <path
       sodipodi:nodetypes="csscsc"
       inkscape:connector-curvature="0"
       id="path912"
       d="m 1029.7571,896.54934 c 10.9731,-47.36477 101.4386,-67.11735 197.7064,-62.19629 45.1242,2.30669 120.5141,-2.20371 145.0143,8.41872 27.7684,12.03939 5.2477,45.47212 6.1676,59.89255 0.3742,22.51875 -12.1302,57.09547 -111.1521,64.23212 -99.022,7.13672 -246.548,-2.08398 -237.7362,-70.3471 z"
       style="fill:#ffffff;fill-rule:evenodd;stroke:none;stroke-width:0.830979px;stroke-linecap:butt;stroke-linejoin:miter;stroke-opacity:1" />
    <path
       sodipodi:nodetypes="ccccc"
       inkscape:connector-curvature="0"
       id="path3072-5-5"
       d="m 475.66574,1090.6929 c -40.3937,1.8691 -54.77121,0.1547 -74.36032,-43.9141 -19.5892,-44.0678 -35.24613,-35.3212 -35.24613,-35.3212 l -26.14855,14.5263 c 0,0 69.82372,109.5525 135.755,64.709 z"
       style="color:#000000;display:inline;overflow:visible;visibility:visible;fill:#ffffff;fill-opacity:1;fill-rule:nonzero;stroke:none;stroke-width:0.989872px;marker:none;enable-background:accumulate" />
    <path
       sodipodi:nodetypes="ccscc"
       inkscape:connector-curvature="0"
       id="path4440-1"
       d="m 1185.2636,944.83552 c 9.0206,24.3101 13.1324,82.50158 -80.7067,96.26578 51.5508,-19.8949 62.0936,-41.73923 52.6757,-73.22245 -6.0659,-20.27796 4.2366,-21.91106 4.2366,-21.91106 z"
       style="color:#000000;display:inline;overflow:visible;visibility:visible;fill:#ffffff;fill-opacity:1;fill-rule:nonzero;stroke:none;stroke-width:1.18666px;marker:none;enable-background:accumulate" />
    <path
       sodipodi:nodetypes="cccccccccccccccccccccccc"
       inkscape:connector-curvature="0"
       id="path4289-9"
       d="m 1563.2191,832.88892 c 28.2256,0.99528 24.1693,20.97904 -8.3389,22.52293 30.0736,7.6677 22.1849,11.46472 5.4421,14.35817 32.2379,34.59509 15.449,54.64833 -2.4932,74.35955 46.0553,-7.12539 43.0923,11.01507 50.8641,23.62281 16.0765,-23.49635 16.7527,-7.8522 13.132,18.71341 18.1848,-30.48866 25.696,-32.58936 23.4768,-8.80351 14.6358,-19.12303 28.7855,-26.01368 42.3763,-18.84454 33.8288,-16.75211 54.2771,-5.141 38.7593,17.88078 38.2648,-25.26962 47.275,-25.3075 52.5322,-10.59913 6.3251,-10.88274 10.9459,-26.65611 32.6487,-1.01458 5.8329,-30.40597 15.4551,-4.57295 22.6908,-0.67864 3.548,-29.20631 51.2989,-17.08317 54.9369,-3.47755 -2.5276,-5.98734 -2.0199,-12.52576 2.07,-19.71454 -3.7417,-10.35383 -3.2371,-20.77562 -0.5017,-31.23324 -3.9782,-18.47103 1.4726,-32.99097 4.5706,-48.49653 -5.1411,6.09075 -8.5841,-25.50512 -8.3451,-27.28437 -8.1433,1.1894 -54.7562,-0.25433 -47.2319,-0.89115 -37.4885,1.53787 -29.5424,0.0949 -35.126,-0.46052 -81.4284,-5.72132 -80.3511,-0.33834 -92.8138,-1.51695 -17.0946,2.35509 -30.7477,1.37695 -44.3869,0.38507 -8.0015,2.01321 -16.1433,1.39202 -24.2824,0.82593 -5.0728,0.86304 -16.5159,1.08067 -36.5478,0.42814 13.0142,0.7658 2.5574,0.85461 -43.4321,-0.0815 z"
       style="display:inline;fill:#ffffff;fill-rule:evenodd;stroke:none;stroke-width:0.84773px;stroke-linecap:butt;stroke-linejoin:miter;stroke-opacity:1" />
    <path
       inkscape:transform-center-y="-55.962808"
       inkscape:transform-center-x="-308.61774"
       sodipodi:nodetypes="csccc"
       inkscape:connector-curvature="0"
       id="path4000-2"
       d="m 1633.3059,1034.4416 c 52.9673,-34.0351 71.8625,-58.88976 88.416,-83.10486 7.7887,-11.3942 -22.5092,-17.40291 -22.5092,-17.40291 l -11.5344,24.88391 c 0,0 -12.622,41.20336 -54.3724,75.62386 z"
       style="color:#000000;display:inline;overflow:visible;visibility:visible;fill:#ffffff;fill-opacity:1;fill-rule:nonzero;stroke:none;stroke-width:1px;marker:none;enable-background:accumulate" />
    <path
       sodipodi:nodetypes="cssccsc"
       inkscape:connector-curvature="0"
       id="path3365-8"
       d="m 2140.7724,893.06789 c -18.2909,4.3 -37.3185,2.474 -55.3663,8.48024 -12.8765,3.68185 -26.1823,6.81325 -39.4803,5.0084 -9.3752,-0.76246 -19.2844,0.98586 -27.1537,7.41742 -11.107,8.16372 -20.7914,18.84257 -29.1454,30.68497 -4.0016,6.13911 -7.5033,13.47915 -7.2652,21.4617 0.5549,8.15921 4.9557,15.15373 10.0806,20.30721 10.2913,11.28947 24.2472,17.18997 38.157,17.97797 15.8957,2.0412 31.3172,8.4338 47.4162,8.3195 8.818,-0.2781 17.4506,-3.8652 26.3116,-2.7997 6.7735,0.8683 13.0245,4.3097 19.585,6.2176 5.8547,1.537 12.1251,1.1896 17.6745,-1.6153 7.1049,-2.9368 14.3949,-6.5934 22.0908,-5.7289 12.6626,0.5627 25.2985,-1.2812 37.7351,-3.949 8.8346,-1.5891 18.031,-2.4686 26.1263,-7.31471 9.7811,-7.59444 17.348,-18.30337 25.5051,-28.05488 3.6049,-4.8901 6.2334,-11.66219 4.7266,-18.21358 -1.4928,-7.65644 -6.6502,-13.53177 -12.3752,-17.07615 -10.7047,-8.41435 -21.3901,-17.0486 -30.6598,-27.63675 -6.8723,-5.57908 -15.6507,-6.33441 -23.7058,-5.14311 -11.6142,1.01127 -23.2997,-1.24936 -34.3195,-5.54882 -5.2099,-1.56346 -10.5346,-2.88962 -15.9376,-2.79411 z"
       style="color:#000000;display:inline;overflow:visible;visibility:visible;fill:#ffffff;fill-opacity:1;fill-rule:nonzero;stroke:none;stroke-width:0.917675px;marker:none;enable-background:accumulate" />
    <path
       sodipodi:nodetypes="ccccccccccccccc"
       inkscape:connector-curvature="0"
       id="path4396-1"
       d="m 2206.5627,948.30432 c -1.4297,8.459 7.6905,12.502 13.3057,16.588 7.0937,5.072 5.0374,15.927 -2.8535,18.922 -6.6614,2.438 -9.0687,9.339 -9.5278,15.82497 0.6979,7.75701 3.662,13.46001 2.8543,19.99801 0.7758,9.959 11.0423,12.466 10.1091,22.941 -0.9566,6.951 -5.9088,9.739 -12.2778,13.752 2.1992,4.9978 -11.1367,21.6776 -16.8896,25.4794 7.8261,-4.4494 22.2841,-11.4819 25.4378,-21.2415 12.9454,-6.0505 22.9576,-18.2077 12.7096,-32.1719 -7.4268,-8.207 -10.2366,-22.295 -1.8919,-30.86101 6.0058,-4.62697 13.7043,-10.08597 12.902,-18.73797 -2.3975,-11.731 -3.0261,-25.609 -12.9899,-33.83 -5.6468,-3.884 -8.5965,-13.223 -16.3596,-12.996 -6.7189,2.442 -5.6829,10.787 -4.5284,16.333 z"
       style="display:inline;fill:#ffffff;fill-opacity:1;fill-rule:evenodd;stroke:none;stroke-width:1px;stroke-linecap:butt;stroke-linejoin:miter;stroke-opacity:1" />
    <path
       sodipodi:nodetypes="zssssz"
       inkscape:connector-curvature="0"
       id="path4040-3"
       d="m 1925.1424,869.40511 c 9.7784,-12.51422 117.4695,-21.42748 145.3353,6.87679 19.4198,19.72576 18.3957,55.40763 1.7504,65.25521 -16.6451,9.84672 -97.0072,12.61998 -119.8474,7.60573 -20.5392,-4.50995 -42.0981,-14.21594 -43.2348,-40.05023 -0.4639,-10.54418 6.218,-27.17241 15.9965,-39.6875 z"
       style="color:#000000;display:inline;overflow:visible;visibility:visible;fill:#ffffff;fill-opacity:1;fill-rule:nonzero;stroke:none;stroke-width:0.58297px;marker:none;enable-background:accumulate" />
    <path
       sodipodi:nodetypes="cccccccccccccccccccc"
       inkscape:connector-curvature="0"
       id="path3549-3-7-3"
       d="m 187.12505,1381.1217 c -6.1079,21.6773 -40.55786,23.4951 -53.23985,19.0895 25.56386,24.2507 24.67268,39.3181 -10.03601,41.6571 58.207,43.7067 10.64104,37.0932 1.25903,48.1757 45.70329,15.0627 25.25512,33.8074 17.11832,52.4681 52.53144,0.6415 35.34031,30.5542 37.55442,54.3771 4.4534,-11.1786 25.6101,-45.2131 26.88306,-7.3187 34.74649,-36.1525 76.59768,-59.5056 79.92085,3.7627 13.99992,-31.8288 38.15853,-44.8326 37.08391,-6.871 34.68736,-49.3746 55.65804,-32.0494 87.01429,-18.0944 -8.41807,-17.9032 -26.14881,-44.1647 35.83904,-32.4319 -34.4836,-21.093 -7.66096,-27.5628 10.492,-32.131 -14.67782,-8.9225 -17.38288,-18.1262 9.87054,-28.0301 -20.73829,-0.9587 -40.07688,-2.9217 -15.74634,-36.6979 -7.63318,-0.8181 -37.1974,28.5438 -21.66672,-53.9389 -24.142,26.4058 -49.89939,40.9794 -82.20148,-14.3336 -15.28692,27.6338 -41.80177,41.3076 -53.33715,6.7913 -4.14598,14.7143 -21.33758,20.2489 -35.93201,20.9193 -5.64371,-5.8447 -11.46454,-13.7832 -17.53873,-24.1846 -9.92794,21.8396 -24.77899,36.5898 -53.33717,6.7913 z"
       style="color:#000000;display:inline;overflow:visible;visibility:visible;fill:#ffffff;fill-opacity:1;fill-rule:nonzero;stroke:none;stroke-width:0.961256px;marker:none;enable-background:accumulate" />
    <path
       sodipodi:nodetypes="cccccccccccc"
       inkscape:connector-curvature="0"
       id="path5066-7"
       d="m 264.8927,1553.8317 c -6.75576,12.853 -43.26253,45.4194 -53.2553,55.6175 4.16934,1.1193 18.49163,-0.6612 23.70885,-0.424 -28.18696,30.3633 -75.14135,49.9921 -114.1922,49.1115 24.25327,-6.1985 48.19266,-15.9707 67.33595,-32.4693 1.27157,-1.27 2.94318,-2.2742 3.93941,-3.7153 0.44585,-1.5091 -1.22772,-1.1492 -2.12241,-1.2189 -6.48954,-0.5288 -13.00655,-0.3703 -19.51056,-0.3998 15.86642,-14.3214 47.17809,-46.8583 52.52599,-64.6698 4.97614,-0.092 37.13148,-4.0317 41.79442,-2.4536 3.48254,-1.6486 2.08311,1.2448 2.00837,1.4519 z"
       style="color:#000000;display:inline;overflow:visible;visibility:visible;fill:#ffffff;fill-opacity:1;fill-rule:nonzero;stroke:none;stroke-width:1px;marker:none;enable-background:accumulate" />
    <path
       sodipodi:nodetypes="cccccccccccccc"
       inkscape:connector-curvature="0"
       id="path4489-0"
       d="m 157.8069,2096.6973 c 7.4959,18.2948 15.02654,35.498 39.34133,-13.5676 -2.74445,14.6793 0.45019,39.1305 36.25433,16.6856 -20.31902,28.0034 -11.79607,30.2706 0,29.6177 -17.13704,36.279 -2.52293,30.6553 3.89097,35.8536 -21.00237,21.913 -18.25044,32.1952 -8.33775,38.971 -7.08132,13.275 -12.02854,26.1506 2.7792,35.3336 -11.5806,3.6221 -27.97812,1.9913 -22.78984,23.9024 -18.38857,-13.8625 -31.22207,-10.0693 -42.24461,-0.5201 -9.51018,-12.7034 -17.23287,-28.7492 -43.91219,-9.3527 14.77538,-21.4914 8.92954,-32.2734 -2.77927,-40.0105 21.99721,-20.8048 4.82528,-28.0492 -12.22871,-35.3336 30.83153,-2.5019 22.0691,-25.5657 13.89629,-48.3243 14.43598,4.5714 28.92311,9.4767 36.13025,-33.2551 z"
       style="fill:#ffffff;fill-rule:evenodd;stroke:none;stroke-width:1px;stroke-linecap:butt;stroke-linejoin:miter;stroke-opacity:1" />
    <path
       sodipodi:nodetypes="csssc"
       inkscape:connector-curvature="0"
       id="path3280-1"
       d="M 1429.0918 1395.6445 C 1416.0181 1399.1158 1402.5029 1401.5231 1388.9286 1400.8571 C 1385.5677 1400.9092 1382.1977 1401.0254 1378.8691 1401.5254 C 1371.986 1405.8151 1367.3168 1412.8612 1364.3125 1420.2578 C 1359.9382 1428.832 1355.3909 1437.3267 1351.4746 1446.125 C 1350.0065 1458.9518 1358.9258 1472.0853 1371.3906 1475.4492 C 1382.7905 1477.3273 1394.4504 1478.8701 1405.0772 1483.6682 C 1412.7393 1486.6682 1421.2338 1488.2537 1429.3842 1486.48 C 1441.6671 1484.524 1453.9157 1481.1834 1466.4574 1481.9368 C 1481.782 1483.2667 1496.2588 1489.804 1511.7367 1489.9531 C 1522.3708 1490.0795 1532.7297 1487.1848 1542.7703 1483.9705 C 1550.6248 1482.1032 1558.7642 1483.105 1566.6476 1484.215 C 1574.2437 1484.5315 1581.5834 1480.7946 1586.6167 1475.2441 C 1594.4707 1467.6105 1600.3679 1457.6285 1601.968 1446.6974 C 1603.2907 1436.1095 1600.7916 1424.7368 1593.7773 1416.5 C 1588.831 1410.5144 1581.1254 1407.1536 1573.4214 1406.9902 C 1562.9819 1406.0333 1552.2472 1405.7603 1542.3532 1401.9172 C 1529.9273 1397.3424 1516.4549 1394.9647 1503.2415 1396.7589 C 1489.5745 1398.1525 1475.71 1399.7558 1462.0285 1397.6275 C 1452.6106 1396.3613 1443.2018 1394.7952 1433.6855 1394.5195 C 1432.1543 1394.8945 1430.623 1395.2695 1429.0918 1395.6445 z "
       style="fill:#ffffff;stroke:none;stroke-width:0.999997" />
    <path
       sodipodi:nodetypes="cccccccsscccccccsccscscsccscccccccccscccscsccccccccccccccccscccccccc"
       inkscape:connector-curvature="0"
       id="path5888-3"
       d="m 543.95411,1452.3669 c 26.32858,2.6536 33.36423,10.8183 5.89856,17.2476 34.48832,4.2612 9.87061,28.9575 -0.71499,31.5025 15.80029,-2.988 30.03016,3.0365 30.03016,3.0365 4.23577,4.0446 -17.90599,25.0209 -16.71217,25.44 2.43187,0.3917 16.86211,-1.4151 19.34771,0.3619 2.48563,1.778 -20.63326,28.8064 -17.37886,29.6365 3.25454,0.8307 76.60272,-18.8747 87.22439,-15.0219 10.62177,3.8528 -1.97763,20.5061 1.25897,20.8742 3.23638,0.3682 40.2803,-9.1348 44.32161,-8.79 4.04101,0.3448 1.45733,18.4829 5.49853,18.8276 4.04131,0.3448 32.66071,-11.1527 35.8972,-10.7845 3.23659,0.3682 2.07492,11.9619 6.11613,12.3067 4.04131,0.3447 21.34973,-10.3307 23.7817,-9.9392 2.43177,0.3915 12.17876,23.2278 16.25568,24.496 4.07713,1.2685 28.78734,-26.2686 31.18349,-26.8007 2.39592,-0.5329 18.92039,30.8922 22.15699,31.2603 3.23659,0.3681 18.46993,-22.2701 20.90191,-21.8785 2.43186,0.3916 18.22188,12.8801 21.47628,13.7099 3.2545,0.8301 23.0294,-29.3384 26.24798,-29.4319 3.21879,-0.094 31.06076,11.581 33.56436,13.8197 2.50359,2.2397 4.36222,-12.149 7.58081,-12.2428 3.21868,-0.093 40.55543,7.1441 41.34241,6.6587 0.78663,-0.4851 -5.99106,-9.0738 -3.57711,-9.144 2.41403,-0.071 40.68075,10.3763 42.20085,8.0205 -4.4751,-17.5727 85.9696,1.7816 88.0839,7.1483 0,0 -37.6785,-36.8207 -33.7628,-39.7094 3.9158,-2.8879 18.5255,-0.077 19.2763,-1.4854 0.7508,-1.4088 -9.1379,-7.1323 -6.7957,-9.0497 2.3425,-1.9184 29.4143,-10.1039 31.7387,-12.4831 2.3244,-2.3801 -12.3923,-7.9632 -9.2274,-9.4421 -5.147,-4.4624 45.7419,-15.8614 51.0147,-13.9695 -2.504,0.5198 -29.5615,-11.6742 -21.566,-16.018 3.0933,-3.3272 6.6732,-4.6733 10.9966,-7.2566 -4.5969,-1.0276 -16.2903,-4.6126 -15.5752,-6.945 0.7152,-2.3324 8.3139,-14.1142 10.6562,-16.0316 2.3425,-1.9175 -16.9337,-0.4321 -17.0052,-2.2793 -0.072,-1.8482 0.2736,-29.6316 28.2102,-47.2492 -15.639,3.9669 -57.9964,7.3465 -57.9964,7.3465 l 9.4991,-15.9874 c 0,0 -35.448,15.002 -49.0238,13.5161 -26.6974,-2.9219 -21.2091,-27.5892 -21.2091,-27.5892 0,0 -31.6094,12.1825 -35.758,9.067 -4.1488,-3.1166 -9.9026,-9.1128 -11.09164,-12.3283 -2.12724,2.0392 -21.22433,13.5642 -25.26541,13.2195 -12.184,1.6656 -46.19366,-18.6923 -48.299,-19.8656 -10.61347,7.4555 -22.3622,13.5595 -29.4746,14.0378 -3.69478,0.9701 -15.95119,-10.5126 -15.65799,-14.5742 -1.76423,3.3829 -23.04545,16.03 -27.94487,14.338 -4.05926,-0.8076 -13.72525,-8.896 -17.13194,-11.8897 -4.05221,6.0142 -14.78629,14.3071 -14.78629,14.3071 0,0 -28.43368,-5.6496 -35.23934,-17.9084 -3.3127,13.4375 -19.1219,26.2085 -23.10948,27.2491 -3.98749,1.0407 -63.59729,-25.1468 -61.29077,-27.9878 -0.38261,14.7563 -3.73001,26.9562 -9.05848,27.6503 -5.57877,1.5502 -49.66979,-27.4577 -51.22521,-26.0254 -1.55573,1.4322 4.93768,27.8581 0.12758,28.4604 -4.81001,0.6022 -13.81556,-2.1092 -13.81556,-2.1092 l -0.47138,7.6112 c 0,0 -40.03119,-27.744 -44.16206,-30.3976 -4.13067,-2.6548 12.77533,28.3357 15.3326,31.9608 -14.62717,-3.2741 -38.32486,-13.3688 -41.63291,-15.5851 -2.8357,-2.2722 14.57291,24.4917 12.56654,28.4217 -5.92826,5.8523 -28.60541,1.0137 -28.63442,0.6502 l 18.93714,10.5467 c 5.50477,3.7217 5.66743,3.1323 6.75966,8.1262 4.507,10.7299 -22.87702,20.1417 -18.94361,17.1374 31.39587,6.0522 27.10182,5.6204 -1.94725,10.2074 z"
       style="fill:#ffffff;fill-opacity:1;stroke:none;stroke-width:0.786012" />
    <path
       sodipodi:nodetypes="cccccccccccccccccccc"
       inkscape:connector-curvature="0"
       id="path3549-3-7"
       d="m 1029.1942,2506.0538 c -6.4333,15.6506 -42.7179,16.9629 -56.07528,13.7817 26.92538,17.508 25.98669,28.3861 -10.57036,30.075 61.30694,31.5541 11.2077,26.7792 1.32597,34.7804 48.13737,10.8742 26.6002,24.4075 18.03007,37.8796 55.329,0.4628 37.2223,22.0581 39.5543,39.2574 4.6906,-8.0707 26.9742,-32.6414 28.315,-5.2836 36.597,-26.1008 80.677,-42.9607 84.1771,2.7159 14.7456,-22.9786 29.4467,-32.6903 28.315,-5.2835 36.5348,-35.6461 69.3662,-22.8152 102.3924,-12.7403 8.6741,-10.7588 9.6849,-27.2874 37.7477,-23.414 -3.9347,-10.6639 5.5405,-17.9942 26.9387,-22.3473 -28.4347,-6.4418 -33.6752,-13.0863 19.1217,-20.2368 -40.1754,-0.6917 -77.6392,-2.1087 -30.5047,-26.4941 -14.7874,-0.5901 -49.872,19.7578 -33.5143,-39.7907 -25.4277,19.0635 -52.5568,29.5852 -86.5791,-10.348 -16.1012,19.9499 -44.0282,29.8219 -56.1779,4.9029 -4.3668,10.6234 -22.474,14.6187 -37.8457,15.1032 -5.9442,-4.2198 -12.075,-9.9514 -18.4727,-17.4607 -10.4566,15.7675 -26.0986,26.4162 -56.1779,4.9029 z"
       style="color:#000000;display:inline;overflow:visible;visibility:visible;fill:#ffffff;fill-opacity:1;fill-rule:nonzero;stroke:none;stroke-width:1px;marker:none;enable-background:accumulate" />
    <path
       sodipodi:nodetypes="cccscccc"
       inkscape:connector-curvature="0"
       id="path4456-3"
       d="m 866.54426,1676.3455 c -53.77145,-23.5695 -66.64315,-43.3978 -72.53669,-59.3997 4.92832,-2.8264 19.90718,-12.2286 19.90718,-12.2286 -16.13101,-13.5035 -22.74289,-67.3125 -10.60035,-69.1694 13.12461,-2.0071 37.10425,-0.6792 37.10425,-0.6792 -15.10667,5.504 -31.61267,72.6481 3.53791,74.6731 -13.86907,7.2537 -15.94917,12.9369 -22.14538,13.688 0.0252,10.0268 26.00335,44.2425 44.73308,53.1158 z"
       style="color:#000000;display:inline;overflow:visible;visibility:visible;fill:#ffffff;fill-opacity:1;fill-rule:nonzero;stroke:none;stroke-width:0.999999px;marker:none;enable-background:accumulate" />
    <path
       sodipodi:nodetypes="ccscc"
       inkscape:connector-curvature="0"
       id="path4248-7"
       d="m 167.70136,2121.0977 c -3.69503,-24.293 -4.22495,-65.7807 10.34503,-85.4357 -12.3556,9.997 -31.21448,52.6878 -29.1892,79.8508 3.16086,42.393 20.17148,17.9256 20.17148,17.9256 z"
       style="fill:#ffffff;fill-rule:evenodd;stroke:none;stroke-width:1px;stroke-linecap:butt;stroke-linejoin:miter;stroke-opacity:1" />
  </g>
  <g
     inkscape:label="txt"
     id="layer1"
     inkscape:groupmode="layer">
    <text
       id="text4246-70-2-2-2-7-4-9-9-6-1-2-3-9-2-7-9-3"
       y="919.62201"
       x="346.24139"
       style="font-style:normal;font-variant:normal;font-weight:normal;font-stretch:normal;font-size:45.3333px;line-height:125%;font-family:'Xiaolai SC';-inkscape-font-specification:'Xiaolai SC';text-align:center;letter-spacing:0px;word-spacing:0px;text-anchor:middle;fill:#000000;fill-opacity:1;stroke:none"
       xml:space="preserve"><tspan
         id="tspan2829"
         y="919.62201"
         x="346.24139"
         style="font-style:normal;font-variant:normal;font-weight:normal;font-stretch:normal;font-size:45.3333px;font-family:'Xiaolai SC';-inkscape-font-specification:'Xiaolai SC'"
         sodipodi:role="line">呃啊！快，小辣椒！</tspan><tspan
         id="tspan86"
         y="976.28864"
         x="346.24139"
         style="font-style:normal;font-variant:normal;font-weight:normal;font-stretch:normal;font-size:45.3333px;font-family:'Xiaolai SC';-inkscape-font-specification:'Xiaolai SC'"
         sodipodi:role="line">赶紧想个伤心的故事。</tspan></text>
    <text
       id="text4246-70-2-2-2-7-4-9-9-6-1-2-3-9-2-7-9-3-3"
       y="917.41296"
       x="1206.7052"
       style="font-style:normal;font-variant:normal;font-weight:normal;font-stretch:normal;font-size:45.3333px;line-height:125%;font-family:'Xiaolai SC';-inkscape-font-specification:'Xiaolai SC';text-align:center;letter-spacing:0px;word-spacing:0px;text-anchor:middle;fill:#000000;fill-opacity:1;stroke:none"
       xml:space="preserve"><tspan
         id="tspan5270"
         y="917.41296"
         x="1206.7052"
         style="font-style:normal;font-variant:normal;font-weight:normal;font-stretch:normal;font-size:45.3333px;font-family:'Xiaolai SC';-inkscape-font-specification:'Xiaolai SC'"
         sodipodi:role="line">你肯定行！</tspan></text>
    <text
       id="text4246-70-2-2-2-7-4-9-9-6-1-2-3-9-2-7-9-3-3-7"
       y="908.93842"
       x="1735.2688"
       style="font-style:normal;font-variant:normal;font-weight:normal;font-stretch:normal;font-size:52.6959px;line-height:125%;font-family:'Xiaolai SC';-inkscape-font-specification:'Xiaolai SC';text-align:center;letter-spacing:0px;word-spacing:0px;text-anchor:middle;fill:#000000;fill-opacity:1;stroke:none;stroke-width:1"
       xml:space="preserve"><tspan
         id="tspan5270-3"
         y="908.93842"
         x="1735.2688"
         style="font-style:normal;font-variant:normal;font-weight:normal;font-stretch:normal;font-size:52.6959px;font-family:'Xiaolai SC';-inkscape-font-specification:'Xiaolai SC';stroke-width:1"
         sodipodi:role="line">你肯定行！</tspan></text>
    <text
       id="text4246-70-2-2-2-7-4-9-9-6-1-2-3-9-2-7-9-3-5"
       y="914.20508"
       x="2001.5763"
       style="font-style:normal;font-variant:normal;font-weight:normal;font-stretch:normal;font-size:45.3333px;line-height:125%;font-family:'Xiaolai SC';-inkscape-font-specification:'Xiaolai SC';text-align:center;letter-spacing:0px;word-spacing:0px;text-anchor:middle;fill:#000000;fill-opacity:1;stroke:none"
       xml:space="preserve"><tspan
         id="tspan2829-1"
         y="914.20508"
         x="2001.5763"
         style="font-style:normal;font-variant:normal;font-weight:normal;font-stretch:normal;font-size:45.3333px;font-family:'Xiaolai SC';-inkscape-font-specification:'Xiaolai SC'"
         sodipodi:role="line">不行…</tspan></text>
    <text
       transform="scale(0.972094,1.0287071)"
       id="text4246-70-2-2-2-7-4-9-9-6-1-2-3-9-2-7-9-3-5-2"
       y="943.36493"
       x="2181.7314"
       style="font-style:normal;font-variant:normal;font-weight:normal;font-stretch:normal;font-size:36.074px;line-height:125%;font-family:'Xiaolai SC';-inkscape-font-specification:'Xiaolai SC';text-align:center;letter-spacing:0px;word-spacing:0px;text-anchor:middle;fill:#000000;fill-opacity:1;stroke:none;stroke-width:0.999996"
       xml:space="preserve"><tspan
         id="tspan2829-1-7"
         y="943.36493"
         x="2181.7314"
         style="font-style:normal;font-variant:normal;font-weight:normal;font-stretch:normal;font-size:36.074px;font-family:'Xiaolai SC';-inkscape-font-specification:'Xiaolai SC';stroke-width:0.999996"
         sodipodi:role="line">你还是不行。</tspan></text>
    <text
       transform="matrix(0.96995835,0,-0.17070021,1.0309721,0,0)"
       id="text4246-3-7-9-5-1-6-2-3"
       y="1417.0394"
       x="562.51788"
       style="font-style:normal;font-variant:normal;font-weight:normal;font-stretch:normal;font-size:14.541px;line-height:0%;font-family:'Xiaolai SC';-inkscape-font-specification:'Xiaolai SC';text-align:center;letter-spacing:0px;word-spacing:0px;text-anchor:middle;display:inline;fill:#000000;fill-opacity:1;stroke:#000000;stroke-width:2.01521;stroke-miterlimit:4;stroke-dasharray:none;stroke-opacity:1"
       xml:space="preserve"><tspan
         id="tspan22580"
         y="1417.0394"
         x="562.51788"
         style="font-style:normal;font-variant:normal;font-weight:normal;font-stretch:normal;font-size:54.5284px;line-height:1.25;font-family:'Xiaolai SC';-inkscape-font-specification:'Xiaolai SC';stroke:#000000;stroke-width:2.01521;stroke-miterlimit:4;stroke-dasharray:none;stroke-opacity:1"
         sodipodi:role="line">嘿！哦！</tspan><tspan
         id="tspan94"
         y="1485.2"
         x="562.51788"
         style="font-style:normal;font-variant:normal;font-weight:normal;font-stretch:normal;font-size:54.5284px;line-height:1.25;font-family:'Xiaolai SC';-inkscape-font-specification:'Xiaolai SC';stroke:#000000;stroke-width:2.01521;stroke-miterlimit:4;stroke-dasharray:none;stroke-opacity:1"
         sodipodi:role="line">你起开！</tspan></text>
    <text
       transform="matrix(0.86354336,-0.84725955,0.23030923,0.93205314,0,0)"
       id="text4246-4-9-8-0-3"
       y="2062.9126"
       x="-341.33691"
       style="font-style:normal;font-variant:normal;font-weight:normal;font-stretch:normal;font-size:6.87975px;line-height:0%;font-family:'Xiaolai SC';-inkscape-font-specification:'Xiaolai SC';text-align:center;letter-spacing:0px;word-spacing:0px;text-anchor:middle;fill:#000000;fill-opacity:1;stroke:none;stroke-width:0.87182;"
       xml:space="preserve"><tspan
         id="tspan4205-3-3"
         y="2062.9126"
         x="-341.33691"
         style="font-size:80.8612px;line-height:1.25;stroke-width:0.87182;-inkscape-font-specification:'Xiaolai SC';font-family:'Xiaolai SC';font-weight:normal;font-style:normal;font-stretch:normal;font-variant:normal;"
         sodipodi:role="line"><tspan
   id="tspan4438"
   style="font-size:69.6307px;stroke-width:0.87182;-inkscape-font-specification:'Xiaolai SC';font-family:'Xiaolai SC';font-weight:normal;font-style:normal;font-stretch:normal;font-variant:normal;">!</tspan>!</tspan></text>
    <text
       transform="matrix(0.97850393,0,-0.17220413,1.0219683,0,0)"
       id="text4246-3-7-9-5-1-6-2-3-8"
       y="1421.209"
       x="1134.463"
       style="font-style:normal;font-variant:normal;font-weight:normal;font-stretch:normal;font-size:13.6455px;line-height:0%;font-family:'Xiaolai SC';-inkscape-font-specification:'Xiaolai SC';text-align:center;letter-spacing:0px;word-spacing:0px;text-anchor:middle;display:inline;fill:#000000;fill-opacity:1;stroke:#000000;stroke-width:2.01521;stroke-miterlimit:4;stroke-dasharray:none;stroke-opacity:1"
       xml:space="preserve"><tspan
         id="tspan34895"
         y="1421.209"
         x="1134.463"
         style="font-style:normal;font-variant:normal;font-weight:normal;font-stretch:normal;font-size:51.17px;line-height:1.25;font-family:'Xiaolai SC';-inkscape-font-specification:'Xiaolai SC';stroke:#000000;stroke-width:2.01521;stroke-miterlimit:4;stroke-dasharray:none;stroke-opacity:1"
         sodipodi:role="line">你要是付不起钱</tspan><tspan
         id="tspan100"
         y="1485.1715"
         x="1134.463"
         style="font-style:normal;font-variant:normal;font-weight:normal;font-stretch:normal;font-size:51.17px;line-height:1.25;font-family:'Xiaolai SC';-inkscape-font-specification:'Xiaolai SC';stroke:#000000;stroke-width:2.01521;stroke-miterlimit:4;stroke-dasharray:none;stroke-opacity:1"
         sodipodi:role="line">就别想动我的东西！</tspan></text>
    <text
       id="text4246-70-2-2-2-7-4-9-9-6-1-2-3-9-2-7-9-3-3-5-6"
       y="1455.3622"
       x="1483.4071"
       style="font-style:normal;font-variant:normal;font-weight:normal;font-stretch:normal;font-size:45.3333px;line-height:125%;font-family:'Xiaolai SC';-inkscape-font-specification:'Xiaolai SC';text-align:center;letter-spacing:0px;word-spacing:0px;text-anchor:middle;fill:#000000;fill-opacity:1;stroke:none"
       xml:space="preserve"><tspan
         id="tspan11363-1"
         y="1455.3622"
         x="1483.4071"
         style="font-style:normal;font-variant:normal;font-weight:normal;font-stretch:normal;font-size:45.3333px;font-family:'Xiaolai SC';-inkscape-font-specification:'Xiaolai SC'"
         sodipodi:role="line">哎呀…</tspan></text>
    <text
       transform="matrix(0.92840736,0,-0.16338778,1.0771134,0,0)"
       id="text4246-3-7-9-5-1-6-2"
       y="1400.4407"
       x="2123.9185"
       style="font-style:normal;font-variant:normal;font-weight:normal;font-stretch:normal;font-size:15.3246px;line-height:0%;font-family:'Xiaolai SC';-inkscape-font-specification:'Xiaolai SC';text-align:center;letter-spacing:2px;word-spacing:0px;text-anchor:middle;display:inline;fill:#000000;fill-opacity:1;stroke:#000000;stroke-width:2.01521;stroke-miterlimit:4;stroke-dasharray:none;stroke-opacity:1"
       xml:space="preserve"><tspan
         id="tspan1222"
         y="1400.4407"
         x="2124.9185"
         style="font-style:normal;font-variant:normal;font-weight:normal;font-stretch:normal;font-size:57.4671px;line-height:1.25;font-family:'Xiaolai SC';-inkscape-font-specification:'Xiaolai SC';stroke:#000000;stroke-width:2.01521;stroke-miterlimit:4;stroke-dasharray:none;stroke-opacity:1"
         sodipodi:role="line">萝卜头！</tspan></text>
    <text
       id="text4246-70-2-2-2-7-4-9-9-6-1-2-3-9-2-7-9-3-3-5"
       y="1625.2692"
       x="1742.5636"
       style="font-style:normal;font-variant:normal;font-weight:normal;font-stretch:normal;font-size:45.3333px;line-height:125%;font-family:'Xiaolai SC';-inkscape-font-specification:'Xiaolai SC';text-align:center;letter-spacing:0px;word-spacing:0px;text-anchor:middle;fill:#000000;fill-opacity:1;stroke:none"
       xml:space="preserve"><tspan
         id="tspan11363"
         y="1625.2692"
         x="1742.5636"
         style="font-style:normal;font-variant:normal;font-weight:normal;font-stretch:normal;font-size:45.3333px;font-family:'Xiaolai SC';-inkscape-font-specification:'Xiaolai SC'"
         sodipodi:role="line">你就不能先帮帮我</tspan><tspan
         id="tspan106"
         y="1681.9358"
         x="1742.5636"
         style="font-style:normal;font-variant:normal;font-weight:normal;font-stretch:normal;font-size:45.3333px;font-family:'Xiaolai SC';-inkscape-font-specification:'Xiaolai SC'"
         sodipodi:role="line">再想着吃么！</tspan></text>
    <text
       transform="matrix(0.92840736,0,-0.16338778,1.0771134,0,0)"
       id="text4246-3-7-9-5-1-6-2-9"
       y="2438.4612"
       x="684.43365"
       style="font-style:normal;font-variant:normal;font-weight:normal;font-stretch:normal;font-size:15.3246px;line-height:0%;font-family:'Xiaolai SC';-inkscape-font-specification:'Xiaolai SC';text-align:center;letter-spacing:0px;word-spacing:0px;text-anchor:middle;display:inline;fill:#000000;fill-opacity:1;stroke:#000000;stroke-width:2.01521;stroke-miterlimit:4;stroke-dasharray:none;stroke-opacity:1"
       xml:space="preserve"><tspan
         id="tspan1222-1"
         y="2438.4612"
         x="684.43365"
         style="font-style:normal;font-variant:normal;font-weight:normal;font-stretch:normal;font-size:57.4671px;line-height:1.25;font-family:'Xiaolai SC';-inkscape-font-specification:'Xiaolai SC';stroke:#000000;stroke-width:2.01521;stroke-miterlimit:4;stroke-dasharray:none;stroke-opacity:1"
         sodipodi:role="line">哎 ?!</tspan></text>
    <text
       id="text4246-70-2-2-2-7-4-9-9-6-1-2-3-9-2-7-9-3-3-2-2"
       y="2595.791"
       x="1147.8538"
       style="font-style:normal;font-variant:normal;font-weight:normal;font-stretch:normal;font-size:55.8737px;line-height:125%;font-family:'Xiaolai SC';-inkscape-font-specification:'Xiaolai SC';text-align:center;letter-spacing:0px;word-spacing:0px;text-anchor:middle;fill:#000000;fill-opacity:1;stroke:none;stroke-width:0.999999"
       xml:space="preserve"><tspan
         id="tspan17035-3"
         y="2595.791"
         x="1147.8538"
         style="font-style:normal;font-variant:normal;font-weight:normal;font-stretch:normal;font-size:55.8737px;font-family:'Xiaolai SC';-inkscape-font-specification:'Xiaolai SC';stroke-width:0.999999"
         sodipodi:role="line">对呀…</tspan></text>
    <text
       id="text4246-70-2-2-2-7-4-9-9-6-1-2-3-9-2-7-9-3-3-2"
       y="2710.7949"
       x="1213.0016"
       style="font-style:normal;font-variant:normal;font-weight:normal;font-stretch:normal;font-size:45.3333px;line-height:125%;font-family:'Xiaolai SC';-inkscape-font-specification:'Xiaolai SC';text-align:center;letter-spacing:0px;word-spacing:0px;text-anchor:middle;fill:#000000;fill-opacity:1;stroke:none"
       xml:space="preserve"><tspan
         id="tspan17035"
         y="2710.7949"
         x="1213.0016"
         style="font-style:normal;font-variant:normal;font-weight:normal;font-stretch:normal;font-size:45.3333px;font-family:'Xiaolai SC';-inkscape-font-specification:'Xiaolai SC'"
         sodipodi:role="line">这招儿肯定灵！</tspan></text>
  </g>
</svg>
