<?xml version="1.0" encoding="UTF-8" standalone="no"?>
<svg
   xmlns:dc="http://purl.org/dc/elements/1.1/"
   xmlns:cc="http://creativecommons.org/ns#"
   xmlns:rdf="http://www.w3.org/1999/02/22-rdf-syntax-ns#"
   xmlns:svg="http://www.w3.org/2000/svg"
   xmlns="http://www.w3.org/2000/svg"
   xmlns:xlink="http://www.w3.org/1999/xlink"
   xmlns:sodipodi="http://sodipodi.sourceforge.net/DTD/sodipodi-0.dtd"
   xmlns:inkscape="http://www.inkscape.org/namespaces/inkscape"
   id="svg2"
   version="1.1"
   inkscape:version="1.0.2-2 (e86c870879, 2021-01-15)"
   width="2481"
   height="3503"
   sodipodi:docname="E34P02.svg">
  <metadata
     id="metadata8">
    <rdf:RDF>
      <cc:Work
         rdf:about="">
        <dc:format>image/svg+xml</dc:format>
        <dc:type
           rdf:resource="http://purl.org/dc/dcmitype/StillImage" />
        <dc:title />
      </cc:Work>
    </rdf:RDF>
  </metadata>
  <defs
     id="defs6">
    <inkscape:path-effect
       effect="bend_path"
       id="path-effect1045" />
    <inkscape:path-effect
       effect="bend_path"
       id="path-effect1076" />
    <filter
       style="color-interpolation-filters:sRGB"
       id="filter4375-4-1-1-1-9-5-8-8-5-5"
       inkscape:label="soundFX1">
      <feFlood
         id="feFlood4377-7-9-0-8-1-7-3-1-2-7"
         flood-opacity="1"
         flood-color="rgb(52,52,52)"
         result="flood" />
      <feComposite
         id="feComposite4379-3-8-8-2-77-4-1-0-6-4"
         in2="SourceGraphic"
         in="flood"
         operator="in"
         result="composite1"
         baseFrequency="0.053999999999999999 0.053999999999999999" />
      <feMorphology
         id="feMorphology4393-1-0-49-8-9-3-0-1-9-9"
         operator="dilate"
         radius="6.2000000000000002"
         result="result3" />
      <feComposite
         id="feComposite4385-9-5-7-0-8-8-7-5-4-9"
         in2="result3"
         in="SourceGraphic"
         operator="over"
         result="fbSourceGraphic" />
      <feColorMatrix
         result="fbSourceGraphicAlpha"
         in="fbSourceGraphic"
         values="0 0 0 -1 0 0 0 0 -1 0 0 0 0 -1 0 0 0 0 1 0"
         id="feColorMatrix4544-9-4-4" />
      <feTurbulence
         id="feTurbulence4546-3-6-5"
         type="fractalNoise"
         numOctaves="5"
         seed="174"
         baseFrequency="0.053999999999999999 0.054054054054054057"
         result="turbulence" />
      <feDisplacementMap
         id="feDisplacementMap4548-8-0-9"
         in2="turbulence"
         in="fbSourceGraphic"
         scale="6.6"
         yChannelSelector="G"
         xChannelSelector="R"
         result="fbSourceGraphic" />
      <feColorMatrix
         result="fbSourceGraphicAlpha"
         in="fbSourceGraphic"
         values="0 0 0 -1 0 0 0 0 -1 0 0 0 0 -1 0 0 0 0 1 0"
         id="feColorMatrix4670-7-7-3" />
      <feFlood
         id="feFlood4672-4-4-5"
         flood-opacity="1"
         flood-color="rgb(28,28,28)"
         result="flood"
         in="fbSourceGraphic" />
      <feComposite
         id="feComposite4674-8-3-7"
         in2="fbSourceGraphic"
         in="flood"
         operator="in"
         result="composite1" />
      <feGaussianBlur
         id="feGaussianBlur4676-3-7-08"
         in="composite1"
         stdDeviation="0"
         result="blur" />
      <feOffset
         id="feOffset4678-6-9-1"
         dx="-1.7978952891791096"
         dy="6"
         result="offset" />
      <feComposite
         id="feComposite4680-4-0-9"
         in2="offset"
         in="fbSourceGraphic"
         operator="over"
         result="composite2" />
    </filter>
    <filter
       style="color-interpolation-filters:sRGB"
       id="filter4375-4-1-1-1-9-5-8-8-5-5-3"
       inkscape:label="soundFX1">
      <feFlood
         id="feFlood4377-7-9-0-8-1-7-3-1-2-7-6"
         flood-opacity="1"
         flood-color="rgb(52,52,52)"
         result="flood" />
      <feComposite
         id="feComposite4379-3-8-8-2-77-4-1-0-6-4-7"
         in2="SourceGraphic"
         in="flood"
         operator="in"
         result="composite1"
         baseFrequency="0.053999999999999999 0.053999999999999999" />
      <feMorphology
         id="feMorphology4393-1-0-49-8-9-3-0-1-9-9-5"
         operator="dilate"
         radius="6.2000000000000002"
         result="result3" />
      <feComposite
         id="feComposite4385-9-5-7-0-8-8-7-5-4-9-3"
         in2="result3"
         in="SourceGraphic"
         operator="over"
         result="fbSourceGraphic" />
      <feColorMatrix
         result="fbSourceGraphicAlpha"
         in="fbSourceGraphic"
         values="0 0 0 -1 0 0 0 0 -1 0 0 0 0 -1 0 0 0 0 1 0"
         id="feColorMatrix4544-9-4-4-5" />
      <feTurbulence
         id="feTurbulence4546-3-6-5-6"
         type="fractalNoise"
         numOctaves="5"
         seed="174"
         baseFrequency="0.053999999999999999 0.054054054054054057"
         result="turbulence" />
      <feDisplacementMap
         id="feDisplacementMap4548-8-0-9-2"
         in2="turbulence"
         in="fbSourceGraphic"
         scale="6.6"
         yChannelSelector="G"
         xChannelSelector="R"
         result="fbSourceGraphic" />
      <feColorMatrix
         result="fbSourceGraphicAlpha"
         in="fbSourceGraphic"
         values="0 0 0 -1 0 0 0 0 -1 0 0 0 0 -1 0 0 0 0 1 0"
         id="feColorMatrix4670-7-7-3-9" />
      <feFlood
         id="feFlood4672-4-4-5-1"
         flood-opacity="1"
         flood-color="rgb(28,28,28)"
         result="flood"
         in="fbSourceGraphic" />
      <feComposite
         id="feComposite4674-8-3-7-2"
         in2="fbSourceGraphic"
         in="flood"
         operator="in"
         result="composite1" />
      <feGaussianBlur
         id="feGaussianBlur4676-3-7-08-7"
         in="composite1"
         stdDeviation="0"
         result="blur" />
      <feOffset
         id="feOffset4678-6-9-1-0"
         dx="6"
         dy="6"
         result="offset" />
      <feComposite
         id="feComposite4680-4-0-9-9"
         in2="offset"
         in="fbSourceGraphic"
         operator="over"
         result="composite2" />
    </filter>
    <filter
       style="color-interpolation-filters:sRGB"
       id="filter4375-4-1-1-1-9-5-8-8-5-5-3-3"
       inkscape:label="soundFX1">
      <feFlood
         id="feFlood4377-7-9-0-8-1-7-3-1-2-7-6-6"
         flood-opacity="1"
         flood-color="rgb(52,52,52)"
         result="flood" />
      <feComposite
         id="feComposite4379-3-8-8-2-77-4-1-0-6-4-7-7"
         in2="SourceGraphic"
         in="flood"
         operator="in"
         result="composite1"
         baseFrequency="0.053999999999999999 0.053999999999999999" />
      <feMorphology
         id="feMorphology4393-1-0-49-8-9-3-0-1-9-9-5-5"
         operator="dilate"
         radius="4.0330969769021738"
         result="result3" />
      <feComposite
         id="feComposite4385-9-5-7-0-8-8-7-5-4-9-3-3"
         in2="result3"
         in="SourceGraphic"
         operator="over"
         result="fbSourceGraphic" />
      <feColorMatrix
         result="fbSourceGraphicAlpha"
         in="fbSourceGraphic"
         values="0 0 0 -1 0 0 0 0 -1 0 0 0 0 -1 0 0 0 0 1 0"
         id="feColorMatrix4544-9-4-4-5-5" />
      <feTurbulence
         id="feTurbulence4546-3-6-5-6-6"
         type="fractalNoise"
         numOctaves="4"
         seed="147"
         baseFrequency="0.053999999999999999 0.054054054054054057"
         result="turbulence" />
      <feDisplacementMap
         id="feDisplacementMap4548-8-0-9-2-2"
         in2="turbulence"
         in="fbSourceGraphic"
         scale="10.561763084739264"
         yChannelSelector="G"
         xChannelSelector="R"
         result="fbSourceGraphic" />
      <feColorMatrix
         result="fbSourceGraphicAlpha"
         in="fbSourceGraphic"
         values="0 0 0 -1 0 0 0 0 -1 0 0 0 0 -1 0 0 0 0 1 0"
         id="feColorMatrix4670-7-7-3-9-9" />
      <feFlood
         id="feFlood4672-4-4-5-1-1"
         flood-opacity="1"
         flood-color="rgb(28,28,28)"
         result="flood"
         in="fbSourceGraphic" />
      <feComposite
         id="feComposite4674-8-3-7-2-2"
         in2="fbSourceGraphic"
         in="flood"
         operator="in"
         result="composite1" />
      <feGaussianBlur
         id="feGaussianBlur4676-3-7-08-7-7"
         in="composite1"
         stdDeviation="0"
         result="blur" />
      <feOffset
         id="feOffset4678-6-9-1-0-0"
         dx="-10.48377497279229"
         dy="0.39217365321829334"
         result="offset" />
      <feComposite
         id="feComposite4680-4-0-9-9-9"
         in2="offset"
         in="fbSourceGraphic"
         operator="over"
         result="composite2" />
    </filter>
    <filter
       style="color-interpolation-filters:sRGB"
       id="filter4375-4-1-1-1-9-5-8-8-5-5-3-8"
       inkscape:label="soundFX1">
      <feFlood
         id="feFlood4377-7-9-0-8-1-7-3-1-2-7-6-7"
         flood-opacity="1"
         flood-color="rgb(52,52,52)"
         result="flood" />
      <feComposite
         id="feComposite4379-3-8-8-2-77-4-1-0-6-4-7-9"
         in2="SourceGraphic"
         in="flood"
         operator="in"
         result="composite1"
         baseFrequency="0.053999999999999999 0.053999999999999999" />
      <feMorphology
         id="feMorphology4393-1-0-49-8-9-3-0-1-9-9-5-2"
         operator="dilate"
         radius="2.9756367599225957"
         result="result3" />
      <feComposite
         id="feComposite4385-9-5-7-0-8-8-7-5-4-9-3-0"
         in2="result3"
         in="SourceGraphic"
         operator="over"
         result="fbSourceGraphic" />
      <feColorMatrix
         result="fbSourceGraphicAlpha"
         in="fbSourceGraphic"
         values="0 0 0 -1 0 0 0 0 -1 0 0 0 0 -1 0 0 0 0 1 0"
         id="feColorMatrix4544-9-4-4-5-2" />
      <feTurbulence
         id="feTurbulence4546-3-6-5-6-3"
         type="fractalNoise"
         numOctaves="5"
         seed="174"
         baseFrequency="0.053999999999999999 0.054054054054054057"
         result="turbulence" />
      <feDisplacementMap
         id="feDisplacementMap4548-8-0-9-2-7"
         in2="turbulence"
         in="fbSourceGraphic"
         scale="6.6"
         yChannelSelector="G"
         xChannelSelector="R"
         result="fbSourceGraphic" />
      <feColorMatrix
         result="fbSourceGraphicAlpha"
         in="fbSourceGraphic"
         values="0 0 0 -1 0 0 0 0 -1 0 0 0 0 -1 0 0 0 0 1 0"
         id="feColorMatrix4670-7-7-3-9-5" />
      <feFlood
         id="feFlood4672-4-4-5-1-9"
         flood-opacity="1"
         flood-color="rgb(28,28,28)"
         result="flood"
         in="fbSourceGraphic" />
      <feComposite
         id="feComposite4674-8-3-7-2-22"
         in2="fbSourceGraphic"
         in="flood"
         operator="in"
         result="composite1" />
      <feGaussianBlur
         id="feGaussianBlur4676-3-7-08-7-8"
         in="composite1"
         stdDeviation="0"
         result="blur" />
      <feOffset
         id="feOffset4678-6-9-1-0-9"
         dx="-6.3258232761971414"
         dy="6"
         result="offset" />
      <feComposite
         id="feComposite4680-4-0-9-9-7"
         in2="offset"
         in="fbSourceGraphic"
         operator="over"
         result="composite2" />
    </filter>
  </defs>
  <sodipodi:namedview
     pagecolor="#ffffff"
     bordercolor="#666666"
     borderopacity="1"
     objecttolerance="10"
     gridtolerance="10"
     guidetolerance="10"
     inkscape:pageopacity="0"
     inkscape:pageshadow="2"
     inkscape:window-width="1290"
     inkscape:window-height="905"
     id="namedview4"
     showgrid="false"
     inkscape:zoom="0.30592503"
     inkscape:cx="1240.5"
     inkscape:cy="551.73304"
     inkscape:window-x="1170"
     inkscape:window-y="42"
     inkscape:window-maximized="0"
     inkscape:current-layer="layer5"
     inkscape:document-rotation="0"
     inkscape:snap-global="false"
     showborder="true"
     inkscape:pagecheckerboard="false"
     inkscape:showpageshadow="true"
     borderlayer="true" />
  <g
     inkscape:groupmode="layer"
     id="layer2"
     inkscape:label="artwork"
     sodipodi:insensitive="true">
    <image
       sodipodi:absref="C:\Users\stero\Documents\Kernewek\Pepper and Carrot\webcomics\new-ep34_The-Knighting-of-Shichimi\lang\gfx_Pepper-and-Carrot_by-David-Revoy_E34P02.png"
       xlink:href="../gfx_Pepper-and-Carrot_by-David-Revoy_E34P02.png"
       width="2481"
       height="3503"
       id="image10"
       x="0"
       y="0" />
  </g>
  <g
     inkscape:groupmode="layer"
     id="layer3"
     inkscape:label="speechbubbles"
     style="display:inline">
    <path
       style="fill:#ffffff;fill-rule:evenodd;stroke:none;stroke-width:1.00848px;stroke-linecap:butt;stroke-linejoin:miter;stroke-opacity:1"
       d="m 1504.1518,295.73768 c 13.2052,-14.01464 23.1192,-27.09488 10.4478,-33.76277 l -5.0723,-7.33588 -43.0303,-54.69256 c 44.35,9.69243 92.0832,22.88206 58.8153,-47.65984 43.4508,33.00197 78.1149,48.54186 78.8121,-3.42187 18.4,21.59545 37.2469,56.49934 54.0623,30.89631 9.2928,11.14068 16.8349,5.8215 22.5431,-16.74036 13.0396,26.0669 28.6171,8.08031 44.9121,-22.35793 19.7435,28.02016 40.1625,50.93515 69.3513,7.57343 -0.4637,30.50736 17.9431,27.52677 44.8793,9.40981 -2.2525,13.43317 3.4615,17.32758 36.554,3.83476 -7.1382,13.43407 -22.068,15.87009 14.5562,15.37304 -2.2222,12.70423 -24.0613,24.69128 22.1718,39.16698 -45.1982,-1.06358 -10.0628,18.3666 -7.3063,29.53666 -29.7043,-4.23968 -42.4343,-0.15331 -8.8759,26.63806 -14.915,0.83094 -59.4683,-27.80395 -34.5473,12.63114 -26.6795,-21.56679 -47.391,9.03202 -34.256,8.97973 l -52.5238,13.09442 -85.7043,-0.63011 -60.0577,5.21564 -49.5371,9.49524 c 5.1587,-19.00605 -11.1565,-11.13073 -24.2633,-7.27162 -4.9217,-5.04664 3.1939,-18.89589 -24.975,-8.24624 -0.6232,-13.39811 -14.6811,-10.47936 -26.956,-9.72604 z"
       id="path1058"
       sodipodi:nodetypes="ccccccccccccccccccccccccc" />
    <path
       style="fill:#ffffff;fill-rule:evenodd;stroke:none;stroke-width:0.954737px;stroke-linecap:butt;stroke-linejoin:miter;stroke-opacity:1"
       d="m 1530.7758,262.92735 c -35.9072,10.10196 -75.8305,16.24992 -118.7864,19.41205 l 21.3884,19.60641 c -21.2547,3.62778 -30.9065,7.87998 -78.7794,11.98957 l 8.0313,9.59761 -119.5365,7.98838 148.067,7.74645 -10.6519,-15.27464 91.053,-11.04829 -19.2666,-17.88249 c 34.3908,-13.46395 81.0551,-12.27309 121.6588,-18.31863 z"
       id="path957"
       sodipodi:nodetypes="cccccccccccc" />
    <path
       style="fill:#ffffff;fill-rule:evenodd;stroke:none;stroke-width:1.26991px;stroke-linecap:butt;stroke-linejoin:miter;stroke-opacity:1"
       d="m 1516.5818,323.97706 c 21.3852,12.75119 26.7164,25.89347 -1.9669,39.8644 37.711,-12.91703 35.3578,1.17371 28.3889,18.37606 41.0241,-11.38363 49.7299,-6.90373 35.0283,7.21408 24.17,-1.22126 78.2525,-11.85348 76.7436,-1.758 l 314.1041,-24.68435 2.4634,-22.42574 c -12.4866,-3.20819 -34.2454,1.46176 -26.8819,-18.61232 -23.9049,3.94968 -43.0834,-2.13698 -9.541,-24.07066 -46.5066,14.47681 -15.2307,-6.36397 -10.7518,-18.68894 -46.1435,13.13592 -39.3398,-3.57842 -28.3754,-16.30999 -16.4866,13.376 -97.6773,-2.75419 -103.0409,6.85183 l -230.5261,18.49782 c -8.1481,13.60051 24.704,36.97853 -45.6443,35.74581 z"
       id="path959"
       sodipodi:nodetypes="cccccccccccccc" />
    <path
       style="fill:#ffffff;fill-rule:evenodd;stroke:none;stroke-width:1.15134px;stroke-linecap:butt;stroke-linejoin:miter;stroke-opacity:1"
       d="m 1563.4086,395.35824 c 51.0946,0.64155 44.325,12.50383 25.9246,26.62153 14.1552,-0.94958 47.2612,-14.02714 27.6308,6.64533 42.863,-7.51042 16.4563,7.6856 12.9733,15.32662 17.2781,-1.60841 27.8551,5.3125 6.8409,31.05447 21.2202,-6.05805 53.6469,-28.80223 51.2303,0.33428 17.179,-3.61655 39.75,-17.55119 42.6146,6.2234 22.7087,-11.73692 45.2699,-21.75031 65.5597,-5.23357 21.1035,-23.90651 39.4804,-28.36225 53.9136,-4.68236 20.0974,-15.71267 43.7971,0.48906 69.0614,30.55032 -7.3757,-23.81264 3.821,-38.58578 86.4724,-18.58082 -0.5995,-20.96468 16.6471,-30.34306 85.5716,-6.16992 -14.649,-13.95314 -50.0657,-36.16791 32.3805,-11.49559 -43.3603,-29.70342 3.6856,-47.99984 39.79,-67.6768 -43.9629,13.72187 -48.6196,8.36477 -32.0557,-7.29249 -69.9087,18.33465 -62.5766,-9.50786 -43.9745,-44.08798 -51.1908,18.30037 -43.8475,7.65077 -31.5749,-2.08244 -90.9839,19.2312 -53.0374,-11.20691 -44.6361,-23.072 -65.9084,53.30694 -46.5306,20.38997 -39.2552,-0.29133 -37.4171,31.77485 -65.7489,53.19757 -58.6091,21.94921 l -62.5216,-5.43596 -237.1749,21.52238 -33.9958,22.9431 c 78.4746,-2.76838 30.7585,9.71183 -16.1659,12.93062 z"
       id="path961"
       sodipodi:nodetypes="cccccccccccccccccccccccc" />
    <path
       style="fill:#ffffff;fill-rule:evenodd;stroke:none;stroke-width:0.743887px;stroke-linecap:butt;stroke-linejoin:miter;stroke-opacity:1"
       d="m 459.16681,2358.0657 c 22.36564,51.5132 28.26382,65.1671 32.70811,75.7246 4.44431,10.5576 6.95122,24.2595 0.64038,26.9082 -15.54782,6.5255 -33.53774,22.8752 27.24564,95.9666 -21.63483,-46.9619 -28.34094,-72.815 -15.566,-78.5231 8.57301,-6.7097 22.80991,-8.6107 5.94489,-60.3706 -16.86495,-51.7599 -49.30756,-108.1476 -49.30756,-108.1476 l -11.57148,18.7287 z"
       id="path895"
       inkscape:connector-curvature="0"
       sodipodi:nodetypes="csscccccc"
       inkscape:transform-center-x="6.2803954"
       inkscape:transform-center-y="10.079755" />
    <path
       style="color:#000000;display:inline;overflow:visible;visibility:visible;fill:#ffffff;fill-opacity:1;fill-rule:nonzero;stroke:none;stroke-width:1.26632px;marker:none;enable-background:accumulate"
       d="m 506.6762,2167.8661 c 194.6901,13.8459 222.38072,63.3428 224.32115,109.2481 -3.36399,47.3062 -42.3976,81.8208 -71.12237,88.7442 -28.72476,6.9225 -71.90119,16.5314 -151.60305,17.9988 -92.07856,0.062 -161.24557,-6.8102 -202.83006,-44.0221 -117.72345,-152.0159 145.03981,-174.9439 201.23433,-171.969 z"
       id="path3365-7-3"
       inkscape:connector-curvature="0"
       sodipodi:nodetypes="ccsccc" />
    <path
       style="color:#000000;display:inline;overflow:visible;visibility:visible;fill:#ffffff;fill-opacity:1;fill-rule:nonzero;stroke:none;stroke-width:0.743357px;marker:none;enable-background:accumulate"
       d="m 280.12976,2089.6482 c 98.92768,9.3898 114.61339,35.4561 115.59938,66.5876 -1.70934,32.0815 -21.54345,55.4882 -36.13934,60.1834 -14.59588,4.6946 -36.53508,11.2111 -77.03391,12.2062 -46.78778,0.042 -74.36917,-1.9275 -103.99597,-27.4996 -61.34178,-67.5176 9.5487,-111.3998 101.56984,-111.4776 z"
       id="path3365-7"
       inkscape:connector-curvature="0"
       sodipodi:nodetypes="ccsccc" />
    <path
       style="color:#000000;display:inline;overflow:visible;visibility:visible;fill:#ffffff;fill-opacity:1;fill-rule:nonzero;stroke:none;stroke-width:0.621982px;marker:none;enable-background:accumulate"
       d="M 1427.1523 2074.2617 C 1394.6802 2074.4675 1361.3961 2080.7655 1333.3258 2097.7549 C 1308.0761 2113.3213 1297 2148.3642 1309.0669 2175.5381 C 1320.8515 2202.1556 1348.3946 2220.0523 1377.0845 2222.5407 C 1417.9137 2229.8046 1459.6519 2227.2811 1500.7056 2223.5253 C 1520.9916 2220.9817 1542.0587 2216.822 1558.8907 2204.5 C 1583.4414 2185.0848 1589.9431 2147.5104 1574.9225 2120.3669 C 1566.876 2105.0208 1551.8844 2094.3617 1535.709 2088.9062 C 1510.1945 2079.3222 1482.7805 2076.7796 1455.8006 2074.8597 C 1446.2594 2074.3874 1436.7047 2074.212 1427.1523 2074.2617 z "
       id="path4546-1"
       inkscape:connector-curvature="0"
       sodipodi:nodetypes="cssssc" />
    <path
       style="fill:#ffffff;stroke:none;stroke-width:0.574142"
       d="m 1403.9856,2372.7936 c -39.0821,-62.787 -19.4125,-123.7423 -4.7627,-176.2444 l -28.056,-13.3069 c -14.9515,56.8343 -28.5621,131.5641 32.8187,189.5513 z"
       id="path3063-8"
       inkscape:connector-curvature="0"
       sodipodi:nodetypes="cccc" />
    <path
       style="color:#000000;display:inline;overflow:visible;visibility:visible;fill:#ffffff;fill-opacity:1;fill-rule:nonzero;stroke:none;stroke-width:0.922761px;marker:none;enable-background:accumulate"
       d="m 1922.1944,2701.6751 c -95.1863,-31.0795 -76.8848,-101.5738 -63.4064,-124.9254 27.1219,-46.9895 38.2213,16.3603 38.2213,16.3603 -7.6201,-6.5434 -61.0011,60.3809 25.1851,108.5651 z"
       id="path5002-7"
       inkscape:connector-curvature="0"
       sodipodi:nodetypes="cscc" />
    <path
       style="color:#000000;display:inline;overflow:visible;visibility:visible;fill:#ffffff;fill-opacity:1;fill-rule:nonzero;stroke:none;stroke-width:1.2028px;marker:none;enable-background:accumulate"
       d="m 2007.8875,2359.4883 c -48.2051,2.9275 -96.6098,9.8488 -142.4415,26.1232 -19.1933,9.9933 -34.4231,26.2181 -48.2764,42.8517 -13.3777,17.8604 -19.9443,40.2805 -21.5246,62.5771 -2.7873,21.4153 -1.8841,44.1393 7.4211,63.8459 16.5982,37.0354 51.6025,63.9165 90.227,71.5829 38.8535,9.4068 78.9175,11.4708 118.6864,12.5521 32.9236,0.5497 65.9639,-0.031 98.6835,-4.2051 29.378,-4.3413 58.5631,-12.6351 84.6571,-27.5289 18.4472,-11.6548 32.7748,-30.1825 39.3271,-51.4957 8.9891,-26.2084 9.8318,-54.9868 4.3082,-82.0506 -7.1648,-31.788 -24.6624,-61.1337 -49.3569,-81.5547 -19.1818,-15.1764 -42.7469,-23.2353 -66.4279,-26.9904 -37.978,-7.1862 -76.8209,-7.1668 -115.2831,-5.7075 z"
       id="path4040-4-5-3-4"
       inkscape:connector-curvature="0"
       sodipodi:nodetypes="zssssz" />
    <path
       style="color:#000000;display:inline;overflow:visible;visibility:visible;fill:#ffffff;fill-opacity:1;fill-rule:nonzero;stroke:none;stroke-width:1.07497px;marker:none;enable-background:accumulate"
       d="m 2089.0918,2139.3079 c -70.427,1.9567 -141.2134,12.83 -206.6972,37.7407 -16.0076,6.0991 -31.7035,14.1118 -43.1085,26.5325 -24.6306,25.323 -37.4831,59.2272 -40.1374,93.0317 -2.1319,26.5541 4.1945,54.7302 22.613,75.6458 16.2256,18.333 40.5764,28.6409 65.0638,33.4423 36.1983,7.3249 73.2272,10.5269 110.1997,11.68 69.858,1.6931 139.924,-6.4963 207.3758,-23.4671 16.0077,-4.211 32.6853,-8.2158 46.2848,-17.5701 10.1026,-6.9678 17.5895,-16.7618 22.6088,-27.4348 12.5921,-23.758 20.9226,-50.6389 16.8527,-77.3153 -4.4837,-30.7303 -23.0897,-58.3906 -47.3198,-79.0472 -28.5472,-24.4673 -64.6131,-40.6846 -102.2893,-48.5119 -16.8848,-3.3929 -34.178,-4.9742 -51.4464,-4.7266 z"
       id="path4040-40"
       inkscape:connector-curvature="0"
       sodipodi:nodetypes="zssssz" />
    <path
       style="fill:#ffffff;stroke:none;stroke-width:0.797187"
       d="m 2018.8247,2068.7073 c -47.4894,0.7851 -95.029,8.6948 -139.8513,24.9607 -18.6653,7.7007 -33.3754,25.8237 -35.5573,46.5636 -2.0426,16.3543 2.839,34.2683 15.2102,45.3281 11.4442,10.1158 26.5959,13.7124 40.9641,17.0483 47.7883,11.003 97.0353,13.1867 145.8594,12.1109 44.0863,-0.3243 88.834,-0.7018 131.6973,-12.5628 15.0226,-4.1687 30.4251,-10.0534 41.3418,-21.912 7.9795,-8.8652 11.4631,-21.4095 10.0695,-33.3037 -1.8709,-22.7299 -16.5584,-43.3475 -36.3026,-53.4775 -16.1237,-8.6897 -33.9332,-13.4575 -51.7108,-17.0692 -40.0792,-7.7612 -81.0916,-7.6661 -121.7203,-7.6864 z"
       id="path3280-10"
       inkscape:connector-curvature="0"
       sodipodi:nodetypes="csssc" />
  </g>
  <g
     inkscape:groupmode="layer"
     id="layer1"
     inkscape:label="txt">
    <text
       xml:space="preserve"
       style="font-style:normal;font-variant:normal;font-weight:normal;font-stretch:normal;font-size:105.817px;line-height:1.25;font-family:Lavi;-inkscape-font-specification:Lavi;letter-spacing:0px;word-spacing:0px;fill:#ffffff;fill-opacity:1;stroke:#ffffff;stroke-width:0.651649;stroke-miterlimit:4;stroke-dasharray:none;stroke-opacity:1;filter:url(#filter4375-4-1-1-1-9-5-8-8-5-5)"
       x="787.65729"
       y="1584.5073"
       id="text4580-6-0-0-0-9"
       transform="matrix(0.85173785,-0.2120138,-0.27862433,0.92213476,-61.467437,-1084.276)"><tspan
         style="font-size:105.817px;fill:#ffffff;fill-opacity:1;stroke:#ffffff;stroke-width:0.651649;stroke-miterlimit:4;stroke-dasharray:none;stroke-opacity:1"
         sodipodi:role="line"
         id="tspan876"
         x="787.65729"
         y="1584.5073"><tspan
   style="font-size:68.9103px;fill:#ffffff;fill-opacity:1"
   id="tspan884">ZooU</tspan>UUUUU</tspan></text>
    <text
       xml:space="preserve"
       style="font-style:normal;font-variant:normal;font-weight:normal;font-stretch:normal;font-size:105.817px;line-height:1.25;font-family:Lavi;-inkscape-font-specification:Lavi;letter-spacing:0px;word-spacing:0px;fill:#ffffff;fill-opacity:1;stroke:#ffffff;stroke-width:0.716208;stroke-miterlimit:4;stroke-dasharray:none;stroke-opacity:1;filter:url(#filter4375-4-1-1-1-9-5-8-8-5-5-3)"
       x="787.65729"
       y="1584.5073"
       id="text4580-6-0-0-0-9-3"
       transform="matrix(0.94373699,-0.22067211,-0.3715186,1.0168112,628.1392,-1137.5397)"><tspan
         style="font-size:105.817px;fill:#ffffff;fill-opacity:1;stroke:#ffffff;stroke-width:0.716208;stroke-miterlimit:4;stroke-dasharray:none;stroke-opacity:1"
         sodipodi:role="line"
         id="tspan876-6"
         x="787.65729"
         y="1584.5073"><tspan
           style="font-size:78.6226px;fill:#ffffff;fill-opacity:1;stroke-width:0.716208"
           id="tspan884-0"><tspan
   style="font-size:93.191px;stroke-width:0.716208"
   id="tspan976">Zoou</tspan>U<tspan
   style="font-size:107.759px;stroke-width:0.716208"
   id="tspan972">U</tspan></tspan><tspan
           id="tspan974"
           style="font-size:166.033px;stroke-width:0.716208">UUUUU</tspan></tspan></text>
    <text
       xml:space="preserve"
       style="font-style:normal;font-variant:normal;font-weight:normal;font-stretch:normal;font-size:56.2847px;line-height:1.25;font-family:Lavi;-inkscape-font-specification:Lavi;text-align:center;letter-spacing:0px;word-spacing:0px;text-anchor:middle;fill:#000000;fill-opacity:1;stroke:none;stroke-width:1.25077"
       x="1697.9886"
       y="252.33763"
       id="text4246-3-2-2"><tspan
         style="font-size:56.2847px;stroke-width:1.25077"
         sodipodi:role="line"
         id="tspan1097"
         x="1697.9886"
         y="252.33763">A-ughowgh!</tspan></text>
    <text
       xml:space="preserve"
       style="font-style:normal;font-variant:normal;font-weight:normal;font-stretch:normal;font-size:45px;line-height:1.25;font-family:Lavi;-inkscape-font-specification:Lavi;text-align:center;letter-spacing:0px;word-spacing:0px;text-anchor:middle;fill:#000000;fill-opacity:1;stroke:none"
       x="1736.9022"
       y="348.91861"
       id="text4246-3-2-2-6"><tspan
         style="font-size:45px"
         sodipodi:role="line"
         id="tspan1097-2"
         x="1736.9022"
         y="348.91861">Bedhewgh war!</tspan></text>
    <text
       xml:space="preserve"
       style="font-style:normal;font-variant:normal;font-weight:normal;font-stretch:normal;font-size:45px;line-height:1.25;font-family:Lavi;-inkscape-font-specification:Lavi;text-align:center;letter-spacing:0px;word-spacing:0px;text-anchor:middle;fill:#000000;fill-opacity:1;stroke:none"
       x="1855.6654"
       y="425.71005"
       id="text4246-3-2-2-6-6"><tspan
         style="font-style:normal;font-variant:normal;font-weight:normal;font-stretch:normal;font-size:45px;font-family:Lavi;-inkscape-font-specification:Lavi;stroke:#000000;stroke-opacity:1"
         sodipodi:role="line"
         id="tspan1097-2-1"
         x="1855.6654"
         y="425.71005">BEDHEWGH WAR!!!</tspan></text>
    <text
       xml:space="preserve"
       style="font-style:normal;font-variant:normal;font-weight:normal;font-stretch:normal;font-size:140px;line-height:1.25;font-family:Lavi;-inkscape-font-specification:Lavi;letter-spacing:0px;word-spacing:0px;fill:#ffffff;fill-opacity:1;stroke:#ffffff;stroke-width:0.716208;stroke-miterlimit:4;stroke-dasharray:none;stroke-opacity:1;filter:url(#filter4375-4-1-1-1-9-5-8-8-5-5-3-3)"
       id="text4580-6-0-0-0-9-3-3"
       transform="matrix(0.87975325,-0.28432023,0,1.2307016,213.79529,79.674623)"><textPath
         xlink:href="#path974"
         id="textPath2837"><tspan
           style="font-size:140px;fill:#ffffff;fill-opacity:1;stroke:#ffffff;stroke-width:0.716208;stroke-miterlimit:4;stroke-dasharray:none;stroke-opacity:1"
           id="tspan876-6-6"
           rotate="0 335 335 335 335 335 0"><tspan
   style="font-size:150.644px"
   id="tspan2855"
   rotate="334.89999 335 0">KR</tspan>A<tspan
   style="font-size:129.356px"
   id="tspan2845">S</tspan><tspan
   id="tspan2853"
   style="font-size:113.39px">H!</tspan></tspan></textPath></text>
    <path
       style="fill:none;fill-rule:evenodd;stroke:none;stroke-width:1px;stroke-linecap:butt;stroke-linejoin:miter;stroke-opacity:1"
       d="m 614.46906,1135.6082 c 207.04629,193.6764 366.91889,371.9512 546.13244,556.5406"
       id="path974"
       sodipodi:nodetypes="cc" />
    <text
       xml:space="preserve"
       style="font-style:normal;font-variant:normal;font-weight:normal;font-stretch:normal;font-size:45px;line-height:1.25;font-family:Lavi;-inkscape-font-specification:Lavi;text-align:center;letter-spacing:0px;word-spacing:0px;text-anchor:middle;fill:#000000;fill-opacity:1;stroke:none"
       x="274.67145"
       y="2169.6099"
       id="text4246-3-2-2-6-3"><tspan
         style="font-size:45px"
         sodipodi:role="line"
         id="tspan1097-2-6"
         x="274.67145"
         y="2169.6099">Soweth!</tspan></text>
    <text
       xml:space="preserve"
       style="font-style:normal;font-variant:normal;font-weight:normal;font-stretch:normal;font-size:45px;line-height:1.25;font-family:Lavi;-inkscape-font-specification:Lavi;text-align:center;letter-spacing:0px;word-spacing:0px;text-anchor:middle;fill:#000000;fill-opacity:1;stroke:none"
       x="504.25226"
       y="2265.2371"
       id="text4246-3-2-2-6-3-7"><tspan
         style="font-size:45px"
         sodipodi:role="line"
         id="tspan1097-2-6-5"
         x="504.25226"
         y="2265.2371">Yw pubonan OK?</tspan><tspan
         style="font-size:45px"
         sodipodi:role="line"
         x="504.25226"
         y="2321.4871"
         id="tspan982">Tra vyth terrys?</tspan></text>
    <text
       xml:space="preserve"
       style="font-style:normal;font-variant:normal;font-weight:normal;font-stretch:normal;font-size:55.5556px;line-height:1.25;font-family:Lavi;-inkscape-font-specification:Lavi;text-align:center;letter-spacing:0px;word-spacing:0px;text-anchor:middle;fill:#000000;fill-opacity:1;stroke:none;stroke-width:1.23457"
       x="1443.8728"
       y="2168.6335"
       id="text4246-3-2-2-6-3-7-5"><tspan
         style="font-size:55.5556px;stroke-width:1.23457"
         sodipodi:role="line"
         x="1443.8728"
         y="2168.6335"
         id="tspan982-2">Pepper!</tspan></text>
    <text
       xml:space="preserve"
       style="font-style:normal;font-variant:normal;font-weight:normal;font-stretch:normal;font-size:45px;line-height:1.25;font-family:Lavi;-inkscape-font-specification:Lavi;text-align:center;letter-spacing:0px;word-spacing:0px;text-anchor:middle;fill:#000000;fill-opacity:1;stroke:none"
       x="2034.6389"
       y="2155.8035"
       id="text4246-3-2-2-6-3-7-9"><tspan
         style="font-size:45px"
         sodipodi:role="line"
         x="2034.6389"
         y="2155.8035"
         id="tspan952">Hou Shichimi!</tspan></text>
    <text
       xml:space="preserve"
       style="font-style:normal;font-variant:normal;font-weight:normal;font-stretch:normal;font-size:45px;line-height:1.25;font-family:Lavi;-inkscape-font-specification:Lavi;text-align:center;letter-spacing:0px;word-spacing:0px;text-anchor:middle;fill:#000000;fill-opacity:1;stroke:none"
       x="2045.8783"
       y="2236.95"
       id="text4246-3-2-2-6-3-7-9-3"><tspan
         style="font-size:45px"
         sodipodi:role="line"
         x="2045.8783"
         y="2236.95"
         id="tspan971">Drog yw genev</tspan><tspan
         style="font-size:45px"
         sodipodi:role="line"
         x="2045.8783"
         y="2293.2"
         id="tspan131">a'n entrans dramasek</tspan><tspan
         style="font-size:45px"
         sodipodi:role="line"
         x="2045.8783"
         y="2349.45"
         id="tspan979">hag a vos diwedhes!</tspan></text>
    <text
       xml:space="preserve"
       style="font-style:normal;font-variant:normal;font-weight:normal;font-stretch:normal;font-size:45px;line-height:1.25;font-family:Lavi;-inkscape-font-specification:Lavi;text-align:center;letter-spacing:0px;word-spacing:0px;text-anchor:middle;fill:#000000;fill-opacity:1;stroke:none"
       x="2021.5768"
       y="2430.7451"
       id="text4246-3-2-2-6-3-7-9-3-3"><tspan
         style="font-size:45px"
         sodipodi:role="line"
         x="2021.5768"
         y="2430.7451"
         id="tspan992">My re beu ow </tspan><tspan
         style="font-size:45px"
         sodipodi:role="line"
         x="2021.5768"
         y="2486.9951"
         id="tspan141">ponya dres oll an</tspan><tspan
         style="font-size:45px"
         sodipodi:role="line"
         x="2021.5768"
         y="2543.2451"
         id="tspan145">jydh, mes henn yw</tspan><tspan
         style="font-size:45px"
         sodipodi:role="line"
         x="2021.5768"
         y="2599.4951"
         id="tspan983">hwedhel hir.</tspan></text>
  </g>
  <g
     inkscape:groupmode="layer"
     id="layer4"
     inkscape:label="mask"
     sodipodi:insensitive="true">
    <path
       id="rect879"
       style="color:#000000;overflow:visible;fill:#ffffff;stroke-width:3.8337;stop-color:#000000"
       d="M 91.951172,-31.222656 V 102.93359 l 520.126238,1.04131 -1.08166,40.10974 21.2893,243.88191 12.80888,-285.03303 H 2287.9512 V -31.222656 Z"
       sodipodi:nodetypes="ccccccccc" />
  </g>
  <g
     inkscape:groupmode="layer"
     id="layer5"
     inkscape:label="notes"
     style="opacity:0.60045649">
    <path
       style="color:#000000;clip-rule:nonzero;display:inline;overflow:visible;visibility:visible;isolation:auto;mix-blend-mode:normal;color-interpolation:sRGB;color-interpolation-filters:linearRGB;solid-color:#000000;solid-opacity:1;fill:#87cefa;fill-opacity:1;fill-rule:nonzero;stroke:#4682b4;stroke-width:1.8164;stroke-linecap:butt;stroke-linejoin:miter;stroke-miterlimit:4;stroke-dasharray:none;stroke-dashoffset:0;stroke-opacity:1;marker:none;color-rendering:auto;image-rendering:auto;shape-rendering:auto;text-rendering:auto;enable-background:accumulate"
       d="m 574.78169,-141.74548 v 95.563112 H 1932.6084 v -95.563112 z"
       id="path158"
       inkscape:connector-curvature="0"
       sodipodi:nodetypes="ccccc" />
    <flowRoot
       xml:space="preserve"
       id="flowRoot180"
       style="font-style:normal;font-variant:normal;font-weight:normal;font-stretch:normal;font-size:26.7486px;line-height:0.01%;font-family:Lavi;-inkscape-font-specification:'Lavi, Normal';font-variant-ligatures:normal;font-variant-caps:normal;font-variant-numeric:normal;font-feature-settings:normal;text-align:start;letter-spacing:0px;word-spacing:0px;writing-mode:lr-tb;text-anchor:start;display:inline;opacity:0.86;fill:#000000;fill-opacity:1;stroke:none;stroke-width:0.903147px;stroke-linecap:butt;stroke-linejoin:miter;stroke-opacity:1"
       transform="matrix(0.89724289,0,0,0.89724289,854.27309,-1075.7516)"><flowRegion
         id="flowRegion174"
         style="font-style:normal;font-variant:normal;font-weight:normal;font-stretch:normal;font-family:Lavi;-inkscape-font-specification:'Lavi, Normal';font-variant-ligatures:normal;font-variant-caps:normal;font-variant-numeric:normal;font-feature-settings:normal;text-align:start;writing-mode:lr-tb;text-anchor:start;stroke-width:0.903147px;"><rect
           id="rect172"
           width="1464.0667"
           height="126.9518"
           x="-275.14545"
           y="1061.6674"
           style="font-style:normal;font-variant:normal;font-weight:normal;font-stretch:normal;font-family:Lavi;-inkscape-font-specification:'Lavi, Normal';font-variant-ligatures:normal;font-variant-caps:normal;font-variant-numeric:normal;font-feature-settings:normal;text-align:start;writing-mode:lr-tb;text-anchor:start;stroke-width:0.903147px;" /></flowRegion><flowPara
         style="font-style:normal;font-variant:normal;font-weight:normal;font-stretch:normal;font-size:26.7486px;line-height:1.25;font-family:monospace;-inkscape-font-specification:monospace;font-variant-ligatures:normal;font-variant-caps:normal;font-variant-numeric:normal;font-feature-settings:normal;text-align:start;writing-mode:lr-tb;text-anchor:start;stroke-width:0.903147px;"
         id="flowPara176">Dear translator: if editing the soundFX is difficult, I made a special documentation here:</flowPara><flowPara
         style="font-style:normal;font-variant:normal;font-weight:bold;font-stretch:normal;font-size:26.7486px;line-height:1.25;font-family:monospace;-inkscape-font-specification:'monospace Bold';font-variant-ligatures:normal;font-variant-caps:normal;font-variant-numeric:normal;font-feature-settings:normal;text-align:start;writing-mode:lr-tb;text-anchor:start;fill:#0000cd;stroke-width:0.903147px;"
         id="flowPara181">https://www.peppercarrot.com/en/static14/documentation&amp;page=055_Sound-Effect_translation</flowPara><flowPara
         style="font-style:normal;font-variant:normal;font-weight:normal;font-stretch:normal;font-size:26.7486px;line-height:1.25;font-family:monospace;-inkscape-font-specification:monospace;font-variant-ligatures:normal;font-variant-caps:normal;font-variant-numeric:normal;font-feature-settings:normal;text-align:start;writing-mode:lr-tb;text-anchor:start;stroke-width:0.903147px;"
         id="flowPara179" /></flowRoot>
  </g>
</svg>
