<?xml version="1.0" encoding="UTF-8" standalone="no"?>
<!-- Created with Inkscape (http://www.inkscape.org/) -->

<svg
   id="svg2"
   version="1.1"
   inkscape:version="1.1.1 (3bf5ae0d25, 2021-09-20)"
   width="2481"
   height="3503"
   sodipodi:docname="E26P02.svg"
   xmlns:inkscape="http://www.inkscape.org/namespaces/inkscape"
   xmlns:sodipodi="http://sodipodi.sourceforge.net/DTD/sodipodi-0.dtd"
   xmlns:xlink="http://www.w3.org/1999/xlink"
   xmlns="http://www.w3.org/2000/svg"
   xmlns:svg="http://www.w3.org/2000/svg"
   xmlns:rdf="http://www.w3.org/1999/02/22-rdf-syntax-ns#"
   xmlns:cc="http://creativecommons.org/ns#"
   xmlns:dc="http://purl.org/dc/elements/1.1/">
  <metadata
     id="metadata8">
    <rdf:RDF>
      <cc:Work
         rdf:about="">
        <dc:format>image/svg+xml</dc:format>
        <dc:type
           rdf:resource="http://purl.org/dc/dcmitype/StillImage" />
      </cc:Work>
    </rdf:RDF>
  </metadata>
  <defs
     id="defs6">
    <filter
       style="color-interpolation-filters:sRGB"
       id="filter4375-4-1-1-15-1-3"
       inkscape:label="deevad outline effect"
       x="-0.00082836276"
       y="-0.0046088377"
       width="1.0016567"
       height="1.0092177">
      <feFlood
         id="feFlood4377-7-9-0-4-4-4"
         flood-opacity="1"
         flood-color="rgb(0,0,0)"
         result="flood" />
      <feComposite
         id="feComposite4379-3-8-8-6-0-7"
         in2="SourceGraphic"
         in="flood"
         operator="in"
         result="composite1" />
      <feMorphology
         id="feMorphology4393-1-0-49-8-2-7"
         operator="dilate"
         radius="0.69999999999999996"
         result="result3" />
      <feComposite
         id="feComposite4385-9-5-7-2-1-2"
         in2="result3"
         in="SourceGraphic"
         operator="over"
         result="composite2" />
    </filter>
    <filter
       style="color-interpolation-filters:sRGB"
       id="filter4375-4-1-1-15-1-3-0"
       inkscape:label="deevad outline effect"
       x="-0.0012484414"
       y="-0.0069460676"
       width="1.0024969"
       height="1.0138921">
      <feFlood
         id="feFlood4377-7-9-0-4-4-4-0"
         flood-opacity="1"
         flood-color="rgb(0,0,0)"
         result="flood" />
      <feComposite
         id="feComposite4379-3-8-8-6-0-7-3"
         in2="SourceGraphic"
         in="flood"
         operator="in"
         result="composite1" />
      <feMorphology
         id="feMorphology4393-1-0-49-8-2-7-4"
         operator="dilate"
         radius="0.90000000000000002"
         result="result3" />
      <feComposite
         id="feComposite4385-9-5-7-2-1-2-6"
         in2="result3"
         in="SourceGraphic"
         operator="over"
         result="composite2" />
    </filter>
  </defs>
  <sodipodi:namedview
     pagecolor="#ffffff"
     bordercolor="#666666"
     borderopacity="1"
     objecttolerance="10"
     gridtolerance="10"
     guidetolerance="10"
     inkscape:pageopacity="0"
     inkscape:pageshadow="2"
     inkscape:window-width="665"
     inkscape:window-height="722"
     id="namedview4"
     showgrid="false"
     inkscape:zoom="0.37593704"
     inkscape:cx="1401.8305"
     inkscape:cy="1368.5802"
     inkscape:window-x="683"
     inkscape:window-y="15"
     inkscape:window-maximized="0"
     inkscape:current-layer="layer1"
     inkscape:snap-global="false"
     borderlayer="true"
     inkscape:showpageshadow="false"
     inkscape:pagecheckerboard="0" />
  <g
     inkscape:groupmode="layer"
     id="layer2"
     inkscape:label="artwork"
     sodipodi:insensitive="true">
    <image
       xlink:href="../gfx_Pepper-and-Carrot_by-David-Revoy_E26P02.png"
       width="2481"
       height="3503.9123"
       id="image10"
       x="0"
       y="0" />
  </g>
  <g
     inkscape:groupmode="layer"
     id="layer3"
     inkscape:label="speechbubbles">
    <path
       style="color:#000000;display:inline;overflow:visible;visibility:visible;fill:#ffffff;fill-opacity:1;fill-rule:nonzero;stroke:none;stroke-width:1.29816px;marker:none;enable-background:accumulate"
       d="m 71.530266,610.56132 c 3.145011,-23.55075 8.62741,-76.97649 144.692744,-86.24394 136.06544,-9.26747 185.18625,58.20268 189.00369,89.64674 3.81745,31.44388 -12.32554,83.20283 -42.91213,107.81087 -27.2372,22.1727 -56.99345,22.6164 -103.5579,29.5048 -53.71887,8.8109 -137.8831,-5.0701 -162.017464,-29.5142 C 72.604957,697.32155 64.081521,654.701 71.530266,610.56132 Z"
       id="path3365-3"
       inkscape:connector-curvature="0"
       sodipodi:nodetypes="cssccsc" />
    <path
       style="color:#000000;display:inline;overflow:visible;visibility:visible;fill:#ffffff;fill-opacity:1;fill-rule:nonzero;stroke:none;stroke-width:1.63567px;marker:none;enable-background:accumulate"
       d="M 175.39209,273.27336 C 188.17633,505.40125 235.94745,787.00744 378.6466,837.81258 276.65833,787.36708 212.69408,546.8845 211.68757,323.5972 c -0.21343,-47.34844 -9.71012,-51.14497 -9.71012,-51.14497 z"
       id="path4440"
       inkscape:connector-curvature="0"
       sodipodi:nodetypes="ccscc" />
    <path
       style="fill:#ffffff;stroke:none;stroke-width:1.64499"
       d="m 1120.891,90.084595 c 34.5123,-1.888132 242.1307,-24.542972 192.1195,150.572585 -26.7424,93.63912 7.6434,176.64418 12.1053,230.82486 6.8505,83.18698 -111.6162,94.56391 -218.0941,92.47409 C 915.19267,560.19114 976.5901,480.13385 975.08804,307.69146 973.75828,155.02685 1028.2815,95.603268 1120.891,90.084595 Z"
       id="path3280-8"
       inkscape:connector-curvature="0"
       sodipodi:nodetypes="cssssc" />
    <path
       style="color:#000000;display:inline;overflow:visible;visibility:visible;fill:#ffffff;fill-opacity:1;fill-rule:nonzero;stroke:none;stroke-width:1.45930743px;marker:none;enable-background:accumulate"
       d="m 1270.4587,817.02326 c -52.2412,-10.38957 -90.1219,-52.2826 -82.2673,-117.43179 7.8551,-73.36812 7.6985,-80.57712 7.6985,-80.57712 l -55.1615,2.38205 c 0,0 3.3492,196.86393 129.7303,195.62686 z"
       id="path3072"
       inkscape:connector-curvature="0"
       inkscape:transform-center-x="-3.4248275"
       inkscape:transform-center-y="27.464172"
       sodipodi:nodetypes="ccccc" />
    <path
       style="fill:#ffffff;fill-rule:evenodd;stroke:none;stroke-width:1.1625px;stroke-linecap:butt;stroke-linejoin:miter;stroke-opacity:1"
       d="m 974.68502,586.77347 c 29.14278,3.4952 46.48548,-3.72782 22.9246,-56.35032 22.86588,18.642 80.51608,44.84017 107.18218,-0.0283 7.6374,56.8613 56.4713,24.3712 80.6153,-0.5503 -36.0124,59.1974 76.4879,2.14236 91.5466,-29.42779 -10.8684,34.40947 22.9559,75.01023 50.7323,76.55203 -58.7582,59.3702 -58.9773,102.36486 -35.8244,124.72626 -57.7455,-16.5442 -43.7796,16.9775 -50.6768,35.9333 -62.7499,-54.69404 -96.1522,-42.16952 -114.0225,7.1867 -14.8853,-21.7218 -19.5576,-66.617 -74.4313,2.3955 20.1784,-59.5777 -6.271,-53.3242 -49.0929,-23.9554 6.7111,-20.293 46.5984,-51.1514 -20.58743,-47.9112 41.96553,-19.2915 42.40023,-50.15055 -8.36565,-88.57045 z"
       id="path4584"
       inkscape:connector-curvature="0"
       sodipodi:nodetypes="cccccccccccccc" />
    <path
       style="fill:#ffffff;fill-opacity:1;stroke:none;stroke-width:1.8895"
       d="m 2015.8382,286.0632 c -39.9511,-44.2495 -19.9726,-154.45754 41.3987,-195.438739 32.0425,-21.39665 332.4514,-21.582033 362.2188,28.180479 27.4148,45.82971 15.2677,130.0876 -66.593,171.70895 -81.8607,41.6212 -151.3747,29.7236 -175.8284,29.38545 -71.3818,-0.98706 -121.0148,10.92264 -161.1961,-33.83614 z"
       id="path3659-8"
       inkscape:connector-curvature="0"
       sodipodi:nodetypes="cssssc" />
    <path
       style="fill:#ffffff;stroke:none;stroke-width:1.3165"
       d="m 2157.0758,352.9469 c -1.2006,-41.87209 34.6475,-51.27448 71.0263,-57.16805 36.3788,-5.89345 149.4393,0.63901 141.134,51.8773 -8.3052,51.23841 -63.0083,58.33952 -108.2054,56.07445 -45.1973,-2.2652 -97.3968,-11.10871 -103.9549,-50.7837 z"
       id="path3938"
       inkscape:connector-curvature="0"
       sodipodi:nodetypes="csssc" />
    <path
       style="color:#000000;display:inline;overflow:visible;visibility:visible;fill:#ffffff;fill-opacity:1;fill-rule:nonzero;stroke:none;stroke-width:1px;marker:none;enable-background:accumulate"
       d="m 2155.8807,413.81052 c 41.2209,-1.94348 55.6641,-5.00539 71.331,-50.72285 15.6671,-45.71761 32.4158,-38.48457 32.4158,-38.48457 l 7.7097,32.88324 c 0,0 -40.1576,94.75832 -111.4565,56.32418 z"
       id="path3072-5"
       inkscape:connector-curvature="0" />
    <path
       style="color:#000000;display:inline;overflow:visible;visibility:visible;fill:#ffffff;fill-opacity:1;fill-rule:nonzero;stroke:none;stroke-width:1.19105px;marker:none;enable-background:accumulate"
       d="m 1929.763,980.69769 c 13.4731,-75.1209 42.1671,-127.26315 233.6338,-134.5503 373.5846,-14.21852 253.1672,133.44793 251.6051,170.35731 -1.5619,36.9091 -39.1526,110.4552 -87.3021,119.6825 -117.2841,31.218 -290.4341,45.1942 -374.0621,-10.4528 -53.2364,-49.5548 -28.1462,-110.82 -23.8747,-145.03671 z"
       id="path3365-5"
       inkscape:connector-curvature="0"
       sodipodi:nodetypes="cscccc" />
    <path
       style="fill:#ffffff;stroke:none;stroke-width:1"
       d="m 2198.814,1073.9531 c -28.3487,40.1842 -21.9808,80.5701 -11.3851,96.8521 10.5958,16.2818 -14.1224,62.2852 -32.5966,66.3613 42.1318,-2.545 63.2033,-58.0225 57.8284,-106.2564 -1.5781,-14.1607 13.8192,-31.6694 32.5349,-30.4271 17.298,1.1482 33.3984,-19.3288 33.3984,-19.3288 z"
       id="path3276"
       inkscape:connector-curvature="0"
       sodipodi:nodetypes="cscsscc" />
    <path
       style="fill:#ffffff;stroke:none;stroke-width:1.0293"
       d="m 61.730339,2223.0244 c -1.136953,-109.7624 19.269306,-167.4385 258.687421,-163.7385 335.11977,5.179 359.02995,74.9504 362.38005,203.7181 4.58698,176.3094 -197.74904,146.2649 -359.44144,147.6192 -279.027141,2.337 -253.722605,-75.1999 -261.626031,-187.5988 z"
       id="path3280-8-0"
       inkscape:connector-curvature="0"
       sodipodi:nodetypes="csssc" />
    <path
       style="fill:#ffffff;stroke:none;stroke-width:0.853669"
       d="m 695.27821,2496.8428 c 2.69935,72.6451 -9.0448,100.0325 -176.23628,108.7239 -231.39279,12.0289 -252.31922,-49.0843 -254.4242,-134.337 -2.27111,-91.9819 108.41564,-83.8796 216.04067,-94.3773 191.68546,-18.6972 207.19012,45.6098 214.61981,119.9904 z"
       id="path3280-8-0-3"
       inkscape:connector-curvature="0"
       sodipodi:nodetypes="csssc" />
    <path
       style="color:#000000;display:inline;overflow:visible;visibility:visible;fill:#ffffff;fill-opacity:1;fill-rule:nonzero;stroke:none;stroke-width:1.0847px;marker:none;enable-background:accumulate"
       d="m 1713.2609,2909.828 c -19.193,-42.2821 -24.5262,-151.8852 143.4345,-137.4447 130.5894,8.8278 169.4463,38.3155 173.9315,88.7454 4.4853,50.4299 14.3484,98.295 -90.2249,105.6051 -95.743,3.7584 -195.29,1.1066 -227.1411,-56.9058 z"
       id="path3525"
       inkscape:connector-curvature="0"
       sodipodi:nodetypes="cczcc" />
    <path
       style="color:#000000;display:inline;overflow:visible;visibility:visible;fill:#ffffff;fill-opacity:1;fill-rule:nonzero;stroke:none;stroke-width:0.932679px;marker:none;enable-background:accumulate"
       d="m 771.946,2597.4453 c -38.61235,13.1991 -52.19244,9.2577 -87.49015,-23.3325 -35.29767,-32.5903 -47.30824,-20.5196 -47.30824,-20.5196 l 8.02128,30.2663 c 0,0 79.15262,71.3615 126.77711,13.5858 z"
       id="path3072-6"
       inkscape:connector-curvature="0"
       sodipodi:nodetypes="csccc" />
    <path
       style="color:#000000;display:inline;overflow:visible;visibility:visible;fill:#ffffff;fill-opacity:1;fill-rule:nonzero;stroke:none;stroke-width:1px;marker:none;enable-background:accumulate"
       d="m 1885.9302,2880.543 c -8.5379,-41.2674 -44.7927,-105.1616 -72.2125,-139.41 -35.1182,-43.864 -72.8214,-53.3837 -92.0424,-60.2184 -19.2212,-6.8347 -32.1844,10.3588 -49.896,10.3433 -15.217,-0.013 -25.6847,-6.7896 -32.7226,-18.2648 9.7927,27.8644 34.0049,32.1826 44.6949,29.5469 10.6902,-2.6357 26.8117,-12.6559 45.0036,-2.5829 24.2118,13.4064 47.6718,29.1496 76.3935,72.336 25.957,39.0295 44.3792,76.7753 41.8276,91.0824 -2.5517,14.3073 38.9539,17.1675 38.9539,17.1675 z"
       id="path4562"
       inkscape:connector-curvature="0"
       sodipodi:nodetypes="cssscssssc" />
  </g>
  <g
     inkscape:groupmode="layer"
     id="layer1"
     inkscape:label="txt">
    <text
       xml:space="preserve"
       style="font-style:normal;font-variant:normal;font-weight:normal;font-stretch:normal;font-size:45px;line-height:0%;font-family:Lavi;-inkscape-font-specification:Lavi;text-align:center;letter-spacing:0px;word-spacing:0px;text-anchor:middle;white-space:pre;inline-size:372.611;fill:#000000;fill-opacity:1;stroke:none;stroke-width:1.03474"
       x="1106.0535"
       y="198.48218"
       id="text4246-5"
       transform="matrix(1.0347385,0,0,0.96642774,2,-10)"><tspan
         x="1106.0535"
         y="198.48218"
         id="tspan21267"><tspan
           style="line-height:1.25;-inkscape-font-specification:'Lavi, Normal'"
           id="tspan21265">Míi le!
</tspan></tspan><tspan
         x="1106.0535"
         y="254.73218"
         id="tspan21271"><tspan
           style="line-height:1.25;-inkscape-font-specification:'Lavi, Normal'"
           id="tspan21269">Denedi thodá
</tspan></tspan><tspan
         x="1106.0535"
         y="310.9822"
         id="tspan21275"><tspan
   style="line-height:1.25;-inkscape-font-specification:'Lavi, Normal'"
   id="tspan21273">úthú yeneth</tspan><tspan
   y="310.9822"
   id="tspan21277"> </tspan></tspan><tspan
         x="1106.0535"
         y="367.2322"
         id="tspan21281"><tspan
           style="line-height:1.25;-inkscape-font-specification:'Lavi, Normal'"
           id="tspan21279">benemeshub</tspan><tspan
           y="367.2322"
           id="tspan21283"> </tspan></tspan><tspan
         x="1106.0535"
         y="423.4822"
         id="tspan21287"><tspan
           style="line-height:1.25;-inkscape-font-specification:'Lavi, Normal'"
           id="tspan21285">úwanú aril
</tspan></tspan><tspan
         x="1106.0535"
         y="479.7322"
         id="tspan21291"><tspan
   style="line-height:1.25;-inkscape-font-specification:'Lavi, Normal'"
   id="tspan21289">thad nasháad</tspan><tspan
   y="479.7322"
   id="tspan21293"> </tspan></tspan><tspan
         x="1106.0535"
         y="535.9822"
         id="tspan21297"><tspan
           style="line-height:1.25;-inkscape-font-specification:'Lavi, Normal'"
           id="tspan21295">radozhenal wa!</tspan></tspan></text>
    <path
       style="color:#000000;display:inline;overflow:visible;visibility:visible;fill:#ffffff;fill-opacity:1;fill-rule:nonzero;stroke:none;stroke-width:1.41942px;marker:none;enable-background:accumulate"
       d="m 41.381895,228.90916 c -2.833048,-22.29049 24.662164,-85.42753 198.279435,-89.31804 103.09904,-2.3103 183.90385,32.53617 203.01979,59.7561 26.31177,37.46634 22.22735,74.73118 -14.60641,95.87994 -36.83375,21.14875 -145.276,20.29288 -205.51599,18.54145 C 172.49506,311.97189 99.16781,310.8247 64.589907,272.23997 40.031555,244.83584 44.214955,234.85323 41.381895,228.90916 Z"
       id="path3365"
       inkscape:connector-curvature="0"
       sodipodi:nodetypes="csszcsc" />
    <text
       xml:space="preserve"
       style="font-style:normal;font-variant:normal;font-weight:normal;font-stretch:normal;font-size:45px;line-height:0%;font-family:Lavi;-inkscape-font-specification:Lavi;text-align:center;letter-spacing:0px;word-spacing:0px;text-anchor:middle;white-space:pre;inline-size:529.056;fill:#000000;fill-opacity:1;stroke:none"
       x="256.7869"
       y="193.31723"
       id="text4246"
       transform="translate(4,20)"><tspan
         x="256.7869"
         y="193.31723"
         id="tspan21301"><tspan
           style="line-height:1.25"
           id="tspan21299">...id rumad
</tspan></tspan><tspan
         x="256.7869"
         y="249.56723"
         id="tspan21305"><tspan
           style="line-height:1.25"
           id="tspan21303">oyith yenenan...</tspan></tspan></text>
    <text
       xml:space="preserve"
       style="font-style:normal;font-variant:normal;font-weight:normal;font-stretch:normal;font-size:45px;line-height:0%;font-family:Lavi;-inkscape-font-specification:Lavi;text-align:center;letter-spacing:0px;word-spacing:0px;text-anchor:middle;white-space:pre;inline-size:492.056;fill:#000000;fill-opacity:1;stroke:none"
       x="234.4431"
       y="597.30139"
       id="text4246-3"
       transform="translate(-2,8)"><tspan
         x="234.4431"
         y="597.30139"
         id="tspan21309"><tspan
           style="line-height:1.25"
           id="tspan21307">...ébere nahu
</tspan></tspan><tspan
         x="234.4431"
         y="653.55141"
         id="tspan21313"><tspan
           style="line-height:1.25"
           id="tspan21311">áath beyóoth
</tspan></tspan><tspan
         x="234.4431"
         y="709.80141"
         id="tspan21317"><tspan
           style="line-height:1.25"
           id="tspan21315">wáa!</tspan></tspan></text>
    <text
       xml:space="preserve"
       style="font-style:normal;font-variant:normal;font-weight:normal;font-stretch:normal;font-size:45px;line-height:0%;font-family:Lavi;-inkscape-font-specification:Lavi;text-align:center;letter-spacing:0px;word-spacing:0px;text-anchor:middle;white-space:pre;inline-size:337.634;fill:#000000;fill-opacity:1;stroke:none"
       x="1146.4738"
       y="620.10974"
       id="text4246-1"><tspan
         x="1146.4738"
         y="620.10974"
         id="tspan21321"><tspan
   style="font-weight:bold;line-height:1.25;-inkscape-font-specification:'Lavi Bold'"
   id="tspan21319">Methalethúul</tspan><tspan
   y="620.10974"
   id="tspan21323"> </tspan></tspan><tspan
         x="1146.4738"
         y="676.35976"
         id="tspan21327"><tspan
           style="font-weight:bold;line-height:1.25;-inkscape-font-specification:'Lavi Bold'"
           id="tspan21325">áabe wi!</tspan></tspan></text>
    <text
       xml:space="preserve"
       style="font-style:normal;font-variant:normal;font-weight:normal;font-stretch:normal;font-size:45px;line-height:1.25;font-family:Lavi;-inkscape-font-specification:Lavi;text-align:center;letter-spacing:0px;word-spacing:0px;text-anchor:middle;white-space:pre;inline-size:418.26;fill:#000000;fill-opacity:1;stroke:none"
       x="1869.3452"
       y="164.03572"
       id="text4246-5-5"
       transform="translate(320)"><tspan
         x="1869.3452"
         y="164.03572"
         id="tspan21331"><tspan
           style="font-style:italic;-inkscape-font-specification:'Lavi Italic'"
           id="tspan21329">“Bóodi oób
</tspan></tspan><tspan
         x="1869.3452"
         y="220.28572"
         id="tspan21335"><tspan
           style="font-style:italic;-inkscape-font-specification:'Lavi Italic'"
           id="tspan21333">ne ralithenal 
</tspan></tspan><tspan
         x="1869.3452"
         y="276.53572"
         id="tspan21339"><tspan
           style="font-style:italic;-inkscape-font-specification:'Lavi Italic'"
           id="tspan21337">thibáhimu rayil.”</tspan></tspan></text>
    <text
       xml:space="preserve"
       style="font-style:normal;font-variant:normal;font-weight:normal;font-stretch:normal;font-size:45px;line-height:0%;font-family:Lavi;-inkscape-font-specification:Lavi;text-align:center;letter-spacing:0px;word-spacing:0px;text-anchor:middle;fill:#000000;fill-opacity:1;stroke:none"
       x="2266.8933"
       y="365.76685"
       id="text4246-1-3"><tspan
         sodipodi:role="line"
         style="font-style:normal;font-variant:normal;font-weight:bold;font-stretch:normal;font-size:45px;line-height:1.25;font-family:Lavi;-inkscape-font-specification:'Lavi Bold'"
         x="2266.8933"
         y="365.76685"
         id="tspan1013-7">Em wáa!</tspan></text>
    <text
       xml:space="preserve"
       style="color:#000000;font-style:normal;font-variant:normal;font-weight:normal;font-stretch:normal;font-size:12px;line-height:0.01%;font-family:Lavi;-inkscape-font-specification:'Lavi, Normal';font-variant-ligatures:normal;font-variant-caps:normal;font-variant-numeric:normal;font-feature-settings:normal;text-align:start;letter-spacing:0.00204969px;word-spacing:0px;writing-mode:lr-tb;text-anchor:start;display:inline;overflow:visible;visibility:visible;fill:#ffffff;fill-opacity:1;fill-rule:nonzero;stroke:#ffffff;stroke-width:0.0836072;stroke-linecap:butt;stroke-linejoin:miter;stroke-miterlimit:4;stroke-dasharray:none;stroke-dashoffset:0;stroke-opacity:1;marker:none;filter:url(#filter4375-4-1-1-15-1-3);enable-background:accumulate"
       x="1125.3203"
       y="1091.2349"
       id="text1702"
       transform="matrix(5.0988636,-3.4529803,4.0195623,5.9813584,-9567.128,-772.68963)"><tspan
         sodipodi:role="line"
         id="tspan1032"
         x="1125.3203"
         y="1091.2349"
         style="font-style:normal;font-variant:normal;font-weight:bold;font-stretch:normal;font-family:Lavi;-inkscape-font-specification:'Lavi Bold'">ODEZHO</tspan></text>
    <text
       xml:space="preserve"
       style="color:#000000;font-style:normal;font-variant:normal;font-weight:normal;font-stretch:normal;font-size:12px;line-height:0.01%;font-family:Lavi;-inkscape-font-specification:'Lavi, Normal';font-variant-ligatures:normal;font-variant-caps:normal;font-variant-numeric:normal;font-feature-settings:normal;text-align:start;letter-spacing:0.00204969px;word-spacing:0px;writing-mode:lr-tb;text-anchor:start;display:inline;overflow:visible;visibility:visible;fill:#ffffff;fill-opacity:1;fill-rule:nonzero;stroke:#ffffff;stroke-width:0.126006;stroke-linecap:butt;stroke-linejoin:miter;stroke-miterlimit:4;stroke-dasharray:none;stroke-dashoffset:0;stroke-opacity:1;marker:none;filter:url(#filter4375-4-1-1-15-1-3-0);enable-background:accumulate"
       x="1125.3203"
       y="1091.2349"
       id="text1702-6"
       transform="matrix(2.7605482,2.8998578,-3.2069949,3.3940709,2140.7193,-5206.9012)"><tspan
         sodipodi:role="line"
         id="tspan1032-0"
         x="1125.3203"
         y="1091.2349"
         style="font-style:normal;font-variant:normal;font-weight:bold;font-stretch:normal;font-family:Lavi;-inkscape-font-specification:'Lavi Bold';stroke-width:0.126006;stroke-miterlimit:4;stroke-dasharray:none">ODEZHO</tspan></text>
    <text
       xml:space="preserve"
       style="font-style:normal;font-variant:normal;font-weight:normal;font-stretch:normal;font-size:45px;line-height:0%;font-family:Lavi;-inkscape-font-specification:Lavi;text-align:center;letter-spacing:0px;word-spacing:0px;text-anchor:middle;white-space:pre;inline-size:488.858;fill:#000000;fill-opacity:1;stroke:none"
       x="2347.1755"
       y="936.49329"
       id="text4246-5-5-2"
       transform="translate(-250)"><tspan
         x="2347.1755"
         y="936.49329"
         id="tspan21343"><tspan
           style="font-style:italic;line-height:1.25;-inkscape-font-specification:'Lavi Italic';text-align:end;text-anchor:end"
           id="tspan21341">“Bíidi rilrili loláad
</tspan></tspan><tspan
         x="2347.1755"
         y="992.74331"
         id="tspan21347"><tspan
           style="font-style:italic;line-height:1.25;-inkscape-font-specification:'Lavi Italic';text-align:end;text-anchor:end"
           id="tspan21345">ne háda nehé wa.
</tspan></tspan><tspan
         x="2347.1755"
         y="1048.9933"
         id="tspan21351"><tspan
           style="font-style:italic;line-height:1.25;-inkscape-font-specification:'Lavi Italic';text-align:end;text-anchor:end"
           id="tspan21349">Bóo lhith ra ne wi.
</tspan></tspan><tspan
         x="2347.1755"
         y="1105.2433"
         id="tspan21355"><tspan
           style="font-style:italic;line-height:1.25;-inkscape-font-specification:'Lavi Italic';text-align:end;text-anchor:end"
           id="tspan21353">Bíidi bohí weth wi.”</tspan></tspan></text>
    <text
       xml:space="preserve"
       style="font-style:normal;font-variant:normal;font-weight:normal;font-stretch:normal;font-size:45px;line-height:0%;font-family:Lavi;-inkscape-font-specification:Lavi;text-align:center;letter-spacing:0px;word-spacing:0px;text-anchor:middle;white-space:pre;inline-size:602.107;fill:#000000;fill-opacity:1;stroke:none"
       x="378.3584"
       y="2151.1831"
       id="text4246-5-5-2-0"><tspan
         x="378.3584"
         y="2151.1831"
         id="tspan21359"><tspan
           style="font-style:italic;line-height:1.25;-inkscape-font-specification:'Lavi Italic'"
           id="tspan21357">“Bóo láadethéle ne
</tspan></tspan><tspan
         x="378.3584"
         y="2207.433"
         id="tspan21363"><tspan
   style="font-style:italic;line-height:1.25;-inkscape-font-specification:'Lavi Italic'"
   id="tspan21361">she dathimethu zhubethoth</tspan><tspan
   y="2207.433"
   id="tspan21365"> </tspan></tspan><tspan
         x="378.3584"
         y="2263.683"
         id="tspan21369"><tspan
   style="font-style:italic;line-height:1.25;-inkscape-font-specification:'Lavi Italic'"
   id="tspan21367">yomenal wa: Bíidi meyod</tspan><tspan
   y="2263.683"
   id="tspan21371"> </tspan></tspan><tspan
         x="378.3584"
         y="2319.933"
         id="tspan21375"><tspan
           style="font-style:italic;line-height:1.25;-inkscape-font-specification:'Lavi Italic'"
           id="tspan21373">dathimezhub hi itheth
</tspan></tspan><tspan
         x="378.3584"
         y="2376.183"
         id="tspan21379"><tspan
           style="font-style:italic;line-height:1.25;-inkscape-font-specification:'Lavi Italic'"
           id="tspan21377">dalanal wi.”</tspan></tspan></text>
    <flowRoot
       xml:space="preserve"
       id="flowRoot1141"
       style="font-style:normal;font-variant:normal;font-weight:normal;font-stretch:normal;font-size:0.666667px;line-height:0%;font-family:Lavi;-inkscape-font-specification:Lavi;text-align:center;letter-spacing:0px;word-spacing:0px;writing-mode:lr-tb;text-anchor:middle;fill:#000000;fill-opacity:1;stroke:none;stroke-width:1px;stroke-linecap:butt;stroke-linejoin:miter;stroke-opacity:1"><flowRegion
         id="flowRegion1143"><rect
           id="rect1145"
           width="37.375"
           height="11.5"
           x="1802.6249"
           y="2272.5" /></flowRegion><flowPara
         id="flowPara1147" /></flowRoot>
    <text
       xml:space="preserve"
       style="font-style:normal;font-variant:normal;font-weight:normal;font-stretch:normal;font-size:45px;line-height:0%;font-family:Lavi;-inkscape-font-specification:Lavi;text-align:center;letter-spacing:0px;word-spacing:0px;text-anchor:middle;white-space:pre;inline-size:393.194;fill:#000000;fill-opacity:1;stroke:none"
       x="502.41183"
       y="2482.4917"
       id="text4246-5-5-2-0-7"
       transform="translate(-17.694149,-25.482143)"><tspan
         x="502.41183"
         y="2482.4917"
         id="tspan21383"><tspan
   style="font-style:italic;line-height:1.25;-inkscape-font-specification:'Lavi Italic'"
   id="tspan21381">“Bóo dibóo le</tspan><tspan
   y="2482.4917"
   id="tspan21385"> </tspan></tspan><tspan
         x="502.41183"
         y="2538.7416"
         id="tspan21389"><tspan
   style="font-style:italic;line-height:1.25;-inkscape-font-specification:'Lavi Italic'"
   id="tspan21387">wohahí woháanath</tspan><tspan
   y="2538.7416"
   id="tspan21391"> </tspan></tspan><tspan
         x="502.41183"
         y="2594.9916"
         id="tspan21395"><tspan
           style="font-style:italic;line-height:1.25;-inkscape-font-specification:'Lavi Italic'"
           id="tspan21393">úwanú dul ne.”</tspan></tspan></text>
    <text
       xml:space="preserve"
       style="font-style:normal;font-variant:normal;font-weight:normal;font-stretch:normal;font-size:52.8558px;line-height:0%;font-family:Lavi;-inkscape-font-specification:Lavi;text-align:center;letter-spacing:0px;word-spacing:0px;text-anchor:middle;white-space:pre;inline-size:360.345;fill:#000000;fill-opacity:1;stroke:none;stroke-width:1"
       x="1845.7053"
       y="2888.4749"
       id="text4246-1-8"
       transform="scale(1.0104523,0.98965582)"><tspan
         x="1845.7053"
         y="2888.4749"
         id="tspan21399"><tspan
   style="font-weight:bold;line-height:1.25;-inkscape-font-specification:'Lavi Bold'"
   id="tspan21397">Bíi athíle le</tspan><tspan
   y="2888.4749"
   id="tspan21401"> </tspan></tspan><tspan
         x="1845.7053"
         y="2954.5447"
         id="tspan21405"><tspan
           style="font-weight:bold;line-height:1.25;-inkscape-font-specification:'Lavi Bold'"
           id="tspan21403">áabe wa!!</tspan></tspan></text>
    <text
       xml:space="preserve"
       style="color:#000000;font-style:normal;font-variant:normal;font-weight:normal;font-stretch:normal;font-size:11.1064px;line-height:0.01%;font-family:Arial;-inkscape-font-specification:Arial;letter-spacing:0.895707px;word-spacing:0px;display:inline;overflow:visible;visibility:visible;fill:#e69d76;fill-opacity:1;fill-rule:nonzero;stroke:#e99f77;stroke-width:4.05567;stroke-opacity:1;marker:none;enable-background:accumulate"
       x="610.2511"
       y="601.31281"
       id="text1711"
       transform="matrix(0.78576578,-0.49307246,0.54549744,0.93034115,0,0)"><tspan
         sodipodi:role="line"
         x="610.69897"
         y="601.31281"
         id="tspan1709"
         style="letter-spacing:0.895707px;word-spacing:0px;fill:#ffffff;fill-opacity:1;stroke:#ffffff;stroke-width:4.05567;stroke-opacity:1"><tspan
           x="610.2511"
           y="601.31281"
           style="color:#000000;font-style:normal;font-variant:normal;font-weight:normal;font-stretch:normal;font-size:59.2341px;line-height:1.25;font-family:Lavi;-inkscape-font-specification:Lavi;text-align:center;letter-spacing:0.895707px;word-spacing:0px;text-anchor:middle;display:inline;overflow:visible;visibility:visible;fill:#ffffff;fill-opacity:1;fill-rule:nonzero;stroke:#ffffff;stroke-width:3.197;stroke-miterlimit:4;stroke-dasharray:none;stroke-opacity:1;marker:none;enable-background:accumulate"
           id="tspan1707">Rayahanesh!</tspan></tspan></text>
  </g>
  <g
     inkscape:groupmode="layer"
     id="layer4"
     inkscape:label="notes"
     style="display:inline"
     sodipodi:insensitive="true">
    <path
       style="color:#000000;clip-rule:nonzero;display:inline;overflow:visible;visibility:visible;opacity:0.481;isolation:auto;mix-blend-mode:normal;color-interpolation:sRGB;color-interpolation-filters:linearRGB;solid-color:#000000;solid-opacity:1;fill:#ffe680;fill-opacity:1;fill-rule:nonzero;stroke:#565656;stroke-width:1.20000005;stroke-linecap:butt;stroke-linejoin:miter;stroke-miterlimit:4;stroke-dasharray:none;stroke-dashoffset:0;stroke-opacity:1;marker:none;color-rendering:auto;image-rendering:auto;shape-rendering:auto;text-rendering:auto;enable-background:accumulate"
       d="M 1803.0237,-298.37057 H 846.35615 v 253.040394 h 289.92535 v 10 h -15.6308 l 26.9824,30.9825 26.9804,-30.9825 h -16.6171 v -10 h 645.0273 z"
       id="rect4191-6"
       inkscape:connector-curvature="0"
       sodipodi:nodetypes="cccccccccccc" />
    <flowRoot
       xml:space="preserve"
       id="flowRoot4212-7"
       style="font-style:normal;font-variant:normal;font-weight:normal;font-stretch:normal;line-height:0.01%;font-family:Lavi;-inkscape-font-specification:'Lavi, Normal';text-align:center;letter-spacing:0px;word-spacing:0px;writing-mode:lr-tb;text-anchor:middle;display:inline;opacity:0.689;fill:#000000;fill-opacity:1;stroke:none;stroke-width:0.799589px;stroke-linecap:butt;stroke-linejoin:miter;stroke-opacity:1"
       transform="matrix(1.2506418,0,0,1.2506418,1218.2001,-1598.9961)"><flowRegion
         id="flowRegion4214-5"
         style="stroke-width:0.799589px"><rect
           id="rect4216-3"
           width="718.88867"
           height="174.37697"
           x="-275.14545"
           y="1061.6674"
           style="stroke-width:0.79958946px" /></flowRegion><flowPara
         id="flowPara4564"
         style="font-size:25.3242px;line-height:1.25;stroke-width:0.799589px">This “they” means one person, without specifying their gender.</flowPara><flowPara
         style="font-size:25.3242px;line-height:1.25;stroke-width:0.799589px"
         id="flowPara936">If possible, please try to do the same in your language</flowPara><flowPara
         style="font-size:25.3242px;line-height:1.25;stroke-width:0.799589px"
         id="flowPara934">(suggestion: if your language doesn't have genderless pronouns, maybe you can translate as “the author”).</flowPara><flowPara
         style="font-size:25.3242px;line-height:1.25;stroke-width:0.799589px"
         id="flowPara920">If that doesn't really work well, assume the author is a woman.</flowPara></flowRoot>
  </g>
</svg>
