<?xml version="1.0" encoding="UTF-8" standalone="no"?>
<svg
   id="svg2"
   version="1.1"
   inkscape:version="1.1 (c68e22c387, 2021-05-23)"
   width="2481"
   height="3503"
   sodipodi:docname="E35P06.svg"
   xmlns:inkscape="http://www.inkscape.org/namespaces/inkscape"
   xmlns:sodipodi="http://sodipodi.sourceforge.net/DTD/sodipodi-0.dtd"
   xmlns:xlink="http://www.w3.org/1999/xlink"
   xmlns="http://www.w3.org/2000/svg"
   xmlns:svg="http://www.w3.org/2000/svg"
   xmlns:rdf="http://www.w3.org/1999/02/22-rdf-syntax-ns#"
   xmlns:cc="http://creativecommons.org/ns#"
   xmlns:dc="http://purl.org/dc/elements/1.1/">
  <metadata
     id="metadata8">
    <rdf:RDF>
      <cc:Work
         rdf:about="">
        <dc:format>image/svg+xml</dc:format>
        <dc:type
           rdf:resource="http://purl.org/dc/dcmitype/StillImage" />
        <dc:title />
      </cc:Work>
    </rdf:RDF>
  </metadata>
  <defs
     id="defs6" />
  <sodipodi:namedview
     pagecolor="#ffffff"
     bordercolor="#666666"
     borderopacity="1"
     objecttolerance="10"
     gridtolerance="10"
     guidetolerance="10"
     inkscape:pageopacity="0"
     inkscape:pageshadow="2"
     inkscape:window-width="1920"
     inkscape:window-height="1017"
     id="namedview4"
     showgrid="false"
     inkscape:zoom="0.52601302"
     inkscape:cx="1264.2273"
     inkscape:cy="2744.2287"
     inkscape:window-x="-8"
     inkscape:window-y="-8"
     inkscape:window-maximized="1"
     inkscape:current-layer="layer1"
     inkscape:document-rotation="0"
     inkscape:snap-global="false"
     inkscape:pagecheckerboard="0" />
  <g
     inkscape:groupmode="layer"
     id="layer2"
     inkscape:label="artwork"
     sodipodi:insensitive="true">
    <image
       xlink:href="../gfx_Pepper-and-Carrot_by-David-Revoy_E35P06.png"
       width="2481"
       height="3503"
       id="image10"
       x="0"
       y="0" />
  </g>
  <g
     inkscape:groupmode="layer"
     id="layer3"
     inkscape:label="speechbubbles"
     style="display:inline">
    <path
       style="fill:#ffffff;stroke:none;stroke-width:0.903681"
       d="m 596.27276,170.38123 c -16.31997,0.31995 -32.60831,1.4108 -48.8326,2.84222 -25.05411,2.38901 -50.10306,6.34219 -73.60065,14.02951 -27.89893,9.94488 -48.71638,31.56982 -55.34376,55.88425 -10.55187,29.0285 -11.41871,60.88995 0.67054,89.74546 7.94366,17.79542 25.6983,31.77732 46.16857,39.96225 33.14617,13.66554 70.19372,20.98165 107.2628,20.6163 22.5091,0.0654 45.03191,-0.63237 67.45012,-2.26149 27.47213,-2.24109 55.11566,-7.87384 78.69349,-20.02809 15.67336,-8.14266 28.37196,-20.36007 34.64698,-34.79607 5.5581,-12.18457 6.59238,-25.39058 5.95454,-38.29918 -0.42844,-21.89951 -1.45986,-44.20644 -9.87603,-65.19599 -5.6571,-13.56089 -17.90086,-24.73037 -32.19149,-32.65786 -9.82269,-5.44862 -20.79035,-9.26305 -31.63283,-13.08804 -25.82484,-8.70867 -53.18733,-14.54143 -81.01435,-16.43366 -2.78074,-0.17356 -5.56756,-0.27721 -8.35533,-0.31961 z"
       id="path3286-6"
       inkscape:connector-curvature="0"
       sodipodi:nodetypes="csssssssc" />
    <path
       style="display:inline;fill:#ffffff;fill-rule:evenodd;stroke:none;stroke-width:1.36247px;stroke-linecap:butt;stroke-linejoin:miter;stroke-opacity:1"
       d="m -11.698607,1502.9614 c 47.285128,0.9709 41.020285,18.9206 23.991775,40.2832 13.099827,-1.4369 43.737529,-21.2257 25.570695,10.0555 39.667306,-11.3646 56.420658,15.5887 53.197356,27.1509 19.484341,-3.9803 39.465281,-0.6376 19.136541,40.2724 19.63803,-9.167 36.84145,-36.8642 34.60501,7.2244 15.89818,-5.4725 36.78638,-26.5581 39.43737,9.4172 21.01567,-17.7601 41.89473,-32.9121 60.6718,-7.9194 19.53008,-36.1747 39.245,-23.3546 52.60208,12.4772 6.27564,-43.4296 43.52626,-25.9104 66.90689,19.5777 -7.42371,-37.6335 -38.94668,-89.6447 54.67081,-13.5228 -39.72841,-55.9177 -44.6055,-77.4348 72.48794,-15.7856 -14.94217,-22.6503 -39.19887,-77.1061 56.32185,-18.4508 -64.83065,-67.3048 -26.58017,-74.4012 20.0383,-86.5626 -56.61095,-1.7957 -73.29896,-19.4105 -12.88074,-26.8793 -92.57779,-8.7403 -70.1637,-30.4201 -40.69585,-66.7128 -47.37424,27.6916 -40.57833,11.5769 -29.22077,-3.1512 -84.20036,29.1003 -49.08304,-16.958 -41.30815,-34.9119 -41.35702,19.0141 -54.17414,16.8415 -50.28863,-11.8494 -22.95791,24.5753 -47.24278,23.9494 -45.05674,14.2836 l -57.8602,-8.2257 -275.30273,5.4155 -12.063932,88.2476 c 72.623699,-4.1891 28.465227,14.6958 -14.960675,19.5663 z"
       id="path961"
       sodipodi:nodetypes="cccccccccccccccccccccccc" />
    <path
       style="color:#000000;display:inline;overflow:visible;visibility:visible;fill:#ffffff;fill-opacity:1;fill-rule:nonzero;stroke:none;stroke-width:0.98647px;marker:none;enable-background:accumulate"
       d="m 624.86468,2285.3556 c -7.281,-35.9524 12.13534,-131.4529 161.3985,-123.5877 149.26315,7.8642 173.53364,52.8058 177.17415,66.2874 3.64049,13.4827 35.19209,89.8831 -81.30591,110.1061 -116.49823,20.2239 -220.861,-1.1239 -257.26674,-52.8058 z"
       id="path3525-0"
       inkscape:connector-curvature="0" />
    <path
       style="color:#000000;display:inline;overflow:visible;visibility:visible;fill:#ffffff;fill-opacity:1;fill-rule:nonzero;stroke:none;stroke-width:1px;marker:none;enable-background:accumulate"
       d="m 777.45911,2075.5812 c 24.221,32.672 31.0089,45.658 8.1243,87.146 -22.8847,41.487 -7.3195,49.577 -7.3195,49.577 l 28.2503,-15.376 c 0,0 42.659,-91.848 -29.0551,-121.347 z"
       id="path3072-56"
       inkscape:connector-curvature="0" />
    <path
       style="color:#000000;display:inline;overflow:visible;visibility:visible;fill:#ffffff;fill-opacity:1;fill-rule:nonzero;stroke:none;stroke-width:1px;marker:none;enable-background:accumulate"
       d="m 787.3973,441.92617 c -47.0829,-20.24287 -67.22496,-54.55991 -84.15983,-115.70701 -17.59681,-45.717 -36.07245,-33.52653 -36.07245,-33.52653 l 6.37734,17.91035 c 0,0 -3.04742,117.01808 113.85494,131.32319 z"
       id="path3072-5-5"
       inkscape:connector-curvature="0"
       sodipodi:nodetypes="ccccc" />
    <path
       style="display:inline;fill:#ffffff;fill-opacity:1;stroke:none;stroke-width:1.10947"
       d="m 393.56677,1606.3671 c 21.51156,33.7205 38.79051,39.1501 50.26035,53.0664 11.46981,13.9172 -2.88402,43.4737 0.19353,53.5399 3.70439,9.4958 0.69509,16.2497 29.83986,39.4536 -46.26,-20.9908 -40.86354,-33.0957 -44.26871,-41.9175 -4.68096,-12.128 3.84885,-26.4644 -8.51834,-37.4754 -11.9791,-10.667 -55.59571,-40.8524 -64.07404,-63.4543 -8.47865,-22.6019 -12.84256,-23.9886 -12.84256,-23.9886 z"
       id="path3282-7"
       inkscape:connector-curvature="0"
       sodipodi:nodetypes="csccssscc" />
  </g>
  <g
     inkscape:groupmode="layer"
     id="layer1"
     inkscape:label="txt">
    <text
       xml:space="preserve"
       style="font-style:normal;font-variant:normal;font-weight:normal;font-stretch:normal;font-size:45px;line-height:1.25;font-family:Lavi;-inkscape-font-specification:Lavi;text-align:center;letter-spacing:0px;word-spacing:0px;text-anchor:middle;fill:#000000;fill-opacity:1;stroke:none"
       x="585.06763"
       y="242.04738"
       id="text4246-3-2-2"><tspan
         style="font-size:45px"
         sodipodi:role="line"
         x="585.06763"
         y="242.04738"
         id="tspan915">A caverna</tspan><tspan
         style="font-size:45px"
         sodipodi:role="line"
         x="585.06763"
         y="298.29736"
         id="tspan75067">do Lago dos</tspan><tspan
         style="font-size:45px"
         sodipodi:role="line"
         x="585.06763"
         y="354.54736"
         id="tspan905">Chifres!</tspan></text>
    <text
       xml:space="preserve"
       style="font-style:normal;font-variant:normal;font-weight:normal;font-stretch:normal;font-size:45px;line-height:1.25;font-family:Lavi;-inkscape-font-specification:Lavi;text-align:center;letter-spacing:0px;word-spacing:0px;text-anchor:middle;fill:#000000;fill-opacity:1;stroke:none"
       x="312.00537"
       y="1511.3002"
       id="text4246-3-2-2-3"><tspan
         style="font-size:45px"
         sodipodi:role="line"
         x="312.00537"
         y="1511.3002"
         id="tspan905-3">Carrot, esta é</tspan><tspan
         style="font-size:45px"
         sodipodi:role="line"
         x="312.00537"
         y="1567.5502"
         id="tspan916">a nossa chance!</tspan></text>
    <text
       xml:space="preserve"
       style="font-style:normal;font-variant:normal;font-weight:normal;font-stretch:normal;font-size:45px;line-height:1.25;font-family:Lavi;-inkscape-font-specification:Lavi;text-align:center;letter-spacing:0px;word-spacing:0px;text-anchor:middle;fill:#000000;fill-opacity:1;stroke:none"
       x="799.88574"
       y="2242.7385"
       id="text4246-3-2-2-3-5"><tspan
         style="font-size:45px"
         sodipodi:role="line"
         x="799.88574"
         y="2242.7385"
         id="tspan916-2">Eu conheço</tspan><tspan
         style="font-size:45px"
         sodipodi:role="line"
         x="799.88574"
         y="2298.9885"
         id="tspan958">essa caverna.</tspan></text>
    <text
       xml:space="preserve"
       style="font-style:normal;font-variant:normal;font-weight:normal;font-stretch:normal;font-size:45px;line-height:1.25;font-family:Lavi;-inkscape-font-specification:Lavi;text-align:center;letter-spacing:0px;word-spacing:0px;text-anchor:middle;fill:#ffffff;fill-opacity:1;stroke:none"
       x="201.94211"
       y="2549.3845"
       id="text4246-3-2-2-3-5-9"><tspan
         style="font-size:45px;text-align:start;text-anchor:start;fill:#ffffff"
         sodipodi:role="line"
         x="201.94211"
         y="2549.3845"
         id="tspan917">É uma longa passagem sinuosa que</tspan><tspan
         style="font-size:45px;text-align:start;text-anchor:start;fill:#ffffff"
         sodipodi:role="line"
         x="201.94211"
         y="2605.6345"
         id="tspan924">termina numa seção que desmoronou.</tspan><tspan
         style="font-size:45px;text-align:start;text-anchor:start;fill:#ffffff"
         sodipodi:role="line"
         x="201.94211"
         y="2661.8845"
         id="tspan79066" /></text>
    <text
       xml:space="preserve"
       style="font-style:normal;font-variant:normal;font-weight:normal;font-stretch:normal;font-size:45px;line-height:1.25;font-family:Lavi;-inkscape-font-specification:Lavi;text-align:center;letter-spacing:0px;word-spacing:0px;text-anchor:middle;fill:#ffffff;fill-opacity:1;stroke:none"
       x="1335.3069"
       y="3043.7258"
       id="text4246-3-2-2-3-5-9-7"><tspan
         style="font-size:45px;text-align:end;text-anchor:end;fill:#ffffff"
         sodipodi:role="line"
         x="1335.3069"
         y="3043.7258"
         id="tspan879">As estalactites dessa área que colapsou se amontoam</tspan><tspan
         style="font-size:45px;text-align:end;text-anchor:end;fill:#ffffff"
         sodipodi:role="line"
         x="1335.3069"
         y="3099.9758"
         id="tspan79073">numa parede de espetos. É uma armadilha mortal!</tspan></text>
    <text
       xml:space="preserve"
       style="font-style:normal;font-variant:normal;font-weight:normal;font-stretch:normal;font-size:45px;line-height:1.25;font-family:Lavi;-inkscape-font-specification:Lavi;text-align:center;letter-spacing:0px;word-spacing:0px;text-anchor:middle;fill:#000000;fill-opacity:1;stroke:none"
       x="1482.9749"
       y="2753.425"
       id="text4246-3-2-2-3-5-9-7-3"><tspan
         style="font-size:45px;text-align:start;text-anchor:start;fill:#ffffff"
         sodipodi:role="line"
         x="1482.9749"
         y="2753.425"
         id="tspan904">Tem uma pequena abertura </tspan><tspan
         style="font-size:45px;text-align:start;text-anchor:start;fill:#ffffff"
         sodipodi:role="line"
         x="1482.9749"
         y="2809.675"
         id="tspan80720">perto do final que é grande o</tspan><tspan
         style="font-size:45px;text-align:start;text-anchor:start;fill:#ffffff"
         sodipodi:role="line"
         x="1482.9749"
         y="2865.925"
         id="tspan888">suficiente para nós,</tspan></text>
    <text
       xml:space="preserve"
       style="font-style:normal;font-variant:normal;font-weight:normal;font-stretch:normal;font-size:45px;line-height:1.25;font-family:Lavi;-inkscape-font-specification:Lavi;text-align:center;letter-spacing:0px;word-spacing:0px;text-anchor:middle;fill:#000000;fill-opacity:1;stroke:none;stroke-width:1.25015"
       x="2301.0408"
       y="3219.4587"
       id="text4246-3-2-2-3-5-9-7-3-3"><tspan
         style="font-size:45px;text-align:end;text-anchor:end;fill:#ffffff;stroke-width:1.25015"
         sodipodi:role="line"
         x="2301.0408"
         y="3219.4587"
         id="tspan81547">mas aquele dragão não será capaz de</tspan><tspan
         style="font-size:45px;text-align:end;text-anchor:end;fill:#ffffff;stroke-width:1.25015"
         sodipodi:role="line"
         x="2301.0408"
         y="3275.7087"
         id="tspan898">escapar, e ele atingirá a parede em</tspan><tspan
         style="font-size:45px;text-align:end;text-anchor:end;fill:#ffffff;stroke-width:1.25015"
         sodipodi:role="line"
         x="2301.0408"
         y="3331.9587"
         id="tspan84713">velocidade máxima! Muahaha!</tspan></text>
  </g>
</svg>
