<?xml version="1.0" encoding="UTF-8" standalone="no"?>
<svg
   xmlns:dc="http://purl.org/dc/elements/1.1/"
   xmlns:cc="http://creativecommons.org/ns#"
   xmlns:rdf="http://www.w3.org/1999/02/22-rdf-syntax-ns#"
   xmlns:svg="http://www.w3.org/2000/svg"
   xmlns="http://www.w3.org/2000/svg"
   xmlns:xlink="http://www.w3.org/1999/xlink"
   xmlns:sodipodi="http://sodipodi.sourceforge.net/DTD/sodipodi-0.dtd"
   xmlns:inkscape="http://www.inkscape.org/namespaces/inkscape"
   id="svg2"
   version="1.1"
   inkscape:version="1.0.2 (e86c870879, 2021-01-15)"
   width="2481"
   height="3503"
   sodipodi:docname="E06P06.svg">
  <metadata
     id="metadata8">
    <rdf:RDF>
      <cc:Work
         rdf:about="">
        <dc:format>image/svg+xml</dc:format>
        <dc:type
           rdf:resource="http://purl.org/dc/dcmitype/StillImage" />
        <dc:title />
      </cc:Work>
    </rdf:RDF>
  </metadata>
  <defs
     id="defs6">
    <filter
       color-interpolation-filters="sRGB"
       id="filter4375-4-1-1"
       inkscape:label="deevad outline effect">
      <feFlood
         id="feFlood4377-7-9-0"
         flood-opacity="1"
         flood-color="rgb(0,0,0)"
         result="flood" />
      <feComposite
         id="feComposite4379-3-8-8"
         in2="SourceGraphic"
         in="flood"
         operator="in"
         result="composite1" />
      <feMorphology
         id="feMorphology4393-1-0-49"
         operator="dilate"
         radius="4"
         result="result3" />
      <feComposite
         id="feComposite4385-9-5-7"
         in2="result3"
         in="SourceGraphic"
         operator="over"
         result="composite2" />
    </filter>
    <filter
       color-interpolation-filters="sRGB"
       id="filter4375-4-1-1-1"
       inkscape:label="deevad outline effect">
      <feFlood
         id="feFlood4377-7-9-0-2"
         flood-opacity="1"
         flood-color="rgb(0,0,0)"
         result="flood" />
      <feComposite
         id="feComposite4379-3-8-8-5"
         in2="SourceGraphic"
         in="flood"
         operator="in"
         result="composite1" />
      <feMorphology
         id="feMorphology4393-1-0-49-5"
         operator="dilate"
         radius="4"
         result="result3" />
      <feComposite
         id="feComposite4385-9-5-7-4"
         in2="result3"
         in="SourceGraphic"
         operator="over"
         result="composite2" />
    </filter>
    <filter
       color-interpolation-filters="sRGB"
       id="filter4375-4-1-1-15"
       inkscape:label="deevad outline effect">
      <feFlood
         id="feFlood4377-7-9-0-4"
         flood-opacity="1"
         flood-color="rgb(0,0,0)"
         result="flood" />
      <feComposite
         id="feComposite4379-3-8-8-6"
         in2="SourceGraphic"
         in="flood"
         operator="in"
         result="composite1" />
      <feMorphology
         id="feMorphology4393-1-0-49-8"
         operator="dilate"
         radius="4"
         result="result3" />
      <feComposite
         id="feComposite4385-9-5-7-2"
         in2="result3"
         in="SourceGraphic"
         operator="over"
         result="composite2" />
    </filter>
    <filter
       color-interpolation-filters="sRGB"
       id="filter4375-4-1-1-8"
       inkscape:label="deevad outline effect">
      <feFlood
         id="feFlood4377-7-9-0-26"
         flood-opacity="1"
         flood-color="rgb(0,0,0)"
         result="flood" />
      <feComposite
         id="feComposite4379-3-8-8-51"
         in2="SourceGraphic"
         in="flood"
         operator="in"
         result="composite1" />
      <feMorphology
         id="feMorphology4393-1-0-49-6"
         operator="dilate"
         radius="4"
         result="result3" />
      <feComposite
         id="feComposite4385-9-5-7-1"
         in2="result3"
         in="SourceGraphic"
         operator="over"
         result="composite2" />
    </filter>
    <filter
       color-interpolation-filters="sRGB"
       id="filter4375-4-1-1-9"
       inkscape:label="deevad outline effect">
      <feFlood
         id="feFlood4377-7-9-0-25"
         flood-opacity="1"
         flood-color="rgb(0,0,0)"
         result="flood" />
      <feComposite
         id="feComposite4379-3-8-8-3"
         in2="SourceGraphic"
         in="flood"
         operator="in"
         result="composite1" />
      <feMorphology
         id="feMorphology4393-1-0-49-2"
         operator="dilate"
         radius="4"
         result="result3" />
      <feComposite
         id="feComposite4385-9-5-7-9"
         in2="result3"
         in="SourceGraphic"
         operator="over"
         result="composite2" />
    </filter>
    <filter
       color-interpolation-filters="sRGB"
       id="filter4375-4-1-1-19"
       inkscape:label="deevad outline effect">
      <feFlood
         id="feFlood4377-7-9-0-6"
         flood-opacity="1"
         flood-color="rgb(0,0,0)"
         result="flood" />
      <feComposite
         id="feComposite4379-3-8-8-2"
         in2="SourceGraphic"
         in="flood"
         operator="in"
         result="composite1" />
      <feMorphology
         id="feMorphology4393-1-0-49-7"
         operator="dilate"
         radius="4"
         result="result3" />
      <feComposite
         id="feComposite4385-9-5-7-6"
         in2="result3"
         in="SourceGraphic"
         operator="over"
         result="composite2" />
    </filter>
    <filter
       color-interpolation-filters="sRGB"
       id="filter4375-4-1-1-15-1"
       inkscape:label="deevad outline effect">
      <feFlood
         id="feFlood4377-7-9-0-4-4"
         flood-opacity="1"
         flood-color="rgb(0,0,0)"
         result="flood" />
      <feComposite
         id="feComposite4379-3-8-8-6-0"
         in2="SourceGraphic"
         in="flood"
         operator="in"
         result="composite1" />
      <feMorphology
         id="feMorphology4393-1-0-49-8-2"
         operator="dilate"
         radius="0.40000000000000002"
         result="result3" />
      <feComposite
         id="feComposite4385-9-5-7-2-1"
         in2="result3"
         in="SourceGraphic"
         operator="over"
         result="composite2" />
    </filter>
  </defs>
  <sodipodi:namedview
     pagecolor="#ffffff"
     bordercolor="#666666"
     borderopacity="1"
     objecttolerance="10"
     gridtolerance="10"
     guidetolerance="10"
     inkscape:pageopacity="0"
     inkscape:pageshadow="2"
     inkscape:window-width="1920"
     inkscape:window-height="1022"
     id="namedview4"
     showgrid="false"
     inkscape:zoom="0.55154329"
     inkscape:cx="1210.7635"
     inkscape:cy="3006.7902"
     inkscape:window-x="0"
     inkscape:window-y="28"
     inkscape:window-maximized="1"
     inkscape:current-layer="layer1"
     inkscape:document-rotation="0" />
  <g
     inkscape:groupmode="layer"
     id="layer2"
     inkscape:label="artwork"
     sodipodi:insensitive="true">
    <image
       sodipodi:absref="/home/cherry/Workspace/peppercarrot/webcomics/ep06_The-Potion-Contest/lang/gfx_Pepper-and-Carrot_by-David-Revoy_E06P06.png"
       xlink:href="../gfx_Pepper-and-Carrot_by-David-Revoy_E06P06.png"
       y="0"
       x="0"
       id="image10"
       height="3503"
       width="2481" />
  </g>
  <g
     inkscape:groupmode="layer"
     id="layer3"
     inkscape:label="speechbubbles" />
  <g
     inkscape:groupmode="layer"
     id="layer1"
     inkscape:label="txt">
    <path
       style="color:#000000;display:inline;overflow:visible;visibility:visible;fill:#ffffff;fill-opacity:1;fill-rule:nonzero;stroke:none;stroke-width:0.888863px;marker:none;enable-background:accumulate"
       d="m 2357.5693,2342.0444 c -28.3601,3.1684 -38.0544,23.849 3.1408,34.946 -3.7234,-1.0344 -15.3424,-19.8522 -10.1988,26.5832 -8.6389,-4.6316 -15.5619,-2.4798 -11.7653,42.0371 -6.9231,1.5203 -25.6765,-22.5922 -10.7163,26.3437 -15.3411,-16.3247 -25.0967,-15.5572 -32.783,-8.4591 -27.4882,-34.2612 -27.584,-14.065 -35.6455,-9.7049 -9.0772,-9.6359 -18.9799,-9.5417 -30.2918,7.1614 -2.9909,-13.0625 -13.1177,-10.1506 -25.5498,-2.0796 -10.0045,-30.707 -36.0835,-13.5213 -55.6228,-15.8185 -25.2714,-29.8912 -62.8737,-5.1496 -95.0274,-4.5494 -26.2109,5.5291 -59.6671,-1.6029 -73.7911,25.0461 2.7885,-23.4778 -7.3494,-11.1539 -17.6696,1.6744 -2.1902,-4.5274 10.8344,-26.6591 -23.2422,5.7084 0.6869,-10.8386 4.1699,-25.0498 -16.5294,-10.1036 -2.5465,-6.6432 13.8774,-33.3376 -28.2899,1.8959 -0.4509,-9.4569 7.2532,-28.2055 -22.0709,-4.7643 22.9045,-56.7178 9.6209,-50.4217 -6.5821,-39.0427 12.0399,-33.4279 27.6071,-74.9021 -4.931,-72.7114 25.3257,-8.1921 24.6128,-19.5738 20.7691,-37.3227 32.8076,35.2186 35.924,7.8689 49.6532,2.8831 14.7497,5.6651 28.7217,27.2612 45.2516,-3.5554 26.711,11.9829 31.6786,0.3778 40.2042,-7.3681 46.7162,23.0906 45.1687,3.6159 65.9681,3.8491 12.9851,29.4969 40.1884,6.4777 60.4262,9.1885 26.0604,23.8665 57.0815,8.016 76.4043,-4.2044 8.2491,9.915 14.2946,25.1212 34.1685,7.1237 13.6784,19.0543 27.5925,19.583 41.773,-0.8705 4.1212,12.0671 14.804,13.8059 40.8812,-8.688 -11.5197,20.37 4.4788,27.9552 22.0667,34.802 z"
       id="path3557-6-8"
       inkscape:connector-curvature="0"
       sodipodi:nodetypes="cccccccccccccccccccccccccccccc" />
    <path
       style="color:#000000;display:inline;overflow:visible;visibility:visible;fill:#ffffff;fill-opacity:1;fill-rule:nonzero;stroke:none;stroke-width:1px;marker:none;enable-background:accumulate"
       d="m 2074.0862,2881.1509 c 46.5196,-44.7666 84.7714,-93.2915 140.898,-133.6915 l -64.6109,18.3355 c 10.7976,-19.8618 36.819,-35.9338 57.6712,-53.2926 l -41.1784,7.1376 c 26.295,-46.8013 74.1792,-83.2229 111.628,-124.6613 l -71.6626,16.2228 c -31.3559,43.7924 -52.6078,88.8408 -95.3295,131.22 l 40.2993,-4.26 c -12.0888,15.5657 -25.0382,30.9745 -41.8344,45.6827 l 50.9689,-8.3924 z"
       id="path4032"
       inkscape:connector-curvature="0"
       sodipodi:nodetypes="cccccccccccc" />
    <path
       style="color:#000000;fill:#ffffff;fill-opacity:1;fill-rule:nonzero;stroke:none;stroke-width:1px;marker:none;visibility:visible;display:inline;overflow:visible;enable-background:accumulate"
       d="m 1289.2091,1819.117 c -31.0257,46.7281 -117.1751,53.7297 -124.3416,64.4436 -7.1664,10.714 -18.9794,17.7202 -13.2544,58.1689 5.7251,40.4488 34.1453,42.2623 34.1453,42.2623 l 6.0659,-31.5639 c 0,0 -18.6046,-42.3701 -8.7142,-50.4722 9.8903,-8.1021 96.7246,-35.2099 106.099,-82.8387 z"
       id="path3994"
       inkscape:connector-curvature="0"
       sodipodi:nodetypes="csscczc" />
    <path
       style="fill:#ffffff;stroke:none"
       d="m 702.76757,2077.5674 c -1.45586,-55.3057 30.57356,-121.0462 82.98525,-131.4812 52.41171,-10.435 377.07328,-20.87 404.73498,-13.5657 27.6619,7.3046 61.1472,20.8701 88.8089,40.6966 27.6617,19.8267 49.5,53.2187 45.1322,80.3497 -4.3675,27.1311 -24.7499,82.4367 -43.6764,97.0457 -18.9264,14.609 -69.8822,49.0446 -120.8382,55.3056 -50.9558,6.2611 -110.647,11.4785 -133.9411,10.4351 -23.2941,-1.0436 -142.67639,-7.3045 -142.67639,-7.3045 0,0 -64.05871,4.1739 -84.44113,-6.2611 -20.38228,-10.4351 -72.79399,-28.1745 -88.80869,-72.0015 -16.01471,-43.8271 -7.27942,-15.6526 -7.27942,-53.2187 z"
       id="path3971"
       inkscape:connector-curvature="0" />
    <path
       style="color:#000000;display:inline;overflow:visible;visibility:visible;fill:#ffffff;fill-opacity:1;fill-rule:nonzero;stroke:none;stroke-width:1px;marker:none;enable-background:accumulate"
       d="m 680.22602,1486.7604 c -5.7388,-87.7154 12.86193,-155.7946 265.06009,-154.9226 252.19829,0.8726 243.64089,22.6341 256.01499,139.0532 12.3743,116.4191 -96.927,149.5987 -251.52968,137.6654 -154.60258,-11.9332 -249.64403,4.1661 -269.5454,-121.796 z"
       id="path5026"
       inkscape:connector-curvature="0"
       sodipodi:nodetypes="csssc" />
    <path
       style="color:#000000;display:inline;overflow:visible;visibility:visible;fill:#ffffff;fill-opacity:1;fill-rule:nonzero;stroke:none;stroke-width:0.981672px;marker:none;enable-background:accumulate"
       d="M 225.40609,162.42725 C 236.80687,70.025659 328.47241,40.13482 569.17198,66.334373 698.10364,80.368182 826.48074,38.888213 829.49057,227.24077 831.93045,379.92625 631.05777,346.45096 559.6713,353.09819 494.29329,359.18592 289.62314,348.3367 251.84936,300.7139 228.20385,270.90329 223.50598,191.10373 225.40609,162.42725 Z"
       id="path4546"
       inkscape:connector-curvature="0"
       sodipodi:nodetypes="cssssc" />
    <path
       style="color:#000000;fill:#ffffff;fill-opacity:1;fill-rule:nonzero;stroke:none;stroke-width:1px;marker:none;visibility:visible;display:inline;overflow:visible;enable-background:accumulate"
       d="m 1203.0184,887.40037 c 9.7897,-31.78056 33.2657,-93.44302 41.6251,-104.01713 16.7886,16.60029 51.1856,34.66278 53.2831,30.41448 2.0975,-4.24831 8.1459,-87.95602 13.7232,-90.09796 5.5773,-2.14185 25.595,-0.60077 32.7182,4.17091 -21.8012,-10.89775 -38.8885,-17.1027 -46.1469,-10.92009 -5.0867,3.81832 -9.3036,69.32151 -9.4082,73.85651 -17.1616,-8.08915 -51.127,-29.56911 -58.1912,-29.24693 -6.7678,7.85898 -32.7532,38.11299 -52.5246,89.60217 -19.7713,51.48915 24.9213,36.23804 24.9213,36.23804 z"
       id="path5901"
       inkscape:connector-curvature="0"
       sodipodi:nodetypes="ccccccccsc" />
    <path
       style="color:#000000;display:inline;overflow:visible;visibility:visible;fill:#ffffff;fill-opacity:1;fill-rule:nonzero;stroke:none;stroke-width:1px;marker:none;enable-background:accumulate"
       d="m 1401.6849,1181.2095 c -27.5605,-12.1945 -55.6766,-24.2771 -5.262,-52.1811 -47.2998,6.2773 -18.0343,-9.1238 -6.1844,-19.594 -84.7011,19.0747 -29.4487,-13.8994 -8.2209,-34.2199 -18.9735,7.8167 -49.4992,30.4542 -37.3224,-1.6943 -5.9997,1.3326 -13.1306,5.4183 -15.8966,-1.12 -7.717,4.257 -13.3889,5.2512 -16.6069,2.3303 -7.6901,7.9172 -12.5713,9.9252 -12.2825,1.0585 -7.2425,6.498 -9.3496,4.1382 -11.0582,1.0914 -12.5115,14.0323 -16.9176,9.861 -21.622,6.3591 -7.0976,8.4363 -15.063,6.2688 -23.7565,-4.7999 -9.6236,14.4135 -19.4937,13.2563 -29.5017,3.3723 -2.1798,11.4527 -8.196,22.8193 -14.2658,-1.3211 -4.1356,1.8189 -8.3748,10.0959 -21.4959,-15.4634 -1.9123,27.6595 -47.1621,8.8918 -66.9329,-5.6894 5.3838,21.6505 -5.8635,36.1135 -39.459,13.6166 -2.0414,8.6043 -13.0628,21.7288 -30.9279,20.1769 18.0595,10.9341 18.8355,16.9041 -23.5762,10.4698 29.4235,9.3464 56.5197,18.6304 10.2929,25.949 10.674,3.6836 46.1033,-3.3589 6.3255,36.2507 27.6832,-8.2355 52.6496,-9.8987 59.2856,26.5684 15.0675,-9.1397 31.5854,-13.4245 43.86,8.8082 12.0344,-9.9404 28.3968,-7.0379 36.8083,-1.7889 2.6321,-11.1694 20.5961,-27.9262 43.3851,3.9384 1.9158,-6.3266 6.6905,-34.4188 26.3035,1.3989 5.6855,-4.2941 13.1771,-35.1039 66.094,2.4656 -8.5893,-35.8256 16.3664,-14.4447 36.1962,-1.8052 -9.3721,-22.5686 5.7311,-23.8896 38.268,-10.0761 -24.783,-21.8549 1.1505,-15.3092 17.5527,-14.1008 z"
       id="path3549-3-3-0"
       inkscape:connector-curvature="0"
       sodipodi:nodetypes="ccccccccccccccccccccccccccccc" />
    <path
       style="color:#000000;display:inline;overflow:visible;visibility:visible;fill:#ffffff;fill-opacity:1;fill-rule:nonzero;stroke:none;stroke-width:1px;marker:none;enable-background:accumulate"
       d="m 1019.1515,949.29982 c 32.7788,-50.83022 211.0657,-46.49099 270.3849,-24.46884 59.3191,22.02187 81.3914,59.94869 84.1504,73.40666 2.7589,13.45776 -4.1385,75.85346 -34.4878,88.08806 -30.3495,12.2344 -117.2587,18.3516 -147.6081,18.3516 -30.3492,0 -127.2311,-7.7872 -151.7469,-25.6924 -23.4518,-17.1283 -53.47137,-78.855 -20.6925,-129.68508 z"
       id="path3330"
       inkscape:connector-curvature="0"
       sodipodi:nodetypes="zsssssz" />
    <path
       style="color:#000000;fill:#ffffff;fill-opacity:1;fill-rule:nonzero;stroke:none;stroke-width:1px;marker:none;visibility:visible;display:inline;overflow:visible;enable-background:accumulate"
       d="m 230.19051,201.68762 c -39.82971,-13.0236 -81.14934,-54.88095 -87.61927,-64.12604 20.80165,9.89413 84.5572,37.01161 111.86997,40.87436 23.18215,3.27863 -24.2507,23.25168 -24.2507,23.25168 z"
       id="path3940"
       inkscape:connector-curvature="0"
       sodipodi:nodetypes="ccsc" />
    <path
       style="color:#000000;display:inline;overflow:visible;visibility:visible;fill:#ffffff;fill-opacity:1;fill-rule:nonzero;stroke:none;stroke-width:1px;marker:none;enable-background:accumulate"
       d="m 1056.6594,977.05268 c 6.3864,-7.40428 33.9873,-29.1106 29.9274,-2.20512 44.3441,-31.0453 75.2755,-15.05454 106.9693,-1.73732 10.9837,-9.61672 15.3161,-25.67588 43.1768,-18.94588 -1.8985,-10.84512 9.1989,-17.02448 31.8926,-19.04097 -27.7306,-9.28176 -31.7354,-16.32886 23.5456,-17.79208 -40.8489,-4.88648 -78.8132,-10.20466 -25.8896,-29.12271 -14.9688,-2.12681 -54.7971,14.10496 -26.2951,-42.43907 -29.723,15.986 -59.4771,23.43604 -86.2635,-19.19692 -13.7958,14.33016 -31.8523,23.10833 -58.2704,-1.09067 -9.668,14.63729 -46.9532,12.10107 -59.9491,7.58913 23.9952,19.94998 20.894,30.49275 -16.7359,28.31453 56.2839,37.29437 6.1174,27.39058 -5.5511,34.18294 46.9512,15.68262 22.2974,26.64747 10.8815,38.92961 56.3538,6.2504 33.5947,25.48356 32.5615,42.55453 z"
       id="path3549-3"
       inkscape:connector-curvature="0"
       sodipodi:nodetypes="ccccccccccccccc" />
    <path
       style="fill:#ffffff;stroke:none"
       d="m 1751.2581,214.31218 c -13.7553,-55.38489 16.4288,-101.93151 36.5113,-113.81941 20.0825,-11.88788 54.9428,-26.722299 72.5066,-29.724665 17.5636,-3.002365 296.8399,-16.549367 313.7689,-9.820571 16.929,6.728795 92.9225,30.827698 110.6796,64.928456 17.7572,34.10066 21.4846,95.87083 -0.2146,115.74259 -21.6996,19.87174 -41.909,58.26709 -168.9706,66.11381 -127.0615,7.84672 -294.6423,-3.70899 -332.1139,-43.70535 -21.1244,-22.54768 -32.1673,-49.71486 -32.1673,-49.71486 z"
       id="path3286"
       inkscape:connector-curvature="0"
       sodipodi:nodetypes="csssssssc" />
    <path
       style="color:#000000;display:inline;overflow:visible;visibility:visible;fill:#ffffff;fill-opacity:1;fill-rule:nonzero;stroke:none;stroke-width:1.01241px;marker:none;enable-background:accumulate"
       d="m 1278.1923,336.82201 c -79.1173,-1.33637 -196.8198,-15.81117 -224.6865,-57.1844 -27.8667,-41.37323 -29.7682,-95.26135 12.6907,-122.25994 42.4588,-26.99858 117.9609,-52.85544 186.7704,-49.88441 68.8094,2.97104 161.2668,25.47997 187.4806,64.31634 26.2136,38.83629 18.0963,126.22258 -66.9938,149.23344 -85.0902,23.01096 -95.2614,15.77897 -95.2614,15.77897 z"
       id="path3970"
       inkscape:connector-curvature="0" />
    <path
       style="fill:#ffffff;stroke:none"
       d="m 1618.3213,157.41564 c 13.9614,20.64118 23.9674,33.55064 35.9963,35.28944 12.0286,1.7388 25.9869,4.56755 36.5612,-2.65108 10.5742,-7.21868 30.2714,-12.80131 37.2986,-8.61123 7.0273,4.19022 32.3731,20.26938 37.9024,39.44478 5.5292,19.1755 34.1537,-13.68611 34.1537,-13.68611 0,0 -20.7993,-31.54082 -26.302,-35.96915 -5.503,-4.42841 -18.9396,-21.25501 -48.9021,-12.67692 -29.9625,8.57826 -46.5379,22.30117 -61.3531,22.946 -14.8151,0.64488 -36.063,-8.28143 -45.355,-24.08573 z"
       id="path3137"
       inkscape:connector-curvature="0" />
    <path
       style="color:#000000;display:inline;overflow:visible;visibility:visible;fill:#ffffff;fill-opacity:1;fill-rule:nonzero;stroke:none;stroke-width:1px;marker:none;enable-background:accumulate"
       d="m 214.70611,1495.0365 c -5.7849,-25.0027 26.42149,-56.2418 52.07504,-59.5715 25.65366,-3.3296 113.77484,-7.806 170.63201,-2.0087 56.85705,5.7974 107.64459,7.5965 112.64476,38.2121 5.00016,30.6157 -35.35999,58.5413 -73.96757,69.188 -38.60757,10.6467 -116.5877,13.703 -167.68125,4.6092 -51.09347,-9.0938 -90.58869,-30.0318 -93.70299,-50.4291 z"
       id="path3064"
       inkscape:connector-curvature="0" />
    <path
       style="color:#000000;fill:#ffffff;fill-opacity:1;fill-rule:nonzero;stroke:none;stroke-width:1px;marker:none;visibility:visible;display:inline;overflow:visible;enable-background:accumulate"
       d="m 137.71566,1510.219 c 26.24678,-47.6331 46.66094,-50.5494 61.24248,-54.4378 1.94421,4.8605 6.80472,12.6373 6.80472,12.6373 0,0 28.19098,-10.6931 39.85622,-10.6931 11.66523,0 11.66523,16.5258 11.66523,16.5258 0,0 -54.43776,22.3583 -65.13089,31.1072 -4.86051,-13.6094 -8.74892,-19.442 -8.74892,-25.2746 -8.74893,-0.9721 -35.96781,13.6094 -45.68884,30.1352 z"
       id="path4456"
       inkscape:connector-curvature="0" />
    <path
       style="color:#000000;display:inline;overflow:visible;visibility:visible;fill:#ffffff;fill-opacity:1;fill-rule:nonzero;stroke:none;stroke-width:1px;marker:none;enable-background:accumulate"
       d="m 1254.5526,1667.1647 c -55.7004,-25.2114 -135.7652,27.6515 -148.5829,21.9077 -12.8176,-5.7438 -27.4707,-4.5471 -47.0149,-49.0136 -19.5442,-44.4666 4.3627,-66.0331 4.3627,-66.0331 l 24.5205,27.3787 c 0,0 9.3781,55.3408 23.0055,56.5771 13.6271,1.2365 106.5141,-31.9768 143.7091,9.1832 z"
       id="path3994-8"
       inkscape:connector-curvature="0"
       sodipodi:nodetypes="csscczc" />
    <path
       style="color:#000000;fill:#ffffff;fill-opacity:1;fill-rule:nonzero;stroke:none;stroke-width:1px;marker:none;visibility:visible;display:inline;overflow:visible;enable-background:accumulate"
       d="m 2197.0163,1501.9723 c 4.8534,-9.3033 25.8293,-36.5767 22.744,-2.7707 33.7003,-39.0075 57.2074,-18.9156 81.2938,-2.1829 8.3473,-12.0831 11.6398,-32.261 32.8132,-23.8049 -1.4428,-13.6266 6.991,-21.3908 24.2375,-23.9245 -21.0745,-11.6622 -24.118,-20.5168 17.8941,-22.3552 -31.0441,-6.1398 -59.896,-12.8219 -19.6754,-36.5919 -11.3759,-2.6723 -41.6444,17.7225 -19.9837,-53.3235 -22.5886,20.0859 -45.2009,29.4468 -65.5578,-24.1204 -10.4845,18.0054 -24.2071,29.035 -44.284,-1.3704 -7.3475,18.3914 -35.6833,15.2046 -45.5597,9.5355 18.2357,25.0666 15.8788,38.3133 -12.7189,35.5764 42.7743,46.8593 4.649,34.4155 -4.2187,42.9499 35.6816,19.7048 16.9454,33.4819 8.2696,48.914 42.8275,7.8535 25.5312,32.0194 24.746,53.4686 z"
       id="path3549-3-5"
       inkscape:connector-curvature="0"
       sodipodi:nodetypes="ccccccccccccccc" />
    <flowRoot
       xml:space="preserve"
       id="flowRoot4133-6-9-4-8"
       style="color:#000000;font-style:normal;font-variant:normal;font-weight:normal;font-stretch:normal;line-height:0.01%;font-family:Arial;-inkscape-font-specification:Arial;letter-spacing:0.00204969px;word-spacing:0px;display:inline;overflow:visible;visibility:visible;fill:#ffffff;fill-opacity:1;fill-rule:nonzero;stroke:#ffffff;stroke-width:0.0836072;stroke-linecap:butt;stroke-linejoin:miter;stroke-miterlimit:4;stroke-dasharray:none;stroke-dashoffset:0;stroke-opacity:1;marker:none;filter:url(#filter4375-4-1-1-15-1);enable-background:accumulate"
       transform="matrix(2.7291662,-11.005731,17.087611,16.285614,-21262.529,-2289.3687)"
       inkscape:transform-center-x="170.13008"
       inkscape:transform-center-y="-0.00050920411"><flowRegion
         id="flowRegion4135-2-9-3-5"
         style="stroke-width:0.866467"><rect
           id="rect4137-1-7-1-2"
           width="119.5832"
           height="24.708082"
           x="1125.3193"
           y="1078.5308"
           style="color:#000000;letter-spacing:0.00204969px;display:inline;overflow:visible;visibility:visible;fill:#ffffff;fill-opacity:1;fill-rule:nonzero;stroke:#ffffff;stroke-width:0.0836072;stroke-linecap:butt;stroke-linejoin:miter;stroke-miterlimit:4;stroke-dasharray:none;stroke-dashoffset:0;stroke-opacity:1;marker:none;filter:url(#filter4375-4-1-1-15-1);enable-background:accumulate" /></flowRegion><flowPara
         id="flowPara4139-2-8-6-8"
         style="color:#000000;font-style:normal;font-variant:normal;font-weight:normal;font-stretch:normal;font-size:12px;line-height:125%;font-family:'Nanum Pen Script OTF';-inkscape-font-specification:'Nanum Pen Script OTF';letter-spacing:0.00204969px;word-spacing:0.00204969px;display:inline;overflow:visible;visibility:visible;fill:#ffffff;fill-opacity:1;fill-rule:nonzero;stroke:#ffffff;stroke-width:0.0836072;stroke-linecap:butt;stroke-linejoin:miter;stroke-miterlimit:4;stroke-dasharray:none;stroke-dashoffset:0;stroke-opacity:1;marker:none;filter:url(#filter4375-4-1-1-15-1);enable-background:accumulate"><flowSpan
           style="font-size:11.926px;fill:#ffffff;stroke:#ffffff;stroke-width:0.0786616;stroke-opacity:1"
           id="flowSpan3475">부</flowSpan><flowSpan
           style="font-size:13.35px;fill:#ffffff;stroke:#ffffff;stroke-width:0.0786616;stroke-opacity:1"
           id="flowSpan3477">우</flowSpan><flowSpan
           style="font-size:15.13px;fill:#ffffff;stroke:#ffffff;stroke-width:0.0786616;stroke-opacity:1"
           id="flowSpan3479">우</flowSpan><flowSpan
           style="font-size:17.7999px;fill:#ffffff;stroke:#ffffff;stroke-width:0.0786616;stroke-opacity:1"
           id="flowSpan3481">우</flowSpan><flowSpan
           style="font-size:20.4699px"
           id="flowSpan3483">우<flowSpan
   style="stroke:#ffffff;stroke-width:0.0553902"
   id="flowSpan4289">웅</flowSpan></flowSpan></flowPara></flowRoot>
    <path
       style="color:#000000;display:inline;overflow:visible;visibility:visible;fill:#ffffff;fill-opacity:1;fill-rule:nonzero;stroke:none;stroke-width:0.74518px;marker:none;enable-background:accumulate"
       d="m 1948.0281,2485.1794 c -1.6372,-27.994 14.0783,-49.7975 58.8388,-72.9861 44.7608,-23.1887 107.1724,-25.2718 123.4043,-21.261 16.2321,4.011 96.0881,12.7076 112.6187,31.6336 16.5306,18.9259 29.585,25.5766 24.603,45.6561 -4.9817,20.0794 -9.9407,41.3062 -29.1436,50.2607 -19.2029,8.9547 -156.5526,32.8583 -179.2085,30.685 -22.6559,-2.1734 -59.2113,0.5906 -78.8274,-11.1063 -19.8868,-11.8583 -30.6482,-24.8878 -32.2853,-52.882 z"
       id="path3373"
       inkscape:connector-curvature="0"
       sodipodi:nodetypes="zsssssssz" />
    <path
       style="color:#000000;display:inline;overflow:visible;visibility:visible;fill:#ffffff;fill-opacity:1;fill-rule:nonzero;stroke:none;stroke-width:1px;marker:none;enable-background:accumulate"
       d="m 2459.0036,2515.4607 c -41.6014,3.4403 -55.8219,25.8951 4.6072,37.9442 -5.462,-1.1231 -22.5059,-21.5554 -14.9607,28.8639 -12.6725,-5.029 -22.8273,-2.6925 -17.2584,45.6438 -10.1555,1.6508 -37.6648,-24.5305 -15.7196,28.6039 -22.5038,-17.7253 -36.8144,-16.8919 -48.0893,-9.1848 -40.3223,-37.2008 -40.4629,-15.2719 -52.2881,-10.5377 -13.3154,-10.4626 -27.8414,-10.3603 -44.435,7.7759 -4.3872,-14.1832 -19.2422,-11.0215 -37.4786,-2.258 -14.6759,-33.3416 -52.9308,-14.6813 -81.5931,-17.1757 -37.0702,-32.4557 -92.2288,-5.5914 -139.395,-4.9397 -38.4485,6.0035 -87.5256,-1.7404 -108.2438,27.1949 4.0906,-25.4921 -10.7809,-12.1108 -25.9195,1.8181 -3.2125,-4.9159 15.8932,-28.9464 -34.0936,6.1981 1.0073,-11.7685 6.1169,-27.199 -24.2468,-10.9704 -3.7358,-7.2131 20.3565,-36.1978 -41.4985,2.0585 -0.6615,-10.2682 10.6397,-30.6253 -32.3756,-5.1729 33.5986,-61.584 14.1125,-54.7478 -9.6553,-42.3925 17.6613,-36.2959 40.4966,-81.3284 -7.2332,-78.9497 37.1501,-8.895 36.1044,-21.2532 30.466,-40.5249 48.1253,38.2402 52.6968,8.544 72.8361,3.1305 21.6363,6.1511 42.1315,29.6001 66.3794,-3.8604 39.1819,13.0109 46.4691,0.4101 58.9752,-8.0003 68.5274,25.0717 66.2578,3.9261 96.768,4.1794 19.048,32.0275 58.9525,7.0334 88.639,9.9768 38.2278,25.9141 83.7326,8.7037 112.0771,-4.5652 12.1004,10.7657 20.9684,27.2766 50.1215,7.735 20.0649,20.689 40.4752,21.263 61.2766,-0.9453 6.0453,13.1025 21.7158,14.9904 59.9683,-9.4334 -16.898,22.1178 6.5701,30.3537 32.3697,37.7879 z"
       id="path3557-6"
       inkscape:connector-curvature="0"
       sodipodi:nodetypes="cccccccccccccccccccccccccccccc" />
    <path
       style="color:#000000;fill:#ffffff;fill-opacity:1;fill-rule:nonzero;stroke:none;stroke-width:1px;marker:none;visibility:visible;display:inline;overflow:visible;enable-background:accumulate"
       d="m 1055.421,218.45176 c -34.3695,-15.0506 -68.37405,-58.96265 -73.54186,-68.52491 17.76992,10.9475 72.42026,41.29895 96.28386,46.5603 20.2546,4.46569 -22.742,21.96461 -22.742,21.96461 z"
       id="path3940-5"
       inkscape:connector-curvature="0"
       sodipodi:nodetypes="ccsc" />
    <path
       style="color:#000000;display:inline;overflow:visible;visibility:visible;fill:#ffffff;fill-opacity:1;fill-rule:nonzero;stroke:none;stroke-width:0.947029px;marker:none;enable-background:accumulate"
       d="M 92.470939,986.99976 C 88.076381,897.3011 102.32012,827.68271 295.44408,828.57443 c 193.12397,0.89225 186.57103,23.14592 196.04667,142.19717 9.47575,119.0513 -74.22309,152.981 -192.612,140.7778 -118.38889,-12.2029 -191.16808,4.2604 -206.407811,-124.54964 z"
       id="path5026-1"
       inkscape:connector-curvature="0"
       sodipodi:nodetypes="csssc" />
    <path
       style="color:#000000;fill:#ffffff;fill-opacity:1;fill-rule:nonzero;stroke:none;stroke-width:1px;marker:none;visibility:visible;display:inline;overflow:visible;enable-background:accumulate"
       d="m 473.6422,713.90361 c -65.81214,39.7772 -130.63061,33.88769 -144.80302,46.94083 -14.17241,13.05314 -30.54169,25.76343 -26.63221,59.03329 3.90948,33.26985 37.80607,35.54971 37.80607,35.54971 l 24.66941,-19.49588 c 0,0 -21.40086,-31.48149 -4.40989,-47.77641 16.99097,-16.29493 85.74714,-23.65683 113.36964,-74.25154 z"
       id="path3994-89"
       inkscape:connector-curvature="0"
       sodipodi:nodetypes="czzcczc" />
    <flowRoot
       xml:space="preserve"
       id="flowRoot157"
       style="font-style:normal;font-variant:normal;font-weight:normal;font-stretch:normal;line-height:1.25;font-family:'Xiaolai SC';-inkscape-font-specification:'Xiaolai SC';text-align:center;letter-spacing:0px;word-spacing:0px;text-anchor:middle;fill:#000000;fill-opacity:1;stroke:none"
       transform="matrix(1.0820359,0,0,1.0820359,68.404963,-176.68345)"><flowRegion
         id="flowRegion149"
         style="font-style:normal;font-variant:normal;font-weight:normal;font-stretch:normal;font-family:'Xiaolai SC';-inkscape-font-specification:'Xiaolai SC'"><rect
           id="rect147"
           width="602.40173"
           height="310.73996"
           x="120.55251"
           y="265.53046"
           style="font-style:normal;font-variant:normal;font-weight:normal;font-stretch:normal;font-family:'Xiaolai SC';-inkscape-font-specification:'Xiaolai SC';text-align:center;text-anchor:middle;" /></flowRegion><flowPara
         style="font-style:normal;font-variant:normal;font-weight:normal;font-stretch:normal;font-size:48px;font-family:'Xiaolai SC';-inkscape-font-specification:'Xiaolai SC';text-align:center;text-anchor:middle"
         id="flowPara153">方今前試演이</flowPara><flowPara
         style="font-style:normal;font-variant:normal;font-weight:normal;font-stretch:normal;font-size:48px;font-family:'Xiaolai SC';-inkscape-font-specification:'Xiaolai SC';text-align:center;text-anchor:middle"
         id="flowPara155">七味氏에겐 꽤</flowPara><flowPara
         style="font-style:normal;font-variant:normal;font-weight:normal;font-stretch:normal;font-size:48px;font-family:'Xiaolai SC';-inkscape-font-specification:'Xiaolai SC';text-align:center;text-anchor:middle"
         id="flowPara291">負擔이 되는 듯 합니다!</flowPara></flowRoot>
    <flowRoot
       xml:space="preserve"
       id="flowRoot165"
       style="font-style:normal;font-variant:normal;font-weight:normal;font-stretch:normal;line-height:1.25;font-family:'Xiaolai SC';-inkscape-font-specification:'Xiaolai SC';text-align:center;letter-spacing:0px;word-spacing:0px;text-anchor:middle;fill:#000000;fill-opacity:1;stroke:#000000;stroke-width:0.949277;stroke-miterlimit:4;stroke-dasharray:none;stroke-opacity:1"
       transform="matrix(0.89681214,0,-0.07852858,1.0454075,781.87077,577.19756)"><flowRegion
         id="flowRegion161"
         style="font-style:normal;font-variant:normal;font-weight:normal;font-stretch:normal;font-family:'Xiaolai SC';-inkscape-font-specification:'Xiaolai SC'"><rect
           id="rect159"
           width="602.40173"
           height="310.73996"
           x="120.55251"
           y="265.53046"
           style="font-style:normal;font-variant:normal;font-weight:normal;font-stretch:normal;font-family:'Xiaolai SC';-inkscape-font-specification:'Xiaolai SC';text-align:center;text-anchor:middle;stroke:#000000;stroke-width:0.94927733;stroke-miterlimit:4;stroke-dasharray:none;stroke-opacity:1;" /></flowRegion><flowPara
         style="font-style:normal;font-variant:normal;font-weight:normal;font-stretch:normal;font-size:48px;font-family:'Xiaolai SC';-inkscape-font-specification:'Xiaolai SC';text-align:center;letter-spacing:1.5px;text-anchor:middle;stroke:#000000;stroke-width:0.949277;stroke-miterlimit:4;stroke-dasharray:none;stroke-opacity:1"
         id="flowPara163">안 돼요!</flowPara></flowRoot>
    <flowRoot
       xml:space="preserve"
       id="flowRoot175"
       style="font-style:normal;font-variant:normal;font-weight:normal;font-stretch:normal;line-height:1.25;font-family:'Xiaolai SC';-inkscape-font-specification:'Xiaolai SC';text-align:center;letter-spacing:0px;word-spacing:0px;text-anchor:middle;fill:#000000;fill-opacity:1;stroke:none"
       transform="matrix(0.93939988,0,0,0.93939988,788.05436,702.89386)"><flowRegion
         id="flowRegion169"
         style="font-style:normal;font-variant:normal;font-weight:normal;font-stretch:normal;font-family:'Xiaolai SC';-inkscape-font-specification:'Xiaolai SC'"><rect
           id="rect167"
           width="602.40173"
           height="310.73996"
           x="120.55251"
           y="265.53046"
           style="font-style:normal;font-variant:normal;font-weight:normal;font-stretch:normal;font-family:'Xiaolai SC';-inkscape-font-specification:'Xiaolai SC';text-align:center;text-anchor:middle;" /></flowRegion><flowPara
         style="font-style:normal;font-variant:normal;font-weight:normal;font-stretch:normal;font-size:48px;font-family:'Xiaolai SC';-inkscape-font-specification:'Xiaolai SC';text-align:center;text-anchor:middle"
         id="flowPara171">너무危險해서</flowPara><flowPara
         style="font-style:normal;font-variant:normal;font-weight:normal;font-stretch:normal;font-size:48px;font-family:'Xiaolai SC';-inkscape-font-specification:'Xiaolai SC';text-align:center;text-anchor:middle"
         id="flowPara173">할 수 없어요</flowPara></flowRoot>
    <flowRoot
       xml:space="preserve"
       id="flowRoot185"
       style="font-style:normal;font-variant:normal;font-weight:normal;font-stretch:normal;line-height:1.25;font-family:'Xiaolai SC';-inkscape-font-specification:'Xiaolai SC';text-align:center;letter-spacing:0px;word-spacing:0px;text-anchor:middle;fill:#000000;fill-opacity:1;stroke:none;stroke-width:0.948713"
       transform="matrix(0.98517077,0,-0.14446699,1.1175957,832.78443,798.49964)"><flowRegion
         id="flowRegion179"
         style="font-style:normal;font-variant:normal;font-weight:normal;font-stretch:normal;font-family:'Xiaolai SC';-inkscape-font-specification:'Xiaolai SC'"><rect
           id="rect177"
           width="602.40173"
           height="310.73996"
           x="120.55251"
           y="265.53046"
           style="font-style:normal;font-variant:normal;font-weight:normal;font-stretch:normal;font-family:'Xiaolai SC';-inkscape-font-specification:'Xiaolai SC';text-align:center;text-anchor:middle;stroke-width:0.94871342;" /></flowRegion><flowPara
         style="font-style:normal;font-variant:normal;font-weight:normal;font-stretch:normal;font-size:48px;font-family:'Xiaolai SC';-inkscape-font-specification:'Xiaolai SC';text-align:center;text-anchor:middle;stroke-width:0.948713"
         id="flowPara183"><flowSpan
           style="font-style:normal;font-variant:normal;font-weight:normal;font-stretch:normal;font-family:'Xiaolai SC';-inkscape-font-specification:'Xiaolai SC';stroke:#000000;stroke-width:0.948713;stroke-miterlimit:4;stroke-dasharray:none;stroke-opacity:1"
           id="flowSpan181">罪悚합니다! </flowSpan></flowPara></flowRoot>
    <flowRoot
       xml:space="preserve"
       id="flowRoot195"
       style="font-style:normal;font-variant:normal;font-weight:normal;font-stretch:normal;line-height:1.25;font-family:'Xiaolai SC';-inkscape-font-specification:'Xiaolai SC';text-align:center;letter-spacing:0px;word-spacing:0px;text-anchor:middle;fill:#000000;fill-opacity:1;stroke:none"
       transform="matrix(1.088508,0,0,1.088508,783.04996,-139.31512)"><flowRegion
         id="flowRegion189"
         style="font-style:normal;font-variant:normal;font-weight:normal;font-stretch:normal;font-family:'Xiaolai SC';-inkscape-font-specification:'Xiaolai SC'"><rect
           id="rect187"
           width="602.40173"
           height="310.73996"
           x="120.55251"
           y="265.53046"
           style="font-style:normal;font-variant:normal;font-weight:normal;font-stretch:normal;font-family:'Xiaolai SC';-inkscape-font-specification:'Xiaolai SC';text-align:center;text-anchor:middle;" /></flowRegion><flowPara
         style="font-style:normal;font-variant:normal;font-weight:normal;font-stretch:normal;font-size:48px;font-family:'Xiaolai SC';-inkscape-font-specification:'Xiaolai SC';text-align:center;text-anchor:middle"
         id="flowPara191">....七味氏,</flowPara><flowPara
         style="font-style:normal;font-variant:normal;font-weight:normal;font-stretch:normal;font-size:48px;font-family:'Xiaolai SC';-inkscape-font-specification:'Xiaolai SC';text-align:center;text-anchor:middle"
         id="flowPara193">어서進行하시죠</flowPara></flowRoot>
    <flowRoot
       xml:space="preserve"
       id="flowRoot205"
       style="font-style:normal;font-variant:normal;font-weight:normal;font-stretch:normal;line-height:1.25;font-family:'Xiaolai SC';-inkscape-font-specification:'Xiaolai SC';text-align:center;letter-spacing:0px;word-spacing:0px;text-anchor:middle;fill:#000000;fill-opacity:1;stroke:none"
       transform="matrix(1.1381538,0,0,1.1381538,1574.9394,-186.71498)"><flowRegion
         id="flowRegion199"
         style="font-style:normal;font-variant:normal;font-weight:normal;font-stretch:normal;font-family:'Xiaolai SC';-inkscape-font-specification:'Xiaolai SC'"><rect
           id="rect197"
           width="556.74957"
           height="184.65297"
           x="120.55251"
           y="265.53046"
           style="font-style:normal;font-variant:normal;font-weight:normal;font-stretch:normal;font-family:'Xiaolai SC';-inkscape-font-specification:'Xiaolai SC';text-align:center;text-anchor:middle;" /></flowRegion><flowPara
         style="font-style:normal;font-variant:normal;font-weight:normal;font-stretch:normal;font-size:48px;font-family:'Xiaolai SC';-inkscape-font-specification:'Xiaolai SC';text-align:center;text-anchor:middle"
         id="flowPara201">紳士淑女여러분,</flowPara><flowPara
         style="font-style:normal;font-variant:normal;font-weight:normal;font-stretch:normal;font-size:48px;font-family:'Xiaolai SC';-inkscape-font-specification:'Xiaolai SC';text-align:center;text-anchor:middle"
         id="flowPara203">七味氏가棄權을...</flowPara></flowRoot>
    <flowRoot
       xml:space="preserve"
       id="flowRoot213"
       style="font-style:normal;font-variant:normal;font-weight:normal;font-stretch:normal;line-height:1.25;font-family:'Xiaolai SC';-inkscape-font-specification:'Xiaolai SC';text-align:center;letter-spacing:0px;word-spacing:0px;text-anchor:middle;fill:#000000;fill-opacity:1;stroke:none"
       transform="matrix(0.93600645,0,0,0.93600645,-14.324014,1210.6876)"><flowRegion
         id="flowRegion209"
         style="font-style:normal;font-variant:normal;font-weight:normal;font-stretch:normal;font-family:'Xiaolai SC';-inkscape-font-specification:'Xiaolai SC'"><rect
           id="rect207"
           width="602.40173"
           height="310.73996"
           x="120.55251"
           y="265.53046"
           style="font-style:normal;font-variant:normal;font-weight:normal;font-stretch:normal;font-family:'Xiaolai SC';-inkscape-font-specification:'Xiaolai SC';text-align:center;text-anchor:middle;" /></flowRegion><flowPara
         style="font-style:normal;font-variant:normal;font-weight:normal;font-stretch:normal;font-size:48px;font-family:'Xiaolai SC';-inkscape-font-specification:'Xiaolai SC';text-align:center;text-anchor:middle"
         id="flowPara211">이리 내 봐요!</flowPara></flowRoot>
    <flowRoot
       xml:space="preserve"
       id="flowRoot225"
       style="font-style:normal;font-variant:normal;font-weight:normal;font-stretch:normal;line-height:1.25;font-family:'Xiaolai SC';-inkscape-font-specification:'Xiaolai SC';text-align:center;letter-spacing:0px;word-spacing:0px;text-anchor:middle;fill:#000000;fill-opacity:1;stroke:none"
       transform="matrix(0.6642548,0,0,0.6642548,319.12192,448.90949)"><flowRegion
         id="flowRegion217"
         style="font-style:normal;font-variant:normal;font-weight:normal;font-stretch:normal;font-family:'Xiaolai SC';-inkscape-font-specification:'Xiaolai SC'"><rect
           id="rect215"
           width="797.46783"
           height="485.47183"
           x="551.22986"
           y="1366.6431"
           style="font-style:normal;font-variant:normal;font-weight:normal;font-stretch:normal;font-family:'Xiaolai SC';-inkscape-font-specification:'Xiaolai SC';text-align:center;text-anchor:middle;" /></flowRegion><flowPara
         style="font-style:normal;font-variant:normal;font-weight:normal;font-stretch:normal;font-size:69.9275px;font-family:'Xiaolai SC';-inkscape-font-specification:'Xiaolai SC';text-align:center;text-anchor:middle"
         id="flowPara219">... 그리고 수줍은 척</flowPara><flowPara
         style="font-style:normal;font-variant:normal;font-weight:normal;font-stretch:normal;font-size:69.9275px;font-family:'Xiaolai SC';-inkscape-font-specification:'Xiaolai SC';text-align:center;text-anchor:middle"
         id="flowPara221">그만하시죠,</flowPara><flowPara
         style="font-style:normal;font-variant:normal;font-weight:normal;font-stretch:normal;font-size:69.9275px;font-family:'Xiaolai SC';-inkscape-font-specification:'Xiaolai SC';text-align:center;text-anchor:middle"
         id="flowPara223">雰圍氣가</flowPara><flowPara
         style="font-style:normal;font-variant:normal;font-weight:normal;font-stretch:normal;font-size:69.9275px;font-family:'Xiaolai SC';-inkscape-font-specification:'Xiaolai SC';text-align:center;text-anchor:middle"
         id="flowPara307">흐려지잖아요</flowPara></flowRoot>
    <flowRoot
       xml:space="preserve"
       id="flowRoot237"
       style="font-style:normal;font-variant:normal;font-weight:normal;font-stretch:normal;line-height:1.25;font-family:'Xiaolai SC';-inkscape-font-specification:'Xiaolai SC';text-align:center;letter-spacing:0px;word-spacing:0px;text-anchor:middle;fill:#000000;fill-opacity:1;stroke:none"
       transform="matrix(0.98018651,0,0,0.98018651,619.391,1724.809)"><flowRegion
         id="flowRegion229"
         style="font-style:normal;font-variant:normal;font-weight:normal;font-stretch:normal;font-family:'Xiaolai SC';-inkscape-font-specification:'Xiaolai SC'"><rect
           id="rect227"
           width="545.15247"
           height="308.23993"
           x="120.55251"
           y="265.53046"
           style="font-style:normal;font-variant:normal;font-weight:normal;font-stretch:normal;font-family:'Xiaolai SC';-inkscape-font-specification:'Xiaolai SC';text-align:center;text-anchor:middle;" /></flowRegion><flowPara
         style="font-style:normal;font-variant:normal;font-weight:normal;font-stretch:normal;font-size:48px;font-family:'Xiaolai SC';-inkscape-font-specification:'Xiaolai SC';text-align:center;text-anchor:middle"
         id="flowPara231">當身네 물藥이 뭐가 됐든</flowPara><flowPara
         style="font-style:normal;font-variant:normal;font-weight:normal;font-stretch:normal;font-size:48px;font-family:'Xiaolai SC';-inkscape-font-specification:'Xiaolai SC';text-align:center;text-anchor:middle"
         id="flowPara233">이미 제가 勝者라는 걸</flowPara><flowPara
         style="font-style:normal;font-variant:normal;font-weight:normal;font-stretch:normal;font-size:48px;font-family:'Xiaolai SC';-inkscape-font-specification:'Xiaolai SC';text-align:center;text-anchor:middle"
         id="flowPara309">萬人이 알고 있거든요 ...</flowPara></flowRoot>
    <flowRoot
       xml:space="preserve"
       id="flowRoot245"
       style="font-style:normal;font-variant:normal;font-weight:normal;font-stretch:normal;line-height:1.25;font-family:'Xiaolai SC';-inkscape-font-specification:'Xiaolai SC';text-align:center;letter-spacing:0px;word-spacing:0px;text-anchor:middle;fill:#000000;fill-opacity:1;stroke:#000000;stroke-width:2.5;stroke-miterlimit:4;stroke-dasharray:none;stroke-opacity:1"
       transform="matrix(1.5341607,0,-0.13433745,1.6138902,1650.6952,929.90971)"><flowRegion
         id="flowRegion241"
         style="font-style:normal;font-variant:normal;font-weight:normal;font-stretch:normal;font-family:'Xiaolai SC';-inkscape-font-specification:'Xiaolai SC'"><rect
           id="rect239"
           width="602.40173"
           height="310.73996"
           x="120.55251"
           y="265.53046"
           style="font-style:normal;font-variant:normal;font-weight:normal;font-stretch:normal;font-family:'Xiaolai SC';-inkscape-font-specification:'Xiaolai SC';text-align:center;text-anchor:middle;stroke:#000000;stroke-width:2.5;stroke-miterlimit:4;stroke-dasharray:none;stroke-opacity:1;" /></flowRegion><flowPara
         style="font-style:normal;font-variant:normal;font-weight:normal;font-stretch:normal;font-size:48px;font-family:'Xiaolai SC';-inkscape-font-specification:'Xiaolai SC';text-align:center;letter-spacing:1.5px;text-anchor:middle;stroke:#000000;stroke-width:2.5;stroke-miterlimit:4;stroke-dasharray:none;stroke-opacity:1"
         id="flowPara243">!!!</flowPara></flowRoot>
    <flowRoot
       transform="matrix(0.91765527,0,-0.22357667,1.2900058,1549.0276,2177.8098)"
       style="font-style:normal;font-variant:normal;font-weight:normal;font-stretch:normal;line-height:1.25;font-family:'Xiaolai SC';-inkscape-font-specification:'Xiaolai SC';text-align:center;letter-spacing:0px;word-spacing:0px;text-anchor:middle;fill:#000000;fill-opacity:1;stroke:#000000;stroke-width:1.51218;stroke-miterlimit:4;stroke-dasharray:none;stroke-opacity:1"
       id="flowRoot253"
       xml:space="preserve"><flowRegion
         id="flowRegion249"
         style="font-style:normal;font-variant:normal;font-weight:normal;font-stretch:normal;font-family:'Xiaolai SC';-inkscape-font-specification:'Xiaolai SC'"><rect
           style="font-style:normal;font-variant:normal;font-weight:normal;font-stretch:normal;font-family:'Xiaolai SC';-inkscape-font-specification:'Xiaolai SC';text-align:center;text-anchor:middle;stroke:#000000;stroke-width:1.51218414;stroke-miterlimit:4;stroke-dasharray:none;stroke-opacity:1;"
           y="265.53046"
           x="120.55251"
           height="355.03918"
           width="1048.8354"
           id="rect247" /></flowRegion><flowPara
         style="font-style:normal;font-variant:normal;font-weight:normal;font-stretch:normal;font-size:48.7664px;font-family:'Xiaolai SC';-inkscape-font-specification:'Xiaolai SC';text-align:center;letter-spacing:5.20896px;text-anchor:middle;stroke:#000000;stroke-width:1.51218;stroke-miterlimit:4;stroke-dasharray:none;stroke-opacity:1"
         id="flowPara251">巨大怪物의 물藥이에요!</flowPara></flowRoot>
    <flowRoot
       xml:space="preserve"
       id="flowRoot267"
       style="font-style:normal;font-variant:normal;font-weight:normal;font-stretch:normal;line-height:1.25;font-family:'Xiaolai SC';-inkscape-font-specification:'Xiaolai SC';text-align:center;letter-spacing:0px;word-spacing:0px;text-anchor:middle;fill:#000000;fill-opacity:1;stroke:none"
       transform="matrix(0.95752541,0,0,0.95752541,-81.14794,626.64527)"><flowRegion
         id="flowRegion257"
         style="font-style:normal;font-variant:normal;font-weight:normal;font-stretch:normal;font-family:'Xiaolai SC';-inkscape-font-specification:'Xiaolai SC'"><rect
           id="rect255"
           width="547.40173"
           height="333.23993"
           x="120.55251"
           y="265.53046"
           style="font-style:normal;font-variant:normal;font-weight:normal;font-stretch:normal;font-family:'Xiaolai SC';-inkscape-font-specification:'Xiaolai SC';text-align:center;text-anchor:middle;" /></flowRegion><flowPara
         style="font-style:normal;font-variant:normal;font-weight:normal;font-stretch:normal;font-size:48px;font-family:'Xiaolai SC';-inkscape-font-specification:'Xiaolai SC';text-align:center;text-anchor:middle"
         id="flowPara295">試演... 試演이</flowPara><flowPara
         style="font-style:normal;font-variant:normal;font-weight:normal;font-stretch:normal;font-size:48px;font-family:'Xiaolai SC';-inkscape-font-specification:'Xiaolai SC';text-align:center;text-anchor:middle"
         id="flowPara263">必要할 거라고는</flowPara><flowPara
         style="font-style:normal;font-variant:normal;font-weight:normal;font-stretch:normal;font-size:48px;font-family:'Xiaolai SC';-inkscape-font-specification:'Xiaolai SC';text-align:center;text-anchor:middle"
         id="flowPara265">豫想못했는데...</flowPara></flowRoot>
    <flowRoot
       xml:space="preserve"
       id="flowRoot275"
       style="font-style:normal;font-variant:normal;font-weight:normal;font-stretch:normal;line-height:1.25;font-family:'Xiaolai SC';-inkscape-font-specification:'Xiaolai SC';text-align:center;letter-spacing:0px;word-spacing:0px;text-anchor:middle;fill:#000000;fill-opacity:1;stroke:#000000;stroke-width:0.884491;stroke-miterlimit:4;stroke-dasharray:none;stroke-opacity:1"
       transform="matrix(1.4051979,0,-0.12304493,1.4051979,1553.1797,1969.9488)"><flowRegion
         id="flowRegion271"
         style="font-style:normal;font-variant:normal;font-weight:normal;font-stretch:normal;font-family:'Xiaolai SC';-inkscape-font-specification:'Xiaolai SC'"><rect
           id="rect269"
           width="602.40173"
           height="310.73996"
           x="120.55251"
           y="265.53046"
           style="font-style:normal;font-variant:normal;font-weight:normal;font-stretch:normal;font-family:'Xiaolai SC';-inkscape-font-specification:'Xiaolai SC';text-align:center;text-anchor:middle;stroke:#000000;stroke-width:0.88449126;stroke-miterlimit:4;stroke-dasharray:none;stroke-opacity:1;" /></flowRegion><flowPara
         style="font-style:normal;font-variant:normal;font-weight:normal;font-stretch:normal;font-size:48px;font-family:'Xiaolai SC';-inkscape-font-specification:'Xiaolai SC';text-align:center;text-anchor:middle;stroke:#000000;stroke-width:0.884491;stroke-miterlimit:4;stroke-dasharray:none;stroke-opacity:1"
         id="flowPara273">操心해요!!!</flowPara></flowRoot>
    <flowRoot
       xml:space="preserve"
       id="flowRoot283"
       style="font-style:normal;font-variant:normal;font-weight:normal;font-stretch:normal;line-height:1.25;font-family:'Xiaolai SC';-inkscape-font-specification:'Xiaolai SC';text-align:center;letter-spacing:0px;word-spacing:0px;text-anchor:middle;fill:#000000;fill-opacity:1;stroke:none"
       transform="matrix(1.0899771,0,0,1.0899771,1643.703,2145.1224)"><flowRegion
         id="flowRegion279"
         style="font-style:normal;font-variant:normal;font-weight:normal;font-stretch:normal;font-family:'Xiaolai SC';-inkscape-font-specification:'Xiaolai SC'"><rect
           id="rect277"
           width="602.40173"
           height="310.73996"
           x="120.55251"
           y="265.53046"
           style="font-style:normal;font-variant:normal;font-weight:normal;font-stretch:normal;font-family:'Xiaolai SC';-inkscape-font-specification:'Xiaolai SC';text-align:center;text-anchor:middle;" /></flowRegion><flowPara
         style="font-style:normal;font-variant:normal;font-weight:normal;font-stretch:normal;font-size:48px;font-family:'Xiaolai SC';-inkscape-font-specification:'Xiaolai SC';text-align:center;text-anchor:middle"
         id="flowPara281">이 물藥은</flowPara></flowRoot>
  </g>
</svg>
