<?xml version="1.0" encoding="UTF-8" standalone="no"?>
<!-- Created with Inkscape (http://www.inkscape.org/) -->

<svg
   xmlns:dc="http://purl.org/dc/elements/1.1/"
   xmlns:cc="http://creativecommons.org/ns#"
   xmlns:rdf="http://www.w3.org/1999/02/22-rdf-syntax-ns#"
   xmlns:svg="http://www.w3.org/2000/svg"
   xmlns="http://www.w3.org/2000/svg"
   xmlns:xlink="http://www.w3.org/1999/xlink"
   xmlns:sodipodi="http://sodipodi.sourceforge.net/DTD/sodipodi-0.dtd"
   xmlns:inkscape="http://www.inkscape.org/namespaces/inkscape"
   id="svg2"
   version="1.1"
   inkscape:version="0.92.2 (5c3e80d, 2017-08-06)"
   width="2481"
   height="3503"
   sodipodi:docname="Pepper-and-Carrot_by-David-Revoy_E15P07.svg">
  <metadata
     id="metadata8">
    <rdf:RDF>
      <cc:Work
         rdf:about="">
        <dc:format>image/svg+xml</dc:format>
        <dc:type
           rdf:resource="http://purl.org/dc/dcmitype/StillImage" />
        <dc:title />
      </cc:Work>
    </rdf:RDF>
  </metadata>
  <defs
     id="defs6" />
  <sodipodi:namedview
     pagecolor="#ffffff"
     bordercolor="#666666"
     borderopacity="1"
     objecttolerance="10"
     gridtolerance="10"
     guidetolerance="10"
     inkscape:pageopacity="0"
     inkscape:pageshadow="2"
     inkscape:window-width="1366"
     inkscape:window-height="705"
     id="namedview4"
     showgrid="false"
     inkscape:zoom="0.30074964"
     inkscape:cx="1005.6722"
     inkscape:cy="2247.5391"
     inkscape:window-x="-8"
     inkscape:window-y="-8"
     inkscape:window-maximized="1"
     inkscape:current-layer="layer1" />
  <g
     inkscape:groupmode="layer"
     id="layer2"
     inkscape:label="artwork"
     sodipodi:insensitive="true">
    <image
       sodipodi:absref="E:\Users\jamesmichael\Downloads\Compressed\eps\peppercarrot_ep15_translation-master\peppercarrot_ep15_translation-master\ph\../gfx_Pepper-and-Carrot_by-David-Revoy_E15P07.png"
       xlink:href="../gfx_Pepper-and-Carrot_by-David-Revoy_E15P07.png"
       y="0"
       x="0"
       id="image10"
       height="3503"
       width="2481" />
  </g>
  <g
     inkscape:groupmode="layer"
     id="layer3"
     inkscape:label="speechbubbles" />
  <g
     inkscape:groupmode="layer"
     id="layer1"
     inkscape:label="txt">
    <text
       xml:space="preserve"
       style="font-style:normal;font-variant:normal;font-weight:bold;font-stretch:normal;font-size:40px;line-height:1.25;font-family:'Drukaatie burti';-inkscape-font-specification:'Drukaatie burti Bold';letter-spacing:0px;word-spacing:0px;fill:#99ff55;fill-opacity:1;stroke:none"
       x="866.42053"
       y="1798.2343"
       id="text817"
       transform="matrix(0.99251878,-0.60588485,0.34725962,0.79555235,0,0)"><tspan
         sodipodi:role="line"
         id="tspan815"
         x="866.42053"
         y="1798.2343">Click !</tspan></text>
    <text
       id="text821"
       y="1147.8945"
       x="1715.7103"
       style="font-style:normal;font-variant:normal;font-weight:bold;font-stretch:normal;font-size:40px;line-height:1.25;font-family:'Drukaatie burti';-inkscape-font-specification:'Drukaatie burti Bold';letter-spacing:0px;word-spacing:0px;fill:#99ff55;fill-opacity:1;stroke:none"
       xml:space="preserve"
       transform="matrix(1.0310703,-0.11653229,-0.20634173,0.99318687,0,0)"><tspan
         y="1147.8945"
         x="1715.7103"
         id="tspan819"
         sodipodi:role="line">Click !</tspan></text>
    <text
       xml:space="preserve"
       style="font-style:normal;font-variant:normal;font-weight:bold;font-stretch:normal;font-size:53.73448944px;line-height:1.25;font-family:'Drukaatie burti';-inkscape-font-specification:'Drukaatie burti Bold';letter-spacing:0px;word-spacing:0px;fill:#99ff55;fill-opacity:1;stroke:none;stroke-width:1.34336221"
       x="1913.217"
       y="1018.8674"
       id="text825"
       transform="skewX(-18.008768)"><tspan
         sodipodi:role="line"
         id="tspan823"
         x="1913.217"
         y="1018.8674"
         style="font-style:normal;font-variant:normal;font-weight:bold;font-stretch:normal;font-family:'Drukaatie burti';-inkscape-font-specification:'Drukaatie burti Bold';fill:#99ff55;stroke-width:1.34336221">Click !</tspan></text>
    <text
       id="text829"
       y="318.21362"
       x="1312.8259"
       style="font-style:normal;font-variant:normal;font-weight:bold;font-stretch:normal;font-size:47.09597778px;line-height:1.25;font-family:'Drukaatie burti';-inkscape-font-specification:'Drukaatie burti Bold';letter-spacing:0px;word-spacing:0px;fill:#99ff55;fill-opacity:1;stroke:none;stroke-width:1.17739952"
       xml:space="preserve"
       transform="matrix(0.92082417,0.13091122,-0.66533906,0.9913941,0,0)"><tspan
         y="318.21362"
         x="1312.8259"
         id="tspan827"
         sodipodi:role="line"
         style="font-style:normal;font-variant:normal;font-weight:bold;font-stretch:normal;font-family:'Drukaatie burti';-inkscape-font-specification:'Drukaatie burti Bold';fill:#99ff55;stroke-width:1.17739952">Click !</tspan></text>
    <text
       xml:space="preserve"
       style="font-style:normal;font-variant:normal;font-weight:bold;font-stretch:normal;font-size:40px;line-height:1.25;font-family:'Drukaatie burti';-inkscape-font-specification:'Drukaatie burti Bold';letter-spacing:0px;word-spacing:0px;fill:#99ff55;fill-opacity:1;stroke:none"
       x="1455.368"
       y="163.92346"
       id="text833"
       transform="matrix(0.81134092,0.27725068,-0.79518497,0.96079762,0,0)"><tspan
         sodipodi:role="line"
         id="tspan831"
         x="1455.368"
         y="163.92346">Click !</tspan></text>
    <text
       id="text837"
       y="-91.935081"
       x="1534.4744"
       style="font-style:normal;font-variant:normal;font-weight:bold;font-stretch:normal;font-size:40px;line-height:1.25;font-family:'Drukaatie burti';-inkscape-font-specification:'Drukaatie burti Bold';letter-spacing:0px;word-spacing:0px;fill:#99ff55;fill-opacity:1;stroke:none"
       xml:space="preserve"
       transform="matrix(0.62494016,0.47406212,-0.94870597,0.8804914,0,0)"><tspan
         y="-91.935081"
         x="1534.4744"
         id="tspan835"
         sodipodi:role="line">Click !</tspan></text>
  </g>
</svg>
