<?xml version="1.0" encoding="UTF-8" standalone="no"?>
<svg
   xmlns:dc="http://purl.org/dc/elements/1.1/"
   xmlns:cc="http://creativecommons.org/ns#"
   xmlns:rdf="http://www.w3.org/1999/02/22-rdf-syntax-ns#"
   xmlns:svg="http://www.w3.org/2000/svg"
   xmlns="http://www.w3.org/2000/svg"
   xmlns:xlink="http://www.w3.org/1999/xlink"
   xmlns:sodipodi="http://sodipodi.sourceforge.net/DTD/sodipodi-0.dtd"
   xmlns:inkscape="http://www.inkscape.org/namespaces/inkscape"
   id="svg2"
   version="1.1"
   inkscape:version="1.0.2-2 (e86c870879, 2021-01-15)"
   width="2481"
   height="2479"
   sodipodi:docname="E04P08.svg">
  <sodipodi:namedview
     pagecolor="#ffffff"
     bordercolor="#666666"
     inkscape:pageopacity="0"
     inkscape:pageshadow="2"
     inkscape:window-width="1366"
     inkscape:window-height="745"
     id="namedview70"
     showgrid="false"
     inkscape:zoom="0.56568542"
     inkscape:cx="1304.9664"
     inkscape:cy="1390.6118"
     inkscape:current-layer="layer2"
     inkscape:document-rotation="0"
     inkscape:window-x="-8"
     inkscape:window-y="-8"
     inkscape:window-maximized="1" />
  <metadata
     id="metadata8">
    <rdf:RDF>
      <cc:Work
         rdf:about="">
        <dc:format>image/svg+xml</dc:format>
        <dc:type
           rdf:resource="http://purl.org/dc/dcmitype/StillImage" />
        <dc:title />
      </cc:Work>
    </rdf:RDF>
  </metadata>
  <defs
     id="defs6" />
  <sodipodi:namedview
     pagecolor="#ffffff"
     bordercolor="#666666"
     borderopacity="1"
     objecttolerance="10"
     gridtolerance="10"
     guidetolerance="10"
     inkscape:pageopacity="0"
     inkscape:pageshadow="2"
     inkscape:window-width="1920"
     inkscape:window-height="1025"
     id="namedview4"
     showgrid="false"
     inkscape:zoom="0.40677062"
     inkscape:cx="1166.5731"
     inkscape:cy="1084.8052"
     inkscape:window-x="0"
     inkscape:window-y="26"
     inkscape:window-maximized="1"
     inkscape:current-layer="layer2"
     inkscape:object-nodes="true" />
  <g
     inkscape:groupmode="layer"
     id="layer1"
     inkscape:label="artwork"
     style="display:inline"
     sodipodi:insensitive="true">
    <image
       sodipodi:absref="C:\Users\quentinlipeck\Downloads\webcomics-master-ec7d62e6553c2c63bb1cf2e799ee31f9cb9ce5e2\webcomics-master-ec7d62e6553c2c63bb1cf2e799ee31f9cb9ce5e2\ep04_Stroke-of-genius\lang\gfx_Pepper-and-Carrot_by-David-Revoy_E04P08.png"
       xlink:href="../gfx_Pepper-and-Carrot_by-David-Revoy_E04P08.png"
       width="2481"
       height="2479"
       id="image10"
       x="0"
       y="0" />
  </g>
  <g
     inkscape:groupmode="layer"
     id="layer3"
     inkscape:label="speechbubbles"
     style="display:inline">
    <path
       style="fill:#ffffff;stroke:none"
       d="m -2021.8885,646.19917 c 1.0628,-51.0158 26.5707,-103.09442 170.0526,-112.65988 143.4819,-9.56546 203.0004,48.89014 207.2517,90.34047 4.2513,41.45033 -82.9007,96.71744 -162.6129,97.78027 -79.7121,1.06282 -214.6914,-11.69112 -214.6914,-75.46086 z"
       id="path4279"
       inkscape:connector-curvature="0" />
    <path
       style="fill:#ffffff;stroke:none"
       d="m -1788.0661,898.08964 c 70.1467,-44.63882 88.2148,-124.35099 45.7016,-190.24639 -42.5132,-65.8954 -82.9007,-54.20428 -82.9007,-54.20428 l 35.0734,41.45033 c 0,0 97.7803,97.78027 2.1257,203.00034 z"
       id="path4281"
       inkscape:connector-curvature="0"
       sodipodi:nodetypes="csccc" />
  </g>
  <g
     inkscape:groupmode="layer"
     id="layer2"
     inkscape:label="text"
     style="display:inline">
    <flowRoot
       xml:space="preserve"
       id="flowRoot2987"
       style="font-style:normal;font-variant:normal;font-weight:normal;font-stretch:normal;line-height:0.01%;font-family:Arial;-inkscape-font-specification:Arial;letter-spacing:0px;word-spacing:0px;fill:#000000;fill-opacity:1;stroke:none"
       transform="matrix(0.79948741,0,0,0.91835098,235.19049,84.918253)"><flowRegion
         id="flowRegion2989"><rect
           id="rect2991"
           width="2808.0764"
           height="1866.6244"
           x="-141.0901"
           y="266.68515"
           style="stroke-width:1" /></flowRegion><flowPara
         id="flowPara3025"
         style="font-style:normal;font-variant:normal;font-weight:normal;font-stretch:normal;font-size:48px;line-height:1.25;font-family:Lavi;-inkscape-font-specification:Lavi;text-align:center;text-anchor:middle" /><flowPara
         style="font-style:normal;font-variant:normal;font-weight:normal;font-stretch:normal;font-size:48px;line-height:1.25;font-family:Lavi;-inkscape-font-specification:Lavi;text-align:center;text-anchor:middle"
         id="flowPara98">Алексей - 獨孤欣 - Adrian Lord - Alan Hardman - Albert Westra - Alejandro Flores Prieto - Alexander Sopicki - Alex Lusco</flowPara><flowPara
         style="font-style:normal;font-variant:normal;font-weight:normal;font-stretch:normal;font-size:48px;line-height:1.25;font-family:Lavi;-inkscape-font-specification:Lavi;text-align:center;text-anchor:middle"
         id="flowPara3198">Alex Silver - Alex Vandiver - Alfredo - Alice Queenofcats - Ali Poulton (Aunty Pol) - Alison Harding - Allan Zieser</flowPara><flowPara
         style="font-style:normal;font-variant:normal;font-weight:normal;font-stretch:normal;font-size:48px;line-height:1.25;font-family:Lavi;-inkscape-font-specification:Lavi;text-align:center;text-anchor:middle"
         id="flowPara3200">Andreas Rieger - Andrew - Andrew Godfrey - Andrey Alekseenko - Angela K - Anna Orlova - anonymous - Antan Karmola</flowPara><flowPara
         style="font-style:normal;font-variant:normal;font-weight:normal;font-stretch:normal;font-size:48px;line-height:1.25;font-family:Lavi;-inkscape-font-specification:Lavi;text-align:center;text-anchor:middle"
         id="flowPara3202">Arco - Ardash Crowfoot - Arne Brix - Aslak Kjølås-Sæverud - Axel Bordelon - Axel Philipsenburg - barbix - Ben Evans</flowPara><flowPara
         style="font-style:normal;font-variant:normal;font-weight:normal;font-stretch:normal;font-size:48px;line-height:1.25;font-family:Lavi;-inkscape-font-specification:Lavi;text-align:center;text-anchor:middle"
         id="flowPara3204">Bernd - Boonsak Watanavisit - Boudewijn Rempt - Brian Behnke - carlos levischi - Charlotte Lacombe-bar - Chris Radcliff</flowPara><flowPara
         style="font-style:normal;font-variant:normal;font-weight:normal;font-stretch:normal;font-size:48px;line-height:1.25;font-family:Lavi;-inkscape-font-specification:Lavi;text-align:center;text-anchor:middle"
         id="flowPara3206">Chris Sakkas - Christophe Carré - Clara Dexter - Colby Driedger - Conway Scott Smith - Cyrille Largillier - Cyril Paciullo</flowPara><flowPara
         style="font-style:normal;font-variant:normal;font-weight:normal;font-stretch:normal;font-size:48px;line-height:1.25;font-family:Lavi;-inkscape-font-specification:Lavi;text-align:center;text-anchor:middle"
         id="flowPara3208">Daniel - david - Damien de Lemeny - Dmitry - Donald Hayward - Dubema Ulo - Eitan Goldshtrom - Enrico Billich</flowPara><flowPara
         style="font-style:normal;font-variant:normal;font-weight:normal;font-stretch:normal;font-size:48px;line-height:1.25;font-family:Lavi;-inkscape-font-specification:Lavi;text-align:center;text-anchor:middle"
         id="flowPara3210">-epsilon- - Eric Schulz - Garret Patterson - Guillaume - Gustav Strömbom - Guy Davis - Happy Mimic - Helmar Suschka</flowPara><flowPara
         style="font-style:normal;font-variant:normal;font-weight:normal;font-stretch:normal;font-size:48px;line-height:1.25;font-family:Lavi;-inkscape-font-specification:Lavi;text-align:center;text-anchor:middle"
         id="flowPara3212">Ilyas Akhmedov - Inga Huang - Irene C. - Ivan Korotkov - Jared Tritsch - JDB - Jean-Baptiste Hebbrecht - Jessey Wright</flowPara><flowPara
         style="font-style:normal;font-variant:normal;font-weight:normal;font-stretch:normal;font-size:48px;line-height:1.25;font-family:Lavi;-inkscape-font-specification:Lavi;text-align:center;text-anchor:middle"
         id="flowPara3214">John - Jónatan Nilsson - Jon Brake - Joseph Bowman - Jurgo van den Elzen - Justin Diehl - Kai-Ting (Danil) Ko - Kasper Hansen</flowPara><flowPara
         style="font-style:normal;font-variant:normal;font-weight:normal;font-stretch:normal;font-size:48px;line-height:1.25;font-family:Lavi;-inkscape-font-specification:Lavi;text-align:center;text-anchor:middle"
         id="flowPara3216">Kathryn Wuerstl - Ken Mingyuan Xia - Liselle - Lorentz Grip - MacCoy - Magnus Kronnäs - Mandy - marcus - Martin Owens</flowPara><flowPara
         style="font-style:normal;font-variant:normal;font-weight:normal;font-stretch:normal;font-size:48px;line-height:1.25;font-family:Lavi;-inkscape-font-specification:Lavi;text-align:center;text-anchor:middle"
         id="flowPara3218">Masked Admirer - Mathias Stærk - mattscribbles - Maurice-Marie Stromer - mefflin ross bullis-bates - Michael Gill</flowPara><flowPara
         style="font-style:normal;font-variant:normal;font-weight:normal;font-stretch:normal;font-size:48px;line-height:1.25;font-family:Lavi;-inkscape-font-specification:Lavi;text-align:center;text-anchor:middle"
         id="flowPara3220">Michelle Pereira Garcia - Mike Mosher - Morten Hellesø Johansen - Muzyka Dmytro - Nazhif - Nicholas DeLateur</flowPara><flowPara
         style="font-style:normal;font-variant:normal;font-weight:normal;font-stretch:normal;font-size:48px;line-height:1.25;font-family:Lavi;-inkscape-font-specification:Lavi;text-align:center;text-anchor:middle"
         id="flowPara3222">Nick Allott - Nicki Aya - Nicolae Berbece - Nicole Heersema - Noah Summers - Noble Hays - Nora Czaykowski</flowPara><flowPara
         style="font-style:normal;font-variant:normal;font-weight:normal;font-stretch:normal;font-size:48px;line-height:1.25;font-family:Lavi;-inkscape-font-specification:Lavi;text-align:center;text-anchor:middle"
         id="flowPara3224">Nyx - Olivier Amrein - Olivier Brun - Omar Willey - Oscar Moreno - Öykü Su Gürler - Ozone S. - Paul - Paul</flowPara><flowPara
         style="font-style:normal;font-variant:normal;font-weight:normal;font-stretch:normal;font-size:48px;line-height:1.25;font-family:Lavi;-inkscape-font-specification:Lavi;text-align:center;text-anchor:middle"
         id="flowPara3226">Pavel Semenov - Peter - Peter Moonen - Petr Vlašic - Pierre Geier - Pierre Vuillemin - Pranab Shenoy - Rajul Gupta</flowPara><flowPara
         style="font-style:normal;font-variant:normal;font-weight:normal;font-stretch:normal;font-size:48px;line-height:1.25;font-family:Lavi;-inkscape-font-specification:Lavi;text-align:center;text-anchor:middle"
         id="flowPara3228">Ret Samys - rictic - RJ van der Weide - Roman - Rumiko Hoshino - Rustin Simons - Sami T - Samuel Mitson - Scott RussSean Adams - Shadefalcon - Shane Lopez - Shawn Meyer - Sigmundur Þórir Jónsson - Simon Forster - Simon IsenbergSonny W. - Stanislav Vodetskyi - Stephen Bates - Steven Bennett - Stuart Dickson - surt - Tadamichi Ohkubo - tar8156TheFaico - Thomas Schwery - Tracey Reuben - Travis Humble - Vespertinus - Victoria - Vlad Tomash - Westen CurryXavier Claude - Yalyn Vinkindo</flowPara><flowPara
         style="font-style:normal;font-variant:normal;font-weight:normal;font-stretch:normal;font-size:48px;line-height:1.25;font-family:Lavi;-inkscape-font-specification:Lavi;text-align:center;text-anchor:middle"
         id="flowPara3238">sin la, jan Amireeti li pona e toki Inli la, lipu ni li pona !</flowPara><flowPara
         style="font-style:normal;font-variant:normal;font-weight:normal;font-stretch:normal;font-size:48px;line-height:1.25;font-family:Lavi;-inkscape-font-specification:Lavi;text-align:center;text-anchor:middle"
         id="flowPara3230"> </flowPara><flowPara
         style="font-style:normal;font-variant:normal;font-weight:normal;font-stretch:normal;font-size:48px;line-height:1.25;font-family:Lavi;-inkscape-font-specification:Lavi;text-align:center;text-anchor:middle"
         id="flowPara3232"> </flowPara><flowPara
         style="font-style:normal;font-variant:normal;font-weight:normal;font-stretch:normal;font-size:48px;line-height:1.25;font-family:Lavi;-inkscape-font-specification:Lavi;text-align:center;text-anchor:middle"
         id="flowPara3234"> </flowPara><flowPara
         style="font-style:normal;font-variant:normal;font-weight:normal;font-stretch:normal;font-size:48px;line-height:1.25;font-family:Lavi;-inkscape-font-specification:Lavi;text-align:center;text-anchor:middle"
         id="flowPara3236"> </flowPara></flowRoot>
    <flowRoot
       xml:space="preserve"
       id="flowRoot3027"
       style="font-style:normal;font-variant:normal;font-weight:normal;font-stretch:normal;line-height:0.01%;font-family:Arial;-inkscape-font-specification:Arial;text-align:center;letter-spacing:0px;word-spacing:0px;text-anchor:middle;fill:#000000;fill-opacity:1;stroke:none"
       transform="matrix(1.2334095,0,0,1.2851851,-443.07981,-173.85945)"><flowRegion
         id="flowRegion3029"><rect
           id="rect3031"
           width="2475.8752"
           height="241.27675"
           x="135.21135"
           y="219.33444"
           style="text-align:center;text-anchor:middle;stroke-width:1" /></flowRegion><flowPara
         id="flowPara3033"
         style="font-size:12px;line-height:1.25"> </flowPara><flowPara
         style="font-style:normal;font-variant:normal;font-weight:normal;font-stretch:normal;font-size:48px;line-height:1.25;font-family:Lavi;-inkscape-font-specification:Lavi;text-align:center;text-anchor:middle"
         id="flowPara3044">jan Pepa&amp;soweli Kawa li nasin jo pi jan ale, </flowPara><flowPara
         style="font-style:normal;font-variant:normal;font-weight:normal;font-stretch:normal;font-size:48px;line-height:1.25;font-family:Lavi;-inkscape-font-specification:Lavi;text-align:center;text-anchor:middle"
         id="flowPara81">li nasin Free(libre), li nasin Open-source, li lon tan mani tan jan pona mute. </flowPara><flowPara
         style="font-style:normal;font-variant:normal;font-weight:normal;font-stretch:normal;font-size:48px;line-height:1.25;font-family:Lavi;-inkscape-font-specification:Lavi;text-align:center;text-anchor:middle"
         id="flowPara96">jan 156 li pana e mani la, lipu ni li lon:</flowPara></flowRoot>
    <flowRoot
       xml:space="preserve"
       id="flowRoot3027-8-8"
       style="font-style:normal;font-variant:normal;font-weight:normal;font-stretch:normal;line-height:0.01%;font-family:Arial;-inkscape-font-specification:Arial;text-align:center;letter-spacing:0px;word-spacing:0px;text-anchor:middle;fill:#a72f14;fill-opacity:1;stroke:none"
       transform="matrix(1.2234224,0,0,1.2506407,-282.08195,1359.0323)"><flowRegion
         id="flowRegion3029-9-3"><rect
           id="rect3031-9-1"
           width="2230.314"
           height="376.21677"
           x="135.21135"
           y="219.33444"
           style="text-align:center;text-anchor:middle;fill:#a72f14;fill-opacity:1" /></flowRegion><flowPara
         id="flowPara3033-3-0"
         style="font-size:12px;line-height:1.25" /><flowPara
         style="font-size:12px;line-height:1.25"
         id="flowPara102" /><flowPara
         style="font-size:12px;line-height:1.25"
         id="flowPara104" /><flowPara
         style="font-size:12px;line-height:1.25"
         id="flowPara106"> </flowPara><flowPara
         style="font-style:normal;font-variant:normal;font-weight:normal;font-stretch:normal;font-size:48px;line-height:1.25;font-family:Lavi;-inkscape-font-specification:Lavi;text-align:center;text-anchor:middle;fill:#a72f14;fill-opacity:1"
         id="flowPara3067-4">https://www.patreon.com/davidrevoy</flowPara></flowRoot>
    <flowRoot
       xml:space="preserve"
       id="flowRoot3027-8-8-2"
       style="font-style:normal;font-variant:normal;font-weight:normal;font-stretch:normal;line-height:0.01%;font-family:Arial;-inkscape-font-specification:Arial;text-align:center;letter-spacing:0px;word-spacing:0px;text-anchor:middle;fill:#000000;fill-opacity:1;stroke:none"
       transform="matrix(0.91226779,0,0,0.94129239,100.94961,1321.6092)"><flowRegion
         id="flowRegion3029-9-3-5"><rect
           id="rect3031-9-1-6"
           width="2230.314"
           height="376.21677"
           x="135.21135"
           y="219.33444"
           style="text-align:center;text-anchor:middle" /></flowRegion><flowPara
         style="font-style:normal;font-variant:normal;font-weight:normal;font-stretch:normal;font-size:48px;line-height:1.25;font-family:Lavi;-inkscape-font-specification:Lavi;text-align:center;text-anchor:middle"
         id="flowPara3233" /><flowPara
         style="font-style:normal;font-variant:normal;font-weight:normal;font-stretch:normal;font-size:48px;line-height:1.25;font-family:Lavi;-inkscape-font-specification:Lavi;text-align:center;text-anchor:middle"
         id="flowPara3340">o pana e pona tawa pali ni. mani wan li tawa wan pi sitelen ni la,</flowPara><flowPara
         style="font-style:normal;font-variant:normal;font-weight:normal;font-stretch:normal;font-size:48px;line-height:1.25;font-family:Lavi;-inkscape-font-specification:Lavi;text-align:center;text-anchor:middle"
         id="flowPara83"> mani li pona mute tawa jan Pepa&amp;soweli Kawa !</flowPara></flowRoot>
    <flowRoot
       xml:space="preserve"
       id="flowRoot3027-8-8-2-8"
       style="font-style:normal;font-variant:normal;font-weight:normal;font-stretch:normal;line-height:0.01%;font-family:Arial;-inkscape-font-specification:Arial;text-align:center;letter-spacing:0px;word-spacing:0px;text-anchor:middle;fill:#000000;fill-opacity:1;stroke:none"
       transform="matrix(0.78840156,0,0,0.90199233,254.78575,1898.0339)"><flowRegion
         id="flowRegion3029-9-3-5-1"><rect
           id="rect3031-9-1-6-8"
           width="2230.314"
           height="376.21677"
           x="135.21135"
           y="219.33444"
           style="text-align:center;text-anchor:middle;stroke-width:1" /></flowRegion><flowPara
         id="flowPara3033-3-0-2-4"
         style="font-size:12px;line-height:1.25"> </flowPara><flowPara
         style="font-style:normal;font-variant:normal;font-weight:normal;font-stretch:normal;font-size:48px;line-height:1.25;font-family:Lavi;-inkscape-font-specification:Lavi;text-align:center;text-anchor:middle"
         id="flowPara3279">ilo : pali pi wan ni li kepeken taso ilo pi nasin jo pi jan ale. </flowPara><flowPara
         style="font-style:normal;font-variant:normal;font-weight:normal;font-stretch:normal;font-size:48px;line-height:1.25;font-family:Lavi;-inkscape-font-specification:Lavi;text-align:center;text-anchor:middle"
         id="flowPara132">ilo pi nasin Free(libre) en ilo pi nasin Open-source li ilo Krita, li ilo G'MIC,</flowPara><flowPara
         style="font-style:normal;font-variant:normal;font-weight:normal;font-stretch:normal;font-size:48px;line-height:1.25;font-family:Lavi;-inkscape-font-specification:Lavi;text-align:center;text-anchor:middle"
         id="flowPara136">li ilo Blender, li ilo GIMP lon ilo Ubuntu Gnome (GNU/Linux)</flowPara><flowPara
         style="font-style:normal;font-variant:normal;font-weight:normal;font-stretch:normal;font-size:48px;line-height:1.25;font-family:Lavi;-inkscape-font-specification:Lavi;text-align:center;text-anchor:middle"
         id="flowPara3233-6"> </flowPara></flowRoot>
    <flowRoot
       xml:space="preserve"
       id="flowRoot3027-8-8-2-8-6"
       style="font-style:normal;font-variant:normal;font-weight:normal;font-stretch:normal;line-height:0.01%;font-family:Arial;-inkscape-font-specification:Arial;text-align:center;letter-spacing:0px;word-spacing:0px;text-anchor:middle;display:inline;fill:#000000;fill-opacity:1;stroke:none"
       transform="matrix(0.78840156,0,0,0.90199233,267.389,1710.6105)"><flowRegion
         id="flowRegion3029-9-3-5-1-2"><rect
           id="rect3031-9-1-6-8-7"
           width="2230.314"
           height="376.21677"
           x="135.21135"
           y="219.33444"
           style="text-align:center;text-anchor:middle" /></flowRegion><flowPara
         id="flowPara3033-3-0-2-4-3"
         style="font-size:12px;line-height:1.25"> </flowPara><flowPara
         style="font-style:normal;font-variant:normal;font-weight:normal;font-stretch:normal;font-size:48px;line-height:1.25;font-family:Lavi;-inkscape-font-specification:Lavi;text-align:center;text-anchor:middle"
         id="flowPara114">nasin Open-source la, sina ken sitelen e sitelen suli pi lipu mama mute </flowPara><flowPara
         style="font-style:normal;font-variant:normal;font-weight:normal;font-stretch:normal;font-size:48px;line-height:1.25;font-family:Lavi;-inkscape-font-specification:Lavi;text-align:center;text-anchor:middle"
         id="flowPara118">e nasin sitelen, li ken jo e ona, li ken esun e ona, li ken ante e ona,</flowPara><flowPara
         style="font-style:normal;font-variant:normal;font-weight:normal;font-stretch:normal;font-size:48px;line-height:1.25;font-family:Lavi;-inkscape-font-specification:Lavi;text-align:center;text-anchor:middle"
         id="flowPara128">li ken ante toki e ona, li ken pali ante e ona</flowPara></flowRoot>
    <flowRoot
       xml:space="preserve"
       id="flowRoot3027-8-8-2-8-6-3"
       style="font-style:normal;font-variant:normal;font-weight:normal;font-stretch:normal;line-height:0.01%;font-family:Arial;-inkscape-font-specification:Arial;text-align:center;letter-spacing:0px;word-spacing:0px;text-anchor:middle;display:inline;fill:#000000;fill-opacity:1;stroke:none"
       transform="matrix(0.78840156,0,0,0.90199233,277.30571,1579.2175)"><flowRegion
         id="flowRegion3029-9-3-5-1-2-8"><rect
           id="rect3031-9-1-6-8-7-4"
           width="2230.314"
           height="376.21677"
           x="135.21135"
           y="219.33444"
           style="text-align:center;text-anchor:middle" /></flowRegion><flowPara
         id="flowPara3033-3-0-2-4-3-2"
         style="font-size:12px;line-height:1.25" /><flowPara
         style="font-style:normal;font-variant:normal;font-weight:normal;font-stretch:normal;font-size:48px;line-height:1.25;font-family:Lavi;-inkscape-font-specification:Lavi;text-align:center;text-anchor:middle"
         id="flowPara3278-7">nasin lawa Creative Commons Attribution la, o nimi e jan 'David Revoy'.</flowPara><flowPara
         style="font-style:normal;font-variant:normal;font-weight:normal;font-stretch:normal;font-size:48px;line-height:1.25;font-family:Lavi;-inkscape-font-specification:Lavi;text-align:center;text-anchor:middle"
         id="flowPara3233-6-14-6">sina ken ante, li ken musi, li ken pana, li ken esun, li ken pali ante mute e ni</flowPara></flowRoot>
    <flowRoot
       xml:space="preserve"
       id="flowRoot3027-8-8-2-3"
       style="font-style:normal;font-variant:normal;font-weight:normal;font-stretch:normal;line-height:0.01%;font-family:Arial;-inkscape-font-specification:Arial;text-align:center;letter-spacing:0px;word-spacing:0px;text-anchor:middle;display:inline;fill:#000000;fill-opacity:1;stroke:none"
       transform="matrix(0.91226779,0.30646053,0,0.94129239,1509.1151,1203.9255)"><flowRegion
         id="flowRegion3029-9-3-5-4"><rect
           id="rect3031-9-1-6-3"
           width="820.92859"
           height="65.422607"
           x="135.21135"
           y="219.33444"
           style="text-align:center;text-anchor:middle" /></flowRegion><flowPara
         style="font-style:normal;font-variant:normal;font-weight:normal;font-stretch:normal;font-size:48px;line-height:1.25;font-family:Lavi;-inkscape-font-specification:Lavi;text-align:center;text-anchor:middle"
         id="flowPara3340-6">sina pona !</flowPara></flowRoot>
  </g>
</svg>
