<?xml version="1.0" encoding="UTF-8" standalone="no"?>
<!-- Created with Inkscape (http://www.inkscape.org/) -->

<svg
   xmlns:dc="http://purl.org/dc/elements/1.1/"
   xmlns:cc="http://creativecommons.org/ns#"
   xmlns:rdf="http://www.w3.org/1999/02/22-rdf-syntax-ns#"
   xmlns:svg="http://www.w3.org/2000/svg"
   xmlns="http://www.w3.org/2000/svg"
   xmlns:xlink="http://www.w3.org/1999/xlink"
   xmlns:sodipodi="http://sodipodi.sourceforge.net/DTD/sodipodi-0.dtd"
   xmlns:inkscape="http://www.inkscape.org/namespaces/inkscape"
   id="svg2"
   version="1.1"
   inkscape:version="0.92.3 (2405546, 2018-03-11)"
   width="2481"
   height="3503"
   sodipodi:docname="E14P02.svg">
  <sodipodi:namedview
     pagecolor="#ffffff"
     bordercolor="#666666"
     inkscape:pageopacity="0"
     inkscape:pageshadow="2"
     inkscape:window-width="1813"
     inkscape:window-height="955"
     id="namedview70"
     showgrid="false"
     inkscape:zoom="0.4"
     inkscape:cx="997.9092"
     inkscape:cy="2580.1428"
     inkscape:current-layer="layer3"
     inkscape:window-x="0"
     inkscape:window-y="0"
     inkscape:window-maximized="0" />
  <metadata
     id="metadata8">
    <rdf:RDF>
      <cc:Work
         rdf:about="">
        <dc:format>image/svg+xml</dc:format>
        <dc:type
           rdf:resource="http://purl.org/dc/dcmitype/StillImage" />
        <dc:title />
      </cc:Work>
    </rdf:RDF>
  </metadata>
  <defs
     id="defs6" />
  <sodipodi:namedview
     pagecolor="#ffffff"
     bordercolor="#666666"
     borderopacity="1"
     objecttolerance="10"
     gridtolerance="10"
     guidetolerance="10"
     inkscape:pageopacity="0"
     inkscape:pageshadow="2"
     inkscape:window-width="1920"
     inkscape:window-height="1025"
     id="namedview4"
     showgrid="false"
     inkscape:zoom="0.60835003"
     inkscape:cx="1322.9005"
     inkscape:cy="380.35249"
     inkscape:window-x="0"
     inkscape:window-y="26"
     inkscape:window-maximized="1"
     inkscape:current-layer="layer3" />
  <g
     inkscape:groupmode="layer"
     id="layer2"
     inkscape:label="artwork"
     sodipodi:insensitive="true">
    <image
       sodipodi:absref="C:\Users\ato\OneDrive - Høgskulen i Volda\Vevsida\Teikneseriesida\Pepar &amp; Gulrot\ep14_The-Dragon-s-Tooth_lang-pack\lang\nn\../gfx_Pepper-and-Carrot_by-David-Revoy_E14P02.png"
       xlink:href="../gfx_Pepper-and-Carrot_by-David-Revoy_E14P02.png"
       y="0"
       x="0"
       id="image10"
       height="3503"
       width="2481" />
  </g>
  <g
     inkscape:groupmode="layer"
     id="layer3"
     inkscape:label="speechbubbles">
    <path
       style="fill:#ffffff;fill-rule:evenodd;stroke:none;stroke-width:0.8913607px;stroke-linecap:butt;stroke-linejoin:miter;stroke-opacity:1"
       d="m 114.6919,126.32274 c 22.99318,14.14077 57.47262,24.67319 2.37233,63.34662 20.90774,2.49646 46.68,3.34346 26.09559,19.90894 7.93249,16.89244 -18.80446,33.78487 -37.95723,50.67731 20.03372,-5.91305 40.63265,-15.62803 13.94472,21.23298 14.33483,-1.04756 12.32164,8.59541 -6.82774,29.4443 45.20767,-38.89414 60.96078,-48.6292 62.86667,-18.09903 5.70503,-16.31383 16.79904,-20.56964 9.4893,32.57827 29.55512,-93.30803 4.2658,94.24569 -3.55848,276.91523 14.51781,-83.94143 40.43723,-427.33054 43.88804,-253.38649 23.14282,-125.13255 56.00674,-20.77464 62.86665,-7.23962 -5.75717,-97.41702 36.4197,-57.00273 47.44655,-19.90894 -2.84267,-23.76822 10.68003,-71.64045 51.04118,-13.2022 -9.62347,-21.47678 -3.07403,-43.66983 33.17642,9.5824 -10.99348,-35.51606 9.37145,-45.51992 72.82012,-11.69765 -0.48944,-17.62622 -6.67758,-36.17874 60.03019,-4.59148 -1.25147,-16.18577 -14.85259,-38.49574 75.91445,-9.04952 0.59212,-28.24705 23.47239,-12.03019 48.94569,1.13893 -4.35174,-24.2739 15.20878,-31.07058 50.46912,-14.63832 -22.45748,-33.21567 8.16308,-29.48616 52.4141,-19.07886 -4.29694,-16.09123 -10.44015,-32.61585 15.42014,-41.62779 -26.41426,-38.44694 1.19822,-40.82789 9.48929,-56.10701 -18.60219,2.6748 -32.95566,-11.09478 -11.51403,-31.20972 -37.55307,7.43624 -23.76323,-15.80314 -21.69852,-28.5171 L 711.33211,82.885055 652.02393,73.835537 580.85412,64.78602 514.42897,62.976117 h -67.61131 l -59.30818,3.619807 -51.00502,-9.049518 -52.19118,9.049518 -73.54214,-1.809904 -35.5849,30.768359 z"
       id="path4323"
       inkscape:connector-curvature="0"
       sodipodi:nodetypes="ccccccccccccccccccccccccccccccccccc" />
    <path
       style="fill:#ffffff;stroke:none"
       d="m 780.17969,373.8389 c -1.73947,-29.37566 29.44774,-102.91478 181.57757,-97.38339 152.12994,5.53134 199.74414,37.8436 204.20224,90.05888 7.0524,82.60313 -72.983,104.67751 -187.90653,110.79585 C 859.57924,483.6177 778.34091,426.91606 780.17969,373.8389 Z"
       id="path3280"
       inkscape:connector-curvature="0"
       sodipodi:nodetypes="csssc" />
    <path
       style="color:#000000;display:inline;overflow:visible;visibility:visible;fill:#ffffff;fill-opacity:1;fill-rule:nonzero;stroke:none;stroke-width:1px;marker:none;enable-background:accumulate"
       d="m 816.05405,568.35967 c 39.18491,-37.68963 73.342,-77.76882 65.62626,-117.15486 -10.90688,-55.67559 -9.43261,-29.77014 -9.43261,-29.77014 l 41.81204,36.16737 c 4.42223,-1.37242 6.88006,49.17295 -98.00569,110.75763 z"
       id="path3072"
       inkscape:connector-curvature="0"
       sodipodi:nodetypes="csccc" />
    <path
       style="fill:#ffffff;fill-rule:evenodd;stroke:none;stroke-width:0.9288224px;stroke-linecap:butt;stroke-linejoin:miter;stroke-opacity:1"
       d="m 1338.0837,384.41425 c 8.4673,-26.3578 31.2689,-46.35625 56.0849,-59.70646 11.8098,-6.44527 25.3086,-11.16854 39.1219,-9.92615 13.7227,0.74231 27.1264,5.17445 41.0009,3.63498 16.871,-0.50844 34.0382,-2.72685 50.7155,0.44305 14.8255,3.45876 30.1,5.25009 45.3989,5.35397 10.7929,-2.19547 20.6691,3.65606 30.3078,7.15596 8.6531,3.78046 17.4915,7.74678 24.7596,13.59453 6.6961,8.20904 14.7138,15.35079 21.4881,23.48677 4.4326,4.44787 4.0067,10.59155 3.8025,16.27743 -0.5757,11.64346 -1.5506,23.47075 -5.1691,34.68824 -2.1654,7.12163 -10.1691,9.47844 -16.319,12.75094 -14.5516,6.90825 -30.0035,12.14701 -43.8912,20.27655 -13.7587,4.16273 -28.3804,2.21562 -42.4906,1.58655 -11.8234,-1.23912 -23.7171,-2.96702 -35.6421,-1.52605 -15.1777,1.05451 -30.3093,3.7849 -45.5413,3.43518 -19.0815,-2.39992 -37.3564,-8.30909 -55.848,-13.04927 -16.5903,-4.17801 -31.711,-12.03439 -46.2197,-20.43871 -7.75,-4.7725 -15.9543,-10.31987 -18.6894,-19.11502 -2.2421,-6.05622 -2.7704,-12.54098 -2.8697,-18.92249 z"
       id="path4365"
       inkscape:connector-curvature="0" />
    <path
       style="fill:#ffffff;stroke:none"
       d="m 1600.5998,539.46175 c -28.0754,-14.3263 -28.0705,-24.10879 -27.1393,-35.26758 0.931,-11.15875 3.0258,-21.20884 -1.8373,-26.59493 -4.8629,-5.38607 -13.8837,-9.08681 -20.965,-10.93985 -7.0813,-1.85304 -2.5775,-10.15393 -3.484,-17.79341 -0.9066,-7.63954 -20.1711,-44.64576 -20.1711,-44.64576 0,0 -10.2917,29.72026 -10.4833,39.70135 -0.1918,9.98106 -0.313,13.62987 0.7147,17.62055 1.0279,3.99076 5.0156,13.43659 11.7527,17.22018 6.7371,3.78364 14.9313,4.06179 20.6767,5.77151 5.7455,1.70964 6.255,10.50318 7.37,19.09418 1.1149,8.59099 3.3294,14.64819 14.8496,23.66417 9.8749,7.72832 28.7163,12.16959 28.7163,12.16959 z"
       id="path3023"
       inkscape:connector-curvature="0"
       sodipodi:nodetypes="csssscssssssc" />
    <path
       style="fill:#ffffff;fill-rule:evenodd;stroke:none;stroke-width:1px;stroke-linecap:butt;stroke-linejoin:miter;stroke-opacity:1"
       d="m 568.8634,1318.3227 c 104.31326,44.7459 702.5032,155.1743 811.2553,71.8972 58.8149,31.0736 60.5988,42.1012 121.6331,4.8129 89.8869,43.503 111.1049,28.7465 133.2993,20.0459 48.5521,7.5979 70.9469,10.8128 141.1257,39.7648 -74.8014,-20.5225 -93.9086,-23.7561 -138.3472,-25.7747 -64.3635,22.373 -112.0813,-6.2147 -133.1658,-17.4012 -62.5836,39.1667 -64.7247,30.9426 -125.6546,-6.0558 -65.191,62.6405 -404.44384,23.8741 -807.88989,-63.3003 4.43886,-12.4294 -2.25591,-23.9888 -2.25591,-23.9888 z"
       id="path4385"
       inkscape:connector-curvature="0"
       sodipodi:nodetypes="cccccccccc" />
    <path
       style="color:#000000;display:inline;overflow:visible;visibility:visible;fill:#ffffff;fill-opacity:1;fill-rule:nonzero;stroke:none;stroke-width:1px;marker:none;enable-background:accumulate"
       d="m 160.03026,1268.0715 c 17.84931,-24.4048 51.85888,-29.0171 102.86613,-30.2658 72.22042,-1.2488 150.93908,-0.798 166.94199,1.9753 16.00274,2.7733 128.76706,2.1504 147.84729,16.0168 29.68696,22.7052 25.72174,59.4162 25.72174,59.4162 5.53958,17.7489 0.61559,60.4574 -17.23377,69.8866 -17.84932,9.4292 -99.09442,29.9512 -146.48749,31.0606 -47.39302,1.1093 -157.56621,-7.7651 -188.95645,-13.8663 -31.39015,-6.1012 -64.62678,-13.8664 -74.47466,-33.2793 -9.84793,-19.413 -37.15156,-73.2114 -16.22478,-100.9441 z"
       id="path3533"
       inkscape:connector-curvature="0"
       sodipodi:nodetypes="cccccscssc" />
    <path
       style="color:#000000;display:inline;overflow:visible;visibility:visible;fill:#ffffff;fill-opacity:1;fill-rule:nonzero;stroke:none;stroke-width:1.10217988px;marker:none;enable-background:accumulate"
       d="m 914.7233,1419.7186 c 1.05788,-33.5988 14.74205,-48.879 67.59723,-54.035 54.04117,-5.2715 258.82207,-0.8543 298.17917,13.4829 29.5788,10.7749 36.745,29.3632 33.3516,51.2876 -3.1117,20.1057 -43.0661,42.0863 -109.5769,46.1473 -66.9908,4.0905 -184.3286,0.1265 -220.29056,-8.464 -35.96189,-8.5902 -67.08608,-21.5849 -69.26054,-48.4188 z"
       id="path3986"
       inkscape:connector-curvature="0"
       sodipodi:nodetypes="csssssc" />
    <path
       style="fill:#ffffff;fill-rule:evenodd;stroke:none;stroke-width:1px;stroke-linecap:butt;stroke-linejoin:miter;stroke-opacity:1"
       d="m 130.37091,2140.9069 c -66.601867,143.3288 421.72752,84.8962 462.88452,78.4896 33.60794,-3.9095 57.01139,-56.4084 13.05195,-95.9393 -23.1926,-23.0368 -411.27463,-58.7088 -475.93647,17.4497 z"
       id="path4430"
       inkscape:connector-curvature="0"
       sodipodi:nodetypes="cccc" />
    <path
       style="color:#000000;display:inline;overflow:visible;visibility:visible;fill:#ffffff;fill-opacity:1;fill-rule:nonzero;stroke:none;stroke-width:0.96506px;marker:none;enable-background:accumulate"
       d="m 685.06475,2324.8239 c -42.37164,7.3233 -231.65554,30.2858 -316.49462,6.684 -85.6786,-23.8353 -47.44446,-109.1136 5.06271,-107.3095 47.6015,1.6355 176.16842,-24.2167 238.30094,-20.9147 71.68062,3.8095 108.46675,10.6939 112.29615,72.0999 1.02553,16.445 3.20646,42.117 -39.16518,49.4403 z"
       id="path4040"
       inkscape:connector-curvature="0"
       sodipodi:nodetypes="zssssz" />
    <path
       style="fill:#ffffff;stroke:none"
       d="m 841.66543,2570.7124 c -168.20546,-56.9231 -212.36128,-102.467 -272.87963,-227.2396 -31.03877,-63.9937 16.40761,-58.7269 16.40761,-58.7269 l -66.84596,-12.0365 c 0,0 -19.9862,-53.8679 0.8035,1.8299 20.7897,55.6978 51.93247,244.4932 322.51448,296.1731 z"
       id="path3063"
       inkscape:connector-curvature="0"
       sodipodi:nodetypes="cscczc" />
    <path
       style="color:#000000;display:inline;overflow:visible;visibility:visible;fill:#ffffff;fill-opacity:1;fill-rule:nonzero;stroke:none;stroke-width:1px;marker:none;enable-background:accumulate"
       d="m 1728.335,3182.8918 c 22.7187,-40.6995 52.4055,-69.568 115.9988,-84.1355 63.5934,-14.5674 181.516,-12.3555 202.2693,-8.0198 20.7533,4.3354 134.8142,19.4552 159.7232,42.111 24.9094,22.6557 34.3327,47.8547 41.7786,77.157 7.4458,29.3022 7.0803,87.657 -21.2126,116.0043 -34.4021,34.4683 -103.4762,54.0469 -164.7925,56.6444 -61.3163,2.5976 -204.0351,-10.3297 -244.7541,-19.9292 -40.7186,-9.5994 -65.2709,-27.6421 -78.3184,-59.6306 -13.0476,-31.9887 -37.3419,-73.9422 -10.6923,-120.2016 z"
       id="path3533-6"
       inkscape:connector-curvature="0"
       sodipodi:nodetypes="cscssssssc" />
    <path
       style="color:#000000;display:inline;overflow:visible;visibility:visible;fill:#ffffff;fill-opacity:1;fill-rule:nonzero;stroke:none;stroke-width:1px;marker:none;enable-background:accumulate"
       d="m 1785.6357,3186.0855 c -20.1616,13.8181 16.9174,30.9609 -6.7481,39.3015 -23.6655,8.3406 -108.0753,7.8791 -138.1193,-16.3542 -60.0878,-48.4667 -44.2285,-81.6926 -44.2285,-81.6926 -2.0578,20.4814 35.0801,106.8869 189.0959,58.7453 z"
       id="path5002"
       inkscape:connector-curvature="0"
       sodipodi:nodetypes="csscc" />
    <path
       style="color:#000000;display:inline;overflow:visible;visibility:visible;fill:#ffffff;fill-opacity:1;fill-rule:nonzero;stroke:none;stroke-width:0.95388448px;marker:none;enable-background:accumulate"
       d="m 612.54552,1413.7348 c -6.24925,22.2136 -41.4959,24.0763 -54.47117,19.561 26.15513,24.85 25.24331,40.2897 -10.26801,42.687 59.55308,44.7862 10.88711,38.009 1.28808,49.3655 46.76019,15.4343 25.8392,34.6427 17.51426,53.7643 53.74622,0.6568 27.86546,12.831 13.69814,39.3748 15.18731,-11.7866 55.22776,-45.7392 52.22962,8.8459 28.95053,-30.3113 61.78291,-44.0496 81.76902,3.8548 14.32368,-32.6147 29.09332,-50.6979 54.88555,-3.2003 -7.04814,-51.1315 40.00132,-36.6815 72.08267,-22.3817 -7.61791,-13.6675 5.27528,-49.1497 36.66787,-33.2327 -21.32462,-22.3492 5.38196,-25.5401 26.16797,-31.7186 -27.62131,-9.1431 -32.71184,-18.574 18.57477,-28.7231 -39.02609,-0.9817 -75.4182,-2.993 -29.63209,-37.6044 -14.36437,-0.8375 -48.44535,28.0432 -32.55546,-56.4768 -24.70035,27.0578 -51.05339,41.9918 -84.10248,-14.6874 -15.64051,28.3158 -42.76863,42.3276 -54.57068,6.9589 -4.24191,15.0783 -21.83111,20.749 -36.76303,21.4367 -5.77419,-5.9894 -11.7296,-14.1245 -17.94435,-24.7828 -10.15749,22.3796 -25.35199,37.4938 -54.57068,6.9589 z"
       id="path3549-3-7"
       inkscape:connector-curvature="0"
       sodipodi:nodetypes="cccccccccccccccccccc" />
    <path
       style="color:#000000;display:inline;overflow:visible;visibility:visible;fill:#ffffff;fill-opacity:1;fill-rule:nonzero;stroke:none;stroke-width:1px;marker:none;enable-background:accumulate"
       d="m 549.09442,1525.3483 c -32.71667,-14.168 -100.80088,-25.7605 -117.75539,-27.2872 -20.27048,14.0102 -50.61242,35.3064 -73.20544,50.1722 -5.31176,-1.4012 -91.51271,-47.8708 -99.56707,-45.7537 -8.05422,2.1172 -79.0692,29.9973 -84.37818,37.4927 18.70636,-20.5749 83.14331,-49.601 95.87634,-50.1894 8.58229,-0.7407 80.53436,35.2542 83.66571,38.0832 15.04972,-15.8838 71.20105,-48.2854 79.8175,-52.493 13.26097,0.788 64.22973,3.8642 121.88704,24.3755 57.65735,20.5113 -6.34051,25.5997 -6.34051,25.5997 z"
       id="path5901"
       inkscape:connector-curvature="0"
       sodipodi:nodetypes="ccccccccsc" />
  </g>
  <g
     inkscape:groupmode="layer"
     id="layer1"
     inkscape:label="txt">
    <text
       xml:space="preserve"
       style="font-style:normal;font-variant:normal;font-weight:normal;font-stretch:normal;line-height:0%;font-family:Lavi;-inkscape-font-specification:Lavi;text-align:center;letter-spacing:0px;word-spacing:0px;text-anchor:middle;fill:#000000;fill-opacity:1;stroke:none"
       x="454.21368"
       y="174.33237"
       id="text4246"><tspan
         sodipodi:role="line"
         style="font-style:normal;font-variant:normal;font-weight:normal;font-stretch:normal;font-size:45px;line-height:1.25;font-family:Lavi;-inkscape-font-specification:Lavi"
         x="461.24493"
         y="174.33237"
         id="tspan6644">Kajenne! Timian! Kan de </tspan><tspan
         sodipodi:role="line"
         style="font-style:normal;font-variant:normal;font-weight:normal;font-stretch:normal;font-size:45px;line-height:1.25;font-family:Lavi;-inkscape-font-specification:Lavi"
         x="461.24493"
         y="230.58237"
         id="tspan6648">finna draketann til meg? </tspan></text>
    <text
       xml:space="preserve"
       style="font-style:normal;font-variant:normal;font-weight:normal;font-stretch:normal;line-height:0%;font-family:Lavi;-inkscape-font-specification:Lavi;text-align:center;letter-spacing:0px;word-spacing:0px;text-anchor:middle;fill:#000000;fill-opacity:1;stroke:none"
       x="974.7323"
       y="372.49969"
       id="text4246-7"><tspan
         sodipodi:role="line"
         style="font-size:45px;line-height:1.25"
         x="974.7323"
         y="372.49969"
         id="tspan4169">I <tspan
   style="-inkscape-font-specification:'Lavi Italic';font-family:Lavi;font-weight:normal;font-style:italic;font-stretch:normal;font-variant:normal"
   id="tspan6655">denne</tspan> kulda?!</tspan><tspan
         sodipodi:role="line"
         style="font-size:45px;line-height:1.25"
         x="974.7323"
         y="428.74969"
         id="tspan6653">Elles takk!</tspan></text>
    <text
       xml:space="preserve"
       style="font-style:normal;font-variant:normal;font-weight:normal;font-stretch:normal;line-height:0%;font-family:Lavi;-inkscape-font-specification:Lavi;text-align:center;letter-spacing:0px;word-spacing:0px;text-anchor:middle;fill:#000000;fill-opacity:1;stroke:none"
       x="1494.8965"
       y="401.57327"
       id="text4246-7-6"><tspan
         sodipodi:role="line"
         style="font-size:45px;line-height:1.25"
         x="1494.8965"
         y="401.57327"
         id="tspan4196">Same her!</tspan></text>
    <text
       xml:space="preserve"
       style="font-style:normal;font-variant:normal;font-weight:normal;font-stretch:normal;line-height:0%;font-family:Lavi;-inkscape-font-specification:Lavi;text-align:center;letter-spacing:0px;word-spacing:0px;text-anchor:middle;fill:#000000;fill-opacity:1;stroke:none"
       x="382.04089"
       y="1312.4873"
       id="text4246-7-6-4"><tspan
         sodipodi:role="line"
         style="font-size:45px;line-height:1.25"
         x="389.07214"
         y="1312.4873"
         id="tspan6661">Ikkje noko problem. </tspan><tspan
         sodipodi:role="line"
         style="font-size:45px;line-height:1.25"
         x="382.04089"
         y="1368.7373"
         id="tspan6669">Eg fiksar det!</tspan></text>
    <text
       xml:space="preserve"
       style="font-style:normal;font-variant:normal;font-weight:normal;font-stretch:normal;line-height:0%;font-family:Lavi;-inkscape-font-specification:Lavi;text-align:center;letter-spacing:0px;word-spacing:0px;text-anchor:middle;fill:#000000;fill-opacity:1;stroke:none"
       x="1113.7859"
       y="1436.3713"
       id="text4246-7-6-4-6"><tspan
         sodipodi:role="line"
         style="font-size:45.00001144px;line-height:1.25"
         x="1113.7859"
         y="1436.3713"
         id="tspan6675">Er snart tilbake!</tspan></text>
    <text
       xml:space="preserve"
       style="font-style:normal;font-variant:normal;font-weight:normal;font-stretch:normal;line-height:0%;font-family:Lavi;-inkscape-font-specification:Lavi;text-align:center;letter-spacing:0px;word-spacing:0px;text-anchor:middle;fill:#000000;fill-opacity:1;stroke:none"
       x="376.62363"
       y="2182.0615"
       id="text4246-7-6-4-6-4"><tspan
         sodipodi:role="line"
         style="font-size:45px;line-height:1.25"
         x="376.62363"
         y="2182.0615"
         id="tspan4221-0-2">«Kulda», «kulda»!</tspan></text>
    <text
       xml:space="preserve"
       style="font-style:normal;font-variant:normal;font-weight:normal;font-stretch:normal;line-height:0%;font-family:Lavi;-inkscape-font-specification:Lavi;text-align:center;letter-spacing:0px;word-spacing:0px;text-anchor:middle;fill:#000000;fill-opacity:1;stroke:none"
       x="526.72662"
       y="2289.6729"
       id="text4246-7-6-4-6-4-5"><tspan
         sodipodi:role="line"
         style="font-size:45px;line-height:1.25"
         x="526.72662"
         y="2289.6729"
         id="tspan6681">For nokre pyser!</tspan></text>
    <text
       xml:space="preserve"
       style="font-style:normal;font-variant:normal;font-weight:normal;font-stretch:normal;line-height:0%;font-family:Lavi;-inkscape-font-specification:Lavi;text-align:center;letter-spacing:0px;word-spacing:0px;text-anchor:middle;fill:#000000;fill-opacity:1;stroke:none"
       x="1994.5713"
       y="3171.8694"
       id="text4246-7-6-4-6-4-5-2"><tspan
         sodipodi:role="line"
         style="font-size:45px;line-height:1.25"
         x="2001.6025"
         y="3171.8694"
         id="tspan6694">Ei god tong og </tspan><tspan
         sodipodi:role="line"
         style="font-size:45px;line-height:1.25"
         x="2001.6025"
         y="3228.1194"
         id="tspan6698">litt vern på kroppen, </tspan><tspan
         sodipodi:role="line"
         style="font-size:45px;line-height:1.25"
         x="2001.6025"
         y="3284.3694"
         id="tspan6700">så er draketennene </tspan><tspan
         sodipodi:role="line"
         style="font-size:45px;line-height:1.25"
         x="1994.5713"
         y="3340.6194"
         id="tspan6702">snart våre.</tspan></text>
    <text
       xml:space="preserve"
       style="font-style:normal;font-variant:normal;font-weight:normal;font-stretch:normal;line-height:0%;font-family:Lavi;-inkscape-font-specification:Lavi;text-align:center;letter-spacing:0px;word-spacing:0px;text-anchor:middle;fill:#000000;fill-opacity:1;stroke:#000000;stroke-width:0;stroke-miterlimit:4;stroke-dasharray:none;stroke-opacity:1"
       x="717.88654"
       y="1499.0016"
       id="text4246-7-6-4-0"><tspan
         sodipodi:role="line"
         style="font-style:normal;font-variant:normal;font-weight:bold;font-stretch:normal;font-size:60.78111267px;line-height:1.10000002;font-family:Lavi;-inkscape-font-specification:'Lavi Bold';stroke:#000000;stroke-width:0;stroke-miterlimit:4;stroke-dasharray:none;stroke-opacity:1"
         x="727.38361"
         y="1499.0016"
         id="tspan4212">Vent, </tspan><tspan
         sodipodi:role="line"
         style="font-style:normal;font-variant:normal;font-weight:bold;font-stretch:normal;font-size:60.78111267px;line-height:1.10000002;font-family:Lavi;-inkscape-font-specification:'Lavi Bold';stroke:#000000;stroke-width:0;stroke-miterlimit:4;stroke-dasharray:none;stroke-opacity:1"
         x="717.88654"
         y="1565.8608"
         id="tspan6673">Pepar!</tspan></text>
  </g>
</svg>
