<?xml version="1.0" encoding="UTF-8" standalone="no"?>
<!-- Created with Inkscape (http://www.inkscape.org/) -->

<svg
   id="svg2"
   version="1.1"
   inkscape:version="1.1 (c68e22c387, 2021-05-23)"
   width="2481"
   height="3503"
   sodipodi:docname="E37P04.svg"
   xmlns:inkscape="http://www.inkscape.org/namespaces/inkscape"
   xmlns:sodipodi="http://sodipodi.sourceforge.net/DTD/sodipodi-0.dtd"
   xmlns:xlink="http://www.w3.org/1999/xlink"
   xmlns="http://www.w3.org/2000/svg"
   xmlns:svg="http://www.w3.org/2000/svg"
   xmlns:rdf="http://www.w3.org/1999/02/22-rdf-syntax-ns#"
   xmlns:cc="http://creativecommons.org/ns#"
   xmlns:dc="http://purl.org/dc/elements/1.1/">
  <metadata
     id="metadata8">
    <rdf:RDF>
      <cc:Work
         rdf:about="">
        <dc:format>image/svg+xml</dc:format>
        <dc:type
           rdf:resource="http://purl.org/dc/dcmitype/StillImage" />
        <dc:title />
      </cc:Work>
    </rdf:RDF>
  </metadata>
  <defs
     id="defs6">
    <filter
       inkscape:label="Ripple"
       inkscape:menu="Distort"
       inkscape:menu-tooltip="Horizontal rippling of edges"
       style="color-interpolation-filters:sRGB"
       id="filter4265-7-37"
       y="0"
       x="0"
       width="1"
       height="1">
      <feTurbulence
         numOctaves="1"
         baseFrequency="0.002 0.107"
         id="feTurbulence4267-7-7" />
      <feColorMatrix
         values="5 0 0 0 0 0 0 0 0 0 0 0 0 0 0 0 0 0 4 0 "
         result="result91"
         id="feColorMatrix4269-1-2" />
      <feDisplacementMap
         yChannelSelector="A"
         xChannelSelector="R"
         scale="14.3"
         in="SourceGraphic"
         in2="result91"
         id="feDisplacementMap4271-2-64" />
    </filter>
    <filter
       inkscape:label="Magmah-FX"
       inkscape:menu="Distort"
       inkscape:menu-tooltip="Horizontal rippling of edges"
       style="color-interpolation-filters:sRGB"
       id="filter4265-7"
       y="0"
       x="0"
       width="1"
       height="1">
      <feTurbulence
         numOctaves="1"
         baseFrequency="0.002 0.107"
         id="feTurbulence4267-7" />
      <feColorMatrix
         values="5 0 0 0 0 0 0 0 0 0 0 0 0 0 0 0 0 0 4 0 "
         result="result91"
         id="feColorMatrix4269-1" />
      <feDisplacementMap
         yChannelSelector="A"
         xChannelSelector="R"
         scale="14.3"
         in="SourceGraphic"
         in2="result91"
         id="feDisplacementMap4271-2" />
    </filter>
    <filter
       style="color-interpolation-filters:sRGB"
       inkscape:label="Magmah-spell-glow"
       id="filter4751"
       x="-0.035967053"
       y="-0.17833759"
       width="1.0719341"
       height="1.3566752">
      <feFlood
         flood-opacity="1"
         flood-color="rgb(255,255,255)"
         result="flood"
         id="feFlood4753" />
      <feComposite
         in="flood"
         in2="SourceGraphic"
         operator="in"
         result="composite1"
         id="feComposite4755" />
      <feGaussianBlur
         in="composite1"
         stdDeviation="5.4"
         result="blur"
         id="feGaussianBlur4757" />
      <feOffset
         dx="0"
         dy="0"
         result="offset"
         id="feOffset4759" />
      <feComposite
         in="SourceGraphic"
         in2="offset"
         operator="over"
         result="composite2"
         id="feComposite4761" />
    </filter>
  </defs>
  <sodipodi:namedview
     pagecolor="#ffffff"
     bordercolor="#666666"
     borderopacity="1"
     objecttolerance="10"
     gridtolerance="10"
     guidetolerance="10"
     inkscape:pageopacity="0"
     inkscape:pageshadow="2"
     inkscape:window-width="1366"
     inkscape:window-height="745"
     id="namedview4"
     showgrid="false"
     inkscape:zoom="0.37113969"
     inkscape:cx="1530.4211"
     inkscape:cy="2216.1467"
     inkscape:window-x="-8"
     inkscape:window-y="-8"
     inkscape:window-maximized="1"
     inkscape:current-layer="layer1"
     inkscape:pagecheckerboard="0"
     inkscape:showpageshadow="0"
     inkscape:deskcolor="#d1d1d1" />
  <g
     inkscape:groupmode="layer"
     id="layer2"
     inkscape:label="artwork"
     sodipodi:insensitive="true">
    <image
       xlink:href="../gfx_Pepper-and-Carrot_by-David-Revoy_E37P04.png"
       y="0"
       x="0"
       id="image10"
       height="3503"
       width="2481" />
  </g>
  <g
     inkscape:groupmode="layer"
     id="layer3"
     inkscape:label="speechbubbles">
    <path
       style="color:#000000;display:inline;overflow:visible;visibility:visible;fill:#ffffff;fill-opacity:1;fill-rule:nonzero;stroke:none;stroke-width:0.92885px;marker:none;enable-background:accumulate"
       d="m 347.56489,1481.766 c -53.70361,0.3542 -107.93492,1.7025 -160.49821,14.8567 -22.627,6.8005 -42.38447,26.3818 -48.29925,51.3872 -3.04086,15.753 1.84268,31.6819 7.76193,45.9263 7.72386,18.4642 23.7069,31.645 41.18802,37.8944 37.68345,16.0454 78.5341,18.5924 118.43556,22.2914 19.44791,1.9078 38.91451,3.9476 58.46139,3.9753 38.33393,0.4634 76.64845,-2.1161 114.98266,-1.1687 24.16664,-0.069 48.46465,-2.9427 71.65923,-10.5389 16.46747,-4.8715 33.05557,-10.3729 47.79949,-19.9167 17.17013,-12.0385 31.0182,-31.1849 34.28085,-53.4589 3.38805,-24.8224 -9.76881,-50.6774 -30.3556,-61.7355 -15.14677,-8.5316 -32.09417,-12.2384 -48.80141,-15.1859 -18.92878,-3.0514 -37.98914,-5.0059 -56.99985,-7.3346 -49.70008,-5.3666 -99.67898,-7.4672 -149.61481,-6.9921 z"
       id="path4040-4-4"
       inkscape:connector-curvature="0"
       sodipodi:nodetypes="zssssz" />
    <path
       style="color:#000000;display:inline;overflow:visible;visibility:visible;fill:#ffffff;fill-opacity:1;fill-rule:nonzero;stroke:none;stroke-width:1.10661px;marker:none;enable-background:accumulate"
       d="m 232.88521,1829.6545 c -15.49911,-4.3258 -30.36527,-25.9083 -39.85487,-45.1151 -2.6023,-5.5279 -4.9768,-11.4623 -5.91137,-17.7034 0.23014,-6.7406 4.6456,-11.9989 9.68489,-14.2208 7.08756,-3.8231 15.87763,-4.2925 21.36573,-11.5454 3.88883,-5.3975 2.44347,-12.8787 1.69304,-19.2745 -2.17932,-16.2588 -6.20379,-32.2732 -6.21379,-48.8483 -1.02235,-18.6687 -0.97071,-38.3918 6.06435,-55.4786 2.87848,-6.7043 6.67303,-13.2274 12.33892,-16.8574 14.17763,-10.1059 33.45012,-10.5499 47.30692,0.9314 8.26682,8.3259 10.21944,25.1454 2.569,34.7308 -3.97524,5.1331 -10.21215,6.1902 -15.7493,5.1661 -10.4586,0.3997 -20.04905,8.0914 -25.18673,18.8336 -4.36159,8.7814 -6.37218,19.1354 -6.13892,29.3576 -2.73879,13.9759 2.82926,27.469 5.69121,40.7504 1.23215,6.0908 2.19987,12.6668 0.87478,18.791 -3.62099,8.1775 -11.75152,10.5256 -18.8271,11.5577 -7.27261,1.2901 -15.83507,1.7981 -20.79951,9.2364 -4.02698,4.5998 -0.25135,11.0835 0.90045,16.2897 5.52666,16.1978 15.18264,30.1517 26.62182,40.8647 1.15331,0.9227 2.35952,1.7296 3.57048,2.5341 z"
       id="path4496-8"
       inkscape:connector-curvature="0"
       sodipodi:nodetypes="ccccccccccccccccccccc" />
    <path
       style="fill:#ffffff;stroke:none;stroke-width:0.989293"
       d="m 2093.3899,3158.3653 c -51.0604,0.1771 -102.8537,2.283 -152.1262,15.9065 -23.5014,6.7425 -46.6905,17.6326 -62.433,35.7889 -16.3838,19.6738 -22.63,45.4846 -20.7845,70.0665 1.9757,23.7159 10.9514,47.5609 28.3981,65.2182 13.704,13.7498 32.0494,22.5334 50.9145,28.4081 42.9522,13.5939 88.8978,13.4853 133.7156,13.3171 43.5073,-0.4948 87.0573,0.8746 130.528,-1.3552 24.4327,-1.4523 49.0334,-3.5012 72.7165,-9.5982 21.1108,-5.5051 42.0693,-14.9675 55.9209,-31.3619 9.8746,-11.2822 15.982,-25.0572 19.163,-39.2472 4.7005,-20.1693 4.6229,-41.2181 0.7514,-61.4983 -3.9462,-18.2116 -13.9671,-35.685 -29.9374,-47.0762 -20.5292,-15.3591 -46.1076,-23.1818 -71.4679,-28.3437 -35.8293,-7.0137 -72.5443,-8.362 -109.0135,-9.7132 -15.4443,-0.4042 -30.8957,-0.5323 -46.3455,-0.5114 z"
       id="path3280-10"
       inkscape:connector-curvature="0"
       sodipodi:nodetypes="csssc" />
    <path
       style="color:#000000;display:inline;overflow:visible;visibility:visible;fill:#ffffff;fill-opacity:1;fill-rule:nonzero;stroke:none;stroke-width:0.999999px;marker:none;enable-background:accumulate"
       d="m 2277.3144,3069.2866 c 21.1533,40.5816 26.0863,56.0003 -12.7047,94.096 -38.791,38.0948 -21.8429,50.5398 -21.8429,50.5398 l 38.5724,-9.167 c 0,0 76.0812,-86.3431 -4.0248,-135.4688 z"
       id="path3072-56"
       inkscape:connector-curvature="0" />
    <path
       style="display:inline;fill:#ffffff;stroke:none;stroke-width:0.792452"
       d="m 854.98425,1516.2039 c -24.68327,0.7982 -49.70531,5.5135 -72.27713,18.3407 -17.75523,10.5022 -31.72868,30.7903 -36.2896,54.5122 -3.67242,18.5017 -3.23176,37.7154 -2.86746,56.6107 0.56155,17.014 3.03946,34.4994 10.41557,49.1879 9.39718,18.9536 25.35396,32.0877 42.57479,37.9479 23.71875,9.0362 48.77135,10.212 73.41897,10.393 29.04668,0.016 58.36577,0.3747 86.99316,-6.5505 16.33742,-4.8043 32.09666,-15.1552 42.56779,-31.6407 9.04376,-14.7896 12.81876,-33.3242 14.31746,-51.4635 1.7666,-24.6146 -1.4069,-49.5861 -8.1754,-72.7799 -6.82296,-20.5929 -20.86442,-36.9841 -37.43191,-45.5418 -14.72214,-7.953 -30.64737,-11.6899 -46.45653,-14.6624 -22.11169,-3.8325 -44.49228,-4.4414 -66.78971,-4.3536 z"
       id="path3280-8-1"
       inkscape:connector-curvature="0"
       sodipodi:nodetypes="csssc" />
    <path
       style="display:inline;fill:#ffffff;stroke:none;stroke-width:0.715864"
       d="m 1340.7609,1608.3003 c -51.4925,0.5912 -103.1975,-1.5795 -154.4779,3.4734 -24.3399,2.8942 -48.8963,9.6137 -67.8846,23.3725 -17.1083,12.6047 -26.5603,32.0454 -25.8247,51.2464 0.1076,26.173 12.4191,52.7683 35.6691,70.2258 15.309,11.1613 34.4179,17.5579 53.4252,22.612 31.6474,7.9663 64.7173,10.0408 97.3623,13.0967 30.8379,2.5312 61.9367,2.7769 92.8051,0.4659 24.5909,-1.726 49.1955,-4.2495 73.2273,-9.1212 23.1784,-5.3541 45.8813,-14.9662 61.5225,-30.9018 23.4913,-23.7519 29.1829,-59.3565 13.3249,-87.4287 -9.4594,-17.4817 -27.0521,-31.5421 -48.0199,-38.6303 -23.6819,-8.9594 -49.3024,-13.4562 -74.8697,-16.3504 -18.6728,-1.7854 -37.4855,-2.1287 -56.2596,-2.0603 z"
       id="path3280-8-1-0"
       inkscape:connector-curvature="0"
       sodipodi:nodetypes="csssc" />
    <path
       style="display:inline;fill:#ffffff;stroke:none;stroke-width:0.911195"
       d="m 2030.9059,1610.4066 c -67.4126,1.8359 -134.8074,4.8613 -202.161,8.7996 -39.1379,2.8634 -78.7421,6.9565 -116.325,21.7568 -34.6891,16.1705 -57.7043,61.7468 -57.6853,107.5487 -2.5717,46.5958 2.5454,94.3838 17.2595,137.4572 12.4573,30.1039 36.8968,50.3243 63.0075,57.3794 36.0408,12.1528 73.5054,14.8346 110.5416,18.6458 95.9925,7.6 192.2506,4.6566 288.3213,1.4414 54.0803,-2.8739 109.4353,-9.8935 159.3242,-38.0118 29.4244,-20.0917 44.8293,-62.2511 47.4105,-102.7345 3.0738,-47.2603 -2.7484,-97.3339 -24.0299,-137.4662 -12.253,-23.8719 -31.3666,-41.3235 -52.6848,-50.4872 -26.6623,-12.3669 -55.3999,-12.3447 -83.3153,-16.0974 -49.7495,-5.3804 -99.705,-9.409 -149.6633,-8.2318 z"
       id="path3280-8-1-0-6"
       inkscape:connector-curvature="0"
       sodipodi:nodetypes="csssc" />
    <path
       style="color:#000000;display:inline;overflow:visible;visibility:visible;fill:#ffffff;fill-opacity:1;fill-rule:nonzero;stroke:none;stroke-width:0.999999px;marker:none;enable-background:accumulate"
       d="m 1778.817,1868.4621 c -12.833,-0.6526 -23.8662,8.7491 -27.831,19.5381 -19.6036,19.4059 -1.839,-8.6641 -6.4214,4.8364 -13.5019,11.0957 -15.4266,35.2523 -15.8537,65.4931 -5.2817,5.1994 -14.9376,-8.1861 -19.6475,-2.164 -4.937,10.3078 -6.0593,21.8252 -6.4897,33.0281 -0.3179,32.1806 14.1211,63.8185 37.0812,87.8622 7.5298,8.5773 15.2692,16.9924 22.966,25.4398 -17.5595,-23.2829 -32.5888,-49.3497 -36.2923,-77.8541 -1.1276,-8.6692 1.6106,-30.4788 3.0954,-39.0712 10.4198,2.2428 18.5432,14.1601 29.054,13.5885 -3.9254,-39.033 12.0854,-78.9568 32.5429,-100.807 3.2112,-8.5188 -4.1806,-18.0085 -1.2971,-26.6329 -3.0138,-2.4158 -7.0942,-3.0258 -10.9068,-3.257 z"
       id="path4456-8"
       inkscape:connector-curvature="0"
       inkscape:transform-center-x="-13.453102"
       inkscape:transform-center-y="80.02882"
       sodipodi:nodetypes="cccccccccccccc" />
    <path
       style="color:#000000;display:inline;overflow:visible;visibility:visible;fill:#ffffff;fill-opacity:1;fill-rule:nonzero;stroke:none;stroke-width:1px;marker:none;enable-background:accumulate"
       d="m 820.0369,1693.3353 c -3.48578,39.7252 -1.62886,86.2092 5.54134,93.7569 -12.06557,-4.746 -23.61413,-7.3843 -32.58824,-9.1289 -2.74679,19.0391 9.33544,52.9316 19.75971,79.3624 -34.85384,-28.0115 -46.11754,-83.8349 -45.91311,-113.8427 11.20297,7.5747 21.79689,11.4361 28.26889,11.3872 1.30177,-15.339 -8.85591,-66.1714 -9.7642,-66.4676 z"
       id="path5066-6"
       inkscape:connector-curvature="0"
       sodipodi:nodetypes="cccccccc" />
    <path
       style="display:inline;fill:#ffffff;stroke:none;stroke-width:1"
       d="m 1204.2177,1950.0192 c -44.4885,-30.4335 -65.5015,-120.9246 -25.0786,-163.4599 23.8495,-25.0955 36.2779,-40.3926 36.2779,-40.3926 l -33.7128,-17.199 c -98.5183,93.7979 -30.177,190.842 22.5135,221.0515 z"
       id="path3063-1-0"
       inkscape:connector-curvature="0"
       sodipodi:nodetypes="csccc" />
  </g>
  <g
     inkscape:groupmode="layer"
     id="layer1"
     inkscape:label="txt">
    <text
       xml:space="preserve"
       style="font-style:normal;font-variant:normal;font-weight:normal;font-stretch:normal;font-size:48.2957px;line-height:125%;font-family:Lavi;-inkscape-font-specification:Lavi;text-align:center;letter-spacing:0px;word-spacing:0px;text-anchor:middle;fill:#000000;fill-opacity:1;stroke:none;stroke-width:0.999999"
       x="386.86877"
       y="1559.4731"
       id="text4246-70-2-2-2-7-4"><tspan
         sodipodi:role="line"
         style="font-size:48.2957px;stroke-width:0.999999"
         x="386.86877"
         y="1559.4731"
         id="tspan8744">jan o! sina tawa mi </tspan><tspan
         sodipodi:role="line"
         style="font-size:48.2957px;stroke-width:0.999999"
         x="386.86877"
         y="1619.8428"
         id="tspan8748">tan seme a?</tspan></text>
    <text
       xml:space="preserve"
       style="font-style:normal;font-variant:normal;font-weight:normal;font-stretch:normal;font-size:49.0523px;line-height:125%;font-family:Lavi;-inkscape-font-specification:Lavi;text-align:center;letter-spacing:0px;word-spacing:0px;text-anchor:middle;fill:#000000;fill-opacity:1;stroke:none;stroke-width:1"
       x="880.40576"
       y="1582.8677"
       id="text4246-70-2-2-2-7-4-3"><tspan
         sodipodi:role="line"
         style="font-style:normal;font-variant:normal;font-weight:bold;font-stretch:normal;font-size:49.0523px;font-family:Lavi;-inkscape-font-specification:'Lavi Bold';stroke-width:1"
         x="880.40576"
         y="1582.8677"
         id="tspan1123">toki, </tspan><tspan
         sodipodi:role="line"
         style="font-style:normal;font-variant:normal;font-weight:bold;font-stretch:normal;font-size:49.0523px;font-family:Lavi;-inkscape-font-specification:'Lavi Bold';stroke-width:1"
         x="880.40576"
         y="1644.1831"
         id="tspan1445">waso seli </tspan><tspan
         sodipodi:role="line"
         style="font-style:normal;font-variant:normal;font-weight:bold;font-stretch:normal;font-size:49.0523px;font-family:Lavi;-inkscape-font-specification:'Lavi Bold';stroke-width:1"
         x="880.40576"
         y="1705.4984"
         id="tspan1447">suli o!</tspan></text>
    <text
       xml:space="preserve"
       style="font-style:normal;font-variant:normal;font-weight:normal;font-stretch:normal;font-size:45.3333px;line-height:125%;font-family:Lavi;-inkscape-font-specification:Lavi;text-align:center;letter-spacing:0px;word-spacing:0px;text-anchor:middle;fill:#000000;fill-opacity:1;stroke:none"
       x="1304.6749"
       y="1678.9146"
       id="text4246-70-2-2-2-7-4-3-5"><tspan
         sodipodi:role="line"
         style="font-size:45.3333px"
         x="1304.6749"
         y="1678.9146"
         id="tspan6073">mi jan Pepa pi </tspan><tspan
         sodipodi:role="line"
         style="font-size:45.3333px"
         x="1304.6749"
         y="1735.5812"
         id="tspan6077">kulupu Pakalaa.</tspan></text>
    <text
       xml:space="preserve"
       style="font-style:normal;font-variant:normal;font-weight:normal;font-stretch:normal;font-size:45.3333px;line-height:125%;font-family:Lavi;-inkscape-font-specification:Lavi;text-align:center;letter-spacing:0px;word-spacing:0px;text-anchor:middle;fill:#000000;fill-opacity:1;stroke:none"
       x="1998.7637"
       y="1687.2914"
       id="text4246-70-2-2-2-7-4-3-5-6"><tspan
         sodipodi:role="line"
         style="font-size:45.3333px"
         x="1998.7637"
         y="1687.2914"
         id="tspan11069">tenpo pini lili la mi kama jo </tspan><tspan
         sodipodi:role="line"
         style="font-size:45.3333px"
         x="1998.7637"
         y="1743.958"
         id="tspan11073">e wawa Lonaa mute tan </tspan><tspan
         sodipodi:role="line"
         style="font-size:45.3333px"
         x="1998.7637"
         y="1800.6246"
         id="tspan11075">akesi wawa. tan tenpo ni la </tspan><tspan
         sodipodi:role="line"
         style="font-size:45.3333px"
         x="1998.7637"
         y="1857.2913"
         id="tspan11077">ijo nasa suno ni li kama lon </tspan><tspan
         sodipodi:role="line"
         style="font-size:45.3333px"
         x="1998.7637"
         y="1913.9579"
         id="tspan5032">sijelo mi li awen kama suli...</tspan></text>
    <text
       xml:space="preserve"
       style="font-style:normal;font-variant:normal;font-weight:normal;font-stretch:normal;font-size:45.3333px;line-height:125%;font-family:Lavi;-inkscape-font-specification:Lavi;text-align:center;letter-spacing:0px;word-spacing:0px;text-anchor:middle;fill:#000000;fill-opacity:1;stroke:none"
       x="2110.2424"
       y="3229.6404"
       id="text4246-70-2-2-2-7-4-3-5-6-2"><tspan
         sodipodi:role="line"
         style="font-size:45.3333px"
         x="2110.2424"
         y="3229.6404"
         id="tspan9273">ona li anpa e </tspan><tspan
         sodipodi:role="line"
         style="font-size:45.3333px"
         x="2110.2424"
         y="3286.3071"
         id="tspan9277">wawa ale mi li ken </tspan><tspan
         sodipodi:role="line"
         style="font-size:45.3333px"
         x="2110.2424"
         y="3342.9736"
         id="tspan9279">moli e mi lon tenpo.</tspan></text>
  </g>
</svg>
