<?xml version="1.0" encoding="UTF-8" standalone="no"?>
<!-- Created with Inkscape (http://www.inkscape.org/) -->

<svg
   id="svg2"
   version="1.1"
   inkscape:version="1.1.1 (3bf5ae0d25, 2021-09-20)"
   width="2481"
   height="3503"
   sodipodi:docname="E36P11.svg"
   xmlns:inkscape="http://www.inkscape.org/namespaces/inkscape"
   xmlns:sodipodi="http://sodipodi.sourceforge.net/DTD/sodipodi-0.dtd"
   xmlns:xlink="http://www.w3.org/1999/xlink"
   xmlns="http://www.w3.org/2000/svg"
   xmlns:svg="http://www.w3.org/2000/svg"
   xmlns:rdf="http://www.w3.org/1999/02/22-rdf-syntax-ns#"
   xmlns:cc="http://creativecommons.org/ns#"
   xmlns:dc="http://purl.org/dc/elements/1.1/">
  <metadata
     id="metadata8">
    <rdf:RDF>
      <cc:Work
         rdf:about="">
        <dc:format>image/svg+xml</dc:format>
        <dc:type
           rdf:resource="http://purl.org/dc/dcmitype/StillImage" />
        <dc:title />
      </cc:Work>
    </rdf:RDF>
  </metadata>
  <defs
     id="defs6">
    <rect
       x="1720.0643"
       y="2447.4464"
       width="7.6131259"
       height="43.293654"
       id="rect87610" />
  </defs>
  <sodipodi:namedview
     pagecolor="#1e1e1e"
     bordercolor="#111111"
     borderopacity="1"
     objecttolerance="10"
     gridtolerance="10"
     guidetolerance="10"
     inkscape:pageopacity="0"
     inkscape:pageshadow="2"
     inkscape:window-width="1852"
     inkscape:window-height="1016"
     id="namedview4"
     showgrid="false"
     inkscape:zoom="0.52900002"
     inkscape:cx="1261.8147"
     inkscape:cy="2673.9129"
     inkscape:window-x="0"
     inkscape:window-y="0"
     inkscape:window-maximized="1"
     inkscape:current-layer="layer1"
     inkscape:pagecheckerboard="0"
     inkscape:snap-global="false" />
  <g
     inkscape:groupmode="layer"
     id="layer2"
     inkscape:label="artwork"
     sodipodi:insensitive="true">
    <image
       xlink:href="../gfx_Pepper-and-Carrot_by-David-Revoy_E36P11.png"
       y="0"
       x="0"
       id="image10"
       height="3503"
       width="2481" />
  </g>
  <g
     inkscape:groupmode="layer"
     id="layer3"
     inkscape:label="speechbubbles"
     style="display:inline">
    <path
       style="color:#000000;display:inline;overflow:visible;visibility:visible;fill:#ffffff;fill-opacity:1;fill-rule:nonzero;stroke:none;stroke-width:0.667496px;marker:none;enable-background:accumulate"
       d="m 389.94827,282.95177 c -38.57931,21.41551 -85.65542,17.53589 -128.67146,16.52247 -44.91702,-3.44423 -98.31337,-16.67254 -118.62917,-58.54734 -18.97368,-38.78476 2.21854,-87.11707 42.73311,-105.22628 37.17178,-16.98124 79.91353,-18.66814 120.53194,-19.46171 52.73796,1.16875 110.66645,32.33519 118.84038,84.58625 4.44987,30.58574 -10.05026,62.20135 -34.8048,82.12661 z"
       id="path4040-40"
       inkscape:connector-curvature="0"
       sodipodi:nodetypes="zssssz" />
    <path
       style="color:#000000;display:inline;overflow:visible;visibility:visible;fill:#ffffff;fill-opacity:1;fill-rule:nonzero;stroke:none;stroke-width:0.822751px;marker:none;enable-background:accumulate"
       d="m 607.18359,105.88672 c -23.06907,0.48289 -46.66545,1.99485 -68.35156,10.55273 -16.26445,6.28483 -30.88775,17.59434 -39.5636,32.88401 -9.10223,15.11503 -12.86405,32.66921 -15.18695,49.9598 -3.16634,20.5909 -4.60595,42.02901 0.97021,62.34728 8.5575,29.028 34.01301,51.93542 63.4159,58.49046 38.47082,10.88095 79.73598,13.37614 118.82878,4.25676 22.41704,-5.64189 44.18838,-15.47968 61.55567,-30.96068 11.7099,-11.91714 17.23271,-28.63021 18.48164,-45.0154 2.512,-25.0214 3.01365,-50.80265 -4.07707,-75.17205 -6.75102,-22.85714 -24.82707,-41.60583 -46.77478,-50.51416 -17.03414,-7.20666 -35.26383,-10.9992 -53.42291,-14.11157 -11.8572,-1.87992 -23.86746,-2.85024 -35.87533,-2.71718 z"
       id="path3365-90"
       inkscape:connector-curvature="0"
       sodipodi:nodetypes="csssssc" />
    <path
       style="color:#000000;display:inline;overflow:visible;visibility:visible;fill:#ffffff;fill-opacity:1;fill-rule:nonzero;stroke:none;stroke-width:0.944496px;marker:none;enable-background:accumulate"
       d="m 845.88509,248.73921 c 0.56728,-53.37318 11.61767,-103.84716 109.57707,-102.10038 73.45044,1.30895 93.01074,42.43199 94.63804,96.38138 1.1469,38.01967 -38.5903,73.2116 -101.69685,71.34686 -60.31774,-1.78194 -98.1071,-24.9245 -102.51826,-65.62786 z"
       id="path5026-3"
       inkscape:connector-curvature="0"
       sodipodi:nodetypes="csssc" />
    <path
       style="color:#000000;display:inline;overflow:visible;visibility:visible;fill:#ffffff;fill-opacity:1;fill-rule:nonzero;stroke:none;stroke-width:1.06703px;marker:none;enable-background:accumulate"
       d="m 958.1944,309.83323 c -43.34053,0.0194 -52.18434,75.22752 -14.63328,128.2568 -16.5114,-21.59304 -72.61174,-61.13455 -7.77479,-172.66812 29.32893,-50.45175 14.74185,29.39163 14.74185,29.39163 z"
       id="path4035-4"
       inkscape:connector-curvature="0"
       sodipodi:nodetypes="ccscc" />
    <path
       style="color:#000000;display:inline;overflow:visible;visibility:visible;fill:#ffffff;fill-opacity:1;fill-rule:nonzero;stroke:none;stroke-width:1.01002px;marker:none;enable-background:accumulate"
       d="m 994.9159,1065.3606 c -32.32261,0.9945 -65.10268,6.7136 -93.26557,20.3773 -20.05258,10.7192 -32.93555,28.962 -38.13906,48.0298 -9.7124,33.4379 -13.08069,68.508 -6.29524,102.5716 2.88205,13.9 7.24058,27.7526 14.88264,40.4023 5.08463,7.9962 12.86212,14.8267 22.48408,19.1083 13.0485,6.4441 27.17392,11.1979 41.2808,15.7657 27.90649,8.2658 57.57019,11.2602 86.97695,12.9414 13.8962,0.7171 27.8261,-0.655 41.3466,-3.3118 17.6642,-3.4291 34.831,-8.5259 51.4089,-14.6138 21.8712,-8.6029 42.3531,-21.2492 54.6836,-38.8854 12.0505,-17.1666 15.9355,-37.2237 17.7253,-56.768 2.5415,-25.3925 1.5907,-51.6063 -8.7382,-75.8397 -9.435,-21.4149 -29.1299,-39.6498 -54.0817,-49.2396 -29.0592,-11.7239 -61.3587,-16.0049 -93.1368,-19.1652 -12.3247,-1.0817 -24.7392,-1.6445 -37.1323,-1.3729 z"
       id="path3365-90-4"
       inkscape:connector-curvature="0"
       sodipodi:nodetypes="csssssc" />
    <path
       style="fill:#ffffff;fill-rule:evenodd;stroke:none;stroke-width:1.18884px;stroke-linecap:butt;stroke-linejoin:miter;stroke-opacity:1"
       d="m 1048.455,1075.2666 c 1.6237,-24.8303 2.7154,-51.2197 28.6113,-64.146 -20.0938,4.5574 -50.5407,19.6541 -55.3048,46.5586 -7.4355,41.9896 24.9637,19.5655 24.9637,19.5655 z"
       id="path4248"
       inkscape:connector-curvature="0"
       sodipodi:nodetypes="ccscc" />
    <path
       style="color:#000000;display:inline;overflow:visible;visibility:visible;fill:#ffffff;fill-opacity:1;fill-rule:nonzero;stroke:none;stroke-width:1.50987px;marker:none;enable-background:accumulate"
       d="M 1739.4121 1155.6973 C 1688.3395 1157.0181 1637.4407 1161.9357 1586.6919 1167.5905 C 1564.4698 1170.4501 1541.385 1174.0343 1522.1582 1186.334 C 1492.8236 1205.0672 1473.4779 1239.1113 1473.9719 1274.0989 C 1472.8975 1300.1046 1477.0728 1327.4639 1491.995 1349.3584 C 1508.1402 1372.6464 1534.7437 1387.1453 1562.2855 1392.0923 C 1600.3465 1400.0338 1639.2715 1402.3136 1677.599 1408.5815 C 1738.3711 1416.7462 1799.0014 1426.5624 1860.2095 1430.9203 C 1919.7109 1433.391 1979.1013 1422.0654 2035.3022 1403.0341 C 2059.2686 1395.6812 2083.8797 1387.2961 2103.0537 1370.5062 C 2121.4845 1354.5765 2132.0714 1330.6228 2133.1685 1306.4418 C 2135.5719 1282.4153 2133.8082 1257.3971 2124.2662 1234.9897 C 2115.5601 1216.4004 2099.4528 1201.7449 2080.6248 1193.7991 C 2054.0067 1181.2706 2024.8528 1175.8613 1996.2139 1170.0957 C 1945.4984 1160.8809 1893.8565 1158.638 1842.4178 1157.7616 C 1808.0878 1156.8632 1773.7591 1155.6106 1739.4121 1155.6973 z "
       id="path4546-6-5"
       inkscape:connector-curvature="0"
       sodipodi:nodetypes="cssssc" />
    <path
       style="color:#000000;display:inline;overflow:visible;visibility:visible;fill:#ffffff;fill-opacity:1;fill-rule:nonzero;stroke:none;stroke-width:1.0951px;marker:none;enable-background:accumulate"
       d="m 1689.374,1378.7198 c -17.8899,0.7686 -36.004,1.5531 -53.4582,6.4878 -22.0248,6.7228 -42.7261,21.5376 -54.1074,43.0811 -7.8674,15.3973 -8.2957,34.7592 -0.5394,49.9925 8.4447,17.3844 24.1194,29.2546 40.4375,37.5218 26.6039,13.303 56.4235,17.0248 85.6279,19.2006 35.3827,2.4153 70.9152,1.7256 106.3788,2.3266 67.0676,0.3822 134.1896,1.051 201.2649,-2.7314 25.7343,-1.8246 51.6229,-4.3611 76.7269,-11.3215 18.5912,-5.5469 37.1613,-14.8541 49.7554,-30.9849 13.8222,-18.2228 16.6723,-44.8387 6.739,-65.318 -8.3509,-18.297 -24.6588,-31.6625 -42.9941,-37.2899 -39.1004,-14.7003 -81.5302,-19.0046 -123.0373,-14.3817 -25.5331,2.5405 -51.1525,6.3149 -76.7795,4.5964 -28.8409,-1.2172 -57.6437,-3.4825 -86.5537,-3.1143 -41.6685,-0.3109 -83.3564,0.9637 -125.0336,1.7698 -1.4756,0.055 -2.9513,0.1102 -4.4272,0.1654 z"
       id="path4546-6-5-7-9"
       inkscape:connector-curvature="0"
       sodipodi:nodetypes="cssssc" />
    <path
       style="color:#000000;display:inline;overflow:visible;visibility:visible;fill:#ffffff;fill-opacity:1;fill-rule:nonzero;stroke:none;stroke-width:1.16782px;marker:none;enable-background:accumulate"
       d="m 1834.6759,1063.9074 c -58.4661,16.7056 -74.2086,55.188 -42.9987,96.676 31.21,41.487 10.2962,43.1429 10.2962,43.1429 l -38.5277,-15.376 c 0,0 -61.7873,-122.5503 71.2302,-124.4429 z"
       id="path3072-56"
       inkscape:connector-curvature="0"
       sodipodi:nodetypes="ccccc" />
    <path
       style="color:#000000;display:inline;overflow:visible;visibility:visible;fill:#ffffff;fill-opacity:1;fill-rule:nonzero;stroke:none;stroke-width:0.592925px;marker:none;enable-background:accumulate"
       d="m 126.58488,1627.5134 c 16.24533,-13.7787 216.64551,-23.5914 262.94014,7.571 32.26279,21.7169 19.81677,63.3637 -7.83656,74.2047 -27.65333,10.8417 -161.16169,13.8952 -199.10707,8.3737 -34.12248,-4.9645 -69.93911,-15.6511 -71.82742,-44.0939 -0.77066,-11.6083 -0.41442,-32.2773 15.83091,-46.0555 z"
       id="path4040-5"
       inkscape:connector-curvature="0"
       sodipodi:nodetypes="zssssz" />
    <path
       style="color:#000000;display:inline;overflow:visible;visibility:visible;fill:#ffffff;fill-opacity:1;fill-rule:nonzero;stroke:none;stroke-width:0.882428px;marker:none;enable-background:accumulate"
       d="m 190.08292,1712.5896 c 22.01834,-22.517 293.63347,-38.5528 356.37953,12.3724 43.72783,35.4896 26.85894,103.5483 -10.62137,121.2646 -37.48033,17.7174 -218.43273,22.7074 -269.86252,13.6842 -46.24837,-8.1128 -94.79295,-25.5768 -97.35228,-72.0577 -1.04452,-18.9703 -0.56169,-52.7473 21.45664,-75.2635 z"
       id="path4040-5-3"
       inkscape:connector-curvature="0"
       sodipodi:nodetypes="zssssz" />
    <path
       style="color:#000000;display:inline;overflow:visible;visibility:visible;fill:#ffffff;fill-opacity:1;fill-rule:nonzero;stroke:none;stroke-width:0.855677px;marker:none;enable-background:accumulate"
       d="m 481.26449,1942.4649 c 13.3495,-41.5666 52.33232,-60.4288 7.51958,-104.8642 -33.47159,-33.1897 12.91326,-29.7973 12.91326,-29.7973 0,0 5.02259,-41.3782 24.01835,27.0751 18.99576,68.4534 -9.8869,64.3755 -44.45119,107.5864 z"
       id="path3072-6"
       inkscape:connector-curvature="0"
       sodipodi:nodetypes="csczc" />
    <path
       style="fill:#ffffff;stroke:none;stroke-width:1.06845"
       d="m 631.02308,1736.3877 c -12.0193,-72.2006 75.84672,-108.7174 140.47427,-106.3868 95.09526,-8.2118 191.29818,-5.0416 286.08045,4.2182 71.2274,10.1723 116.8568,88.9444 76.994,147.5334 -45.1859,60.72 -133.8478,53.4392 -203.68623,59.4324 -81.26208,1.65 -166.19841,-0.033 -242.4205,-28.7338 -30.10717,-15.7465 -49.85273,-45.09 -57.44199,-76.0634 z"
       id="path3286-6"
       inkscape:connector-curvature="0"
       sodipodi:nodetypes="csssssssc" />
    <path
       style="fill:#ffffff;stroke:none;stroke-width:0.962255"
       d="m 660.3512,1876.8472 c -11.4945,-61.2356 72.53508,-92.2066 134.34083,-90.23 90.94317,-6.9646 182.94566,-4.2759 273.58947,3.5777 68.1174,8.6274 111.7546,75.4365 73.6322,125.1276 -43.213,51.4985 -128.0036,45.3234 -194.79272,50.4065 -77.71396,1.3994 -158.94183,-0.028 -231.83584,-24.3701 -28.79262,-13.355 -47.67604,-38.2421 -54.93394,-64.5117 z"
       id="path3286-6-7"
       inkscape:connector-curvature="0"
       sodipodi:nodetypes="csssssssc" />
    <path
       style="fill:#ffffff;stroke:none;stroke-width:0.824316"
       d="m 732.8615,1988.2364 c -3.42445,-53.9327 69.70244,-81.2101 121.00146,-79.4692 76.47527,-6.134 152.86314,-3.7659 227.60004,3.151 55.8897,7.5985 85.536,66.44 48.7788,110.205 -41.1804,45.3569 -111.209,39.9181 -167.36952,44.3951 -64.89327,1.2324 -132.43031,-0.025 -190.72101,-21.4638 -22.6486,-11.7623 -35.88194,-33.6814 -39.28977,-56.8181 z"
       id="path3286-6-7-4"
       inkscape:connector-curvature="0"
       sodipodi:nodetypes="csssssssc" />
    <path
       style="fill:#ffffff;stroke:none;stroke-width:0.755494"
       d="m 1559.8648,2274.68 c -40.5776,0.9856 -81.571,1.4285 -121.3541,8.2171 -23.4836,5.0646 -46.516,14.6572 -60.3222,30.3859 -12.0378,15.0743 -10.4346,34.6485 0.032,49.9505 8.638,14.5227 26.7065,25.5007 47.2516,28.7663 46.3375,10.8118 95.2925,11.8471 143.394,11.8441 44.0679,-0.2085 88.1393,-2.118 131.9173,-5.9578 24.2957,-2.6624 49.3393,-8.0568 67.8913,-20.8645 22.4519,-15.4056 32.2393,-41.4194 21.0864,-63.0951 -7.7078,-14.8343 -25.3174,-25.8059 -45.0785,-30.5955 -20.8526,-5.1627 -43.0509,-4.7949 -64.6804,-6.0981 -39.6502,-1.8463 -79.3882,-3.227 -119.119,-2.5776 -0.3394,0.011 -0.6788,0.016 -1.0182,0.025 z"
       id="path3286-6-7-4-2-5"
       inkscape:connector-curvature="0"
       sodipodi:nodetypes="csssssssc" />
    <path
       style="display:inline;fill:#ffffff;stroke:none;stroke-width:0.980286"
       d="m 1590.106,2344.8349 c -38.1296,1.7659 -76.6497,2.5593 -114.0328,14.7227 -22.0668,9.0742 -43.7096,26.2616 -56.6829,54.4429 -11.3116,27.0089 -9.8051,62.0803 0.03,89.4972 8.1168,26.0206 25.0952,45.69 44.4008,51.541 43.5419,19.3717 89.5436,21.2267 134.743,21.2214 41.4094,-0.3736 82.8219,-3.795 123.9587,-10.6747 22.83,-4.7703 46.3627,-14.4355 63.7955,-37.3833 21.0974,-27.6025 30.2943,-74.2119 19.8143,-113.0486 -7.2429,-26.5789 -23.79,-46.2369 -42.3591,-54.8185 -19.5944,-9.2502 -40.4535,-8.5912 -60.7781,-10.926 -37.2581,-3.3081 -74.5987,-5.782 -111.9326,-4.6184 -0.3188,0.02 -0.6378,0.029 -0.9567,0.045 z"
       id="path3286-6-7-4-2-5-3"
       inkscape:connector-curvature="0"
       sodipodi:nodetypes="csssssssc" />
    <path
       style="color:#000000;display:inline;overflow:visible;visibility:visible;fill:#ffffff;fill-opacity:1;fill-rule:nonzero;stroke:none;stroke-width:1.03365px;marker:none;enable-background:accumulate"
       d="m 1109.0561,1984.7544 c -8.1997,41.8065 59.3043,70.6591 115.2035,48.7714 -22.9931,10.09 -81.6027,63.8105 -171.9044,-28.8625 -40.8476,-41.9203 41.4313,-16.5735 41.4313,-16.5735 z"
       id="path4035-4-5"
       inkscape:connector-curvature="0"
       sodipodi:nodetypes="ccscc" />
    <path
       style="color:#000000;display:inline;overflow:visible;visibility:visible;fill:#ffffff;fill-opacity:1;fill-rule:nonzero;stroke:none;stroke-width:1.14715px;marker:none;enable-background:accumulate"
       d="m 1640.0206,2360.0065 c 85.321,-69.4317 155.0537,-160.9776 126.0876,-275.9291 50.0818,114.8531 -29.8722,233.4391 -50.2498,258.0963 -21.5049,26.0213 -75.8378,17.8328 -75.8378,17.8328 z"
       id="path4008-7"
       inkscape:connector-curvature="0"
       sodipodi:nodetypes="ccsc" />
    <path
       style="color:#000000;display:inline;overflow:visible;visibility:visible;fill:#ffffff;fill-opacity:1;fill-rule:nonzero;stroke:none;stroke-width:0.90414px;marker:none;enable-background:accumulate"
       d="m 1999.7453,2479.444 c 2.2875,-52.9884 41.423,-91.9961 145.2212,-82.6965 55.6,4.9822 118.6875,8.0781 115.9805,85.6986 -2.7071,77.6207 -93.3297,76.2069 -111.9978,78.1417 -18.668,1.9348 -116.2154,-5.5768 -133.7262,-31.8622 -10.9614,-16.4544 -15.4862,-32.8745 -15.4777,-49.2816 z"
       id="path4546-6-89"
       inkscape:connector-curvature="0"
       sodipodi:nodetypes="cssssc" />
    <path
       style="fill:#ffffff;fill-rule:evenodd;stroke:none;stroke-width:1px;stroke-linecap:butt;stroke-linejoin:miter;stroke-opacity:1"
       d="m 2127.4405,2420.4639 c 0,0 -20.8561,-32.9672 -21.8804,-43.1562 -1.0243,-10.189 2.4576,-31.6896 11.9397,-43.6552 -22.2118,19.0145 -28.0641,35.9803 -27.9104,44.0276 0.1532,8.0482 12.5159,40.8376 12.5159,40.8376 z"
       id="path1367"
       inkscape:connector-curvature="0"
       inkscape:transform-center-x="-1.8067567"
       inkscape:transform-center-y="-52.12792"
       sodipodi:nodetypes="cscscc" />
    <path
       style="color:#000000;display:inline;overflow:visible;visibility:visible;fill:#ffffff;fill-opacity:1;fill-rule:nonzero;stroke:none;stroke-width:0.886757px;marker:none;enable-background:accumulate"
       d="m 351.38534,2714.8856 c -53.20058,0.4806 -107.25745,1.9425 -158.65805,17.0945 -25.36349,7.847 -49.44585,23.0484 -63.60168,45.9902 -12.73177,20.6381 -16.10952,47.6984 -5.70418,70.0054 9.2026,20.6644 29.03387,35.7115 51.00812,40.403 29.55109,8.5963 60.05832,13.2577 90.48376,17.502 82.01564,10.4421 165.74863,10.0518 247.19454,-4.8606 22.97129,-4.3578 46.09077,-11.4473 64.94861,-25.7526 15.15929,-11.1896 27.3815,-27.2228 31.28121,-45.9145 6.65411,-28.5397 -2.71711,-61.2182 -26.06366,-79.6529 -16.91802,-13.2401 -38.32829,-18.5208 -59.05096,-22.3774 -34.62281,-6.1661 -69.7945,-8.1793 -104.82441,-10.6248 -22.31517,-1.2106 -44.66391,-1.8958 -67.0133,-1.8123 z"
       id="path4546-7"
       inkscape:connector-curvature="0"
       sodipodi:nodetypes="cssssc" />
    <path
       style="color:#000000;display:inline;overflow:visible;visibility:visible;fill:#ffffff;fill-opacity:1;fill-rule:nonzero;stroke:none;stroke-width:1.16951px;marker:none;enable-background:accumulate"
       d="m 328.21161,2860.4303 c -45.61556,0.6313 -92.15711,4.7559 -134.39105,19.892 -25.94717,9.5472 -49.94814,24.5722 -63.86685,45.3939 -13.22513,19.3523 -18.44787,43.1206 -10.44929,64.6456 5.03326,14.1681 14.00266,27.6 26.92048,37.8872 13.34001,8.9605 30.06449,13.3044 46.23978,17.4362 35.22975,8.3769 71.77601,12.0066 108.16365,14.9435 28.44512,2.1048 56.98136,3.6947 85.54773,3.829 24.84285,-0.4213 49.68053,-1.6648 74.3817,-3.9032 33.83337,-3.3349 67.9178,-9.6448 97.9226,-23.4415 20.9569,-9.835 39.45361,-24.6689 47.84646,-43.6657 8.23894,-18.3828 8.63657,-38.8035 3.22742,-57.7702 -5.28951,-17.1516 -18.68032,-32.3961 -36.65785,-41.999 -25.33575,-14.0727 -55.74674,-19.7064 -85.44168,-23.7073 -37.02204,-4.8416 -74.50242,-6.4419 -111.84439,-8.6822 -15.84982,-0.7016 -31.72653,-1.0212 -47.59871,-0.8583 z"
       id="path4546-6-5-4"
       inkscape:connector-curvature="0"
       sodipodi:nodetypes="cssssc" />
    <path
       style="color:#000000;display:inline;overflow:visible;visibility:visible;fill:#ffffff;fill-opacity:1;fill-rule:nonzero;stroke:none;stroke-width:0.94912px;marker:none;enable-background:accumulate"
       d="m 597.94043,2853.7282 c 0.70291,-20.5931 2.79564,-98.204 79.29359,-67.917 -12.96153,-15.3177 -101.3034,-57.4847 -117.55274,67.9555 -4.05901,31.3344 6.93857,21.4416 13.2428,23.8225 6.30431,2.3809 25.01635,-23.861 25.01635,-23.861 z"
       id="path4064-5"
       inkscape:connector-curvature="0"
       sodipodi:nodetypes="ccszc" />
    <path
       style="fill:#ffffff;stroke:none;stroke-width:0.857123"
       d="m 1417.9743,2662.1028 c -67.9685,0.9824 -136.2342,3.1997 -203.3695,14.6694 -25.339,4.506 -51.2433,10.2921 -73.2184,24.317 -12.6839,8.1029 -23.2947,19.4527 -30.0645,32.9319 -11.4847,21.7929 -15.7565,46.9692 -14.2387,71.4264 1.8108,24.0961 11.2762,48.2743 29.2426,64.8971 18.9419,18.0412 43.9023,28.0062 68.7874,34.7609 33.3259,8.7712 67.8863,11.208 102.18,12.8781 49.7484,1.9622 99.546,0.6336 149.2969,-0.507 55.8129,-1.8048 112.0722,-5.4657 166.2972,-19.6653 25.7131,-7.0692 51.4673,-16.6978 72.3312,-33.7593 13.4449,-11.3752 23.9103,-27.2741 25.6275,-45.1121 2.1971,-17.1565 0.5045,-34.604 -2.8232,-51.4974 -5.583,-23.9686 -19.6474,-46.0762 -39.8377,-60.3329 -24.5944,-18.3737 -54.6067,-27.4202 -84.3162,-33.4911 -44.2427,-8.7966 -89.4763,-10.9384 -134.478,-11.6137 -10.4728,-0.1262 -20.9447,-0.078 -31.4166,0.098 z"
       id="path3280-8-0"
       inkscape:connector-curvature="0"
       sodipodi:nodetypes="csssc" />
    <path
       style="color:#000000;display:inline;overflow:visible;visibility:visible;fill:#ffffff;fill-opacity:1;fill-rule:nonzero;stroke:none;stroke-width:1px;marker:none;enable-background:accumulate"
       d="m 1202.4146,2978.9707 c 74.1686,10.5665 125.3056,-20.8953 125.9336,-99.1299 24.1747,-37.6874 37.9622,-13.5927 37.9622,-13.5927 0,0 11.7636,14.3466 12.7847,24.636 3.9766,40.0726 -80.3955,126.8937 -176.6805,88.0866 z"
       id="path3072-7"
       inkscape:connector-curvature="0"
       sodipodi:nodetypes="cccsc" />
    <path
       style="fill:#ffffff;fill-rule:evenodd;stroke:none;stroke-width:1px;stroke-linecap:butt;stroke-linejoin:miter;stroke-opacity:1"
       d="m 611.87816,457.91854 c -12.3953,-22.626 4.8341,-35.579 4.6846,-49.244 -0.1543,-14.107 -33.2797,-25.956 -34.0153,-39.032 -0.7356,-13.076 20.5032,-26.957 19.032,-47.388 -1.4712,-20.432 -25.011,-24.518 -22.8041,-0.818 2.2069,23.701 -15.6571,27.839 -11.7699,46.584 6.483,31.261 30.8848,30.638 38.523,39.431 5.057,5.822 -4.6847,18.594 -2.4778,32.487 2.2069,13.894 8.8275,17.98 8.8275,17.98 z"
       id="path4272-2"
       inkscape:connector-curvature="0"
       sodipodi:nodetypes="csssssssc" />
    <path
       style="display:inline;fill:#ffffff;stroke:none;stroke-width:0.877336"
       d="M 395.5572,452.67668 C 407.56611,407.77396 413.32098,333.81277 360.54542,296.86263 333.08948,277.6397 320.11233,262.96148 320.11233,262.96148 l 22.24546,-19.14958 c 105.35115,77.35453 72.21397,163.85407 53.19941,208.86478 z"
       id="path3063-1-0"
       inkscape:connector-curvature="0"
       sodipodi:nodetypes="csccc" />
  </g>
  <g
     inkscape:groupmode="layer"
     id="layer1"
     inkscape:label="txt">
    <text
       id="text4246-4-2-7"
       y="195.79843"
       x="276.44409"
       style="font-style:normal;font-variant:normal;font-weight:normal;font-stretch:normal;line-height:0%;font-family:Lavi;-inkscape-font-specification:Lavi;text-align:center;letter-spacing:0px;word-spacing:0px;text-anchor:middle;fill:#000000;fill-opacity:1;stroke:none"
       xml:space="preserve"><tspan
         y="195.79843"
         x="276.44409"
         style="font-size:45px;line-height:1.25;fill:#000000"
         sodipodi:role="line"
         id="tspan1639">Hvad er der</tspan><tspan
         y="252.04843"
         x="276.44409"
         style="font-size:45px;line-height:1.25;fill:#000000"
         sodipodi:role="line"
         id="tspan1792">med hende?</tspan></text>
    <text
       id="text4246-4-2-7-3"
       y="175.51302"
       x="615.64233"
       style="font-style:normal;font-variant:normal;font-weight:normal;font-stretch:normal;line-height:0%;font-family:Lavi;-inkscape-font-specification:Lavi;text-align:center;letter-spacing:0px;word-spacing:0px;text-anchor:middle;fill:#000000;fill-opacity:1;stroke:none"
       xml:space="preserve"><tspan
         y="175.51302"
         x="615.64233"
         style="font-size:45px;line-height:1.25;fill:#000000"
         sodipodi:role="line"
         id="tspan1639-7">Pepper?</tspan><tspan
         y="231.76302"
         x="615.64233"
         style="font-size:45px;line-height:1.25;fill:#000000"
         sodipodi:role="line"
         id="tspan3727">Er alt</tspan><tspan
         y="288.013"
         x="615.64233"
         style="font-size:45px;line-height:1.25;fill:#000000"
         sodipodi:role="line"
         id="tspan6376">okay?</tspan></text>
    <text
       id="text4246-4-2-7-3-5"
       y="216.69748"
       x="952.75238"
       style="font-style:normal;font-variant:normal;font-weight:normal;font-stretch:normal;line-height:0%;font-family:Lavi;-inkscape-font-specification:Lavi;text-align:center;letter-spacing:0px;word-spacing:0px;text-anchor:middle;fill:#000000;fill-opacity:1;stroke:none"
       xml:space="preserve"><tspan
         y="216.69748"
         x="952.75238"
         style="font-size:45px;line-height:1.25;fill:#000000"
         sodipodi:role="line"
         id="tspan14576">Ja, alt</tspan><tspan
         y="272.94748"
         x="952.75238"
         style="font-size:45px;line-height:1.25;fill:#000000"
         sodipodi:role="line"
         id="tspan3934">er fint.</tspan></text>
    <text
       id="text4246-4-2-7-3-5-2"
       y="1151.3962"
       x="1022.4485"
       style="font-style:normal;font-variant:normal;font-weight:normal;font-stretch:normal;line-height:0%;font-family:Lavi;-inkscape-font-specification:Lavi;text-align:center;letter-spacing:0px;word-spacing:0px;text-anchor:middle;fill:#000000;fill-opacity:1;stroke:none"
       xml:space="preserve"><tspan
         y="1151.3962"
         x="1022.4485"
         style="font-size:45px;line-height:1.25;fill:#000000"
         sodipodi:role="line"
         id="tspan9293">Det var bare</tspan><tspan
         y="1207.6462"
         x="1022.4485"
         style="font-size:45px;line-height:1.25;fill:#000000"
         sodipodi:role="line"
         id="tspan22211">noget der</tspan><tspan
         y="1263.8962"
         x="1022.4485"
         style="font-size:45px;line-height:1.25;fill:#000000"
         sodipodi:role="line"
         id="tspan23321">gik op for mig.</tspan></text>
    <text
       id="text4246-4-2-7-3-5-2-2"
       y="1235.0048"
       x="1801.0182"
       style="font-style:normal;font-variant:normal;font-weight:normal;font-stretch:normal;line-height:0%;font-family:Lavi;-inkscape-font-specification:Lavi;text-align:center;letter-spacing:0px;word-spacing:0px;text-anchor:middle;fill:#000000;fill-opacity:1;stroke:none"
       xml:space="preserve"><tspan
         y="1235.0048"
         x="1801.0182"
         style="font-size:45px;line-height:1.25;fill:#000000"
         sodipodi:role="line"
         id="tspan264594">Alle disse konsekvenser,</tspan><tspan
         y="1291.2548"
         x="1801.0182"
         style="font-size:45px;line-height:1.25;fill:#000000"
         sodipodi:role="line"
         id="tspan360675">direkte som indirekte, det er</tspan><tspan
         y="1347.5048"
         x="1801.0182"
         style="font-size:45px;line-height:1.25;fill:#000000"
         sodipodi:role="line"
         id="tspan1790">mine handlinger, mine valg...</tspan></text>
    <text
       id="text4246-4-2-7-3-5-2-2-6"
       y="1436.4679"
       x="1868.6469"
       style="font-style:normal;font-variant:normal;font-weight:normal;font-stretch:normal;line-height:0%;font-family:Lavi;-inkscape-font-specification:Lavi;text-align:center;letter-spacing:0px;word-spacing:0px;text-anchor:middle;fill:#000000;fill-opacity:1;stroke:none"
       xml:space="preserve"><tspan
         y="1436.4679"
         x="1868.6469"
         style="font-style:normal;font-variant:normal;font-weight:bold;font-stretch:normal;font-size:45px;line-height:1.25;font-family:Lavi;-inkscape-font-specification:'Lavi Bold';fill:#000000"
         sodipodi:role="line"
         id="tspan224893"><tspan
   style="font-style:normal;font-variant:normal;font-weight:normal;font-stretch:normal;font-family:Lavi;-inkscape-font-specification:Lavi"
   id="tspan306302">...På en måde:</tspan> </tspan><tspan
         y="1492.7179"
         x="1875.6781"
         style="font-style:normal;font-variant:normal;font-weight:normal;font-stretch:normal;font-size:45px;line-height:1.25;font-family:Lavi;-inkscape-font-specification:Lavi;fill:#000000"
         sodipodi:role="line"
         id="tspan269298"><tspan
   style="font-style:normal;font-variant:normal;font-weight:bold;font-stretch:normal;font-family:Lavi;-inkscape-font-specification:'Lavi Bold'"
   id="tspan301576">min egen kædereaktion!</tspan> </tspan></text>
    <text
       id="text4246-4-2-7-3-5-2-2-6-7-2"
       y="1679.4132"
       x="256.14807"
       style="font-style:normal;font-variant:normal;font-weight:normal;font-stretch:normal;line-height:0%;font-family:Lavi;-inkscape-font-specification:Lavi;text-align:center;letter-spacing:0px;word-spacing:0px;text-anchor:middle;fill:#000000;fill-opacity:1;stroke:none"
       xml:space="preserve"><tspan
         y="1679.4132"
         x="256.14807"
         style="font-style:normal;font-variant:normal;font-weight:normal;font-stretch:normal;font-size:45px;line-height:1.25;font-family:Lavi;-inkscape-font-specification:Lavi;fill:#000000"
         sodipodi:role="line"
         id="tspan104696-2-8">Virkelig?</tspan></text>
    <text
       id="text4246-4-2-7-3-5-2-2-6-7-2-9"
       y="1767.0973"
       x="374.07385"
       style="font-style:normal;font-variant:normal;font-weight:normal;font-stretch:normal;line-height:0%;font-family:Lavi;-inkscape-font-specification:Lavi;text-align:center;letter-spacing:0px;word-spacing:0px;text-anchor:middle;fill:#000000;fill-opacity:1;stroke:none"
       xml:space="preserve"><tspan
         y="1767.0973"
         x="374.07385"
         style="font-style:normal;font-variant:normal;font-weight:normal;font-stretch:normal;font-size:45px;line-height:1.25;font-family:Lavi;-inkscape-font-specification:Lavi;fill:#000000"
         sodipodi:role="line"
         id="tspan168035">Det bliver du nødt</tspan><tspan
         y="1823.3473"
         x="374.07385"
         style="font-style:normal;font-variant:normal;font-weight:normal;font-stretch:normal;font-size:45px;line-height:1.25;font-family:Lavi;-inkscape-font-specification:Lavi;fill:#000000"
         sodipodi:role="line"
         id="tspan21374">til at forklare mig.</tspan></text>
    <text
       id="text4246-4-2-7-3-5-2-2-6-7-2-9-3"
       y="1695.1317"
       x="889.07532"
       style="font-style:normal;font-variant:normal;font-weight:normal;font-stretch:normal;line-height:0%;font-family:Lavi;-inkscape-font-specification:Lavi;text-align:center;letter-spacing:0px;word-spacing:0px;text-anchor:middle;fill:#000000;fill-opacity:1;stroke:none"
       xml:space="preserve"><tspan
         y="1695.1317"
         x="889.07532"
         style="font-style:normal;font-variant:normal;font-weight:normal;font-stretch:normal;font-size:45px;line-height:1.25;font-family:Lavi;-inkscape-font-specification:Lavi;fill:#000000"
         sodipodi:role="line"
         id="tspan168035-1">Ikke mere snak,</tspan><tspan
         y="1751.3817"
         x="889.07532"
         style="font-style:normal;font-variant:normal;font-weight:normal;font-stretch:normal;font-size:45px;line-height:1.25;font-family:Lavi;-inkscape-font-specification:Lavi;fill:#000000"
         sodipodi:role="line"
         id="tspan171941">vi er midt i slagmarken.</tspan></text>
    <text
       id="text4246-4-2-7-3-5-2-2-6-7-2-9-3-2"
       y="1873.3923"
       x="909.28278"
       style="font-style:normal;font-variant:normal;font-weight:normal;font-stretch:normal;line-height:0%;font-family:Lavi;-inkscape-font-specification:Lavi;text-align:center;letter-spacing:0px;word-spacing:0px;text-anchor:middle;fill:#000000;fill-opacity:1;stroke:none"
       xml:space="preserve"><tspan
         y="1873.3923"
         x="909.28278"
         style="font-style:normal;font-variant:normal;font-weight:normal;font-stretch:normal;font-size:45px;line-height:1.25;font-family:Lavi;-inkscape-font-specification:Lavi;fill:#000000"
         sodipodi:role="line"
         id="tspan61406">Vi kan snakke om</tspan><tspan
         y="1929.6423"
         x="909.28278"
         style="font-style:normal;font-variant:normal;font-weight:normal;font-stretch:normal;font-size:45px;line-height:1.25;font-family:Lavi;-inkscape-font-specification:Lavi;fill:#000000"
         sodipodi:role="line"
         id="tspan81158">det på flyveturen.</tspan></text>
    <text
       id="text4246-4-2-7-3-5-2-2-6-7-2-9-3-2-9"
       y="2011.9148"
       x="949.59955"
       style="font-style:normal;font-variant:normal;font-weight:normal;font-stretch:normal;line-height:0%;font-family:Lavi;-inkscape-font-specification:Lavi;text-align:center;letter-spacing:0px;word-spacing:0px;text-anchor:middle;fill:#000000;fill-opacity:1;stroke:none"
       xml:space="preserve"><tspan
         y="2011.9148"
         x="949.59955"
         style="font-style:normal;font-variant:normal;font-weight:normal;font-stretch:normal;font-size:45px;line-height:1.25;font-family:Lavi;-inkscape-font-specification:Lavi;fill:#000000"
         sodipodi:role="line"
         id="tspan184397-7">Hop op, Pepper !</tspan></text>
    <text
       id="text4246-4-2-7-3-5-2-2-6-7-2-9-3-2-9-8"
       y="2344.3713"
       x="1582.0555"
       style="font-style:normal;font-variant:normal;font-weight:normal;font-stretch:normal;line-height:0%;font-family:Lavi;-inkscape-font-specification:Lavi;text-align:center;letter-spacing:0px;word-spacing:0px;text-anchor:middle;fill:#000000;fill-opacity:1;stroke:none"
       xml:space="preserve"><tspan
         y="2344.3713"
         x="1582.0555"
         style="font-style:normal;font-variant:normal;font-weight:normal;font-stretch:normal;font-size:45px;line-height:1.25;font-family:Lavi;-inkscape-font-specification:Lavi;fill:#000000"
         sodipodi:role="line"
         id="tspan189870">Torreya har ret.</tspan></text>
    <text
       id="text4246-4-2-7-3-5-2-2-6-7-2-9-3-2-9-8-3"
       y="2427.0361"
       x="1610.3887"
       style="font-style:normal;font-variant:normal;font-weight:normal;font-stretch:normal;line-height:0%;font-family:Lavi;-inkscape-font-specification:Lavi;text-align:center;letter-spacing:0px;word-spacing:0px;text-anchor:middle;fill:#000000;fill-opacity:1;stroke:none"
       xml:space="preserve"><tspan
         y="2427.0361"
         x="1610.3887"
         style="font-style:normal;font-variant:normal;font-weight:normal;font-stretch:normal;font-size:45px;line-height:1.25;font-family:Lavi;-inkscape-font-specification:Lavi;fill:#000000"
         sodipodi:role="line"
         id="tspan33972">Vi bliver nødt til</tspan><tspan
         y="2483.2861"
         x="1610.3887"
         style="font-style:normal;font-variant:normal;font-weight:normal;font-stretch:normal;font-size:45px;line-height:1.25;font-family:Lavi;-inkscape-font-specification:Lavi;fill:#000000"
         sodipodi:role="line"
         id="tspan101617">at tage afsted</tspan><tspan
         y="2539.5361"
         x="1610.3887"
         style="font-style:normal;font-variant:normal;font-weight:normal;font-stretch:normal;font-size:45px;line-height:1.25;font-family:Lavi;-inkscape-font-specification:Lavi;fill:#000000"
         sodipodi:role="line"
         id="tspan111942">til Qualicity.</tspan></text>
    <text
       id="text4246-4-2-7-3-5-2-2-6-7-2-9-3-2-9-8-5"
       y="2455.429"
       x="2136.4399"
       style="font-style:normal;font-variant:normal;font-weight:normal;font-stretch:normal;line-height:0%;font-family:Lavi;-inkscape-font-specification:Lavi;text-align:center;letter-spacing:0px;word-spacing:0px;text-anchor:middle;fill:#000000;fill-opacity:1;stroke:none"
       xml:space="preserve"><tspan
         y="2455.429"
         x="2136.4399"
         style="font-style:normal;font-variant:normal;font-weight:normal;font-stretch:normal;font-size:45px;line-height:1.25;font-family:Lavi;-inkscape-font-specification:Lavi;fill:#000000"
         sodipodi:role="line"
         id="tspan189870-6">Nej, </tspan><tspan
         y="2511.679"
         x="2136.4399"
         style="font-style:normal;font-variant:normal;font-weight:normal;font-stretch:normal;font-size:45px;line-height:1.25;font-family:Lavi;-inkscape-font-specification:Lavi;fill:#000000"
         sodipodi:role="line"
         id="tspan194276">vent.</tspan></text>
    <text
       id="text4246-4-2-7-3-5-2-2-6-7-2-9-3-2-9-8-5-1"
       y="2791.4211"
       x="368.46533"
       style="font-style:normal;font-variant:normal;font-weight:normal;font-stretch:normal;line-height:0%;font-family:Lavi;-inkscape-font-specification:Lavi;text-align:center;letter-spacing:0px;word-spacing:0px;text-anchor:middle;fill:#000000;fill-opacity:1;stroke:none"
       xml:space="preserve"><tspan
         y="2791.4211"
         x="368.46533"
         style="font-style:normal;font-variant:normal;font-weight:normal;font-stretch:normal;font-size:45px;line-height:1.25;font-family:Lavi;-inkscape-font-specification:Lavi;fill:#000000"
         sodipodi:role="line"
         id="tspan117251">Wasabis hær går</tspan><tspan
         y="2847.6711"
         x="368.46533"
         style="font-style:normal;font-variant:normal;font-weight:normal;font-stretch:normal;font-size:45px;line-height:1.25;font-family:Lavi;-inkscape-font-specification:Lavi;fill:#000000"
         sodipodi:role="line"
         id="tspan124058">snart til modangreb.</tspan></text>
    <text
       id="text4246-4-2-7-3-5-2-2-6-7-2-9-3-2-9-8-5-1-3"
       y="2951.0781"
       x="364.23334"
       style="font-style:normal;font-variant:normal;font-weight:normal;font-stretch:normal;line-height:0%;font-family:Lavi;-inkscape-font-specification:Lavi;text-align:center;letter-spacing:0px;word-spacing:0px;text-anchor:middle;fill:#000000;fill-opacity:1;stroke:none"
       xml:space="preserve"><tspan
         y="2951.0781"
         x="364.23334"
         style="font-style:normal;font-variant:normal;font-weight:normal;font-stretch:normal;font-size:45px;line-height:1.25;font-family:Lavi;-inkscape-font-specification:Lavi;fill:#000000"
         sodipodi:role="line"
         id="tspan207740">Vi kan ikke bare lade</tspan><tspan
         y="3007.3281"
         x="364.23334"
         style="font-style:normal;font-variant:normal;font-weight:normal;font-stretch:normal;font-size:45px;line-height:1.25;font-family:Lavi;-inkscape-font-specification:Lavi;fill:#000000"
         sodipodi:role="line"
         id="tspan130384">dem slå hinanden ihjel.</tspan></text>
    <text
       id="text4246-4-2-7-3-5-2-2-6-7-2-9-3-2-9-8-5-1-3-6"
       y="2740.7141"
       x="1408.0977"
       style="font-style:normal;font-variant:normal;font-weight:normal;font-stretch:normal;line-height:0%;font-family:Lavi;-inkscape-font-specification:Lavi;text-align:center;letter-spacing:0px;word-spacing:0px;text-anchor:middle;fill:#000000;fill-opacity:1;stroke:none"
       xml:space="preserve"><tspan
         y="2740.7141"
         x="1408.0977"
         style="font-style:normal;font-variant:normal;font-weight:normal;font-stretch:normal;font-size:45px;line-height:1.25;font-family:Lavi;-inkscape-font-specification:Lavi;fill:#000000"
         sodipodi:role="line"
         id="tspan216256">Jeg føler at det er mit</tspan><tspan
         y="2796.9641"
         x="1408.0977"
         style="font-style:normal;font-variant:normal;font-weight:normal;font-stretch:normal;font-size:45px;line-height:1.25;font-family:Lavi;-inkscape-font-specification:Lavi;fill:#000000"
         sodipodi:role="line"
         id="tspan143989">ansvar at sætte en</tspan><tspan
         y="2853.2141"
         x="1408.0977"
         style="font-style:normal;font-variant:normal;font-weight:normal;font-stretch:normal;font-size:45px;line-height:1.25;font-family:Lavi;-inkscape-font-specification:Lavi;fill:#000000"
         sodipodi:role="line"
         id="tspan145087">stopper for denne kamp.</tspan></text>
    <text
       xml:space="preserve"
       id="text87608"
       style="font-family:KacstOffice;font-size:18.66666667px;line-height:1.25;letter-spacing:0px;word-spacing:0px;-inkscape-font-specification:KacstOffice;white-space:pre;shape-inside:url(#rect87610)" />
  </g>
</svg>
