<?xml version="1.0" encoding="UTF-8" standalone="no"?>
<svg
   xmlns:dc="http://purl.org/dc/elements/1.1/"
   xmlns:cc="http://creativecommons.org/ns#"
   xmlns:rdf="http://www.w3.org/1999/02/22-rdf-syntax-ns#"
   xmlns:svg="http://www.w3.org/2000/svg"
   xmlns="http://www.w3.org/2000/svg"
   xmlns:xlink="http://www.w3.org/1999/xlink"
   xmlns:sodipodi="http://sodipodi.sourceforge.net/DTD/sodipodi-0.dtd"
   xmlns:inkscape="http://www.inkscape.org/namespaces/inkscape"
   id="svg2"
   version="1.1"
   inkscape:version="1.0 (4035a4fb49, 2020-05-01)"
   width="2481"
   height="3503"
   sodipodi:docname="E33P04.svg">
  <metadata
     id="metadata8">
    <rdf:RDF>
      <cc:Work
         rdf:about="">
        <dc:format>image/svg+xml</dc:format>
        <dc:type
           rdf:resource="http://purl.org/dc/dcmitype/StillImage" />
        <dc:title />
      </cc:Work>
    </rdf:RDF>
  </metadata>
  <defs
     id="defs6">
    <filter
       inkscape:label="army-sound"
       height="1.0385585"
       y="-0.01927926"
       width="1.0168701"
       x="-0.0084350929"
       id="filter1058"
       style="color-interpolation-filters:sRGB"
       inkscape:collect="always">
      <feGaussianBlur
         id="feGaussianBlur1060"
         stdDeviation="0.67074246"
         inkscape:collect="always" />
    </filter>
    <filter
       inkscape:label="army-sound_background"
       height="1.0467198"
       y="-0.023359915"
       width="1.0228578"
       x="-0.011428907"
       id="filter987"
       style="color-interpolation-filters:sRGB"
       inkscape:collect="always">
      <feGaussianBlur
         id="feGaussianBlur989"
         stdDeviation="1.036897"
         inkscape:collect="always" />
    </filter>
  </defs>
  <sodipodi:namedview
     pagecolor="#ffffff"
     bordercolor="#666666"
     borderopacity="1"
     objecttolerance="10"
     gridtolerance="10"
     guidetolerance="10"
     inkscape:pageopacity="0"
     inkscape:pageshadow="2"
     inkscape:window-width="2560"
     inkscape:window-height="1382"
     id="namedview4"
     showgrid="false"
     inkscape:zoom="0.4168353"
     inkscape:cx="1194.7684"
     inkscape:cy="851.32945"
     inkscape:window-x="0"
     inkscape:window-y="32"
     inkscape:window-maximized="1"
     inkscape:current-layer="layer1"
     inkscape:document-rotation="0"
     inkscape:snap-global="false" />
  <g
     inkscape:groupmode="layer"
     id="layer2"
     inkscape:label="artwork"
     sodipodi:insensitive="true">
    <image
       sodipodi:absref="C:\Users\stero\Documents\Kernewek\Pepper and Carrot\webcomics\ep33_Spell-of-War\lang\gfx_Pepper-and-Carrot_by-David-Revoy_E33P04.png"
       xlink:href="../gfx_Pepper-and-Carrot_by-David-Revoy_E33P04.png"
       y="0"
       x="0"
       id="image10"
       height="3503"
       width="2481" />
  </g>
  <g
     style="display:inline"
     inkscape:groupmode="layer"
     id="layer3"
     inkscape:label="speechbubbles">
    <path
       sodipodi:nodetypes="ccccccsc"
       inkscape:connector-curvature="0"
       id="path5901"
       d="m 1302.3416,1319.8982 c -24.8746,9.0048 -67.4708,23.7919 -93.1422,40.3841 -15.4967,7.7702 -49.0139,49.9002 -53.3818,63.5295 -28.0024,1.4421 -56.3566,18.527 -83.4317,53.1858 24.2653,-39.2993 52.2934,-66.9375 76.4015,-69.4094 0.2285,-8.6465 24.7585,-44.5732 46.1338,-59.9591 9.7072,-6.7818 86.9034,-47.1926 117.7711,-62.4432 44.8072,-22.1377 -10.3507,34.7123 -10.3507,34.7123 z"
       style="color:#000000;display:inline;overflow:visible;visibility:visible;fill:#ffffff;fill-opacity:1;fill-rule:nonzero;stroke:none;stroke-width:0.999997px;marker:none;enable-background:accumulate" />
    <path
       sodipodi:nodetypes="cccccccccccccccccccccccccccccccccccccccc"
       inkscape:connector-curvature="0"
       id="path4323-0"
       d="m 1410.2865,1138.4772 c -17.5151,0.4392 -35.0164,1.5342 -52.5411,1.482 -26.4753,0.1541 -52.9297,-1.2662 -79.3638,-2.7189 -6.4409,0.096 -12.5163,2.8521 -18.5012,5.1988 -6.9975,3.0436 -10.7487,7.718 -28.7939,-6.2207 12.1433,28.6172 -24.2837,32.5544 -48.92,31.0642 17.8015,13.4408 37.1802,42.4671 -19.2351,58.5362 -1.1179,0.2404 -0.045,1.2798 0.6266,0.916 64.6901,7.4946 15.9091,33.8844 -14.7709,48.4538 10.9259,-1.9158 21.9362,-3.8744 33.0363,-3.4978 1.5396,8.5145 -9.5741,12.8516 -14.7757,16.5197 44.4391,-2.0788 36.7723,10.1599 10.7067,32.5634 44.6675,-18.1256 83.1118,-17.0179 58.5447,3.8463 -5.6709,3.0761 -9.3355,18.7363 12.2292,13.4967 62.4619,-26.5378 53.1618,-1.3104 43.5847,18.2667 25.881,-21.8953 46.1627,-32.181 45.1108,6.4992 13.4288,-39.9574 30.5742,-43.9266 62.7617,-28.8774 -3.2313,-33.4397 49.4253,-2.738 59.9107,2.5955 -2.0464,-25.9327 16.5884,-20.5727 45.1802,-0.7986 4.9835,-10.4289 15.7555,-16.695 26.3029,-16.1879 19.2439,-1.479 38.5403,4.484 55.2722,14.8066 -5.5308,-25.8803 59.2095,-13.3978 69.4315,1.2694 1.4156,-10.0703 10.1004,-18.2854 19.3646,-17.8597 11.3281,-0.8 22.5082,1.933 33.6263,3.9058 11.3207,2.5266 22.3313,6.444 33.3428,10.2408 3.037,-4.7763 8.0591,-8.9715 13.6104,-8.0662 11.9605,0.9241 23.0276,6.4602 34.3765,10.2418 6.2413,2.4134 12.4787,4.8399 18.7134,7.2741 0.092,-4.7908 -1.0365,-10.2078 1.7791,-14.3545 4.7766,-5.414 12.3365,-6.1629 18.6879,-4.4672 12.4444,1.881 24.542,5.7271 36.67,9.2263 -13.848,-38.8782 36.22,-20.7104 54.0689,-16.8331 -19.8314,-23.7928 -0.8601,-29.5997 18.9304,-30.8508 -24.1167,-20.3036 -10.9503,-33.4335 12.8051,-42.2939 -37.0151,-3.4333 -33.7357,-34.096 9.5914,-48.4872 -45.3735,1.5982 -81.3638,-22.7035 8.8999,-44.2753 -119.6179,-8.2032 -290.3185,5.0913 -410.0335,-0.725 -44.4799,-1.4336 -89.0891,-2.253 -133.2825,-8.5407 -5.6389,-0.5887 -11.2834,-1.1651 -16.9472,-1.3489 z"
       style="fill:#ffffff;fill-rule:evenodd;stroke:none;stroke-width:0.999997px;stroke-linecap:butt;stroke-linejoin:miter;stroke-opacity:1" />
    <path
       sodipodi:nodetypes="cccccccccccc"
       inkscape:connector-curvature="0"
       id="path4032-7"
       d="m 1181.8075,432.89146 c 41.586,-19.48659 86.9142,-48.07648 110.3061,-55.71528 -12.0034,-5.38932 -26.511,-11.18011 -27.9957,-14.88305 16.5074,-10.725 22.7761,-12.17757 39.4396,-21.02956 -6.6685,-3.42995 -17.8015,-9.51329 -20.5031,-13.67703 31.8801,-33.37962 143.235,-75.0414 240.016,-59.63147 l 16.3308,-25.69172 c -121.3884,-9.14073 -264.417,61.38626 -280.8502,84.69247 l 21.476,13.45135 c -12.4646,8.51999 -25.2829,16.53403 -39.6844,22.29149 7.9799,4.791 13.2038,9.58202 28.4279,14.37302 z"
       style="color:#000000;display:inline;overflow:visible;visibility:visible;fill:#ffffff;fill-opacity:1;fill-rule:nonzero;stroke:none;stroke-width:1px;marker:none;enable-background:accumulate" />
    <path
       sodipodi:nodetypes="ccccccccccccccccccccccccc"
       inkscape:connector-curvature="0"
       id="path4508-2"
       d="m 1461.1367,153.41697 c 116.4043,68.76531 165.841,35.78334 152.7065,-12.84239 43.3711,44.77791 74.0246,60.15607 90.6612,28.23827 29.2398,31.85113 81.3131,36.83036 84.701,0.34429 27.7338,37.13364 55.8081,38.21413 80.3226,-4.97751 10.8997,38.28599 36.0878,49.7113 73.579,3.31952 6.7155,44.93975 33.0246,42.15674 68.2361,-0.40743 -8.1154,66.24891 55.6956,4.58355 96.6157,-30.0225 -30.6426,61.95669 -0.6726,58.94429 31.8281,36.39575 -17.1001,36.63234 37.9121,15.02169 121.8087,-31.7098 -41.9665,34.54409 -136.1771,87.80456 -62.8785,82.97805 -10.2219,10.18342 -63.7577,24.01513 44.8244,40.13357 -84.0589,11.31898 -44.831,31.63509 -2.5791,40.58698 -45.6038,3.02975 -85.5832,1.51586 -12.8954,45.99691 -68.9585,-22.88973 -99.8295,-37.33121 -74.7951,-5.41083 -57.9239,-31.0946 -110.0556,-27.10062 -100.2867,9.29542 -26.5651,-37.94649 -97.544,-37.28006 -114.3635,7.121 -10.5791,-42.18132 -45.4682,-54.67837 -125.0229,-6.99174 13.4668,-48.94253 -55.9289,-30.96539 -91.43,-1.40247 24.4234,-34.40178 -35.1491,-37.17414 -86.6413,3.56308 30.776,-41.34162 -30.7711,-56.02814 -96.0873,7.35483 25.4432,-98.2346 -64.423,-57.72645 -118.9776,-44.92576 41.7156,-30.37779 123.3862,-52.85174 23.8295,-65.32413 100.8276,-0.52645 87.1253,-10.77836 33.2492,-39.91942 59.2447,8.00471 42.5764,-12.99191 -16.4046,-61.39369 z"
       style="display:inline;fill:#ffffff;fill-rule:evenodd;stroke:none;stroke-width:1px;stroke-linecap:butt;stroke-linejoin:miter;stroke-opacity:1" />
    <path
       inkscape:connector-curvature="0"
       id="path3072-56"
       d="m 605.01298,766.03759 c 1.97639,13.68735 4.89813,27.94334 1.54437,41.71842 -2.14174,8.3941 -7.44224,15.62787 -13.25861,21.89179 -7.51416,7.6917 -16.25069,14.2538 -25.79276,19.21693 -14.46,7.41261 -30.74351,11.91558 -43.16159,22.82403 -4.15158,4.87787 -4.72354,13.57308 0.86247,17.62488 7.36472,4.82439 16.60522,5.59784 25.16745,5.01692 10.01613,-1.82804 17.38325,-9.43186 24.53826,-16.06379 16.3121,-14.44251 31.93776,-30.69806 40.74022,-50.93509 7.42676,-20.39544 2.47014,-44.02052 -10.30582,-61.18667 -0.0959,-0.0344 -0.21387,-0.19298 -0.33399,-0.10742 z"
       style="color:#000000;display:inline;overflow:visible;visibility:visible;fill:#ffffff;fill-opacity:1;fill-rule:nonzero;stroke:none;stroke-width:1px;marker:none;enable-background:accumulate" />
    <path
       sodipodi:nodetypes="cccscsc"
       inkscape:connector-curvature="0"
       id="path3970-3"
       d="m 391.7747,792.50829 c -46.65867,1.26057 -93.66086,11.0244 -135.24508,32.71497 -17.86555,9.51543 -33.22605,25.11883 -39.3828,44.71685 -9.01321,26.48192 -7.96713,55.70268 0.0485,82.29084 6.29272,19.72389 19.6164,37.32764 37.59756,47.78805 17.69995,10.9926 37.30504,18.8203 57.52748,23.7288 38.37839,8.7629 78.08859,9.0252 117.21311,6.9373 28.69912,-2.3197 56.61085,-10.0284 84.0381,-18.4283 18.91546,-6.2725 37.82562,-15.14318 51.18556,-30.39108 13.16499,-14.99638 20.13105,-34.66228 21.66514,-54.39313 2.90155,-24.29779 0.13036,-49.97208 -11.77357,-71.67084 -9.69848,-16.33202 -26.00463,-27.36555 -42.76248,-35.52059 -32.19353,-15.73383 -67.76281,-23.33807 -103.27036,-26.59947 -12.25013,-1.01524 -24.55074,-1.44086 -36.84116,-1.1734 z"
       style="color:#000000;display:inline;overflow:visible;visibility:visible;fill:#ffffff;fill-opacity:1;fill-rule:nonzero;stroke:none;stroke-width:0.900381px;marker:none;enable-background:accumulate" />
  </g>
  <g
     inkscape:groupmode="layer"
     id="layer1"
     inkscape:label="txt">
    <text
       inkscape:label="kingA"
       id="text4246-7-6-1-7-6"
       y="878.47522"
       x="403.03751"
       style="font-style:normal;font-variant:normal;font-weight:normal;font-stretch:normal;line-height:0%;font-family:Lavi;-inkscape-font-specification:Lavi;text-align:center;letter-spacing:0px;word-spacing:0px;text-anchor:middle;display:inline;fill:#000000;fill-opacity:1;stroke:none"
       xml:space="preserve"><tspan
         id="tspan943"
         y="878.47522"
         x="403.03751"
         style="font-size:45px;line-height:1.25"
         sodipodi:role="line">Henn yw an</tspan><tspan
         y="934.72522"
         x="403.03751"
         style="font-size:45px;line-height:1.25"
         sodipodi:role="line"
         id="tspan852">pyth a drensyn</tspan><tspan
         y="990.97522"
         x="403.03751"
         style="font-size:45px;line-height:1.25"
         sodipodi:role="line"
         id="tspan854">dh'y wul.</tspan></text>
    <text
       inkscape:label="kingB"
       transform="matrix(0.95440174,0,-0.25660425,1.0477768,0,0)"
       id="text4246-6-9-8-8"
       y="267.55887"
       x="1993.355"
       style="font-style:normal;font-variant:normal;font-weight:normal;font-stretch:normal;font-size:14.5372px;line-height:0%;font-family:Lavi;-inkscape-font-specification:Lavi;text-align:center;letter-spacing:0px;word-spacing:0px;text-anchor:middle;fill:#000000;fill-opacity:1;stroke:#000000;stroke-width:2.40001;stroke-miterlimit:4;stroke-dasharray:none;stroke-opacity:1"
       xml:space="preserve"><tspan
         id="tspan4395-0"
         y="267.55887"
         x="1993.355"
         style="font-size:52.0287px;line-height:1.25;stroke:#000000;stroke-width:2.40001;stroke-miterlimit:4;stroke-dasharray:none;stroke-opacity:1"
         sodipodi:role="line">ORTH OW GORHEMMYN!</tspan></text>
    <text
       inkscape:label="warriorA"
       xml:space="preserve"
       style="font-style:normal;font-variant:normal;font-weight:normal;font-stretch:normal;font-size:8.2448px;line-height:0%;font-family:Lavi;-inkscape-font-specification:Lavi;letter-spacing:1.83751px;word-spacing:0px;display:inline;opacity:0.708356;fill:#b3cfde;fill-opacity:1;stroke:#302820;stroke-width:6.24756;stroke-miterlimit:4;stroke-dasharray:none;stroke-opacity:1;paint-order:stroke fill markers;filter:url(#filter1058)"
       x="1302.3322"
       y="1954.6715"
       id="use4516-8-2"
       transform="matrix(0.87298381,-0.39667522,-0.16116569,1.4302723,1280.2225,-1441.2945)"><tspan
         sodipodi:role="line"
         id="tspan4370-3-6"
         x="1302.3322"
         y="1954.6715"
         style="font-style:normal;font-variant:normal;font-weight:normal;font-stretch:normal;font-size:48.0947px;line-height:1.25;font-family:Lavi;-inkscape-font-specification:Lavi;fill:#ded5c0;fill-opacity:1;stroke:#302820;stroke-width:6.24756;stroke-miterlimit:4;stroke-dasharray:none;stroke-opacity:1;paint-order:stroke fill markers">Yaaaa!</tspan></text>
    <text
       inkscape:label="warriorB"
       transform="matrix(0.87298381,-0.39667522,-0.16116569,1.4302723,1089.34,-1406.6493)"
       id="use4516-8"
       y="1954.6715"
       x="1302.3322"
       style="font-style:normal;font-variant:normal;font-weight:normal;font-stretch:normal;font-size:8.2448px;line-height:0%;font-family:Lavi;-inkscape-font-specification:Lavi;letter-spacing:1.83751px;word-spacing:0px;display:inline;opacity:0.708356;fill:#b3cfde;fill-opacity:1;stroke:#302820;stroke-width:6.24756;stroke-miterlimit:4;stroke-dasharray:none;stroke-opacity:1;paint-order:stroke fill markers;filter:url(#filter1058)"
       xml:space="preserve"><tspan
         style="font-style:normal;font-variant:normal;font-weight:normal;font-stretch:normal;font-size:48.0947px;line-height:1.25;font-family:Lavi;-inkscape-font-specification:Lavi;fill:#ded5c0;fill-opacity:1;stroke:#302820;stroke-width:6.24756;stroke-miterlimit:4;stroke-dasharray:none;stroke-opacity:1;paint-order:stroke fill markers"
         y="1954.6715"
         x="1302.3322"
         id="tspan4370-3"
         sodipodi:role="line">Eaaa!</tspan></text>
    <text
       inkscape:label="warriorC"
       xml:space="preserve"
       style="font-style:normal;font-variant:normal;font-weight:normal;font-stretch:normal;font-size:8.2448px;line-height:0%;font-family:Lavi;-inkscape-font-specification:Lavi;letter-spacing:1.83751px;word-spacing:0px;display:inline;opacity:0.708356;fill:#b3cfde;fill-opacity:1;stroke:#302820;stroke-width:6.24756;stroke-miterlimit:4;stroke-dasharray:none;stroke-opacity:1;paint-order:stroke fill markers;filter:url(#filter1058)"
       x="1302.3322"
       y="1954.6715"
       id="use4516-8-3"
       transform="matrix(0.87298381,-0.39667522,-0.16116569,1.4302723,900.90002,-1373.4986)"><tspan
         sodipodi:role="line"
         id="tspan4370-3-7"
         x="1302.3322"
         y="1954.6715"
         style="font-style:normal;font-variant:normal;font-weight:normal;font-stretch:normal;font-size:48.0947px;line-height:1.25;font-family:Lavi;-inkscape-font-specification:Lavi;fill:#ded5c0;fill-opacity:1;stroke:#302820;stroke-width:6.24756;stroke-miterlimit:4;stroke-dasharray:none;stroke-opacity:1;paint-order:stroke fill markers">Yaaa!</tspan></text>
    <text
       inkscape:label="warriorD"
       transform="matrix(0.50551861,-0.22852645,-0.0933262,0.82398656,1750.9332,-438.88491)"
       id="use4516-8-2-7"
       y="1954.6715"
       x="1302.3322"
       style="font-style:normal;font-variant:normal;font-weight:normal;font-stretch:normal;font-size:8.2448px;line-height:0%;font-family:Lavi;-inkscape-font-specification:Lavi;letter-spacing:1.83751px;word-spacing:0px;display:inline;opacity:0.369456;fill:#b3cfde;fill-opacity:1;stroke:#302820;stroke-width:10.8167;stroke-miterlimit:4;stroke-dasharray:none;stroke-opacity:1;paint-order:stroke fill markers;filter:url(#filter987)"
       xml:space="preserve"><tspan
         style="font-style:normal;font-variant:normal;font-weight:normal;font-stretch:normal;font-size:48.0947px;line-height:1.25;font-family:Lavi;-inkscape-font-specification:Lavi;fill:#ded5c0;fill-opacity:1;stroke:#302820;stroke-width:10.8167;stroke-miterlimit:4;stroke-dasharray:none;stroke-opacity:1;paint-order:stroke fill markers"
         y="1954.6715"
         x="1302.3322"
         id="tspan4370-3-6-5"
         sodipodi:role="line">Eaaa!</tspan></text>
    <text
       inkscape:label="warriorE"
       xml:space="preserve"
       style="font-style:normal;font-variant:normal;font-weight:normal;font-stretch:normal;font-size:8.2448px;line-height:0%;font-family:Lavi;-inkscape-font-specification:Lavi;letter-spacing:1.83751px;word-spacing:0px;display:inline;opacity:0.369456;fill:#b3cfde;fill-opacity:1;stroke:#302820;stroke-width:10.8167;stroke-miterlimit:4;stroke-dasharray:none;stroke-opacity:1;paint-order:stroke fill markers;filter:url(#filter987)"
       x="1302.3322"
       y="1954.6715"
       id="use4516-8-2-7-1"
       transform="matrix(0.50551861,-0.22852645,-0.0933262,0.82398656,1575.7589,-403.08047)"><tspan
         sodipodi:role="line"
         id="tspan4370-3-6-5-2"
         x="1302.3322"
         y="1954.6715"
         style="font-style:normal;font-variant:normal;font-weight:normal;font-stretch:normal;font-size:48.0947px;line-height:1.25;font-family:Lavi;-inkscape-font-specification:Lavi;fill:#ded5c0;fill-opacity:1;stroke:#302820;stroke-width:10.8167;stroke-miterlimit:4;stroke-dasharray:none;stroke-opacity:1;paint-order:stroke fill markers">Yaaa!</tspan></text>
    <text
       inkscape:label="warriorF"
       transform="matrix(0.50551861,-0.22852645,-0.0933262,0.82398656,1409.4065,-380.10863)"
       id="use4516-8-2-7-1-1"
       y="1954.6715"
       x="1302.3322"
       style="font-style:normal;font-variant:normal;font-weight:normal;font-stretch:normal;font-size:8.2448px;line-height:0%;font-family:Lavi;-inkscape-font-specification:Lavi;letter-spacing:1.83751px;word-spacing:0px;display:inline;opacity:0.369456;fill:#b3cfde;fill-opacity:1;stroke:#302820;stroke-width:10.8167;stroke-miterlimit:4;stroke-dasharray:none;stroke-opacity:1;paint-order:stroke fill markers;filter:url(#filter987)"
       xml:space="preserve"><tspan
         style="font-style:normal;font-variant:normal;font-weight:normal;font-stretch:normal;font-size:48.0947px;line-height:1.25;font-family:Lavi;-inkscape-font-specification:Lavi;fill:#ded5c0;fill-opacity:1;stroke:#302820;stroke-width:10.8167;stroke-miterlimit:4;stroke-dasharray:none;stroke-opacity:1;paint-order:stroke fill markers"
         y="1954.6715"
         x="1302.3322"
         id="tspan4370-3-6-5-2-5"
         sodipodi:role="line">Yaaa!</tspan></text>
    <text
       inkscape:label="warriorG"
       xml:space="preserve"
       style="font-style:normal;font-variant:normal;font-weight:normal;font-stretch:normal;font-size:8.2448px;line-height:0%;font-family:Lavi;-inkscape-font-specification:Lavi;letter-spacing:1.83751px;word-spacing:0px;display:inline;opacity:0.369456;fill:#b3cfde;fill-opacity:1;stroke:#302820;stroke-width:10.8167;stroke-miterlimit:4;stroke-dasharray:none;stroke-opacity:1;paint-order:stroke fill markers;filter:url(#filter987)"
       x="1302.3322"
       y="1954.6715"
       id="use4516-8-2-7-1-1-7"
       transform="matrix(0.50551861,-0.22852645,-0.0933262,0.82398656,1249.3194,-363.84199)"><tspan
         sodipodi:role="line"
         id="tspan4370-3-6-5-2-5-1"
         x="1302.3322"
         y="1954.6715"
         style="font-style:normal;font-variant:normal;font-weight:normal;font-stretch:normal;font-size:48.0947px;line-height:1.25;font-family:Lavi;-inkscape-font-specification:Lavi;fill:#ded5c0;fill-opacity:1;stroke:#302820;stroke-width:10.8167;stroke-miterlimit:4;stroke-dasharray:none;stroke-opacity:1;paint-order:stroke fill markers">Yaaa!</tspan></text>
    <text
       inkscape:label="warriorH"
       transform="matrix(0.50551861,-0.22852645,-0.0933262,0.82398656,1117.8153,-332.94981)"
       id="use4516-8-2-7-1-1-7-9"
       y="1954.6715"
       x="1302.3322"
       style="font-style:normal;font-variant:normal;font-weight:normal;font-stretch:normal;font-size:8.2448px;line-height:0%;font-family:Lavi;-inkscape-font-specification:Lavi;letter-spacing:1.83751px;word-spacing:0px;display:inline;opacity:0.369456;fill:#b3cfde;fill-opacity:1;stroke:#302820;stroke-width:10.8167;stroke-miterlimit:4;stroke-dasharray:none;stroke-opacity:1;paint-order:stroke fill markers;filter:url(#filter987)"
       xml:space="preserve"><tspan
         style="font-style:normal;font-variant:normal;font-weight:normal;font-stretch:normal;font-size:48.0947px;line-height:1.25;font-family:Lavi;-inkscape-font-specification:Lavi;fill:#ded5c0;fill-opacity:1;stroke:#302820;stroke-width:10.8167;stroke-miterlimit:4;stroke-dasharray:none;stroke-opacity:1;paint-order:stroke fill markers"
         y="1954.6715"
         x="1302.3322"
         id="tspan4370-3-6-5-2-5-1-5"
         sodipodi:role="line">Eeaa!</tspan></text>
    <text
       inkscape:label="warriorI"
       xml:space="preserve"
       style="font-style:normal;font-variant:normal;font-weight:normal;font-stretch:normal;font-size:8.2448px;line-height:0%;font-family:Lavi;-inkscape-font-specification:Lavi;letter-spacing:1.83751px;word-spacing:0px;display:inline;opacity:0.369456;fill:#b3cfde;fill-opacity:1;stroke:#302820;stroke-width:12.9782;stroke-miterlimit:4;stroke-dasharray:none;stroke-opacity:1;paint-order:stroke fill markers;filter:url(#filter987)"
       x="1302.3322"
       y="1954.6715"
       id="use4516-8-2-7-1-1-7-9-1"
       transform="matrix(0.42167905,-0.19030679,-0.07784818,0.68617982,1055.5205,-94.195675)"><tspan
         sodipodi:role="line"
         id="tspan4370-3-6-5-2-5-1-5-1"
         x="1302.3322"
         y="1954.6715"
         style="font-style:normal;font-variant:normal;font-weight:normal;font-stretch:normal;font-size:48.0947px;line-height:1.25;font-family:Lavi;-inkscape-font-specification:Lavi;fill:#ded5c0;fill-opacity:1;stroke:#302820;stroke-width:12.9782;stroke-miterlimit:4;stroke-dasharray:none;stroke-opacity:1;paint-order:stroke fill markers">Eaaaa!</tspan></text>
    <text
       inkscape:label="kingC"
       xml:space="preserve"
       style="font-style:normal;font-variant:normal;font-weight:normal;font-stretch:normal;font-size:18.4247px;line-height:0%;font-family:Lavi;-inkscape-font-specification:Lavi;text-align:center;letter-spacing:0px;word-spacing:0px;text-anchor:middle;fill:#000000;fill-opacity:1;stroke:#000000;stroke-width:2.40001;stroke-miterlimit:4;stroke-dasharray:none;stroke-opacity:1"
       x="1953.6434"
       y="1204.5455"
       id="text4246-6-9-8-8-3"
       transform="matrix(0.9493189,0,-0.25523766,1.0533868,0,0)"><tspan
         sodipodi:role="line"
         style="font-size:65.9419px;line-height:1.25;stroke:#000000;stroke-width:2.40001;stroke-miterlimit:4;stroke-dasharray:none;stroke-opacity:1"
         x="1953.6434"
         y="1204.5455"
         id="tspan60">YN-RAAAAAAAAAG!!!</tspan></text>
    <text
       inkscape:label="warriorJ"
       xml:space="preserve"
       style="font-style:normal;font-variant:normal;font-weight:normal;font-stretch:normal;font-size:8.2448px;line-height:0%;font-family:Lavi;-inkscape-font-specification:Lavi;letter-spacing:1.83751px;word-spacing:0px;display:inline;opacity:0.386112;fill:#b3cfde;fill-opacity:1;stroke:#302820;stroke-width:8.02114;stroke-miterlimit:4;stroke-dasharray:none;stroke-opacity:1;paint-order:stroke fill markers;filter:url(#filter987)"
       x="1302.3322"
       y="1954.6715"
       id="use4516-8-7"
       transform="matrix(0.76725519,-0.2738102,-0.14164663,0.98726394,369.54189,276.96994)"><tspan
         sodipodi:role="line"
         id="tspan4370-3-0"
         x="1302.3322"
         y="1954.6715"
         style="font-style:normal;font-variant:normal;font-weight:normal;font-stretch:normal;font-size:48.0947px;line-height:1.25;font-family:Lavi;-inkscape-font-specification:Lavi;fill:#ded5c0;fill-opacity:1;stroke:#302820;stroke-width:8.02114;stroke-miterlimit:4;stroke-dasharray:none;stroke-opacity:1;paint-order:stroke fill markers">Yaaaa!</tspan></text>
    <text
       inkscape:label="warriorK"
       transform="matrix(0.68010769,-0.24225481,-0.12555791,0.87348622,256.1633,518.50004)"
       id="use4516-8-7-6"
       y="1954.6715"
       x="1302.3322"
       style="font-style:normal;font-variant:normal;font-weight:normal;font-stretch:normal;font-size:8.2448px;line-height:0%;font-family:Lavi;-inkscape-font-specification:Lavi;letter-spacing:1.83751px;word-spacing:0px;display:inline;opacity:0.386112;fill:#b3cfde;fill-opacity:1;stroke:#302820;stroke-width:9.05745;stroke-miterlimit:4;stroke-dasharray:none;stroke-opacity:1;paint-order:stroke fill markers;filter:url(#filter987)"
       xml:space="preserve"><tspan
         style="font-style:normal;font-variant:normal;font-weight:normal;font-stretch:normal;font-size:48.0947px;line-height:1.25;font-family:Lavi;-inkscape-font-specification:Lavi;fill:#ded5c0;fill-opacity:1;stroke:#302820;stroke-width:9.05745;stroke-miterlimit:4;stroke-dasharray:none;stroke-opacity:1;paint-order:stroke fill markers"
         y="1954.6715"
         x="1302.3322"
         id="tspan4370-3-0-4"
         sodipodi:role="line">Yaaa!</tspan></text>
    <text
       inkscape:label="warriorL"
       xml:space="preserve"
       style="font-style:normal;font-variant:normal;font-weight:normal;font-stretch:normal;font-size:8.2448px;line-height:0%;font-family:Lavi;-inkscape-font-specification:Lavi;letter-spacing:1.83751px;word-spacing:0px;display:inline;opacity:0.386112;fill:#b3cfde;fill-opacity:1;stroke:#302820;stroke-width:9.05745;stroke-miterlimit:4;stroke-dasharray:none;stroke-opacity:1;paint-order:stroke fill markers;filter:url(#filter987)"
       x="1302.3322"
       y="1954.6715"
       id="use4516-8-7-6-9"
       transform="matrix(0.68010769,-0.24225481,-0.12555791,0.87348622,520.65577,484.96621)"><tspan
         sodipodi:role="line"
         id="tspan4370-3-0-4-8"
         x="1302.3322"
         y="1954.6715"
         style="font-style:normal;font-variant:normal;font-weight:normal;font-stretch:normal;font-size:48.0947px;line-height:1.25;font-family:Lavi;-inkscape-font-specification:Lavi;fill:#ded5c0;fill-opacity:1;stroke:#302820;stroke-width:9.05745;stroke-miterlimit:4;stroke-dasharray:none;stroke-opacity:1;paint-order:stroke fill markers">Eaaa!</tspan></text>
  </g>
</svg>
