<?xml version="1.0" encoding="UTF-8" standalone="no"?>
<svg
   xmlns:dc="http://purl.org/dc/elements/1.1/"
   xmlns:cc="http://creativecommons.org/ns#"
   xmlns:rdf="http://www.w3.org/1999/02/22-rdf-syntax-ns#"
   xmlns:svg="http://www.w3.org/2000/svg"
   xmlns="http://www.w3.org/2000/svg"
   xmlns:xlink="http://www.w3.org/1999/xlink"
   xmlns:sodipodi="http://sodipodi.sourceforge.net/DTD/sodipodi-0.dtd"
   xmlns:inkscape="http://www.inkscape.org/namespaces/inkscape"
   inkscape:export-ydpi="30.955259"
   inkscape:export-xdpi="30.955259"
   inkscape:export-filename="C:\Users\ruden\Desktop\E33P07.png"
   sodipodi:docname="E33P07.svg"
   height="3503"
   width="2481"
   inkscape:version="1.0 (1.0+r73+1)"
   version="1.1"
   id="svg2">
  <metadata
     id="metadata8">
    <rdf:RDF>
      <cc:Work
         rdf:about="">
        <dc:format>image/svg+xml</dc:format>
        <dc:type
           rdf:resource="http://purl.org/dc/dcmitype/StillImage" />
        <dc:title />
      </cc:Work>
    </rdf:RDF>
  </metadata>
  <defs
     id="defs6">
    <filter
       style="color-interpolation-filters:sRGB"
       id="filter4375-4-1-1-1-9-5-8-8-3-3-3-6-1-6"
       inkscape:label="magic-numbers_orange"
       height="1.38"
       width="1.22"
       x="-0.14">
      <feFlood
         id="feFlood4377-7-9-0-8-1-7-3-1-6-61-6-2-0-2"
         flood-opacity="1"
         flood-color="rgb(216,88,33)"
         result="flood"
         radius="5.0999999999999996" />
      <feComposite
         id="feComposite4379-3-8-8-2-77-4-1-0-7-2-7-6-6-6"
         in2="SourceGraphic"
         in="flood"
         operator="in"
         result="composite1"
         baseFrequency="0.053999999999999999 0.053999999999999999" />
      <feMorphology
         id="feMorphology4393-1-0-49-8-9-3-0-1-5-9-5-1-3-1"
         operator="dilate"
         radius="0.96959439099754563"
         result="result3" />
      <feComposite
         id="feComposite4385-9-5-7-0-8-8-7-5-3-3-3-8-2-8"
         in2="result3"
         in="SourceGraphic"
         operator="over"
         result="fbSourceGraphic"
         numOctaves="4" />
      <feColorMatrix
         result="fbSourceGraphicAlpha"
         in="fbSourceGraphic"
         values="0 0 0 -1 0 0 0 0 -1 0 0 0 0 -1 0 0 0 0 1 0"
         id="feColorMatrix4544-9-5-1-5-7-0-7" />
      <feTurbulence
         id="feTurbulence4546-3-6-9-6-9-6-9"
         type="fractalNoise"
         numOctaves="4.4123222748815163"
         seed="172"
         baseFrequency="0.062 0.054054054054054057"
         result="turbulence" />
      <feDisplacementMap
         id="feDisplacementMap4548-8-2-4-2-2-1-20"
         in2="turbulence"
         in="fbSourceGraphic"
         scale="11.642079"
         yChannelSelector="G"
         xChannelSelector="R"
         result="fbSourceGraphic" />
      <feColorMatrix
         result="fbSourceGraphicAlpha"
         in="fbSourceGraphic"
         values="0 0 0 -1 0 0 0 0 -1 0 0 0 0 -1 0 0 0 0 1 0"
         id="feColorMatrix4670-7-9-7-9-0-5-2"
         scale="10.800000000000001" />
      <feComposite
         id="feComposite4674-8-2-4-1-2-5-3"
         in2="fbSourceGraphic"
         in="flood"
         operator="in"
         result="composite1" />
      <feGaussianBlur
         id="feGaussianBlur4676-3-7-50-2-3-4-7"
         in="composite1"
         stdDeviation="0.01"
         result="blur" />
      <feOffset
         id="feOffset4678-6-0-3-7-7-7-5"
         dx="-0.42771311737301687"
         dy="5.2374444725016502"
         result="offset" />
      <feComposite
         id="feComposite4680-4-9-6-0-5-6-9"
         in2="offset"
         in="fbSourceGraphic"
         operator="over"
         result="composite2" />
      <feGaussianBlur
         id="feGaussianBlur58-9-9-5-2"
         stdDeviation="0.01" />
      <feOffset
         id="feOffset60-3-2-6-2"
         dy="0"
         dx="0" />
    </filter>
    <filter
       x="-0.14"
       width="1.22"
       height="1.38"
       inkscape:label="magic-numbers_cyan"
       id="filter4375-4-1-1-1-9-5-8-8-3-3-7-4-1"
       style="color-interpolation-filters:sRGB">
      <feFlood
         radius="5.0999999999999996"
         result="flood"
         flood-color="rgb(15,126,119)"
         flood-opacity="1"
         id="feFlood4377-7-9-0-8-1-7-3-1-6-61-3-5-4" />
      <feComposite
         baseFrequency="0.053999999999999999 0.053999999999999999"
         result="composite1"
         operator="in"
         in="flood"
         in2="SourceGraphic"
         id="feComposite4379-3-8-8-2-77-4-1-0-7-2-6-2-9" />
      <feMorphology
         result="result3"
         radius="0.96959439099754563"
         operator="dilate"
         id="feMorphology4393-1-0-49-8-9-3-0-1-5-9-1-5-2" />
      <feComposite
         numOctaves="4"
         result="fbSourceGraphic"
         operator="over"
         in="SourceGraphic"
         in2="result3"
         id="feComposite4385-9-5-7-0-8-8-7-5-3-3-2-4-0" />
      <feColorMatrix
         id="feColorMatrix4544-9-5-1-9-7-6"
         values="0 0 0 -1 0 0 0 0 -1 0 0 0 0 -1 0 0 0 0 1 0"
         in="fbSourceGraphic"
         result="fbSourceGraphicAlpha" />
      <feTurbulence
         result="turbulence"
         baseFrequency="0.062 0.054054054054054057"
         seed="172"
         numOctaves="4.4123222748815163"
         type="fractalNoise"
         id="feTurbulence4546-3-6-9-3-4-8" />
      <feDisplacementMap
         result="fbSourceGraphic"
         xChannelSelector="R"
         yChannelSelector="G"
         scale="11.642079"
         in="fbSourceGraphic"
         in2="turbulence"
         id="feDisplacementMap4548-8-2-4-1-4-9" />
      <feColorMatrix
         scale="10.800000000000001"
         id="feColorMatrix4670-7-9-7-9-3-2"
         values="0 0 0 -1 0 0 0 0 -1 0 0 0 0 -1 0 0 0 0 1 0"
         in="fbSourceGraphic"
         result="fbSourceGraphicAlpha" />
      <feComposite
         result="composite1"
         operator="in"
         in="flood"
         in2="fbSourceGraphic"
         id="feComposite4674-8-2-4-4-0-6" />
      <feGaussianBlur
         result="blur"
         stdDeviation="1.5865199271065846"
         in="composite1"
         id="feGaussianBlur4676-3-7-50-7-7-6" />
      <feOffset
         result="offset"
         dy="5.2374444725016502"
         dx="-0.42771311737301687"
         id="feOffset4678-6-0-3-8-8-4" />
      <feComposite
         result="composite2"
         operator="over"
         in="fbSourceGraphic"
         in2="offset"
         id="feComposite4680-4-9-6-4-6-9" />
      <feGaussianBlur
         stdDeviation="0.01"
         id="feGaussianBlur58-5-8-5" />
      <feOffset
         dx="0"
         dy="0"
         id="feOffset60-0-8-0" />
    </filter>
  </defs>
  <sodipodi:namedview
     inkscape:snap-global="false"
     inkscape:document-rotation="0"
     inkscape:current-layer="layer3"
     inkscape:window-maximized="1"
     inkscape:window-y="34"
     inkscape:window-x="2560"
     inkscape:cy="2913.9608"
     inkscape:cx="1111.0436"
     inkscape:zoom="0.52900001"
     showgrid="false"
     id="namedview4"
     inkscape:window-height="1020"
     inkscape:window-width="1920"
     inkscape:pageshadow="2"
     inkscape:pageopacity="0"
     guidetolerance="10"
     gridtolerance="10"
     objecttolerance="10"
     borderopacity="1"
     bordercolor="#666666"
     pagecolor="#ffffff" />
  <g
     sodipodi:insensitive="true"
     inkscape:label="artwork"
     id="layer2"
     inkscape:groupmode="layer">
    <image
       sodipodi:absref="/home/deevad/peppercarrot/webcomics/ep33_Spell-of-War/lang/gfx_Pepper-and-Carrot_by-David-Revoy_E33P07.png"
       xlink:href="../gfx_Pepper-and-Carrot_by-David-Revoy_E33P07.png"
       width="2481"
       height="3503"
       id="image10"
       x="0"
       y="0" />
  </g>
  <g
     inkscape:label="speechbubbles"
     id="layer3"
     inkscape:groupmode="layer">
    <path
       style="opacity:1;fill:#ffffff;stroke:none;stroke-width:1"
       d="M 925.01172 1023.7109 C 894.23811 1024.2004 863.46544 1024.8137 832.68957 1025.101 C 807.8079 1025.6441 782.58332 1029.139 759.6323 1039.1905 C 741.06935 1047.2375 724.25142 1059.9659 712.98169 1076.9208 C 700.7466 1094.9383 693.68817 1115.8273 687.88214 1136.648 C 682.34209 1157.1688 679.81282 1178.6372 681.94009 1199.8471 C 684.07676 1223.5117 691.62306 1246.4799 702.71234 1267.4278 C 713.65146 1288.4051 727.46259 1307.8902 743.55886 1325.2219 C 752.28242 1334.2045 762.94154 1341.5525 775.03702 1345.1127 C 789.63786 1350.0422 804.78339 1353.0539 819.66718 1356.9686 C 902.74885 1376.4093 989.59775 1379.0201 1073.8222 1365.6215 C 1102.0606 1361.5476 1130.3919 1357.8238 1158.3045 1351.8333 C 1181.1383 1346.3808 1203.3739 1336.487 1220.7451 1320.4137 C 1246.6905 1297.1054 1263.7069 1264.9 1271.3436 1231.0834 C 1281.351 1186.0945 1274.2471 1136.8735 1249.1888 1097.875 C 1232.6304 1072.016 1207.9968 1050.4839 1178.4116 1041.1741 C 1157.5333 1034.6155 1135.5783 1033.0624 1114.006 1030.1555 C 1055.1155 1023.4323 995.74856 1024.3011 936.58022 1023.5299 C 932.72405 1023.5903 928.86788 1023.6506 925.01172 1023.7109 z "
       id="path3278-1"
       inkscape:connector-curvature="0"
       sodipodi:nodetypes="ccssssssc" />
    <path
       style="color:#000000;display:inline;overflow:visible;visibility:visible;fill:#ffffff;fill-opacity:1;fill-rule:nonzero;stroke:none;stroke-width:1.23743px;marker:none;enable-background:accumulate"
       d="m 1843.0475,2615.9686 c -25.3465,1.3374 -50.6398,3.8301 -75.8929,6.5019 -42.2543,4.8857 -84.9535,9.427 -125.6958,22.983 -17.9418,5.7561 -34.2103,16.9684 -47.1894,31.2676 -12.1696,13.6671 -21.5288,30.9377 -23.3613,49.92 -3.8266,32.8043 9.5597,67.3215 34.4285,87.2806 28.1371,25.2288 64.393,36.6313 99.834,44.2379 43.0119,9.2804 86.8225,13.7383 130.6123,16.0691 50.725,1.5884 102.4159,-1.9542 150.7887,-19.3889 26.4237,-10.1167 52.0629,-27.1332 66.3502,-53.6096 16.8423,-31.1489 16.3833,-72.4839 -2.7982,-102.3717 -17.0472,-28.1219 -44.8912,-46.7928 -74.0096,-58.0055 -32.2738,-12.5036 -66.3643,-18.5452 -100.329,-23.0601 -10.8753,-1.1903 -21.8023,-1.8762 -32.7375,-1.8243 z"
       id="path3970-36-4-2-3"
       inkscape:connector-curvature="0"
       sodipodi:nodetypes="cccsscc" />
    <path
       style="color:#000000;display:inline;overflow:visible;visibility:visible;fill:#ffffff;fill-opacity:1;fill-rule:nonzero;stroke:none;stroke-width:1px;marker:none;enable-background:accumulate"
       d="m 1641.2419,2763.4115 c -108.6283,-52.869 -136.7629,50.9509 -219.7865,3.3934 64.8225,28.9401 124.6197,-90.8503 208.5357,-36.2563 33.5739,21.8425 26.7527,-34.846 26.7527,-34.846 z"
       id="path4440-3"
       inkscape:connector-curvature="0"
       sodipodi:nodetypes="ccscc" />
    <path
       style="fill:#ffffff;fill-rule:evenodd;stroke:none;stroke-width:1px;stroke-linecap:butt;stroke-linejoin:miter;stroke-opacity:1"
       d="m 1814.4771,1704.6495 c 0.4448,-11.7403 5.7803,-33.2638 13.7838,-37.1773 8.0034,-3.9133 30.2352,-3.9133 34.6816,-1.9563 4.4462,1.9563 11.5605,16.3054 13.3391,22.1757 1.7786,5.87 6.6694,26.741 -1.334,35.2202 -8.0034,8.4791 -16.0069,15.0013 -24.4549,14.349 -8.4482,-0.6523 -25.3444,-5.2181 -29.346,-13.0443 -4.0019,-7.8268 -6.6696,-19.567 -6.6696,-19.567 z"
       id="path1355"
       inkscape:connector-curvature="0" />
    <path
       style="color:#000000;display:inline;overflow:visible;visibility:visible;fill:#ffffff;fill-opacity:1;fill-rule:nonzero;stroke:none;stroke-width:0.999997px;marker:none;enable-background:accumulate"
       d="m 214.04236,1891.0092 c 18.52405,-13.457 150.65071,-26.3446 188.1542,8.2519 31.30365,28.8772 29.29508,85.4493 0.62541,106.7119 -29.20801,21.6607 -140.51559,14.0102 -183.53635,3.6371 -40.51199,-9.7679 -39.77899,-33.3786 -38.67399,-74.5334 0.45101,-16.7961 14.90677,-30.6115 33.43073,-44.0675 z"
       id="path4040-4-5-3-6"
       inkscape:connector-curvature="0"
       sodipodi:nodetypes="zssssz" />
    <path
       style="fill:#ffffff;fill-rule:evenodd;stroke:none;stroke-width:0.999999px;stroke-linecap:butt;stroke-linejoin:miter;stroke-opacity:1"
       d="m 2188.3092,1563.8723 c 34.6776,75.0182 -2.1391,152.7694 -20.7926,179.1784 15.7673,-13.367 86.6043,-98.9813 59.3653,-176.0012 -19.1833,-54.242 -28.9658,-19.1371 -28.9658,-19.1371 z"
       id="path4248"
       inkscape:connector-curvature="0"
       sodipodi:nodetypes="ccscc" />
    <path
       style="color:#000000;display:inline;overflow:visible;visibility:visible;fill:#ffffff;fill-opacity:1;fill-rule:nonzero;stroke:none;stroke-width:1px;marker:none;enable-background:accumulate"
       d="m 456.80078,1991.75 c -42.41514,0.4303 -85.2813,2.1946 -126.53711,12.8906 -16.00036,4.5215 -28.76661,15.66 -42.41538,24.5932 -8.87296,5.7349 -17.75486,11.8474 -24.30775,20.275 -5.16519,6.2581 -8.21981,13.9137 -10.12675,21.7282 -4.71156,18.4744 -2.75976,39.2745 8.12013,55.2849 10.08081,14.9844 26.30166,25.0269 43.55109,29.6966 25.53882,7.93 52.34259,10.0195 78.75768,13.1926 55.34978,5.5491 111.3713,7.2396 166.6953,0.4919 16.69847,-2.422 33.88978,-5.8712 48.18078,-15.3349 16.68173,-11.7606 26.58376,-31.3797 29.16501,-51.3429 2.94028,-21.1035 -2.97982,-43.4524 -16.77145,-59.8128 -13.93712,-17.4575 -33.70521,-29.463 -54.6416,-36.6949 -14.85647,-5.2355 -30.24642,-8.8851 -45.75417,-11.5706 -17.82216,-2.7773 -35.89782,-3.5695 -53.91578,-3.3969 z"
       id="path4040-4-5-3"
       inkscape:connector-curvature="0"
       sodipodi:nodetypes="zssssz" />
    <path
       style="color:#000000;display:inline;overflow:visible;visibility:visible;opacity:1;fill:#ffffff;fill-opacity:1;fill-rule:nonzero;stroke:none;stroke-width:0.999997px;marker:none;enable-background:accumulate"
       d="m 350.69972,1902.0737 c 41.26622,-10.6222 105.42769,-33.765 58.36397,-103.5756 17.39224,9.6109 81.79336,86.4471 -32.06947,127.1196 -33.03955,11.8021 -26.40006,-1.4387 -31.37798,-6.8202 -4.97793,-5.3817 5.08348,-16.7238 5.08348,-16.7238 z"
       id="path4064-3"
       inkscape:connector-curvature="0"
       sodipodi:nodetypes="ccszc" />
    <path
       style="fill:#ffffff;fill-rule:evenodd;stroke:none;stroke-width:0.999996px;stroke-linecap:butt;stroke-linejoin:miter;stroke-opacity:1"
       d="m 974.50752,1309.2692 c -35.82187,19.2298 -42.44405,25.0497 -51.67218,35.2517 -9.22809,10.2021 -10.71719,34.223 0.007,47.9588 10.72379,13.7357 7.97474,36.1368 -5.93755,41.9385 -13.91228,5.8017 -68.6801,26.3291 -30.10548,69.6789 -31.80797,-48.4001 27.22562,-50.2412 37.26612,-53.8355 20.96554,-7.326 32.38767,-21.6624 25.23114,-50.6365 -7.15657,-28.9741 -13.26827,-47.0437 37.16901,-61.4862 50.43712,-14.4425 -11.9577,-28.8697 -11.9577,-28.8697 z"
       id="path1081"
       inkscape:connector-curvature="0"
       sodipodi:nodetypes="ccccccsscc" />
    <path
       style="color:#000000;display:inline;overflow:visible;visibility:visible;opacity:1;vector-effect:none;fill:#ffffff;fill-opacity:1;fill-rule:nonzero;stroke:none;stroke-width:1.06435001;stroke-linecap:butt;stroke-linejoin:miter;stroke-miterlimit:4;stroke-dasharray:none;stroke-dashoffset:0;stroke-opacity:1;marker:none;paint-order:stroke fill markers;enable-background:accumulate"
       d="M 1930.3848 1000.1426 C 1899.4327 1000.0711 1868.4678 1000.1221 1837.5432 1001.5882 C 1815.7484 1002.6804 1793.923 1003.6605 1772.2212 1006.0152 C 1754.297 1008.6301 1737.0115 1017.7605 1726.1427 1032.4693 C 1714.043 1047.9568 1708.1738 1067.2363 1704.7947 1086.3357 C 1699.3404 1114.6838 1697.5483 1144.2537 1703.9418 1172.6048 C 1708.0554 1189.3381 1716.8323 1204.924 1729.2825 1216.8714 C 1747.409 1235.4053 1770.0449 1249.4765 1794.5831 1257.7895 C 1825.1524 1267.8696 1857.4819 1270.7385 1889.4522 1272.3489 C 1936.6955 1274.3665 1983.9797 1272.25 2031.2409 1272.9011 C 2069.1733 1273.1005 2107.1689 1272.5505 2144.9479 1268.8489 C 2173.8572 1266.3282 2202.7977 1263.6536 2231.4314 1258.8515 C 2250.1375 1254.7456 2266.8805 1243.2804 2278.1799 1227.9061 C 2296.8286 1204.5984 2309.5735 1175.7534 2310.4655 1145.6439 C 2311.4356 1118.8156 2306.2033 1091.2058 2292.1499 1068.0612 C 2274.8309 1039.4994 2244.4965 1019.0728 2211.3475 1014.4281 C 2192.9667 1011.4045 2174.3475 1010.2948 2155.8513 1008.2142 C 2080.9232 1001.2108 2005.5939 999.91724 1930.3848 1000.1426 z "
       id="path3992-0"
       inkscape:connector-curvature="0"
       sodipodi:nodetypes="ccscscc" />
    <path
       style="fill:#ffffff;stroke:none;stroke-width:1.0441519"
       d="m 2150.3099,1206.0189 c -91.4309,2.5254 -182.5854,10.5528 -273.7566,17.5301 -13.8941,1.2627 -27.8112,5.5178 -39.0329,14.1308 -15.6362,11.3322 -26.5664,28.5432 -31.815,47.1448 -8.5181,26.365 -10.542,55.0148 -4.9215,82.214 5.6927,23.778 20.5657,44.8218 40.0337,59.126 23.8472,18.6458 52.9603,29.2577 82.4632,34.2925 29.8329,5.4733 60.1073,7.9017 90.3301,9.8832 29.5629,1.0185 59.1678,1.0579 88.726,-0.1067 19.0671,-1.0916 37.9011,-4.7684 56.3227,-9.7595 22.4019,-5.229 45.2026,-8.9652 68.1925,-9.981 26.1355,-2.3432 52.6758,-7.675 75.6475,-21.0674 33.1832,-19.7953 55.2229,-58.04 54.5092,-97.1927 -0.7645,-31.3235 -16.3442,-61.2792 -39.588,-81.5915 -22.64,-19.9288 -51.3957,-31.3023 -80.4951,-37.3806 -28.4411,-6.0415 -57.6299,-7.4014 -86.6158,-7.242 z"
       id="path3280-8-0-3"
       inkscape:connector-curvature="0"
       sodipodi:nodetypes="csssc" />
    <path
       style="display:inline;fill:#ffffff;stroke:none;stroke-width:1.05250072"
       d="M 2147.1758 1446.7891 C 2120.0963 1447.1501 2092.4278 1450.8714 2067.8516 1462.8535 C 2051.4121 1471.3194 2038.5172 1487.8562 2037.0242 1506.6104 C 2035.9416 1526.1585 2048.3312 1545.0448 2065.711 1553.4856 C 2082.5324 1562.508 2101.9347 1564.2141 2120.6369 1565.5652 C 2155.373 1568.5203 2190.4753 1571.8978 2225.225 1567.2525 C 2249.5177 1564.5178 2274.3731 1562.2926 2297.1657 1552.8012 C 2310.6883 1546.7813 2322.0843 1534.8748 2325.2909 1520.1606 C 2329.7145 1502.1762 2322.8531 1481.9105 2308.1379 1470.5745 C 2295.3782 1460.1185 2279.0328 1455.6768 2263.176 1452.4199 C 2237.9206 1447.5128 2212.0791 1448.1255 2186.4872 1447.1293 C 2173.3849 1446.8807 2160.2805 1446.7436 2147.1758 1446.7891 z "
       id="path3280-8-3"
       inkscape:connector-curvature="0"
       sodipodi:nodetypes="csssc" />
    <path
       style="color:#000000;display:inline;overflow:visible;visibility:visible;fill:#ffffff;fill-opacity:1;fill-rule:nonzero;stroke:none;stroke-width:1.04669px;marker:none;enable-background:accumulate"
       d="m 670.71878,2346.0239 c -43.36705,0.898 -87.37485,1.4387 -129.47035,9.84 -31.76779,6.8252 -58.03594,24.1254 -73.27242,45.069 -8.48735,11.3862 -9.74996,24.6288 -9.31362,37.3039 0.73728,13.1163 1.49184,26.4927 7.68113,38.9813 6.27554,13.589 19.1004,25.5246 35.91557,33.2002 15.02432,7.1016 32.41847,11.054 49.94779,13.4865 19.26075,3.1205 38.64349,5.9244 58.27066,7.5558 25.83078,2.1499 51.81444,3.4154 77.81143,3.7885 40.823,0.3943 82.6609,-2.5362 120.42226,-14.4199 24.9282,-7.8646 48.34915,-19.4509 64.18477,-35.616 12.06374,-12.7496 17.99253,-28.5779 15.37437,-43.9526 -2.20295,-17.7749 -11.52292,-34.8484 -24.7845,-49.8207 -18.62215,-19.2003 -48.32842,-32.1766 -80.08869,-36.6451 -33.77183,-5.9103 -68.57647,-8.2696 -103.26641,-8.7803 -3.13723,-0.031 -6.27466,0.011 -9.41199,0.011 z"
       id="path4040-4-5-3-6-9"
       inkscape:connector-curvature="0"
       sodipodi:nodetypes="zssssz" />
    <path
       sodipodi:nodetypes="ccccccccccc"
       style="color:#000000;display:inline;overflow:visible;visibility:visible;fill:#ffffff;fill-opacity:1;fill-rule:nonzero;stroke:none;stroke-width:1px;marker:none;enable-background:accumulate"
       d="m 703.25853,2604.1619 c 5.74791,-18.2394 15.11069,-23.7603 -2.63313,-35.0414 -23.03586,-18.9893 -49.6494,-13.1342 -53.36056,-71.625 3.60381,-16.905 6.37301,-34.8451 22.50989,-40.1615 10.4995,-2.3974 21.75171,4.8293 22.24702,16.1202 0.34778,5.946 -3.23944,11.606 -7.58281,15.6001 -6.82528,8.7682 -8.75807,20.6527 -5.8829,30.4945 7.45665,22.1143 23.5538,29.0237 41.10442,37.1506 9.41557,9.8401 11.78207,17.5562 5.80293,30.6148 -26.3563,44.5568 16.67184,58.2897 35.27406,70.5123 -19.70092,-4.8478 -67.11382,-28.0517 -57.47892,-53.6646 z"
       id="path4496-9"
       inkscape:connector-curvature="0"
       inkscape:transform-center-x="2.8585098"
       inkscape:transform-center-y="-44.934884" />
    <path
       style="color:#000000;display:inline;overflow:visible;visibility:visible;fill:#ffffff;fill-opacity:1;fill-rule:nonzero;stroke:none;stroke-width:1.23743px;marker:none;enable-background:accumulate"
       d="m 1468.3376,2511.2337 c -96.1196,-1.488 -136.7137,-19.0324 -160.4196,-45.2336 -23.7061,-26.202 -4.0163,-68.5035 37.6325,-83.482 41.6487,-14.9787 97.998,-16.4965 163.2237,-14.5144 117.859,3.5843 199.4923,14.8761 208.7206,55.5072 9.163,40.3418 1.8079,61.7448 -84.8277,80.9567 -81.557,11.056 -164.3295,6.7661 -164.3295,6.7661 z"
       id="path3970-36-4"
       inkscape:connector-curvature="0"
       sodipodi:nodetypes="cccsscc" />
    <path
       sodipodi:nodetypes="cccsscc"
       inkscape:connector-curvature="0"
       id="path3970-36-4-2"
       d="m 1664.9161,2482.8694 c -28.8551,1.1705 -57.7157,2.3885 -86.5381,4.3406 -23.9951,1.5964 -47.9362,4.0038 -71.8873,6.2222 -13.8466,1.1847 -27.5013,4.7437 -40.4457,10.2165 -12.3336,5.3706 -24.1058,12.7386 -33.8051,22.7171 -13.8031,15.2593 -19.144,38.9335 -13.659,59.4934 3.0043,10.4989 8.4779,20.0549 15.1729,28.2168 10.3856,12.5325 24.1265,21.2745 38.6765,26.7279 23.6799,9.5519 48.5071,14.9248 72.9811,21.3948 28.4109,6.6793 57.6226,8.0703 86.5995,7.1697 23.2715,-0.4522 46.5456,-1.5455 69.7357,-3.747 27.6856,-2.9898 55.3698,-8.0778 81.7166,-18.0658 17.5383,-6.8676 34.634,-16.379 48.0712,-30.7086 10.1682,-11.9129 14.2596,-28.5749 14.5223,-44.5392 0.1845,-14.5806 -4.0928,-29.4648 -13.108,-40.406 -11.5236,-14.5502 -27.7087,-23.586 -44.1702,-29.6489 -24.5618,-8.8882 -50.4732,-11.4675 -75.9701,-15.2959 -15.8805,-2.2658 -31.8497,-4.3076 -47.8923,-4.0876 z"
       style="color:#000000;display:inline;overflow:visible;visibility:visible;fill:#ffffff;fill-opacity:1;fill-rule:nonzero;stroke:none;stroke-width:1.23743px;marker:none;enable-background:accumulate" />
    <path
       sodipodi:nodetypes="csccc"
       style="color:#000000;display:inline;overflow:visible;visibility:visible;fill:#ffffff;fill-opacity:1;fill-rule:nonzero;stroke:none;stroke-width:1px;marker:none;enable-background:accumulate"
       d="m 1869.3292,1763.0277 c -14.8181,-0.6595 -18.7264,-9.2129 -18.2181,-35.4706 0.5083,-26.2571 -6.2661,-24.362 -6.2661,-24.362 l -6.9729,16.6564 c 0,0 1.6221,55.3263 31.4571,43.1762 z"
       id="path3072-5-5"
       inkscape:connector-curvature="0" />
    <path
       style="fill:#ffffff;fill-rule:evenodd;stroke:none;stroke-width:0.977214px;stroke-linecap:butt;stroke-linejoin:miter;stroke-opacity:1"
       d="m 908.19707,140.73428 c -23.27565,0.55056 -46.99555,0.87351 -69.41715,7.88874 -23.4538,7.34338 -44.8221,22.73166 -57.32193,44.11788 -13.00868,23.28208 -9.52548,54.15162 7.28144,74.63258 14.5161,17.54579 35.34829,29.06129 57.2524,34.58214 22.01365,5.74466 44.6452,9.69907 67.45675,9.61655 13.92648,0.043 27.83179,-1.54052 41.43298,-4.50964 17.72195,-3.50772 35.43285,-7.30564 52.68184,-12.72464 16.3677,-5.48131 32.4562,-13.56643 44.1239,-26.59384 11.079,-12.60043 16.2795,-30.23087 13.3196,-46.7977 -1.8137,-12.38081 -7.702,-24.45207 -17.5791,-32.36276 -25.7954,-23.48509 -58.75009,-38.45485 -92.95511,-44.58852 -15.25272,-2.7632 -30.8032,-3.399 -46.27562,-3.26079 z"
       id="path912"
       inkscape:connector-curvature="0"
       sodipodi:nodetypes="cscsc" />
    <path
       id="path11-7"
       style="clip-rule:evenodd;display:inline;fill:#000000;fill-rule:evenodd;stroke:none;stroke-width:0.138542"
       inkscape:connector-curvature="0"
       d="m 796.38806,253.26629 c 0.0845,2.25192 3.22337,4.74593 5.59632,5.05268 0,0 2.54222,0.45596 4.60197,-0.0294 0.37769,0.0596 6.63382,-1.0982 6.49266,-8.21406 l -1.65193,-8.61638 c 0.8799,-0.15078 3.72125,-1.41287 4.59537,-1.88482 2.3984,-1.29588 3.40148,-3.09481 4.30471,-4.43007 0.99554,-1.99533 1.57431,-3.35461 1.49404,-5.49299 -0.20284,-5.40684 -5.56053,-9.6374 -11.96606,-9.44893 -0.92327,0.027 -1.81711,0.14337 -2.67218,0.34364 l -1.40556,-6.91288 c 4.18255,-4.19405 8.3894,-9.32211 9.69316,-13.94593 1.21966,-6.09324 0.37438,-10.16016 -3.52844,-11.79857 -3.5483,-0.58638 -7.67202,3.59985 -9.96921,9.539 -1.51792,3.17978 0.78995,9.10039 1.81806,11.52923 -6.68582,5.78015 -13.39541,9.98158 -13.74544,19.66914 0.28405,7.56986 7.78449,13.49206 16.75142,13.22833 0.85685,-0.0249 2.27271,-0.0503 3.87625,-0.27383 l 1.08192,8.62187 c 0,0 0.52789,6.31387 -5.14256,7.33829 -2.25047,0.4063 -4.41852,0.8642 -3.83799,-0.41876 1.73468,-0.82673 3.74257,-2.12294 3.66654,-4.15005 -0.0947,-2.52304 -2.4222,-4.50235 -5.1974,-4.42088 -2.7763,0.0816 -4.95043,2.1931 -4.85567,4.71688 z m 8.74333,-38.9876 1.31155,6.45899 c -4.6851,1.37342 -7.98364,5.19713 -7.81852,9.59637 0.1868,4.97811 7.3278,7.09238 7.09231,5.9165 -2.7876,-0.92016 -3.84883,-2.01554 -3.94967,-4.70289 -0.11403,-3.03841 2.25091,-5.66275 5.55369,-6.48738 l 3.11976,15.37696 c -0.56636,0.14694 -1.17858,0.27596 -1.84324,0.38361 -9.67167,0.12035 -14.37777,-4.08648 -14.66181,-11.65558 -0.15887,-4.2402 5.57542,-9.30577 11.19542,-14.88578 z m 6.04423,25.9464 -3.11013,-15.31735 c 0.3857,-0.0614 0.7833,-0.1022 1.18863,-0.11285 4.26961,-0.12605 7.84143,2.69482 7.97671,6.29862 0.0233,2.90225 0.0216,7.22552 -6.05512,9.13233 z m -6.60186,-32.24768 c -1.92855,-4.90906 -0.4462,-7.42733 0.50502,-9.35807 2.24834,-4.55803 4.3132,-6.25199 6.42367,-7.77212 2.8504,0.84884 1.829,7.52972 1.40618,7.54153 -1.1787,3.9583 -5.81842,7.21394 -8.33494,9.58867 z" />
    <path
       id="path44-7-5-6"
       style="font-style:normal;font-variant:normal;font-weight:normal;font-stretch:normal;font-size:45px;line-height:1.2;font-family:Lavi;-inkscape-font-specification:Lavi;text-align:center;letter-spacing:0px;word-spacing:0px;text-anchor:middle;fill:#000000;fill-opacity:1;stroke:#000000;stroke-width:0.5;stroke-miterlimit:4;stroke-dasharray:none;stroke-opacity:1"
       d="m 867.44282,251.78696 -1.0588,-0.0939 -2.7066,30.53809 c -0.6054,-0.3952 -1.6456,-0.70076 -2.6197,-0.78713 -3.4733,-0.30785 -7.57906,2.18835 -7.84556,5.19554 -0.1838,2.07546 1.71276,3.31074 3.66126,3.48342 4.0237,0.35663 7.9989,-2.10847 8.3891,-6.51344 l 1.8846,-21.26227 c 4.3186,1.36458 7.3192,5.55784 6.8838,10.47105 -0.3003,3.3884 -2.3527,6.79216 -3.4567,8.6581 l 1.1012,0.0975 c 2.3222,-3.08121 4.1586,-6.46151 4.4738,-10.01936 0.3529,-3.98136 -2.2343,-7.54033 -4.6193,-10.01419 -2.3846,-2.47374 -4.4475,-5.68748 -4.0872,-9.75356 z" />
    <path
       d="m 944.83322,290.08712 1.43255,-25.29947 -20.61273,2.21295 -1.36752,24.14772 c -0.50308,-0.39137 -1.36039,-0.71262 -2.15949,-0.8255 -2.84902,-0.40241 -6.16135,1.81205 -6.32103,4.63193 -0.11014,1.94614 1.46659,3.16967 3.06469,3.3954 3.30066,0.46622 6.50653,-1.72324 6.74039,-5.85377 l 1.12471,-19.85835 17.79266,-1.89059 -1.01879,17.9916 c -0.50316,-0.39133 -1.36039,-0.71261 -2.15964,-0.82546 -2.84887,-0.40241 -6.16129,1.81204 -6.32089,4.63191 -0.11014,1.94611 1.46643,3.16969 3.06463,3.39544 3.30058,0.46619 6.50642,-1.72325 6.74046,-5.85381 z"
       style="font-style:normal;font-variant:normal;font-weight:normal;font-stretch:normal;font-size:45px;line-height:1.2;font-family:Lavi;-inkscape-font-specification:Lavi;text-align:center;letter-spacing:0px;word-spacing:0px;text-anchor:middle;fill:#000000;fill-opacity:1;stroke:#000000;stroke-width:0.5;stroke-miterlimit:4;stroke-dasharray:none;stroke-opacity:1"
       id="path46-3-5" />
    <path
       id="path46-3"
       style="font-style:normal;font-variant:normal;font-weight:normal;font-stretch:normal;font-size:45px;line-height:1.2;font-family:Lavi;-inkscape-font-specification:Lavi;text-align:center;letter-spacing:0px;word-spacing:0px;text-anchor:middle;fill:#000000;fill-opacity:1;stroke:#000000;stroke-width:0.5;stroke-miterlimit:4;stroke-dasharray:none;stroke-opacity:1"
       d="m 863.25007,180.81942 1.43255,-25.29947 -20.61273,2.21295 -1.36752,24.14772 c -0.50308,-0.39137 -1.36039,-0.71262 -2.15949,-0.8255 -2.84902,-0.40241 -6.16135,1.81205 -6.32103,4.63193 -0.11014,1.94614 1.46659,3.16967 3.06469,3.3954 3.30066,0.46622 6.50653,-1.72324 6.74039,-5.85377 l 1.12471,-19.85835 17.79266,-1.89059 -1.01879,17.9916 c -0.50316,-0.39133 -1.36039,-0.71261 -2.15964,-0.82546 -2.84887,-0.40241 -6.16129,1.81204 -6.32089,4.63191 -0.11014,1.94611 1.46643,3.16969 3.06463,3.39544 3.30058,0.46619 6.50642,-1.72325 6.74046,-5.85381 z" />
    <path
       d="m 977.69881,154.87962 -1.0588,-0.0939 -2.7066,30.53809 c -0.6054,-0.3952 -1.6456,-0.70076 -2.6197,-0.78713 -3.4733,-0.30785 -7.5791,2.18835 -7.8456,5.19554 -0.1838,2.07546 1.7128,3.31074 3.6613,3.48342 4.0237,0.35663 7.9989,-2.10847 8.3891,-6.51344 l 1.8846,-21.26227 c 4.3186,1.36458 7.3192,5.55784 6.8838,10.47105 -0.3003,3.3884 -2.3527,6.79216 -3.4567,8.6581 l 1.1012,0.0975 c 2.3222,-3.08121 4.1586,-6.46151 4.4738,-10.01936 0.3529,-3.98136 -2.2343,-7.54033 -4.6193,-10.01419 -2.3846,-2.47374 -4.4475,-5.68748 -4.0872,-9.75356 z"
       style="font-style:normal;font-variant:normal;font-weight:normal;font-stretch:normal;font-size:45px;line-height:1.2;font-family:Lavi;-inkscape-font-specification:Lavi;text-align:center;letter-spacing:0px;word-spacing:0px;text-anchor:middle;fill:#000000;fill-opacity:1;stroke:#000000;stroke-width:0.5;stroke-miterlimit:4;stroke-dasharray:none;stroke-opacity:1"
       id="path44-7-5" />
    <path
       d="m 1043.226,240.93061 6.7692,-26.06469 -21.9412,-1.99287 -6.4611,24.87807 c -0.4426,-0.51273 -1.269,-1.02631 -2.0782,-1.31058 -2.8849,-1.0135 -6.7984,0.60328 -7.5529,3.50845 -0.5207,2.00499 0.8673,3.60883 2.4855,4.17736 3.3423,1.17417 7.1395,-0.43876 8.2447,-4.69422 l 5.3135,-20.45896 18.9353,1.74064 -4.8139,18.53579 c -0.4427,-0.51274 -1.269,-1.0263 -2.0783,-1.31058 -2.8847,-1.01349 -6.7983,0.60328 -7.5527,3.50845 -0.5207,2.00499 0.867,3.60883 2.4854,4.17738 3.3421,1.17415 7.1394,-0.43878 8.2447,-4.69424 z"
       style="font-style:normal;font-variant:normal;font-weight:normal;font-stretch:normal;font-size:45px;line-height:1.2;font-family:Lavi;-inkscape-font-specification:Lavi;text-align:center;letter-spacing:0px;word-spacing:0px;text-anchor:middle;fill:#000000;fill-opacity:1;stroke:#000000;stroke-width:0.5;stroke-miterlimit:4;stroke-dasharray:none;stroke-opacity:1"
       id="path46" />
    <path
       d="m 913.37793,149.3325 -1.12498,0.006 0.18516,32.44447 c -0.67705,-0.35614 -1.80332,-0.57472 -2.83829,-0.56881 -3.68994,0.0211 -7.76768,3.05937 -7.74944,6.25432 0.0126,2.20497 2.13396,3.31788 4.20394,3.30606 4.27493,-0.0244 8.21791,-3.01694 8.1912,-7.69687 l -0.12891,-22.5892 c 4.68583,1.00828 8.2644,5.12792 8.29419,10.34784 0.0205,3.59994 -1.80286,7.39041 -2.78103,9.46603 l 1.16998,-0.007 c 2.14019,-3.47727 3.73886,-7.22145 3.71728,-11.00139 -0.0241,-4.22992 -3.10412,-7.72241 -5.86268,-10.09171 -2.75858,-2.36929 -5.25176,-5.55012 -5.27642,-9.87005 z"
       style="font-style:normal;font-variant:normal;font-weight:normal;font-stretch:normal;font-size:45px;line-height:1.2;font-family:Lavi;-inkscape-font-specification:Lavi;text-align:center;letter-spacing:0px;word-spacing:0px;text-anchor:middle;fill:#000000;fill-opacity:1;stroke:#000000;stroke-width:0.5;stroke-miterlimit:4;stroke-dasharray:none;stroke-opacity:1"
       id="path44" />
    <path
       style="display:inline;fill:#ffffff;fill-rule:evenodd;stroke:none;stroke-width:0.999994px;stroke-linecap:butt;stroke-linejoin:miter;stroke-opacity:1"
       d="m 1113.2744,299.96481 c 0,0 3.063,-27.90595 -7.6203,-31.63419 -10.683,-3.7287 -32.8407,17.06726 -32.8407,17.06726 0,0 -4.2328,-35.76702 -33.0758,-39.94975 -28.8426,-4.18265 -50.06515,23.26878 -30.3165,23.73344 19.7488,0.46469 56.2297,-14.41714 53.5208,44.24271 30.2691,-35.37 30.9702,-30.37823 35.0639,-28.35596 4.0941,2.02189 7.6203,31.63418 8.1122,40.77952 20.8668,-26.16134 35.3887,-43.19442 63.4331,2.60979 -8.928,-28.53739 -32.8004,-52.752 -56.2767,-28.49282 z"
       id="path4394-0"
       inkscape:connector-curvature="0"
       sodipodi:nodetypes="cscsscsccc" />
  </g>
  <g
     inkscape:label="txt"
     id="layer1"
     inkscape:groupmode="layer">
    <text
       xml:space="preserve"
       style="font-style:normal;font-variant:normal;font-weight:normal;font-stretch:normal;line-height:0%;font-family:Lavi;-inkscape-font-specification:Lavi;text-align:center;letter-spacing:0px;word-spacing:0px;text-anchor:middle;fill:#000000;fill-opacity:1;stroke:none"
       x="909.37677"
       y="238.8701"
       id="text4246-3-5-0"
       inkscape:label="pepperA"><tspan
         sodipodi:role="line"
         style="font-size:45px;line-height:1.2"
         x="909.37677"
         y="238.8701"
         id="tspan854">Тадааа!</tspan></text>
    <text
       id="text4178-1"
       y="1969.3291"
       x="299.1268"
       style="font-style:normal;font-variant:normal;font-weight:normal;font-stretch:normal;font-size:18.2163px;line-height:0%;font-family:Lavi;-inkscape-font-specification:Lavi;text-align:center;letter-spacing:0px;word-spacing:0px;text-anchor:middle;fill:#000000;fill-opacity:1;stroke:none;stroke-width:1"
       xml:space="preserve"
       inkscape:label="pepperB"><tspan
         y="1969.3291"
         x="299.1268"
         style="font-size:61.7484px;line-height:1.25;stroke-width:1"
         sodipodi:role="line"
         id="tspan4239-3">&quot;Это&quot;</tspan></text>
    <text
       id="text4178"
       y="2064.4534"
       x="447.29425"
       style="font-style:normal;font-variant:normal;font-weight:normal;font-stretch:normal;font-size:47.4952px;line-height:0%;font-family:Lavi;-inkscape-font-specification:Lavi;text-align:center;letter-spacing:0px;word-spacing:0px;text-anchor:middle;fill:#000000;fill-opacity:1;stroke:none;stroke-width:1"
       xml:space="preserve"
       inkscape:label="pepperC"><tspan
         id="tspan155"
         y="2064.4534"
         x="447.29425"
         style="font-size:47.4952px;line-height:1.25;stroke-width:1"
         sodipodi:role="line">... и есть</tspan><tspan
         id="tspan916"
         y="2123.8223"
         x="447.29425"
         style="font-size:47.4952px;line-height:1.25;stroke-width:1"
         sodipodi:role="line">мой шедевр!</tspan><tspan
         id="tspan914"
         y="2153.5068"
         x="447.29425"
         sodipodi:role="line" /></text>
    <text
       xml:space="preserve"
       style="font-style:normal;font-variant:normal;font-weight:normal;font-stretch:normal;line-height:0%;font-family:Lavi;-inkscape-font-specification:Lavi;text-align:center;letter-spacing:0px;word-spacing:0px;text-anchor:middle;fill:#000000;fill-opacity:1;stroke:none"
       x="980.0376"
       y="1099.2838"
       id="text4246-3-2"
       inkscape:label="pepperD"><tspan
         id="tspan260"
         sodipodi:role="line"
         style="font-size:45px;line-height:1.25"
         x="980.0376"
         y="1099.2838">Непростое заклинание,</tspan><tspan
         id="tspan934"
         sodipodi:role="line"
         style="font-size:45px;line-height:1.25"
         x="980.0376"
         y="1155.5338">которое изменяет</tspan><tspan
         id="tspan936"
         sodipodi:role="line"
         style="font-size:45px;line-height:1.25"
         x="980.0376"
         y="1211.7838">реальность и показывает</tspan><tspan
         id="tspan938"
         sodipodi:role="line"
         style="font-size:45px;line-height:1.25"
         x="980.0376"
         y="1268.0338">оставшиеся очки</tspan><tspan
         id="tspan941"
         sodipodi:role="line"
         style="font-size:45px;line-height:1.25"
         x="980.0376"
         y="1324.2838">жизни соперника.</tspan><tspan
         id="tspan932"
         sodipodi:role="line"
         x="980.0376"
         y="1342.7908" /></text>
    <text
       transform="matrix(2.0001217,0.03992834,-0.03002348,1.9644063,-221.92656,-1785.196)"
       id="text4580-6-0-0-3-3-8"
       y="1584.5073"
       x="787.65729"
       style="font-style:normal;font-variant:normal;font-weight:normal;font-stretch:normal;line-height:0%;font-family:Lavi;-inkscape-font-specification:Lavi;letter-spacing:3.03024px;word-spacing:0px;opacity:0.801401;fill:#fff4b7;fill-opacity:1;stroke:#aa7640;stroke-width:0.647169;stroke-miterlimit:4;stroke-dasharray:none;stroke-opacity:1;filter:url(#filter4375-4-1-1-1-9-5-8-8-3-3-3-6-1-6)"
       xml:space="preserve"
       inkscape:label="scoreA"><tspan
         style="font-style:normal;font-variant:normal;font-weight:bold;font-stretch:normal;font-size:64.9472px;line-height:1.25;font-family:Drukah;-inkscape-font-specification:'Drukah Bold';fill:#fff4b7;fill-opacity:1;stroke:#aa7640;stroke-width:0.647169;stroke-miterlimit:4;stroke-dasharray:none;stroke-opacity:1"
         y="1584.5073"
         x="787.65729"
         id="tspan4582-1-1-0-6-9-9"
         sodipodi:role="line">33</tspan></text>
    <text
       id="text4246-3-2-2"
       y="1077.016"
       x="2007.8668"
       style="font-style:normal;font-variant:normal;font-weight:normal;font-stretch:normal;line-height:0%;font-family:Lavi;-inkscape-font-specification:Lavi;text-align:center;letter-spacing:0px;word-spacing:0px;text-anchor:middle;fill:#000000;fill-opacity:1;stroke:none"
       xml:space="preserve"
       inkscape:label="pepperE"><tspan
         id="tspan338"
         y="1077.016"
         x="2007.8668"
         style="font-size:45px;line-height:1.25"
         sodipodi:role="line">Когда у тебя не остается</tspan><tspan
         id="tspan950"
         y="1133.266"
         x="2007.8668"
         style="font-size:45px;line-height:1.25"
         sodipodi:role="line">очков, ты уходишь с поля</tspan><tspan
         id="tspan952"
         y="1189.516"
         x="2007.8668"
         style="font-size:45px;line-height:1.25"
         sodipodi:role="line">до окончания битвы.</tspan><tspan
         id="tspan948"
         y="1208.0229"
         x="2007.8668"
         sodipodi:role="line" /></text>
    <text
       xml:space="preserve"
       style="font-style:normal;font-variant:normal;font-weight:normal;font-stretch:normal;line-height:0%;font-family:Lavi;-inkscape-font-specification:Lavi;text-align:center;letter-spacing:0px;word-spacing:0px;text-anchor:middle;fill:#000000;fill-opacity:1;stroke:none"
       x="2071.354"
       y="1260.2655"
       id="text4246-3-2-2-9"
       inkscape:label="pepperF"><tspan
         id="tspan371"
         sodipodi:role="line"
         style="font-size:45px;line-height:1.25"
         x="2071.354"
         y="1260.2655">Побеждает армия,</tspan><tspan
         id="tspan959"
         sodipodi:role="line"
         style="font-size:45px;line-height:1.25"
         x="2071.354"
         y="1316.5155">которая первой выбьет</tspan><tspan
         id="tspan961"
         sodipodi:role="line"
         style="font-size:45px;line-height:1.25"
         x="2071.354"
         y="1372.7655">с поля всех</tspan><tspan
         id="tspan963"
         sodipodi:role="line"
         style="font-size:45px;line-height:1.25"
         x="2071.354"
         y="1429.0155">вражеских воинов.</tspan></text>
    <text
       id="text4246-3-2-2-9-6"
       y="1518.7565"
       x="2190.9116"
       style="font-style:normal;font-variant:normal;font-weight:normal;font-stretch:normal;line-height:0%;font-family:Lavi;-inkscape-font-specification:Lavi;text-align:center;letter-spacing:0px;word-spacing:0px;text-anchor:middle;fill:#000000;fill-opacity:1;stroke:none"
       xml:space="preserve"
       inkscape:label="pepperG"><tspan
         y="1518.7565"
         x="2190.9116"
         style="font-size:45px;line-height:1.25"
         sodipodi:role="line"
         id="tspan371-1">Всё просто.</tspan></text>
    <text
       transform="matrix(0.95527462,-0.04371269,-0.01433947,1.0473354,1179.3925,26.934268)"
       id="text4580-6-0-0-3-36-4-4"
       y="1584.5073"
       x="787.65729"
       style="font-style:normal;font-variant:normal;font-weight:normal;font-stretch:normal;line-height:0%;font-family:Lavi;-inkscape-font-specification:Lavi;letter-spacing:2.67495px;word-spacing:0px;fill:#b5ffe1;fill-opacity:1;stroke:#316983;stroke-width:1.28309;stroke-miterlimit:4;stroke-dasharray:none;stroke-opacity:1;filter:url(#filter4375-4-1-1-1-9-5-8-8-3-3-7-4-1)"
       xml:space="preserve"
       inkscape:label="scoreB"><tspan
         style="font-style:normal;font-variant:normal;font-weight:bold;font-stretch:normal;font-size:69.5991px;line-height:1.25;font-family:Lavi;-inkscape-font-specification:'Lavi Bold';fill:#b5ffe1;fill-opacity:1;stroke:#316983;stroke-width:1.28309;stroke-miterlimit:4;stroke-dasharray:none;stroke-opacity:1"
         y="1584.5073"
         x="787.65729"
         id="tspan4582-1-1-0-6-1-3-8"
         sodipodi:role="line">0</tspan></text>
    <text
       transform="scale(1.0185461,0.98179161)"
       xml:space="preserve"
       style="font-style:normal;font-variant:normal;font-weight:normal;font-stretch:normal;font-size:11.2438px;line-height:0%;font-family:Lavi;-inkscape-font-specification:Lavi;text-align:center;letter-spacing:0px;word-spacing:0px;text-anchor:middle;fill:#000000;fill-opacity:1;stroke:none;stroke-width:0.999999"
       x="1813.559"
       y="1747.6428"
       id="text4246-3-7-7-6-7-2-9-6-1-4"
       inkscape:label="warrior"><tspan
         sodipodi:role="line"
         style="font-style:normal;font-variant:normal;font-weight:normal;font-stretch:normal;font-size:42.1643px;line-height:1.2;font-family:Lavi;-inkscape-font-specification:Lavi;stroke-width:0.999999"
         x="1813.559"
         y="1747.6428"
         id="tspan1183-0">?</tspan></text>
    <text
       xml:space="preserve"
       style="font-style:normal;font-variant:normal;font-weight:normal;font-stretch:normal;font-size:53.3333px;line-height:0%;font-family:Lavi;-inkscape-font-specification:Lavi;text-align:center;letter-spacing:0px;word-spacing:0px;text-anchor:middle;fill:#000000;fill-opacity:1;stroke:none;stroke-width:1"
       x="669.75519"
       y="2415.7571"
       id="text4178-1-8"
       inkscape:label="pepperH"><tspan
         id="tspan450"
         sodipodi:role="line"
         style="font-size:53.3333px;line-height:1.25;stroke-width:1"
         x="669.75519"
         y="2415.7571">Разве это</tspan><tspan
         id="tspan969"
         sodipodi:role="line"
         style="font-size:53.3333px;line-height:1.25;stroke-width:1"
         x="669.75519"
         y="2482.4238">не прекрасно?</tspan><tspan
         id="tspan967"
         sodipodi:role="line"
         x="669.75519"
         y="2515.7571" /></text>
    <text
       xml:space="preserve"
       style="font-style:normal;font-variant:normal;font-weight:normal;font-stretch:normal;line-height:0%;font-family:Lavi;-inkscape-font-specification:Lavi;text-align:center;letter-spacing:0px;word-spacing:0px;text-anchor:middle;display:inline;fill:#000000;fill-opacity:1;stroke:none"
       x="1509.6354"
       y="2426.6021"
       id="text4246-7-6-1-7-6-3-5-6-4"
       inkscape:label="pepperI"><tspan
         sodipodi:role="line"
         style="font-size:45px;line-height:1.25"
         x="1509.6354"
         y="2426.6021"
         id="tspan990">Больше никаких</tspan><tspan
         id="tspan984"
         sodipodi:role="line"
         style="font-size:45px;line-height:1.25"
         x="1509.6354"
         y="2482.8521">смертей!</tspan></text>
    <text
       id="text4246-7-6-1-7-6-3-5-6-4-2"
       y="2555.0623"
       x="1633.6593"
       style="font-style:normal;font-variant:normal;font-weight:normal;font-stretch:normal;line-height:0%;font-family:Lavi;-inkscape-font-specification:Lavi;text-align:center;letter-spacing:0px;word-spacing:0px;text-anchor:middle;display:inline;fill:#000000;fill-opacity:1;stroke:none"
       xml:space="preserve"
       inkscape:label="pepperJ"><tspan
         id="tspan1354"
         y="2555.0623"
         x="1633.6593"
         style="font-size:45px;line-height:1.25"
         sodipodi:role="line">Никаких</tspan><tspan
         id="tspan986"
         y="2611.3123"
         x="1633.6593"
         style="font-size:45px;line-height:1.25"
         sodipodi:role="line">раненых солдат!</tspan></text>
    <text
       xml:space="preserve"
       style="font-style:normal;font-variant:normal;font-weight:normal;font-stretch:normal;line-height:0%;font-family:Lavi;-inkscape-font-specification:Lavi;text-align:center;letter-spacing:0px;word-spacing:0px;text-anchor:middle;display:inline;fill:#000000;fill-opacity:1;stroke:none"
       x="1829.5577"
       y="2697.5398"
       id="text4246-7-6-1-7-6-3-5-6-4-2-7"
       inkscape:label="pepperK"><tspan
         sodipodi:role="line"
         style="font-style:normal;font-variant:normal;font-weight:normal;font-stretch:normal;font-size:45px;line-height:1.25;font-family:Lavi;-inkscape-font-specification:Lavi"
         x="1829.5577"
         y="2697.5398"
         id="tspan946">Это полностью</tspan><tspan
         id="tspan988"
         sodipodi:role="line"
         style="font-style:normal;font-variant:normal;font-weight:normal;font-stretch:normal;font-size:45px;line-height:1.25;font-family:Lavi;-inkscape-font-specification:Lavi"
         x="1829.5577"
         y="2753.7898">изменит войну,</tspan><tspan
         id="tspan991"
         sodipodi:role="line"
         style="font-style:normal;font-variant:normal;font-weight:normal;font-stretch:normal;font-size:45px;line-height:1.25;font-family:Lavi;-inkscape-font-specification:Lavi"
         x="1829.5577"
         y="2810.0398">которую мы знаем!</tspan><tspan
         id="tspan982"
         sodipodi:role="line"
         x="1829.5577"
         y="2828.5469" /></text>
    <text
       id="text973"
       y="2570.9707"
       x="1702.967"
       style="font-style:normal;font-weight:normal;font-size:40px;line-height:1.25;font-family:sans-serif;letter-spacing:0px;word-spacing:0px;fill:#000000;fill-opacity:1;stroke:none"
       xml:space="preserve" />
  </g>
</svg>
