<?xml version="1.0" encoding="UTF-8" standalone="no"?>
<svg
   xmlns:dc="http://purl.org/dc/elements/1.1/"
   xmlns:cc="http://creativecommons.org/ns#"
   xmlns:rdf="http://www.w3.org/1999/02/22-rdf-syntax-ns#"
   xmlns:svg="http://www.w3.org/2000/svg"
   xmlns="http://www.w3.org/2000/svg"
   xmlns:xlink="http://www.w3.org/1999/xlink"
   xmlns:sodipodi="http://sodipodi.sourceforge.net/DTD/sodipodi-0.dtd"
   xmlns:inkscape="http://www.inkscape.org/namespaces/inkscape"
   id="svg2"
   version="1.1"
   inkscape:version="1.0.2-2 (e86c870879, 2021-01-15)"
   width="2481"
   height="3503"
   sodipodi:docname="E34P03.svg">
  <metadata
     id="metadata8">
    <rdf:RDF>
      <cc:Work
         rdf:about="">
        <dc:format>image/svg+xml</dc:format>
        <dc:type
           rdf:resource="http://purl.org/dc/dcmitype/StillImage" />
        <dc:title />
      </cc:Work>
    </rdf:RDF>
  </metadata>
  <defs
     id="defs6" />
  <sodipodi:namedview
     pagecolor="#ffffff"
     bordercolor="#666666"
     borderopacity="1"
     objecttolerance="10"
     gridtolerance="10"
     guidetolerance="10"
     inkscape:pageopacity="0"
     inkscape:pageshadow="2"
     inkscape:window-width="3440"
     inkscape:window-height="1377"
     id="namedview4"
     showgrid="false"
     inkscape:zoom="1.1313709"
     inkscape:cx="500.86445"
     inkscape:cy="326.60993"
     inkscape:window-x="-8"
     inkscape:window-y="-8"
     inkscape:window-maximized="1"
     inkscape:current-layer="layer1"
     inkscape:document-rotation="0"
     borderlayer="true" />
  <g
     inkscape:groupmode="layer"
     id="layer2"
     inkscape:label="artwork"
     sodipodi:insensitive="true">
    <image
       sodipodi:absref="F:\Komiksy\webcomics\ep34_The-Knighting-of-Shichimi\lang\gfx_Pepper-and-Carrot_by-David-Revoy_E34P03.png"
       xlink:href="../gfx_Pepper-and-Carrot_by-David-Revoy_E34P03.png"
       y="0"
       x="0"
       id="image10"
       height="3503"
       width="2481" />
  </g>
  <g
     inkscape:groupmode="layer"
     id="layer3"
     inkscape:label="speechbubbles"
     style="display:inline">
    <path
       style="color:#000000;display:inline;overflow:visible;visibility:visible;fill:#ffffff;fill-opacity:1;fill-rule:nonzero;stroke:none;stroke-width:1.23876px;marker:none;enable-background:accumulate"
       d="m 1187.2676,2139.3379 c -58.1063,2.7009 -115.7252,11.5443 -172.8558,22.133 -22.60259,5.7535 -44.57087,16.659 -60.1916,34.3389 -15.48748,17.9307 -23.47598,41.1654 -26.58745,64.3773 -4.28211,30.5246 3.51144,62.0353 19.27315,88.2998 10.40475,18.8819 25.04789,36.1306 44.38805,46.2308 24.83225,13.8689 52.56625,21.1305 79.87185,28.3633 25.9194,6.3665 52.363,10.3157 78.8242,13.6191 32.7027,3.6393 65.7878,4.4547 98.5548,1.135 24.9371,-2.4578 49.8686,-6.1326 74.0022,-13.0202 29.0953,-8.5032 57.1109,-22.472 79.1899,-43.5168 16.4616,-15.7564 28.8916,-35.7587 35.2393,-57.6766 6.9791,-22.9296 9.3347,-47.3314 6.4638,-71.143 -3.3032,-24.3825 -14.598,-48.1084 -33.3912,-64.3144 -17.5663,-15.3081 -39.6831,-23.9854 -61.7241,-30.6313 -26.0417,-7.8243 -53.1296,-11.342 -80.166,-13.4863 -17.2785,-1.3662 -34.5498,-2.8628 -51.8498,-3.9308 -9.6704,-0.5416 -19.3552,-0.8433 -29.0413,-0.7778 z"
       id="path4546-6-08-2"
       inkscape:connector-curvature="0"
       sodipodi:nodetypes="cssssc" />
    <path
       style="color:#000000;display:inline;overflow:visible;visibility:visible;fill:#ffffff;fill-opacity:1;fill-rule:nonzero;stroke:none;stroke-width:0.586403px;marker:none;enable-background:accumulate"
       d="m 786.34677,2123.5123 c 5.02464,-42.62 47.16918,-72.3401 153.25243,-60.2559 56.824,6.4733 121.4295,11.7571 114.7301,74.2181 -6.6996,62.4603 -99.65607,57.3161 -118.91724,58.0513 -19.26129,0.7346 -119.01807,-9.6322 -135.66614,-31.5981 -10.42127,-13.7499 -14.23657,-27.1885 -13.39915,-40.4154 z"
       id="path4546-6-08"
       inkscape:connector-curvature="0"
       sodipodi:nodetypes="cssssc" />
    <path
       style="fill:#ffffff;fill-rule:evenodd;stroke:none;stroke-width:1.25695px;stroke-linecap:butt;stroke-linejoin:miter;stroke-opacity:1"
       d="m 1471.3459,2456.5997 c -67.1764,-16.6519 -104.4231,-46.199 -116.7263,-96.6707 l -26.7459,22.416 c 34.4783,64.0674 88.4565,69.7439 143.4722,74.2547 z"
       id="path1291"
       inkscape:connector-curvature="0"
       sodipodi:nodetypes="cccc" />
    <path
       style="fill:#ffffff;stroke:none;stroke-width:0.972695"
       d="m 2046.8887,294.17773 c -39.6592,0.87259 -79.2406,4.12342 -118.6411,8.63598 -28.0761,3.45619 -56.6998,8.7612 -81.6288,22.80258 -17.1243,9.86351 -30.928,25.65948 -38.0389,44.13553 -3.2439,8.45302 -5.0977,17.61391 -3.6698,26.6585 2.5878,20.45788 16.297,38.69489 34.5305,48.01837 23.5697,13.04305 50.5265,17.35954 76.6085,22.56825 54.2988,10.19294 109.7958,12.72511 164.9351,11.01783 25.6859,-0.94521 51.3777,-2.71212 76.8507,-6.20311 23.5879,-3.55066 47.3991,-9.33854 68.0381,-21.70917 17.7212,-11.42475 30.0651,-31.58925 30.1199,-52.91361 0.4824,-26.36472 -14.7234,-51.3424 -36.1599,-65.9823 -10.8413,-7.63135 -23.4313,-12.19522 -36.1123,-15.7183 -37.7184,-11.56823 -76.8489,-18.49494 -116.2156,-20.92918 -6.8665,-0.32876 -13.7425,-0.44763 -20.6164,-0.38137 z"
       id="path3100-2-0"
       inkscape:connector-curvature="0" />
    <path
       style="fill:#ffffff;stroke:none;stroke-width:1.18283"
       d="m 2076.8823,247.4485 c -7.5449,58.07386 -115.0445,73.80425 -191.5313,73.87191 -130.0722,4.35437 -261.8812,-2.91346 -388.7622,-21.54286 -81.9336,-16.08413 -121.7572,-90.80562 -53.7835,-128.46041 69.7185,-29.32136 159.2702,-26.7993 239.7252,-32.43727 113.7926,-2.96731 231.6569,2.45137 338.2128,29.62082 47.4698,14.78235 63.9174,47.65096 56.139,78.94781 z"
       id="path3100-2"
       inkscape:connector-curvature="0" />
    <path
       style="color:#000000;display:inline;overflow:visible;visibility:visible;fill:#ffffff;fill-opacity:1;fill-rule:nonzero;stroke:none;stroke-width:1.05505px;marker:none;enable-background:accumulate"
       d="m 954.3418,195.82812 c -45.87505,2.03401 -90.50389,15.24857 -132.65874,32.85513 -15.88073,6.22943 -32.79797,11.45143 -45.81804,22.97323 -14.02348,12.65962 -22.59215,30.17634 -28.17223,47.96153 -8.54435,28.65768 -10.7449,58.72572 -11.54367,88.47688 -0.41844,14.64761 -0.22398,29.38485 2.27607,43.86211 2.82333,16.71154 7.67467,33.16764 15.09561,48.42875 11.30881,21.82722 30.71463,38.47622 52.13963,49.97101 21.39559,11.47124 45.2899,17.61326 69.33549,20.16862 23.84715,2.78717 47.88886,3.73359 71.88735,3.54457 32.30255,-0.63034 64.91303,-4.68184 95.38533,-15.83114 26.8709,-10.79549 48.2885,-32.97903 60.4625,-59.01558 13.0838,-26.594 21.7985,-55.34529 25.7259,-84.71932 3.6767,-29.74198 1.7999,-60.624 -8.6815,-88.88171 -8.6775,-22.66449 -24.0909,-42.57121 -43.5152,-57.06671 -22.4585,-17.60082 -47.7099,-31.34722 -73.7901,-42.76461 -15.25658,-6.15258 -31.57975,-10.32098 -48.1284,-9.96276 z"
       id="path4040-40"
       inkscape:connector-curvature="0"
       sodipodi:nodetypes="zssssz" />
    <path
       style="fill:#ffffff;stroke:none;stroke-width:1.36939"
       d="m 892.09961,88.826334 c -28.75402,0.336902 -57.83216,3.363847 -85.19428,13.397696 -16.3116,5.96492 -32.41506,13.84832 -45.4192,26.26982 -9.12602,8.95523 -15.8987,20.99968 -17.81839,34.25248 -2.89051,17.39156 1.5927,35.79962 11.34058,49.90043 13.456,20.82892 35.77762,34.44258 59.16006,36.76059 35.76084,5.3918 71.958,4.07814 107.95733,4.28932 28.05868,-0.11683 56.41595,-0.50982 83.90449,-7.2605 18.7707,-4.74747 37.197,-13.23746 51.5197,-27.44646 10.6108,-10.80905 17.6808,-26.23856 17.2066,-42.17946 -0.2887,-19.07421 -9.2063,-37.26922 -22.3777,-49.721 -14.6982,-14.31521 -33.3654,-22.89254 -52.3065,-28.366649 -27.6725,-7.935641 -56.47609,-8.997119 -84.94555,-9.729496 -7.6746,-0.160188 -15.35121,-0.243815 -23.02714,-0.166771 z"
       id="path3280-1"
       inkscape:connector-curvature="0"
       sodipodi:nodetypes="csssc" />
    <path
       style="color:#000000;display:inline;overflow:visible;visibility:visible;fill:#ffffff;fill-opacity:1;fill-rule:nonzero;stroke:none;stroke-width:0.990091px;marker:none;enable-background:accumulate"
       d="m 488.9942,566.25992 c -18.78498,50.92279 -2.84901,105.08842 13.19711,114.63467 -28.06687,-12.75099 -51.50197,-72.60161 -41.41962,-110.56135 11.40195,-31.85325 28.22251,-4.07332 28.22251,-4.07332 z"
       id="path4480-2"
       inkscape:connector-curvature="0"
       sodipodi:nodetypes="cccc"
       inkscape:transform-center-x="54.91025"
       inkscape:transform-center-y="-145.58616" />
    <path
       style="color:#000000;display:inline;overflow:visible;visibility:visible;fill:#ffffff;fill-opacity:1;fill-rule:nonzero;stroke:none;stroke-width:1.13562px;marker:none;enable-background:accumulate"
       d="m 500.64648,297.6875 c -34.49589,1.10447 -69.4681,2.45433 -102.8418,12.06047 -15.69075,4.51242 -30.64795,11.90596 -43.11437,22.52811 -13.48066,11.226 -23.69532,25.98295 -30.65054,42.01454 -11.02599,25.14979 -14.66035,53.24409 -12.04685,80.48657 2.84889,25.70322 14.42686,50.02788 31.07411,69.64919 7.8848,9.12778 17.65056,16.53943 28.4604,21.86991 20.1191,10.48909 41.73212,18.00794 63.82625,23.07165 28.80114,6.46133 58.32381,9.71941 87.8365,9.86819 18.75376,0.0503 37.60238,-1.41819 55.84896,-5.93268 24.70365,-5.85062 48.64801,-15.22908 70.44929,-28.27101 21.52208,-13.84482 38.73713,-35.23298 45.07535,-60.26879 8.56816,-30.49731 9.14614,-63.19529 1.87645,-94.0132 -3.77229,-15.33854 -10.90739,-29.94598 -21.51688,-41.72532 -10.29623,-11.77457 -23.62623,-20.62277 -38.04559,-26.54042 -25.65476,-11.3088 -53.41879,-16.56294 -80.94724,-20.99145 -18.30362,-2.60316 -36.79545,-3.89644 -55.28404,-3.80576 z"
       id="path4546-6-5-5"
       inkscape:connector-curvature="0"
       sodipodi:nodetypes="cssssc" />
    <path
       style="color:#000000;display:inline;overflow:visible;visibility:visible;fill:#ffffff;fill-opacity:1;fill-rule:nonzero;stroke:none;stroke-width:0.878626px;marker:none;enable-background:accumulate"
       d="m 280.03711,122.38281 c -33.79477,0.68643 -68.02945,4.60046 -99.77231,16.78803 -17.23206,6.90084 -33.18544,18.89121 -41.6431,35.74547 -9.88288,20.64639 -10.45282,45.06065 -3.60005,66.71181 4.53119,13.43431 13.76714,25.42778 26.2788,32.30259 19.49064,11.5596 41.77723,17.42486 64.07206,20.50986 17.17101,2.38165 34.46105,3.75524 51.7079,5.44806 31.56947,2.56675 63.42574,2.91769 94.90088,-1.01693 28.89544,-3.55299 57.83793,-9.01684 84.94654,-19.92043 14.64667,-5.90857 29.0757,-13.59551 39.64678,-25.60571 14.50656,-16.00103 18.89205,-39.42064 14.04417,-60.13619 -3.60016,-15.96647 -12.91349,-30.7211 -26.39467,-40.14017 -16.42622,-11.79649 -36.42107,-16.96784 -55.99513,-20.73869 -30.1949,-5.68926 -60.95953,-7.12509 -91.57175,-8.89364 -18.85659,-0.90071 -37.74247,-1.35513 -56.62012,-1.05406 z"
       id="path4546-6-5-3"
       inkscape:connector-curvature="0"
       sodipodi:nodetypes="cssssc" />
    <path
       id="path1081"
       style="fill:#ffffff;fill-rule:evenodd;stroke:none;stroke-width:1px;stroke-linecap:butt;stroke-linejoin:miter;stroke-opacity:1"
       d="m 293.67188,278.28125 c -10.34602,0.0639 -20.49884,2.27426 -30.72657,3.55078 -2.69982,4.93778 -4.08222,10.48922 -6.23101,15.68234 -5.67931,15.85263 -11.23804,31.88728 -14.15471,48.50943 -1.55744,12.04107 -0.85288,24.84605 5.20433,35.64519 9.1497,17.95023 22.70579,33.83652 27.94646,53.6304 3.09231,10.90551 5.52274,22.36337 4.35032,33.73572 -2.11881,9.59327 -8.21891,17.62309 -11.87847,26.63366 -6.87167,15.32803 -10.49807,32.77889 -6.43519,49.37594 1.01596,4.68537 2.40213,9.28257 3.95804,13.81467 -2.44284,-26.62563 4.52474,-54.43511 21.1636,-75.60842 5.87927,-7.58781 10.3557,-16.41037 11.5087,-26.03213 2.42129,-15.20105 -1.52987,-30.55332 -7.50308,-44.47184 -6.35087,-15.65438 -14.74681,-30.53834 -19.38839,-46.84497 -2.53518,-14.1623 4.48464,-27.52853 11.07638,-39.5497 6.64471,-12.19187 14.72253,-23.64193 20.19033,-36.44305 2.35665,-5.59735 -3.25033,-12.19349 -9.08074,-11.62802 z" />
    <path
       style="color:#000000;display:inline;overflow:visible;visibility:visible;fill:#ffffff;fill-opacity:1;fill-rule:nonzero;stroke:none;stroke-width:0.747612px;marker:none;enable-background:accumulate"
       d="m 899.59119,531.93304 c -2.31202,46.97432 46.46212,99.91514 106.27011,73.88577 -68.51547,11.60614 -80.86302,-50.88993 -74.49691,-77.22915 6.052,-16.0625 -31.7732,3.34338 -31.7732,3.34338 z"
       id="path3978-4"
       inkscape:connector-curvature="0"
       sodipodi:nodetypes="cccc" />
    <path
       style="fill:#ffffff;fill-rule:evenodd;stroke:none;stroke-width:1.17292px;stroke-linecap:butt;stroke-linejoin:miter;stroke-opacity:1"
       d="m 2105.6372,449.67287 c 46.9908,56.36735 25.0644,96.94489 0.9732,119.18809 57.8143,-39.15954 50.7085,-84.22782 24.8731,-138.46075 -6.4903,-8.77797 -25.8463,19.27266 -25.8463,19.27266 z"
       id="path1359"
       inkscape:connector-curvature="0"
       sodipodi:nodetypes="cccc" />
    <path
       style="color:#000000;display:inline;overflow:visible;visibility:visible;fill:#ffffff;fill-opacity:1;fill-rule:nonzero;stroke:none;stroke-width:0.548604px;marker:none;enable-background:accumulate"
       d="m 744.76298,1784.4258 c -23.02506,0.867 -46.48161,5.9216 -66.15692,18.3531 -13.76056,9.5893 -21.22853,26.9834 -19.51803,43.572 0.55586,13.3373 5.069,27.3028 15.40829,36.2633 11.35879,9.28 26.10401,12.594 40.21935,15.0694 20.44819,3.3542 41.14494,5.3796 61.8703,5.6186 27.626,-0.1737 55.35589,-5.0256 81.04299,-15.3087 10.63803,-4.6176 20.97892,-11.9976 25.494,-23.0724 9.52705,-22.3457 0.0239,-50.8982 -20.95407,-63.133 -15.20341,-9.2197 -33.11596,-12.1995 -50.49797,-14.2998 -22.2016,-2.4933 -44.57871,-3.2792 -66.90794,-3.0625 z"
       id="path4546-6-5-3-5"
       inkscape:connector-curvature="0"
       sodipodi:nodetypes="cssssc" />
    <path
       style="color:#000000;display:inline;overflow:visible;visibility:visible;fill:#ffffff;fill-opacity:1;fill-rule:nonzero;stroke:none;stroke-width:0.710537px;marker:none;enable-background:accumulate"
       d="m 849.98651,1849.2956 c 26.9288,18.2447 60.46856,37.1401 111.40082,-0.4118 -51.33263,27.0778 -81.7058,-0.5873 -98.47579,-20.0818 -9.1535,-13.7188 -12.92502,20.4935 -12.92503,20.4936 z"
       id="path3978-4-3"
       inkscape:connector-curvature="0"
       sodipodi:nodetypes="cccc" />
  </g>
  <g
     inkscape:groupmode="layer"
     id="layer1"
     inkscape:label="txt">
    <text
       xml:space="preserve"
       style="font-style:normal;font-variant:normal;font-weight:normal;font-stretch:normal;font-size:45px;line-height:1.25;font-family:Lavi;-inkscape-font-specification:Lavi;text-align:center;letter-spacing:0px;word-spacing:0px;text-anchor:middle;fill:#000000;fill-opacity:1;stroke:none"
       x="320.87573"
       y="194.84184"
       id="text4246-3-2-2-6-3-7-9-3"><tspan
         style="font-size:45px"
         sodipodi:role="line"
         x="320.87573"
         y="194.84184"
         id="tspan850">Czy to jeden</tspan><tspan
         style="font-size:45px"
         sodipodi:role="line"
         x="320.87573"
         y="251.09184"
         id="tspan60">z naszych gości?</tspan></text>
    <text
       xml:space="preserve"
       style="font-style:normal;font-variant:normal;font-weight:normal;font-stretch:normal;font-size:45px;line-height:1.25;font-family:Lavi;-inkscape-font-specification:Lavi;text-align:center;letter-spacing:0px;word-spacing:0px;text-anchor:middle;fill:#000000;fill-opacity:1;stroke:none"
       x="509.17548"
       y="375.7699"
       id="text4246-3-2-2-6-3-7-9-3-3"><tspan
         style="font-size:45px"
         sodipodi:role="line"
         x="509.17548"
         y="375.7699"
         id="tspan890">Tak, to Pepper,</tspan><tspan
         style="font-size:45px"
         sodipodi:role="line"
         x="509.17548"
         y="432.0199"
         id="tspan61">moja przyjaciółka,</tspan><tspan
         style="font-size:45px"
         sodipodi:role="line"
         x="509.17548"
         y="488.2699"
         id="tspan65">więc wszystko</tspan><tspan
         style="font-size:45px"
         sodipodi:role="line"
         x="509.17548"
         y="544.5199"
         id="tspan75">w porządku.</tspan></text>
    <text
       xml:space="preserve"
       style="font-style:normal;font-variant:normal;font-weight:normal;font-stretch:normal;font-size:45px;line-height:1.25;font-family:Lavi;-inkscape-font-specification:Lavi;text-align:center;letter-spacing:0px;word-spacing:0px;text-anchor:middle;fill:#000000;fill-opacity:1;stroke:none"
       x="908.10901"
       y="153.28517"
       id="text4246-3-2-2-6-3-7-9-3-3-5"><tspan
         style="font-size:45px"
         sodipodi:role="line"
         x="908.10901"
         y="153.28517"
         id="tspan79">Carrot, jes-</tspan><tspan
         style="font-size:45px"
         sodipodi:role="line"
         x="908.10901"
         y="209.53517"
         id="tspan83">teś cały?</tspan></text>
    <text
       xml:space="preserve"
       style="font-style:normal;font-variant:normal;font-weight:normal;font-stretch:normal;font-size:40px;line-height:1.25;font-family:Lavi;-inkscape-font-specification:Lavi;text-align:center;letter-spacing:0px;word-spacing:0px;text-anchor:middle;fill:#000000;fill-opacity:1;stroke:none"
       x="932.27014"
       y="324.07504"
       id="text4246-3-2-2-6-3-7-9-3-3-5-9"><tspan
         sodipodi:role="line"
         x="932.27014"
         y="324.07504"
         style="font-size:40px"
         id="tspan897">Wybacz to lądo-</tspan><tspan
         sodipodi:role="line"
         x="932.27014"
         y="374.07504"
         style="font-size:40px"
         id="tspan99">wanie, ale nie opa-</tspan><tspan
         sodipodi:role="line"
         x="932.27014"
         y="424.07504"
         style="font-size:40px"
         id="tspan101">nowałam jeszcze</tspan><tspan
         sodipodi:role="line"
         x="932.27014"
         y="474.07504"
         style="font-size:40px"
         id="tspan103">hiperprędkości.</tspan></text>
    <text
       xml:space="preserve"
       style="font-style:normal;font-variant:normal;font-weight:normal;font-stretch:normal;font-size:45px;line-height:1.25;font-family:Lavi;-inkscape-font-specification:Lavi;text-align:center;letter-spacing:0px;word-spacing:0px;text-anchor:middle;fill:#000000;fill-opacity:1;stroke:none"
       x="1743.7095"
       y="243.61711"
       id="text4246-3-2-2-6-3-7-9-3-3-5-9-2"><tspan
         style="font-size:45px"
         sodipodi:role="line"
         x="1743.7095"
         y="243.61711"
         id="tspan107">Przepraszam za mój strój</tspan></text>
    <text
       xml:space="preserve"
       style="font-style:normal;font-variant:normal;font-weight:normal;font-stretch:normal;font-size:45px;line-height:1.25;font-family:Lavi;-inkscape-font-specification:Lavi;text-align:center;letter-spacing:0px;word-spacing:0px;text-anchor:middle;fill:#000000;fill-opacity:1;stroke:none"
       x="2029.3783"
       y="372.00659"
       id="text4246-3-2-2-6-3-7-9-3-3-5-9-2-6"><tspan
         style="font-size:45px"
         sodipodi:role="line"
         x="2029.3783"
         y="372.00659"
         id="tspan8459">i za narobienie</tspan><tspan
         style="font-size:45px"
         sodipodi:role="line"
         x="2029.3783"
         y="428.25659"
         id="tspan113">bałaganu.</tspan></text>
    <text
       xml:space="preserve"
       style="font-style:normal;font-variant:normal;font-weight:normal;font-stretch:normal;font-size:45px;line-height:1.25;font-family:Lavi;-inkscape-font-specification:Lavi;text-align:center;letter-spacing:0px;word-spacing:0px;text-anchor:middle;fill:#000000;fill-opacity:1;stroke:none"
       x="775.13361"
       y="1861.3041"
       id="text4246-3-2-2-6-3-7-9-3-3-5-9-2-6-3"><tspan
         style="font-size:45px"
         sodipodi:role="line"
         x="775.13361"
         y="1861.3041"
         id="tspan8459-7">Hihihi.</tspan></text>
    <text
       xml:space="preserve"
       style="font-style:normal;font-variant:normal;font-weight:normal;font-stretch:normal;font-size:45px;line-height:1.25;font-family:Lavi;-inkscape-font-specification:Lavi;text-align:center;letter-spacing:0px;word-spacing:0px;text-anchor:middle;fill:#000000;fill-opacity:1;stroke:none"
       x="922.21698"
       y="2143.4609"
       id="text4246-3-2-2-6-3-7-9-3-3-5-9-2-6-1"><tspan
         style="font-size:45px"
         sodipodi:role="line"
         x="922.21698"
         y="2143.4609"
         id="tspan1077-7">Shichimi,</tspan></text>
    <text
       xml:space="preserve"
       style="font-style:normal;font-variant:normal;font-weight:normal;font-stretch:normal;font-size:45px;line-height:1.25;font-family:Lavi;-inkscape-font-specification:Lavi;text-align:center;letter-spacing:0px;word-spacing:0px;text-anchor:middle;fill:#000000;fill-opacity:1;stroke:none"
       x="1185.333"
       y="2244.4966"
       id="text4246-3-2-2-6-3-7-9-3-3-5-9-2-6-1-9"><tspan
         style="font-size:45px"
         x="1185.333"
         y="2244.4966"
         sodipodi:role="line"
         id="tspan1137">czy ta młoda wiedźma</tspan><tspan
         style="font-size:45px"
         x="1185.333"
         y="2300.7466"
         sodipodi:role="line"
         id="tspan125">naprawdę jest</tspan><tspan
         style="font-size:45px"
         x="1185.333"
         y="2356.9966"
         sodipodi:role="line"
         id="tspan127">twoją przyjaciółką?</tspan></text>
  </g>
</svg>
