<?xml version="1.0" encoding="UTF-8" standalone="no"?>
<svg
   xmlns:dc="http://purl.org/dc/elements/1.1/"
   xmlns:cc="http://creativecommons.org/ns#"
   xmlns:rdf="http://www.w3.org/1999/02/22-rdf-syntax-ns#"
   xmlns:svg="http://www.w3.org/2000/svg"
   xmlns="http://www.w3.org/2000/svg"
   xmlns:xlink="http://www.w3.org/1999/xlink"
   xmlns:sodipodi="http://sodipodi.sourceforge.net/DTD/sodipodi-0.dtd"
   xmlns:inkscape="http://www.inkscape.org/namespaces/inkscape"
   sodipodi:docname="E36P01.svg"
   height="3503"
   width="2481"
   inkscape:version="1.0 (4035a4fb49, 2020-05-01)"
   version="1.1"
   id="svg2">
  <metadata
     id="metadata8">
    <rdf:RDF>
      <cc:Work
         rdf:about="">
        <dc:format>image/svg+xml</dc:format>
        <dc:type
           rdf:resource="http://purl.org/dc/dcmitype/StillImage" />
      </cc:Work>
    </rdf:RDF>
  </metadata>
  <defs
     id="defs6" />
  <sodipodi:namedview
     inkscape:document-rotation="0"
     inkscape:snap-global="false"
     inkscape:pagecheckerboard="0"
     inkscape:current-layer="layer1"
     inkscape:window-maximized="1"
     inkscape:window-y="-8"
     inkscape:window-x="-8"
     inkscape:cy="2301.0418"
     inkscape:cx="1258.1631"
     inkscape:zoom="0.45"
     showgrid="false"
     id="namedview4"
     inkscape:window-height="715"
     inkscape:window-width="1366"
     inkscape:pageshadow="2"
     inkscape:pageopacity="0"
     guidetolerance="10"
     gridtolerance="10"
     objecttolerance="10"
     borderopacity="1"
     bordercolor="#111111"
     pagecolor="#1e1e1e" />
  <g
     sodipodi:insensitive="true"
     inkscape:label="artwork"
     id="layer2"
     inkscape:groupmode="layer">
    <image
       sodipodi:absref="D:\Pepper&amp;Carrot translation\ep36_the-suprise-attack\lang\gfx_Pepper-and-Carrot_by-David-Revoy_E36P01.png"
       xlink:href="../gfx_Pepper-and-Carrot_by-David-Revoy_E36P01.png"
       y="0"
       x="0"
       id="image10"
       height="3503"
       width="2481" />
  </g>
  <g
     style="display:inline"
     inkscape:label="speechbubbles"
     id="layer3"
     inkscape:groupmode="layer">
    <path
       sodipodi:nodetypes="cccccccccccccccccccccccccccc"
       inkscape:connector-curvature="0"
       id="path4508-2"
       d="m 987.88312,1847.5959 c 51.56268,18.6105 80.93368,11.0422 80.04858,-32.2181 24.6003,46.7485 41.6719,57.2039 51.7963,34.1707 32.5692,19.7977 52.9113,14.244 69.0618,0 6.0197,18.3191 16.2522,14.5249 44.6618,-5.7092 -5.2834,10.0936 -10.8288,34.4674 40.6942,3.7392 -23.7309,18.0948 -6.4549,18.4416 23.4526,6.2791 -9.8127,18.5144 27.4099,5.0828 59.1368,-21.8825 -22.7779,27.9112 -13.5961,31.7885 6.6785,19.9666 -9.2695,12.7207 -3.9917,20.4672 24.7131,4.4408 -12.0568,23.4798 0.6094,14.092 46.4208,-8.3845 -37.805,24.7902 -52.1531,44.7944 -24.4466,45.4838 -8.5727,2.1213 -28.4098,13.7517 37.6701,25.3834 -15.4647,1.1149 -44.2371,4.0323 -16.9236,14.3005 -16.4892,-3.3575 -23.8079,2.6484 -0.8557,12.4053 -16.5156,-1.5599 -35.6595,-5.5525 -9.892,9.7127 -28.9792,-0.5186 -24.6025,3.0634 -3.3267,15.9405 -41.9661,-16.5183 -38.4398,29.9177 -39.6821,36.5278 -52.596,-22.5203 -38.4928,-11.1813 -45.5927,-6.4906 -25.6367,0.1753 -52.719,-37.2176 -78.3557,-12.1028 -6.7139,-15.6207 -20.1743,-0.9052 -76.9096,10.1428 24.9111,-19.8729 -19.933,-2.2747 -47.075,5.913 14.8635,-24.8258 -9.5397,-22.5923 -57.3133,1.5612 26.7529,-27.4145 -7.545,-35.1285 -52.57,-15.6644 17.0116,-26.9322 -10.6938,-39.9566 -76.90978,-41.0047 31.13685,-10.5776 50.17464,-21.9399 17.26552,-43.9327 37.09799,6.4756 48.16396,0.4606 21.97426,-23.4313 40.4639,19.6102 22.0664,-8.8333 6.27842,-35.1466 z"
       style="display:inline;fill:#ffffff;fill-rule:evenodd;stroke:none;stroke-width:0.801567px;stroke-linecap:butt;stroke-linejoin:miter;stroke-opacity:1" />
    <path
       sodipodi:nodetypes="cccccccccccccccccccccccccccc"
       inkscape:connector-curvature="0"
       id="path4508-2-3"
       d="m 1432.9362,2114.8904 c -45.5141,-23.4966 -76.6565,-27.7732 -66.0351,18.5945 -44.4225,-45.4606 -50.6481,-27.1852 -59.6999,-2.5679 -39.4077,-35.4026 -56.5972,-15.2793 -65.1597,0.9011 -8.8697,-33.0962 -23.5324,-7.9644 -32.9745,2.0655 2.5291,-29.0753 -8.7419,-32.5903 -39.7368,-0.2189 6.0685,-12.9683 15.4009,-37.4137 -31.1427,-9.7537 9.1478,-27.1723 -21.1693,-8.8652 -46.9527,15.8288 14.2988,-33.0439 -5.2011,-25.6648 -24.0733,-12.8333 8.4694,-13.6435 28.4353,-34.8845 -13.4866,-18.3146 20.1026,-19.9519 0.4498,-15.6157 -37.0009,4.5607 31.1114,-26.0237 58.9136,-45.8162 16.9023,-41.5316 5.7095,-7.8931 26.5058,-14.9892 -36.09335,-26.492 11.53065,-5.4625 47.22335,1.7931 17.12225,-20.2423 -4.025,-2.5689 9.2376,-4.3551 -16.27827,-10.9136 14.98827,0.2635 24.14027,-1.5433 10.13267,-11.5589 27.3534,0.1732 16.9038,-10.418 -3.45,-23.8292 39.9541,17.0119 35.3069,-15.5887 36.3354,-22.6318 50.1138,23.2536 56.2262,8.6143 62.8229,3.5354 24.1843,-0.5209 47.4518,20.1123 71.094,-6.9201 6.6743,16.5178 20.5576,19.9472 73.847,7.4626 -23.0716,21.4505 22.0533,6.7566 47.4837,-2.3012 -13.4839,26.5846 17.2738,20.3789 61.8229,-5.9202 -24.6453,29.4915 45.4969,13.4561 67.297,4.6815 -2.6735,11.908 -21.6438,51.6778 40.8536,51.9281 -29.691,10.74 -39.775,20.8825 -8.2471,43.8322 -35.1427,-6.3998 -45.4527,0.1388 -20.2235,25.195 -50.8898,-12.0114 -30.607,16.4256 -5.1593,37.4439 z"
       style="display:inline;fill:#ffffff;fill-rule:evenodd;stroke:none;stroke-width:0.802868px;stroke-linecap:butt;stroke-linejoin:miter;stroke-opacity:1" />
    <path
       sodipodi:nodetypes="ccsccscsc"
       inkscape:connector-curvature="0"
       id="path891"
       d="m 795.85859,2075.6026 c 68.17018,-19.9402 107.76468,-24.6985 129.19825,-26.9041 -9.4626,14.6823 -10.93703,18.8605 -3.60753,19.5618 12.56737,1.2024 323.02739,-38.3324 323.02739,-38.3324 l -134.9102,-3.9965 c 0,0 -88.3447,16.493 -115.60557,20.8649 -27.26123,4.3719 -53.63946,7.3565 -53.63946,7.3565 0,0 11.08456,-17.0097 8.79652,-16.5151 -9.73596,2.1047 -32.55208,-8.0957 -153.2594,37.9649 z"
       style="fill:#ffffff;fill-rule:evenodd;stroke:none;stroke-width:1.01927px;stroke-linecap:butt;stroke-linejoin:miter;stroke-opacity:1" />
    <path
       sodipodi:nodetypes="ccccccccccccccccccccccccc"
       inkscape:connector-curvature="0"
       id="path4289-9"
       d="m 979.71978,2534.7909 c 42.22242,20.9019 64.04122,37.2683 1.9824,22.7172 31.03392,13.197 22.72032,15.2302 -5.27791,18.617 24.68783,8.8489 60.30643,28.3574 9.54691,34.8422 73.19982,5.8044 34.05912,22.5276 -4.18108,34.7115 111.7109,-13.9857 99.3653,1.7211 74.5832,17.7276 55.4263,-20.0613 58.0089,-14.1076 32.9047,12.6095 36.1115,-19.3105 45.7548,-24.8985 45.0621,-2.5918 22.3342,-18.459 51.4467,-29.9238 73.052,-8.6847 29.1447,-30.5296 61.7744,-3.9066 86.5649,6.6768 6.0815,-22.6849 28.8742,-28.581 69.75,-6.0865 4.1293,-13.7128 38.66,-13.3286 68.2636,6.301 -37.037,-38.5581 27.5865,-3.8427 38.3628,-1.5609 -17.5665,-19.8406 23.3031,-23.2421 96.5369,-6.2612 -52.5466,-18.5238 -42.638,-27.1657 3.1916,-35.0075 -44.1113,-8.639 -54.5941,-29.2099 17.9904,-30.0885 -90.8042,-13.1137 -23.5124,-33.7842 18.7505,-46.2275 -79.4356,7.3909 -144.0337,10.9028 -102.3682,-16.7232 -90.9373,17.8702 -74.4446,7.9288 -62.8498,-0.7448 -60.7357,21.7351 -62.0435,1.6295 -60.3573,-4.6144 -81.591,23.6394 -129.4695,7.8835 -147.7457,-9.7133 -21.4273,24.7391 -61.8865,12.923 -86.7978,0.4497 13.0153,23.2608 -13.2487,21.4229 -39.6487,11.8426 6.4955,15.6357 -18.2153,29.1449 -61.1543,7.1181 14.2748,10.9129 12.7926,26.8974 -66.16122,-5.3089 z"
       style="display:inline;fill:#ffffff;fill-rule:evenodd;stroke:none;stroke-width:1.08905px;stroke-linecap:butt;stroke-linejoin:miter;stroke-opacity:1" />
    <path
       sodipodi:nodetypes="cccccccc"
       inkscape:connector-curvature="0"
       id="path4667"
       d="m 839.35758,2683.1542 126.85528,-18.3923 -13.09351,-16.3937 103.27445,-9.3803 -13.3725,-26.4414 -117.98262,26.0585 15.22178,19.3955 z"
       style="display:inline;fill:#ffffff;fill-rule:evenodd;stroke:none;stroke-width:1px;stroke-linecap:butt;stroke-linejoin:miter;stroke-opacity:1" />
  </g>
  <g
     style="display:inline"
     inkscape:label="txt"
     id="layer1"
     inkscape:groupmode="layer">
    <text
       transform="skewX(-7.1285625)"
       id="text4246-3-2-2-6-3-7-9-3-3-56-9-3-20-3-3-2"
       y="1934.3174"
       x="1435.8097"
       style="font-style:normal;font-variant:normal;font-weight:normal;font-stretch:normal;font-size:45px;line-height:1.25;font-family:'Xiaolai SC';-inkscape-font-specification:'Xiaolai SC';text-align:center;letter-spacing:0px;word-spacing:0px;text-anchor:middle;fill:#000000;fill-opacity:1;stroke:none;stroke-width:0.818387;"
       xml:space="preserve"><tspan
         id="tspan146"
         y="1934.3174"
         x="1435.8097"
         sodipodi:role="line"
         style="font-style:normal;font-variant:normal;font-weight:normal;font-stretch:normal;font-size:45px;font-family:'Xiaolai SC';-inkscape-font-specification:'Xiaolai SC';stroke-width:0.818387;">道歉？</tspan></text>
    <text
       inkscape:label="pepperB"
       xml:space="preserve"
       style="font-style:normal;font-variant:normal;font-weight:normal;font-stretch:normal;line-height:0%;font-family:'Xiaolai SC';-inkscape-font-specification:'Xiaolai SC';text-align:center;letter-spacing:0px;word-spacing:0px;text-anchor:middle;fill:#000000;fill-opacity:1;stroke:none"
       x="1249.918"
       y="2054.1226"
       id="text4246-4-2-7"><tspan
         id="tspan36806"
         sodipodi:role="line"
         style="font-style:normal;font-variant:normal;font-weight:normal;font-stretch:normal;font-size:45px;line-height:1.25;font-family:'Xiaolai SC';-inkscape-font-specification:'Xiaolai SC'"
         x="1249.918"
         y="2054.1226">你想耍谁？！</tspan></text>
    <text
       transform="skewX(-7.1285625)"
       id="text4246-3-2-2-6-3-7-9-3-3-56-9-3-20-3-3-2-7"
       y="2614.2153"
       x="1618.9462"
       style="font-style:normal;font-variant:normal;font-weight:normal;font-stretch:normal;font-size:45px;line-height:1.25;font-family:'Xiaolai SC';-inkscape-font-specification:'Xiaolai SC';text-align:center;letter-spacing:0px;word-spacing:0px;text-anchor:middle;fill:#000000;fill-opacity:1;stroke:none;stroke-width:0.818387"
       xml:space="preserve"><tspan
         id="tspan29437"
         y="2614.2153"
         x="1618.9462"
         sodipodi:role="line"
         style="font-style:normal;font-variant:normal;font-weight:normal;font-stretch:normal;font-size:45px;font-family:'Xiaolai SC';-inkscape-font-specification:'Xiaolai SC';stroke-width:0.818387">立刻把她给我打入大牢！</tspan></text>
  </g>
</svg>
