<?xml version="1.0" encoding="UTF-8" standalone="no"?>
<svg
   xmlns:dc="http://purl.org/dc/elements/1.1/"
   xmlns:cc="http://creativecommons.org/ns#"
   xmlns:rdf="http://www.w3.org/1999/02/22-rdf-syntax-ns#"
   xmlns:svg="http://www.w3.org/2000/svg"
   xmlns="http://www.w3.org/2000/svg"
   xmlns:xlink="http://www.w3.org/1999/xlink"
   xmlns:sodipodi="http://sodipodi.sourceforge.net/DTD/sodipodi-0.dtd"
   xmlns:inkscape="http://www.inkscape.org/namespaces/inkscape"
   id="svg2"
   version="1.1"
   inkscape:version="1.0.2 (e86c870879, 2021-01-15)"
   width="2481"
   height="3503"
   sodipodi:docname="E35P11.svg">
  <metadata
     id="metadata8">
    <rdf:RDF>
      <cc:Work
         rdf:about="">
        <dc:format>image/svg+xml</dc:format>
        <dc:type
           rdf:resource="http://purl.org/dc/dcmitype/StillImage" />
        <dc:title />
      </cc:Work>
    </rdf:RDF>
  </metadata>
  <defs
     id="defs6">
    <filter
       style="color-interpolation-filters:sRGB"
       id="filter4375-4-1-1-1-9-3-2-3-8-7-6-4-9"
       inkscape:label="deevad outline effect"
       x="-0.002101149"
       y="-0.0071745174"
       width="1.0042023"
       height="1.014349">
      <feFlood
         id="feFlood4377-7-9-0-8-1-6-9-6-7-5-32-7-4"
         flood-opacity="1"
         flood-color="rgb(95,141,211)"
         result="flood" />
      <feComposite
         id="feComposite4379-3-8-8-2-77-7-1-0-9-9-0-6-8"
         in2="SourceGraphic"
         in="flood"
         operator="in"
         result="composite1" />
      <feMorphology
         id="feMorphology4393-1-0-49-8-9-5-2-6-2-2-6-5-1"
         operator="dilate"
         radius="4"
         result="result3" />
      <feComposite
         id="feComposite4385-9-5-7-0-8-3-7-2-0-2-1-6-2"
         in2="result3"
         in="SourceGraphic"
         operator="over"
         result="composite2" />
    </filter>
  </defs>
  <sodipodi:namedview
     pagecolor="#ffffff"
     bordercolor="#666666"
     borderopacity="1"
     objecttolerance="10"
     gridtolerance="10"
     guidetolerance="10"
     inkscape:pageopacity="0"
     inkscape:pageshadow="2"
     inkscape:window-width="1920"
     inkscape:window-height="967"
     id="namedview4"
     showgrid="false"
     inkscape:zoom="1.4142136"
     inkscape:cx="1011.6977"
     inkscape:cy="1802.4194"
     inkscape:window-x="0"
     inkscape:window-y="72"
     inkscape:window-maximized="1"
     inkscape:current-layer="layer3"
     inkscape:document-rotation="0"
     inkscape:snap-global="false"
     inkscape:pagecheckerboard="0"
     showguides="true" />
  <g
     inkscape:groupmode="layer"
     id="layer2"
     inkscape:label="artwork"
     sodipodi:insensitive="true">
    <image
       sodipodi:absref="/felles/omsetting/pepper-carrot/webcomics/ep35_The-Reflection/lang/gfx_Pepper-and-Carrot_by-David-Revoy_E35P11.png"
       xlink:href="../gfx_Pepper-and-Carrot_by-David-Revoy_E35P11.png"
       y="0"
       x="0"
       id="image10"
       height="3503"
       width="2481" />
  </g>
  <g
     inkscape:groupmode="layer"
     id="layer3"
     inkscape:label="speechbubbles">
    <path
       style="color:#000000;display:inline;overflow:visible;visibility:visible;fill:#ffffff;fill-opacity:1;fill-rule:nonzero;stroke:none;stroke-width:1.05826px;marker:none;enable-background:accumulate"
       d="m 756.3179,1516.6704 c 23.82013,-24.9106 230.04257,-35.5556 284.6657,7.541 45.5928,35.9724 27.8042,122.5341 -12.7438,141.6334 -40.54752,19.099 -175.4345,13.6696 -234.55241,3.2265 -56.28844,-9.9423 -65.74021,-36.2614 -68.509,-88.8787 -1.13004,-21.4761 7.31922,-38.612 31.13951,-63.5222 z"
       id="path4040-4-9-2"
       inkscape:connector-curvature="0"
       sodipodi:nodetypes="zssssz" />
    <path
       style="color:#000000;display:inline;overflow:visible;visibility:visible;fill:#ffffff;fill-opacity:1;fill-rule:nonzero;stroke:none;stroke-width:1.36564px;marker:none;enable-background:accumulate"
       d="m 658.15202,349.44239 c 33.46845,54.26318 16.77932,109.75225 -42.25383,148.97796 101.91057,-50.70471 112.5118,-145.0271 95.84592,-167.01491 -16.31806,-21.52888 -53.59209,18.03695 -53.59209,18.03695 z"
       id="path5010-4"
       inkscape:connector-curvature="0"
       sodipodi:nodetypes="ccsc" />
    <path
       style="display:inline;fill:#ffffff;stroke:none;stroke-width:0.593809"
       d="m 1201.9634,57.299 c -40.6661,0.291165 -82.0533,5.226017 -119.5094,20.596138 -20.4968,9.035479 -37.4629,26.398282 -41.9213,47.340992 -4.2942,20.62219 -2.7196,42.19634 3.7765,62.27217 7.7625,18.83833 25.0402,33.143 44.4194,41.62797 28.5262,13.35548 60.5982,18.26676 92.1898,20.41751 42.836,3.26547 85.942,6.45676 128.9015,3.28382 32.8815,-2.53403 65.8365,-10.51405 93.9293,-26.93945 16.0805,-9.57802 31.1231,-21.8084 39.7707,-37.87408 7.2959,-13.08567 8.9957,-28.38022 6.6423,-42.81545 -2.8738,-17.3016 -12.6332,-33.4704 -26.9933,-44.85659 -17.1919,-14.191543 -39.2061,-21.85208 -60.9594,-27.88553 -29.5972,-7.963814 -60.351,-11.472072 -91.0155,-13.544453 -23.0427,-1.406949 -46.1447,-1.66886 -69.2306,-1.623047 z"
       id="path3280-8-1"
       inkscape:connector-curvature="0"
       sodipodi:nodetypes="csssc" />
    <path
       style="color:#000000;display:inline;overflow:visible;visibility:visible;fill:#ffffff;fill-opacity:1;fill-rule:nonzero;stroke:none;stroke-width:0.76832px;marker:none;enable-background:accumulate"
       d="m 1967.6564,80.050227 c -31.1197,0.531341 -63.1073,8.587576 -88.7532,29.033773 -21.3758,17.21193 -39.2757,41.33588 -46.4862,69.99282 -4.0083,17.04694 -5.334,34.9826 -3.5188,52.50466 3.0892,27.59713 15.5066,53.27078 32.6205,73.21828 14.2683,16.60503 32.5744,28.91984 52.5913,34.61188 48.5889,16.13845 99.2266,23.44753 149.7723,25.9442 48.0412,1.98811 96.7869,-1.96311 142.9801,-17.56059 30.3019,-11.57657 58.9008,-31.90477 77.1427,-61.79312 14.8676,-25.34185 19.2018,-56.48986 18.3089,-86.27947 -0.5856,-28.0376 -7.4841,-57.14799 -24.5055,-78.47848 -16.1152,-19.77609 -39.8384,-29.906998 -63.3321,-32.214568 -58.0196,-9.945813 -116.8836,-6.640796 -175.3439,-8.345927 -23.8241,-0.353858 -47.6491,-0.79378 -71.4761,-0.633458 z"
       id="path4546-6-7"
       inkscape:connector-curvature="0"
       sodipodi:nodetypes="cscssssc" />
    <path
       style="color:#000000;display:inline;overflow:visible;visibility:visible;fill:#ffffff;fill-opacity:1;fill-rule:nonzero;stroke:none;stroke-width:0.98582px;marker:none;enable-background:accumulate"
       d="m 615.20996,1392.2962 c 30.53956,-25.3329 294.93563,-39.6345 364.96722,2.4936 58.45432,35.164 35.64742,122.0411 -16.33852,141.8593 -51.98569,19.818 -224.92308,16.7802 -300.71763,7.3854 -72.16686,-8.9443 -84.28492,-35.0958 -87.83475,-87.6639 -1.44881,-21.4561 9.38389,-38.7418 39.92368,-64.0744 z"
       id="path4040-4-9"
       inkscape:connector-curvature="0"
       sodipodi:nodetypes="zssssz" />
    <path
       style="fill:#ffffff;fill-rule:evenodd;stroke:none;stroke-width:0.952457px;stroke-linecap:butt;stroke-linejoin:miter;stroke-opacity:1"
       d="m 1093.8801,1613.3789 c -30.6821,0.9015 -61.3362,3.2419 -91.9645,5.9674 -17.87028,0.5939 -30.71405,6.7181 -62.45325,31.2426 -32.72719,21.6216 -37.73925,77.4402 -41.3879,119.4075 -3.13031,36.0052 5.12855,87.1444 17.29599,107.0347 18.4614,21.3543 36.21488,28.0529 62.15112,33.2217 22.37813,5.4057 44.99254,8.3179 67.57904,11.1041 37.6377,3.681 75.4003,4.4432 113.1028,2.8859 31.7128,-1.4368 63.4216,-4.5934 94.8733,-10.8181 16.7168,-3.9284 33.7658,-10.147 47.7974,-24.6553 13.6362,-14.4426 17.4826,-24.1351 21.0084,-48.1093 7.0806,-51.9045 4.2857,-95.4792 -5.1275,-133.4845 -5.0489,-19.6001 -13.2081,-44.2509 -27.159,-55.2831 -48.5892,-32.5617 -107.5648,-35.4315 -154.6745,-37.2706 -13.6741,-0.751 -27.3555,-1.4182 -41.0414,-1.243 z"
       id="path1079"
       inkscape:connector-curvature="0"
       sodipodi:nodetypes="cccaccccccccccc" />
    <path
       style="color:#000000;display:inline;overflow:visible;visibility:visible;fill:#ffffff;fill-opacity:1;fill-rule:nonzero;stroke:none;stroke-width:0.939237px;marker:none;enable-background:accumulate"
       d="m 1412.4379,1791.3918 c -45.9909,-29.4273 -78.0349,-27.5278 -104.8526,-18.0354 -25.7868,9.1275 -19.8278,10.3608 -19.8278,10.3608 l 10.5667,-48.0852 c -3.1179,-4.3789 71.5596,-1.8389 114.1137,55.7598 z"
       id="path3072-12"
       inkscape:connector-curvature="0"
       sodipodi:nodetypes="csccc" />
    <path
       style="display:inline;fill:#ffffff;stroke:none;stroke-width:0.91209"
       d="m 1365.3538,189.49646 c -55.4383,0.72918 -111.549,6.72974 -163.2424,23.76215 -42.3773,15.96473 -62.8822,11.80941 -74.7606,48.91864 -7.7265,25.64904 -9.2836,65.98081 -8.8528,92.19382 10.7443,54.1673 28.0326,104.19583 75.1221,135.28789 44.4139,16.21889 106.0937,16.91293 154.5476,18.10239 36.4126,0.67485 72.8271,-0.38586 109.2299,-0.97227 45.191,-1.20844 90.6993,-3.11781 134.9046,-11.40838 51.3843,-19.10287 69.4242,-29.4075 86.5758,-80.64013 8.6952,-27.62031 19.3027,-61.4375 22.8109,-114.63054 -6.8271,-87.74032 -56.5087,-75.16694 -128.0921,-93.86829 -51.2189,-11.72608 -104.6314,-14.73043 -157.5592,-16.34165 -16.8898,-0.40525 -33.7881,-0.43704 -50.6838,-0.40363 z"
       id="path3280-8-1-3"
       inkscape:connector-curvature="0"
       sodipodi:nodetypes="csscccccccccc" />
    <path
       style="display:inline;fill:#ffffff;stroke:none;stroke-width:0.986136"
       d="m 2013.8516,260.18808 c -58.2287,0.60945 -117.4901,10.93867 -171.1225,43.11016 -29.3487,18.91233 -53.642,55.25474 -60.026,99.09032 -6.1486,43.1647 -3.8941,88.32198 5.4076,130.34306 11.1149,39.43087 35.8544,69.37223 63.6028,87.13229 40.8459,27.9546 86.769,38.23449 132.0043,42.73628 61.3359,6.835 123.0581,13.51474 184.5707,6.87341 47.0823,-5.30403 94.2697,-22.00715 134.495,-56.38746 23.0253,-20.04793 44.5645,-45.64759 56.9466,-79.27495 10.4469,-27.38986 12.8809,-59.40317 9.5111,-89.61784 -4.1149,-36.21428 -18.0892,-70.05753 -38.6511,-93.89017 -24.6166,-29.70459 -56.1382,-45.73898 -87.2862,-58.36773 -42.3795,-16.66921 -86.415,-24.01241 -130.3227,-28.35017 -32.9944,-2.94491 -66.0734,-3.49312 -99.1296,-3.3972 z"
       id="path3280-8-1-1"
       inkscape:connector-curvature="0"
       sodipodi:nodetypes="csssc" />
    <path
       style="display:inline;fill:#ffffff;stroke:none;stroke-width:0.74427"
       d="m 2026.3987,531.04296 c -40.1926,0.25144 -80.837,8.60286 -118.0753,30.0665 -10.1446,5.7673 -19.9033,12.99478 -28.3793,22.67188 -21.0498,23.30262 -35.8986,57.67239 -39.0041,94.82635 -3.8818,36.36969 1.114,75.65348 17.4403,105.38075 17.2004,31.52805 42.7144,52.72564 69.5945,65.06882 29.0224,14.36906 59.9856,18.75597 90.609,20.69703 46.3172,5.2201 92.9372,4.07039 139.2042,-1.54445 21.6363,-2.61359 43.4965,-6.31334 63.9122,-17.06046 21.5556,-11.20228 40.8853,-30.47225 55.4309,-55.05668 12.346,-21.0195 21.1108,-46.63548 22.6834,-73.8006 3.2201,-47.3921 -11.5814,-97.17482 -39.6305,-125.63514 -24.1319,-25.37699 -53.6118,-38.37288 -82.7946,-47.96149 -49.4204,-15.80069 -100.4714,-17.89218 -150.9907,-17.65251 z"
       id="path3280-8-1-1-8"
       inkscape:connector-curvature="0"
       sodipodi:nodetypes="csssc" />
    <path
       style="fill:#ffffff;fill-rule:evenodd;stroke:none;stroke-width:1px;stroke-linecap:butt;stroke-linejoin:miter;stroke-opacity:1"
       d="m 1919.1509,701.69879 c -35.1448,34.55495 -40.918,43.76621 -48.2945,59.20991 -7.3765,15.44359 -1.4166,45.82505 15.3336,59.77726 16.7502,13.95231 20.6476,39.75145 6.4656,51.09426 -14.1819,11.34295 -70.6572,56.04997 -12.3413,98.68519 -52.1304,-50.93005 4.6214,-80.3316 15.046,-87.77901 10.4245,-7.44749 30.9525,-25.50425 13.4446,-59.50485 -17.5082,-34.00062 -21.7713,-50.818 31.7495,-83.72489 53.5207,-32.90685 -21.4035,-37.75787 -21.4035,-37.75787 z"
       id="path1081"
       inkscape:connector-curvature="0"
       sodipodi:nodetypes="ccccccssc" />
    <path
       style="color:#000000;display:inline;overflow:visible;visibility:visible;fill:#ffffff;fill-opacity:1;fill-rule:nonzero;stroke:none;stroke-width:1.4638px;marker:none;enable-background:accumulate"
       d="m 1446.9857,482.25247 c 38.5518,83.9689 2.5856,139.06018 -54.1917,168.09629 98.918,-30.2652 116.1188,-134.92733 86.7076,-167.77583 -23.1309,-25.83416 -32.5159,-0.32046 -32.5159,-0.32046 z"
       id="path5010-4-3"
       inkscape:connector-curvature="0"
       sodipodi:nodetypes="ccsc" />
    <path
       style="color:#000000;display:inline;overflow:visible;visibility:visible;fill:#ffffff;fill-opacity:1;fill-rule:nonzero;stroke:none;stroke-width:0.861506px;marker:none;enable-background:accumulate"
       d="m 1708.7725,2344.6889 c 0.1246,-105.6475 -1.7691,-81.2211 139.6046,-79.1966 61.3635,0.8787 134.1804,10.6222 128.3487,157.3952 -4.6097,116.0161 -116.8558,110.3132 -137.7196,113.5955 -20.7318,3.2615 -105.3147,-16.6744 -123.7041,-62.3724 -11.5114,-28.6062 -7.2035,-101.383 -6.5296,-129.4217 z"
       id="path4546-6-59"
       inkscape:connector-curvature="0"
       sodipodi:nodetypes="cssssc" />
    <path
       style="fill:#ffffff;stroke:none;stroke-width:1.40498"
       d="m 729.65699,74.333356 c -48.62092,2.668914 -96.21895,13.325427 -144.20594,20.666346 -30.25196,5.395698 -60.41703,14.957218 -85.47952,32.795518 -15.86819,11.41507 -28.21877,27.63985 -33.94872,46.10794 -9.1808,26.03487 -9.55731,54.33718 -4.92026,81.28489 3.70118,19.87434 11.80956,39.6015 26.49758,54.20751 14.61071,14.7964 32.85364,25.99795 52.56784,33.13456 17.02209,6.78478 34.88052,11.46385 53.03466,14.26628 40.53966,6.80118 81.79014,8.5471 122.86443,8.1698 42.00338,-0.67245 83.95125,-5.331 124.97251,-14.19419 20.45453,-4.13342 41.08417,-10.05246 58.30972,-21.97881 19.00335,-12.98829 34.09,-31.41078 42.83087,-52.37319 3.81898,-9.28252 5.68548,-19.23212 6.03669,-29.20698 0.71379,-12.81939 0.78653,-25.66336 1.0591,-38.4958 C 949.37903,169.9705 945.96696,131.15137 938.00277,93.166278 935.0238,90.18008 930.36615,91.541121 926.66595,90.355903 861.40477,81.26533 795.67098,74.093161 729.65699,74.333356 Z"
       id="path3100-2"
       inkscape:connector-curvature="0"
       sodipodi:nodetypes="cccccccccccccc" />
    <path
       style="display:inline;fill:#ffffff;fill-rule:evenodd;stroke:none;stroke-width:1.14884px;stroke-linecap:butt;stroke-linejoin:miter;stroke-opacity:1"
       d="m 1876.2442,2473.0319 c 29.6781,34.3855 -48.3918,61.0872 -32.7914,98.1006 6.1219,14.5249 50.1858,21.814 59.4409,88.3499 -23.107,-54.5774 -70.7535,-56.808 -83.5614,-79.4341 -24.3256,-42.971 15.5983,-74.4437 22.7675,-83.4264 9.5884,-12.0136 34.1444,-23.59 34.1444,-23.59 z"
       id="path4186-80"
       inkscape:connector-curvature="0"
       sodipodi:nodetypes="cscssc" />
    <path
       style="color:#000000;display:inline;overflow:visible;visibility:visible;fill:#ffffff;fill-opacity:1;fill-rule:nonzero;stroke:none;stroke-width:0.472467px;marker:none;enable-background:accumulate"
       d="m 204.65528,2053.5532 c 18.13913,-23.7283 175.17869,-38.0733 216.77437,0.9226 34.71926,32.5493 21.17298,113.6094 -9.70436,132.2802 -30.87723,18.6708 -133.59436,16.5036 -178.61296,8.0384 -42.86394,-8.0593 -50.0615,-32.3869 -52.16993,-81.3684 -0.86057,-19.9922 5.57359,-36.1446 23.71288,-59.8728 z"
       id="path4040-4-9-3"
       inkscape:connector-curvature="0"
       sodipodi:nodetypes="zssssz" />
    <path
       style="color:#000000;display:inline;overflow:visible;visibility:visible;fill:#ffffff;fill-opacity:1;fill-rule:nonzero;stroke:none;stroke-width:0.816531px;marker:none;enable-background:accumulate"
       d="m 354.85596,2060.579 c 35.58146,-4.2267 52.48817,-58.2989 28.13393,-95.1145 44.43236,49.6051 29.57055,64.2564 4.74971,120.5184 -6.58837,14.934 -32.88364,-25.4039 -32.88364,-25.4039 z"
       id="path5010-4-5"
       inkscape:connector-curvature="0"
       sodipodi:nodetypes="ccsc" />
  </g>
  <g
     inkscape:groupmode="layer"
     id="layer1"
     inkscape:label="txt">
    <text
       xml:space="preserve"
       style="font-style:normal;font-variant:normal;font-weight:normal;font-stretch:normal;font-size:45px;line-height:1.25;font-family:Lavi;-inkscape-font-specification:Lavi;text-align:center;letter-spacing:0px;word-spacing:0px;text-anchor:middle;fill:#000000;fill-opacity:1;stroke:none"
       x="703.94141"
       y="183.30602"
       id="text4246-3-2-2"><tspan
         style="font-size:45px"
         sodipodi:role="line"
         x="703.94141"
         y="183.30602"
         id="tspan908">Takk for at du</tspan><tspan
         style="font-size:45px"
         sodipodi:role="line"
         x="703.94141"
         y="239.55602"
         id="tspan9168">lét Gulrot henta</tspan><tspan
         style="font-size:45px"
         sodipodi:role="line"
         x="703.94141"
         y="295.80603"
         id="tspan9170">reine klede til meg.</tspan></text>
    <text
       xml:space="preserve"
       style="font-style:normal;font-variant:normal;font-weight:normal;font-stretch:normal;font-size:45px;line-height:1.25;font-family:Lavi;-inkscape-font-specification:Lavi;text-align:center;letter-spacing:0px;word-spacing:0px;text-anchor:middle;fill:#000000;fill-opacity:1;stroke:none"
       x="1248.7378"
       y="179.79465"
       id="text4246-3-2-2-3-3-3"><tspan
         style="font-size:45px"
         sodipodi:role="line"
         x="1248.7378"
         y="179.79465"
         id="tspan876-3">Berre hyggjeleg.</tspan></text>
    <text
       xml:space="preserve"
       style="font-style:normal;font-variant:normal;font-weight:normal;font-stretch:normal;font-size:45px;line-height:1.25;font-family:Lavi;-inkscape-font-specification:Lavi;text-align:center;letter-spacing:0px;word-spacing:0px;text-anchor:middle;fill:#000000;fill-opacity:1;stroke:none"
       x="1403.865"
       y="288.4176"
       id="text4246-3-2-2-3-3"><tspan
         style="font-size:45px"
         sodipodi:role="line"
         x="1403.865"
         y="288.4176"
         id="tspan9194">Du gjorde arbeidet vårt</tspan><tspan
         style="font-size:45px"
         sodipodi:role="line"
         x="1403.865"
         y="344.6676"
         id="tspan9190">lettare, så det minste</tspan><tspan
         style="font-size:45px"
         sodipodi:role="line"
         x="1403.865"
         y="400.9176"
         id="tspan9192">eg kunne gjera, var å</tspan><tspan
         style="font-size:45px"
         sodipodi:role="line"
         x="1403.865"
         y="457.1676"
         id="tspan9206">gjengjelda tenesta.</tspan></text>
    <text
       xml:space="preserve"
       style="font-style:normal;font-variant:normal;font-weight:normal;font-stretch:normal;font-size:45px;line-height:1.25;font-family:Lavi;-inkscape-font-specification:Lavi;text-align:center;letter-spacing:0px;word-spacing:0px;text-anchor:middle;fill:#000000;fill-opacity:1;stroke:none"
       x="2065.856"
       y="160.92047"
       id="text4246-3-2-2-3-3-67"><tspan
         style="font-size:45px"
         sodipodi:role="line"
         x="2065.856"
         y="160.92047"
         id="tspan9212">Men du veit at</tspan><tspan
         style="font-size:45px"
         sodipodi:role="line"
         x="2065.856"
         y="217.17047"
         id="tspan907">Wasabi er skikkeleg</tspan><tspan
         style="font-size:45px"
         sodipodi:role="line"
         x="2065.856"
         y="273.42047"
         id="tspan910">sur på deg?</tspan></text>
    <text
       xml:space="preserve"
       style="font-style:normal;font-variant:normal;font-weight:normal;font-stretch:normal;font-size:45px;line-height:1.25;font-family:Lavi;-inkscape-font-specification:Lavi;text-align:center;letter-spacing:0px;word-spacing:0px;text-anchor:middle;fill:#000000;fill-opacity:1;stroke:none"
       x="2069.8462"
       y="348.36508"
       id="text4246-3-2-2-3-3-67-2"><tspan
         style="font-size:45px"
         sodipodi:role="line"
         x="2069.8462"
         y="348.36508"
         id="tspan912">Ho krev at alt er</tspan><tspan
         style="font-size:45px"
         sodipodi:role="line"
         x="2069.8462"
         y="404.61508"
         id="tspan9228">perfekt. Du øydela ved</tspan><tspan
         style="font-size:45px"
         sodipodi:role="line"
         x="2069.8462"
         y="460.86508"
         id="tspan9232">å vera upassande kledd,</tspan><tspan
         style="font-size:45px"
         sodipodi:role="line"
         x="2069.8462"
         y="517.11511"
         id="tspan9234">vera skiten og ved å</tspan><tspan
         style="font-size:45px"
         sodipodi:role="line"
         x="2069.8462"
         y="573.36511"
         id="tspan9236">forstyrra seremonien.</tspan></text>
    <text
       xml:space="preserve"
       style="font-style:normal;font-variant:normal;font-weight:normal;font-stretch:normal;font-size:45px;line-height:1.25;font-family:Lavi;-inkscape-font-specification:Lavi;text-align:center;letter-spacing:0px;word-spacing:0px;text-anchor:middle;fill:#000000;fill-opacity:1;stroke:none"
       x="2067.0227"
       y="656.01355"
       id="text4246-3-2-2-3-3-67-2-3"><tspan
         style="font-size:45px"
         sodipodi:role="line"
         x="2067.0227"
         y="656.01355"
         id="tspan1134">Og du gjekk til</tspan><tspan
         style="font-size:45px"
         sodipodi:role="line"
         x="2067.0227"
         y="712.26355"
         id="tspan9243">åtak på henne!</tspan><tspan
         style="font-size:45px"
         sodipodi:role="line"
         x="2067.0227"
         y="768.51355"
         id="tspan906">Ho kjem ikkje til</tspan><tspan
         style="font-size:45px"
         sodipodi:role="line"
         x="2067.0227"
         y="824.76355"
         id="tspan913">å vera nådig.</tspan></text>
    <text
       xml:space="preserve"
       style="font-style:normal;font-variant:normal;font-weight:normal;font-stretch:normal;font-size:45px;line-height:1.25;font-family:Lavi;-inkscape-font-specification:Lavi;text-align:center;letter-spacing:0px;word-spacing:0px;text-anchor:middle;fill:#000000;fill-opacity:1;stroke:none"
       x="310.55188"
       y="2105.2473"
       id="text4246-3-2-2-3-3-6-67"><tspan
         style="font-size:45px"
         sodipodi:role="line"
         x="310.55188"
         y="2105.2473"
         id="tspan1191-3">Eg er klar</tspan><tspan
         style="font-size:45px"
         sodipodi:role="line"
         x="310.55188"
         y="2161.4973"
         id="tspan9247">over det.</tspan></text>
    <text
       xml:space="preserve"
       style="font-style:normal;font-variant:normal;font-weight:normal;font-stretch:normal;font-size:45px;line-height:1.25;font-family:Lavi;-inkscape-font-specification:Lavi;text-align:center;letter-spacing:0px;word-spacing:0px;text-anchor:middle;fill:#000000;fill-opacity:1;stroke:none"
       x="797.52832"
       y="1440.3682"
       id="text4246-3-2-2-3-3-6"><tspan
         style="font-size:45px"
         sodipodi:role="line"
         x="797.52832"
         y="1440.3682"
         id="tspan909">Men no treng</tspan><tspan
         style="font-size:45px"
         sodipodi:role="line"
         x="797.52832"
         y="1496.6182"
         id="tspan9251">eg ein liten blund.</tspan></text>
    <text
       xml:space="preserve"
       style="font-style:normal;font-variant:normal;font-weight:normal;font-stretch:normal;font-size:45px;line-height:1.25;font-family:Lavi;-inkscape-font-specification:Lavi;text-align:center;letter-spacing:0px;word-spacing:0px;text-anchor:middle;fill:#000000;fill-opacity:1;stroke:none"
       x="899.08191"
       y="1572.6494"
       id="text4246-3-2-2-3-3-6-6"><tspan
         style="font-size:45px"
         sodipodi:role="line"
         x="899.08191"
         y="1572.6494"
         id="tspan949">Me dreg når</tspan><tspan
         style="font-size:45px"
         sodipodi:role="line"
         x="899.08191"
         y="1628.8994"
         id="tspan9255">eg vaknar.</tspan></text>
    <text
       xml:space="preserve"
       style="font-style:normal;font-variant:normal;font-weight:normal;font-stretch:normal;font-size:45px;line-height:1.25;font-family:Lavi;-inkscape-font-specification:Lavi;text-align:center;letter-spacing:0px;word-spacing:0px;text-anchor:middle;fill:#000000;fill-opacity:1;stroke:none"
       x="1112.4678"
       y="1700.0747"
       id="text4246-3-2-2-3-3-6-2"><tspan
         style="font-size:45px"
         sodipodi:role="line"
         x="1112.4678"
         y="1700.0747"
         id="tspan958">Gjer som du vil</tspan><tspan
         style="font-size:45px"
         sodipodi:role="line"
         x="1112.4678"
         y="1756.3247"
         id="tspan9267">i mellomtida,</tspan><tspan
         style="font-size:45px"
         sodipodi:role="line"
         x="1112.4678"
         y="1812.5747"
         id="tspan9269">men hald deg</tspan><tspan
         style="font-size:45px"
         sodipodi:role="line"
         x="1112.4678"
         y="1868.8247"
         id="tspan2089">i nærleiken ...</tspan></text>
    <text
       xml:space="preserve"
       style="font-style:normal;font-variant:normal;font-weight:normal;font-stretch:normal;line-height:0%;font-family:Lavi;-inkscape-font-specification:Lavi;letter-spacing:0px;word-spacing:0px;display:inline;fill:#ffffff;fill-opacity:1;stroke:#5f8dd3;stroke-width:0.992362;stroke-miterlimit:4;stroke-dasharray:none;stroke-opacity:1;filter:url(#filter4375-4-1-1-1-9-3-2-3-8-7-6-4-9)"
       x="787.65729"
       y="1584.5073"
       id="text4580-5-0-6-2-8-5-9-9"
       transform="matrix(0.71138619,-0.38856964,0.42362052,1.0933045,-1095.3818,1936.127)"><tspan
         sodipodi:role="line"
         id="tspan4582-6-9-1-3-9-5-3-3"
         x="787.65729"
         y="1584.5073"
         style="font-size:70px;line-height:1.25;fill:#ffffff;stroke:#5f8dd3">Splasj</tspan></text>
    <text
       xml:space="preserve"
       style="font-style:normal;font-variant:normal;font-weight:normal;font-stretch:normal;font-size:45px;line-height:1.25;font-family:Lavi;-inkscape-font-specification:Lavi;text-align:center;letter-spacing:0px;word-spacing:0px;text-anchor:middle;fill:#000000;fill-opacity:1;stroke:none"
       x="1843.1752"
       y="2361.3564"
       id="text4246-3-2-2-3-3-6-2-9"><tspan
         style="font-size:45px"
         sodipodi:role="line"
         x="1843.1752"
         y="2361.3564"
         id="tspan1080">For ei</tspan><tspan
         style="font-size:45px"
         sodipodi:role="line"
         x="1843.1752"
         y="2417.6064"
         id="tspan9284">merkeleg</tspan><tspan
         style="font-size:45px"
         sodipodi:role="line"
         x="1843.1752"
         y="2473.8564"
         id="tspan901">heks.</tspan></text>
    <text
       xml:space="preserve"
       style="font-size:40px;line-height:1.25;font-family:sans-serif;letter-spacing:0px"
       x="741.44183"
       y="196.70906"
       id="text9157"><tspan
         sodipodi:role="line"
         id="tspan9155"
         x="741.44183"
         y="196.70906" /></text>
  </g>
</svg>
