<?xml version="1.0" encoding="UTF-8" standalone="no"?>
<svg
   xmlns:dc="http://purl.org/dc/elements/1.1/"
   xmlns:cc="http://creativecommons.org/ns#"
   xmlns:rdf="http://www.w3.org/1999/02/22-rdf-syntax-ns#"
   xmlns:svg="http://www.w3.org/2000/svg"
   xmlns="http://www.w3.org/2000/svg"
   xmlns:xlink="http://www.w3.org/1999/xlink"
   xmlns:sodipodi="http://sodipodi.sourceforge.net/DTD/sodipodi-0.dtd"
   xmlns:inkscape="http://www.inkscape.org/namespaces/inkscape"
   id="svg2"
   version="1.1"
   inkscape:version="1.0.2 (e86c870879, 2021-01-15)"
   width="2481"
   height="3503"
   sodipodi:docname="E35P09.svg">
  <metadata
     id="metadata8">
    <rdf:RDF>
      <cc:Work
         rdf:about="">
        <dc:format>image/svg+xml</dc:format>
        <dc:type
           rdf:resource="http://purl.org/dc/dcmitype/StillImage" />
        <dc:title />
      </cc:Work>
    </rdf:RDF>
  </metadata>
  <defs
     id="defs6">
    <filter
       style="color-interpolation-filters:sRGB"
       id="filter4375-4-1-1-1-9-5-8-8-5-5-3-3"
       inkscape:label="soundFX1"
       x="-0.024097853"
       y="-0.0012978443"
       width="1.024925"
       height="1.0039616">
      <feFlood
         id="feFlood4377-7-9-0-8-1-7-3-1-2-7-6-6"
         flood-opacity="1"
         flood-color="rgb(52,52,52)"
         result="flood" />
      <feComposite
         id="feComposite4379-3-8-8-2-77-4-1-0-6-4-7-7"
         in2="SourceGraphic"
         in="flood"
         operator="in"
         result="composite1"
         baseFrequency="0.053999999999999999 0.053999999999999999" />
      <feMorphology
         id="feMorphology4393-1-0-49-8-9-3-0-1-9-9-5-5"
         operator="dilate"
         radius="4.0330969769021738"
         result="result3" />
      <feComposite
         id="feComposite4385-9-5-7-0-8-8-7-5-4-9-3-3"
         in2="result3"
         in="SourceGraphic"
         operator="over"
         result="fbSourceGraphic" />
      <feColorMatrix
         result="fbSourceGraphicAlpha"
         in="fbSourceGraphic"
         values="0 0 0 -1 0 0 0 0 -1 0 0 0 0 -1 0 0 0 0 1 0"
         id="feColorMatrix4544-9-4-4-5-5" />
      <feTurbulence
         id="feTurbulence4546-3-6-5-6-6"
         type="fractalNoise"
         numOctaves="4"
         seed="147"
         baseFrequency="0.053999999999999999 0.054054054054054057"
         result="turbulence" />
      <feDisplacementMap
         id="feDisplacementMap4548-8-0-9-2-2"
         in2="turbulence"
         in="fbSourceGraphic"
         scale="10.561763"
         yChannelSelector="G"
         xChannelSelector="R"
         result="fbSourceGraphic" />
      <feColorMatrix
         result="fbSourceGraphicAlpha"
         in="fbSourceGraphic"
         values="0 0 0 -1 0 0 0 0 -1 0 0 0 0 -1 0 0 0 0 1 0"
         id="feColorMatrix4670-7-7-3-9-9" />
      <feFlood
         id="feFlood4672-4-4-5-1-1"
         flood-opacity="1"
         flood-color="rgb(28,28,28)"
         result="flood"
         in="fbSourceGraphic" />
      <feComposite
         id="feComposite4674-8-3-7-2-2"
         in2="fbSourceGraphic"
         in="flood"
         operator="in"
         result="composite1" />
      <feGaussianBlur
         id="feGaussianBlur4676-3-7-08-7-7"
         in="composite1"
         stdDeviation="0"
         result="blur" />
      <feOffset
         id="feOffset4678-6-9-1-0-0"
         dx="-10.48377497279229"
         dy="0.39217365321829334"
         result="offset" />
      <feComposite
         id="feComposite4680-4-0-9-9-9"
         in2="offset"
         in="fbSourceGraphic"
         operator="over"
         result="composite2" />
    </filter>
  </defs>
  <sodipodi:namedview
     pagecolor="#ffffff"
     bordercolor="#666666"
     borderopacity="1"
     objecttolerance="10"
     gridtolerance="10"
     guidetolerance="10"
     inkscape:pageopacity="0"
     inkscape:pageshadow="2"
     inkscape:window-width="1920"
     inkscape:window-height="967"
     id="namedview4"
     showgrid="false"
     inkscape:zoom="0.3478261"
     inkscape:cx="1049.1373"
     inkscape:cy="3027.8808"
     inkscape:window-x="0"
     inkscape:window-y="72"
     inkscape:window-maximized="1"
     inkscape:current-layer="layer1"
     inkscape:document-rotation="0"
     inkscape:snap-global="false"
     inkscape:pagecheckerboard="0" />
  <g
     inkscape:groupmode="layer"
     id="layer2"
     inkscape:label="artwork"
     sodipodi:insensitive="true">
    <image
       sodipodi:absref="/felles/omsetting/pepper-carrot/webcomics/new-ep35_The-Reflection/lang/gfx_Pepper-and-Carrot_by-David-Revoy_E35P09.png"
       xlink:href="../gfx_Pepper-and-Carrot_by-David-Revoy_E35P09.png"
       width="2481"
       height="3503"
       id="image10"
       x="0"
       y="0" />
  </g>
  <g
     inkscape:groupmode="layer"
     id="layer3"
     inkscape:label="speechbubbles">
    <path
       style="display:inline;fill:#ffffff;fill-rule:evenodd;stroke:none;stroke-width:1.24552px;stroke-linecap:butt;stroke-linejoin:miter;stroke-opacity:1"
       d="m 264.60832,814.38125 c 52.56158,13.12958 56.43965,24.23792 9.55365,33.23954 50.40253,4.09246 41.6694,10.95001 19.14257,18.45118 74.40977,40.40127 65.07355,71.34297 53.76766,102.06212 62.60931,-19.49539 70.05734,2.16338 69.75602,23.34222 18.00479,-29.97327 40.48805,-13.89562 38.90524,12.16329 18.63639,-30.19616 44.59029,-45.70038 46.61354,-15.55465 23.26057,-24.27406 22.47902,-34.33732 48.11892,-27.43044 37.08831,-30.04752 62.9841,4.07493 92.49712,17.45682 3.14477,-30.18086 22.98464,-32.90467 48.1473,-26.87305 8.02522,-13.38319 12.08636,-32.15342 47.50295,-8.30877 1.06647,-24.77738 19.75892,-9.03127 33.03512,-5.73833 -18.11138,-12.31681 6.8915,-18.57917 81.4868,-17.87959 -29.84593,-4.55937 -47.40691,-27.77411 5.28499,-50.78848 -72.60631,14.49855 -48.21455,-2.82895 -29.00015,-21.02165 -53.96818,-19.52935 -10.79797,-47.15383 8.13427,-72.75806 -54.12258,16.01187 -123.43486,20.72347 -102.86528,-15.48361 -68.32757,34.4931 -60.65502,18.35889 -56.44768,4.53281 -38.73142,37.48512 -42.66173,8.08614 -56.95553,-1.39584 -117.66565,52.74884 -122.51448,10.54099 -153.75608,-9.45209 0.31231,48.85578 -30.51072,32.96535 -61.46258,16.80787 10.04539,40.36146 -8.74724,30.15787 -26.93692,21.01189 1.87657,17.65047 -12.68221,24.2572 -49.40042,15.97278 27.57019,11.94797 13.06998,15.87107 -65.12151,7.64404 z"
       id="path4289-9-2"
       inkscape:connector-curvature="0"
       sodipodi:nodetypes="cccccccccccccccccccccccc" />
    <path
       style="display:inline;fill:#ffffff;fill-rule:evenodd;stroke:none;stroke-width:0.988989px;stroke-linecap:butt;stroke-linejoin:miter;stroke-opacity:1"
       d="M 963.27671,1015.5732 C 855.1456,974.16786 728.54706,920.87912 712.01736,938.41898 l -4.63952,-34.71076 c 24.01825,-8.63206 180.13442,72.14698 255.89887,111.86498 z"
       id="path1881"
       sodipodi:nodetypes="cccc" />
    <text
       xml:space="preserve"
       style="font-style:normal;font-variant:normal;font-weight:normal;font-stretch:normal;font-size:145.675px;line-height:1.25;font-family:Lavi;-inkscape-font-specification:Lavi;letter-spacing:0px;word-spacing:0px;fill:#ffffff;fill-opacity:1;stroke:#ffffff;stroke-width:0.74524;stroke-miterlimit:4;stroke-dasharray:none;stroke-opacity:1;filter:url(#filter4375-4-1-1-1-9-5-8-8-5-5-3-3)"
       id="text4580-6-0-0-0-9-3-3"
       transform="matrix(0.6234491,0.267428,-0.65521393,1.0449346,2153.6335,-849.35717)"
       x="662.92181"
       y="1440.271"
       inkscape:transform-center-x="-7.7973551"
       inkscape:transform-center-y="-49.154777"><tspan
         style="font-size:145.675px;fill:#ffffff;fill-opacity:1;stroke:#ffffff;stroke-width:0.74524;stroke-miterlimit:4;stroke-dasharray:none;stroke-opacity:1"
         id="tspan876-6-6"
         rotate="0 0 0 0 0 0 0 0"><tspan
           id="tspan2853"
           style="font-size:117.986px;stroke-width:0.74524"
           dy="0 20 25 30 35 15 40">Svoosj!</tspan></tspan><textPath
         xlink:href="#path974"
         id="textPath2837"
         style="stroke-width:0.74524" /></text>
    <path
       style="display:inline;fill:#ffffff;fill-rule:evenodd;stroke:none;stroke-width:1.06911px;stroke-linecap:butt;stroke-linejoin:miter;stroke-opacity:1"
       d="m 896.77906,1439.2436 c -159.43664,66.9875 -150.38694,53.477 -118.62346,-6.7083 -109.6637,73.5338 -113.30078,45.1566 -96.30402,11.2337 -71.96347,55.5085 -103.72697,44.0667 -112.58697,0.501 -0.43853,60.0755 -34.14827,36.5031 -49.01509,18.5262 -4.49248,17.7624 -27.97656,49.4199 -68.6286,1.6263 0.35738,15.5998 22.3955,52.6797 -61.42192,-3.2956 21.06349,61.8104 -53.16489,-2.0197 -94.8244,-47.758 26.0411,56.3436 15.3399,64.3665 -17.77929,42.9062 15.18323,23.1829 24.27692,41.1415 -33.25857,1.9318 19.788,42.8276 -8.32164,37.7067 -70.38181,-8.1234 41.67119,45.4561 95.60549,91.0196 34.76807,76.0908 10.18282,13.3867 46.39261,24.9284 -61.26758,46.6678 20.13901,9.0258 81.49615,-4.5672 30.39815,34.2524 -6.84805,4.5415 16.13298,7.1945 -27.6741,19.2695 25.87893,-0.9246 41.76033,1.8931 17.97226,19.5478 47.24026,-1.1581 29.62096,17.3741 -4.9909,41.0642 68.32151,-30.4953 145.73741,-56.5875 97.30997,-12.375 85.61651,-41.543 94.71447,-11.6282 79.3322,8.0231 51.32443,-33.5285 83.40414,-28.4331 125.33976,17.2841 10.85701,-28.5992 32.73291,-50.6738 125.28696,-30.8923 -40.72311,-36.1421 17.12269,-13.2574 61.41646,1.5106 -24.37097,-45.2675 37.21558,-15.7616 115.23404,28.0382 -43.76842,-49.9127 6.22951,-55.0587 79.74089,-19.8097 -38.80302,-52.8124 -63.61899,-64.2289 124.9374,-15.4973 -159.29904,-49.5198 -125.59848,-82.126 -28.59033,-117.1536 -98.86834,-1.9385 -106.6736,-9.0992 -35.95542,-42.6669 -139.02551,8.8918 -54.92534,-23.0227 -10.4337,-64.1936 z"
       id="path4508-2"
       inkscape:connector-curvature="0"
       sodipodi:nodetypes="cccccccccccccccccccccccccccc" />
    <path
       style="fill:#ffffff;fill-rule:evenodd;stroke:none;stroke-width:0.999998px;stroke-linecap:butt;stroke-linejoin:miter;stroke-opacity:1"
       d="m 1011.4424,1754.302 -82.47962,-69.3619 -21.73828,-20.9157 -3.89619,33.8993 c -113.19185,-60.793 -107.41261,-104.6482 -123.16199,-63.0392 -19.42613,51.3227 45.72551,35.5105 135.52361,93.9205 4.43214,-8.2819 5.06237,-18.0952 6.91438,-27.2171 z"
       id="path1111-3-3"
       inkscape:connector-curvature="0"
       sodipodi:nodetypes="ccccsccc" />
  </g>
  <g
     inkscape:groupmode="layer"
     id="layer1"
     inkscape:label="txt">
    <text
       xml:space="preserve"
       style="font-style:normal;font-variant:normal;font-weight:normal;font-stretch:normal;font-size:64.9135px;line-height:1.25;font-family:Lavi;-inkscape-font-specification:Lavi;text-align:center;letter-spacing:0px;word-spacing:0px;text-anchor:middle;fill:#ffffff;fill-opacity:1;stroke:none;stroke-width:1.44252"
       x="320.06284"
       y="306.20593"
       id="text4246-3-2-2"
       transform="scale(0.96891818,1.0320789)"><tspan
         style="font-style:normal;font-variant:normal;font-weight:bold;font-stretch:normal;font-size:64.9135px;font-family:Lavi;-inkscape-font-specification:'Lavi Bold';fill:#ffffff;stroke-width:1.44252"
         sodipodi:role="line"
         x="320.06284"
         y="306.20593"
         id="tspan915">NEI!</tspan><tspan
         style="font-style:normal;font-variant:normal;font-weight:bold;font-stretch:normal;font-size:64.9135px;font-family:Lavi;-inkscape-font-specification:'Lavi Bold';fill:#ffffff;stroke-width:1.44252"
         sodipodi:role="line"
         x="320.06284"
         y="387.34781"
         id="tspan905" /></text>
    <text
       xml:space="preserve"
       style="font-style:normal;font-variant:normal;font-weight:normal;font-stretch:normal;font-size:45px;line-height:1.25;font-family:Lavi;-inkscape-font-specification:Lavi;text-align:center;letter-spacing:0px;word-spacing:0px;text-anchor:middle;fill:#ffffff;fill-opacity:1;stroke:none"
       x="2086.762"
       y="299.48114"
       id="text4246-3-2-2-3"><tspan
         style="font-style:normal;font-variant:normal;font-weight:bold;font-stretch:normal;font-size:45px;font-family:Lavi;-inkscape-font-specification:'Lavi Bold';fill:#ffffff"
         sodipodi:role="line"
         x="2086.762"
         y="299.48114"
         id="tspan906">Det er</tspan><tspan
         style="font-style:normal;font-variant:normal;font-weight:bold;font-stretch:normal;font-size:45px;font-family:Lavi;-inkscape-font-specification:'Lavi Bold';fill:#ffffff"
         sodipodi:role="line"
         x="2086.762"
         y="355.73114"
         id="tspan1035">ikkje slik</tspan><tspan
         style="font-style:normal;font-variant:normal;font-weight:bold;font-stretch:normal;font-size:45px;font-family:Lavi;-inkscape-font-specification:'Lavi Bold';fill:#ffffff"
         sodipodi:role="line"
         x="2086.762"
         y="411.98114"
         id="tspan1037">eg er!</tspan></text>
    <text
       xml:space="preserve"
       style="font-style:normal;font-variant:normal;font-weight:normal;font-stretch:normal;font-size:68.846px;line-height:1.25;font-family:Lavi;-inkscape-font-specification:Lavi;text-align:center;letter-spacing:0px;word-spacing:0px;text-anchor:middle;fill:#000000;fill-opacity:1;stroke:none;stroke-width:0.956195"
       x="529.71887"
       y="934.64813"
       id="text4246-3-2-2-3-5"
       transform="matrix(0.94807211,-0.14186484,0.0807397,1.0426906,0,0)"><tspan
         sodipodi:role="line"
         x="529.71887"
         y="934.64813"
         id="tspan906-6"
         style="font-style:normal;font-variant:normal;font-weight:bold;font-stretch:normal;font-size:68.846px;font-family:Lavi;-inkscape-font-specification:'Lavi Bold';stroke-width:0.956195">STOOOPP!!!</tspan></text>
    <text
       xml:space="preserve"
       style="font-style:normal;font-variant:normal;font-weight:normal;font-stretch:normal;font-size:56.8892px;line-height:1.25;font-family:Lavi;-inkscape-font-specification:Lavi;text-align:center;letter-spacing:0px;word-spacing:0px;text-anchor:middle;fill:#000000;fill-opacity:1;stroke:none;stroke-width:1.20164"
       x="537.74585"
       y="1590.6526"
       id="text4246-3-2-2-3-1"><tspan
         style="font-style:normal;font-variant:normal;font-weight:bold;font-stretch:normal;font-size:56.8892px;font-family:Lavi;-inkscape-font-specification:'Lavi Bold';stroke-width:1.20164"
         sodipodi:role="line"
         x="537.74585"
         y="1590.6526"
         id="tspan1006">EG OVERGJEV MEG!</tspan></text>
  </g>
</svg>
