<?xml version="1.0" encoding="UTF-8" standalone="no"?>
<!-- Created With Inkscape (http://www.inkscape.org/) -->

<svg
   xmlns:dc="http://purl.org/dc/elements/1.1/"
   xmlns:cc="http://creativecommons.org/ns#"
   xmlns:rdf="http://www.w3.org/1999/02/22-rdf-syntax-ns#"
   xmlns:svg="http://www.w3.org/2000/svg"
   xmlns="http://www.w3.org/2000/svg"
   xmlns:xlink="http://www.w3.org/1999/xlink"
   xmlns:sodipodi="http://sodipodi.sourceforge.net/DTD/sodipodi-0.dtd"
   xmlns:inkscape="http://www.inkscape.org/namespaces/inkscape"
   id="svg2"
   version="1.1"
   inkscape:version="0.92.5 (2060ec1f9f, 2020-04-08)"
   width="2646.3999"
   height="3736.5334"
   sodipodi:docname="E06P04.svg"
   viewBox="0 0 2481 3503">
  <metadata
     id="metadata8">
    <rdf:RDF>
      <cc:Work
         rdf:about="">
        <dc:format>image/svg+xml</dc:format>
        <dc:type
           rdf:resource="http://purl.org/dc/dcmitype/StillImage" />
        <dc:title />
      </cc:Work>
    </rdf:RDF>
  </metadata>
  <defs
     id="defs6">
    <filter
       id="filter4375-4"
       inkscape:label="deevad outline effect"
       style="color-interpolation-filters:sRGB">
      <feFlood
         id="feFlood4377-7"
         flood-opacity="1"
         flood-color="rgb(0,0,0)"
         result="flood" />
      <feComposite
         id="feComposite4379-3"
         in2="SourceGraphic"
         in="flood"
         operator="in"
         result="composite1" />
      <feMorphology
         id="feMorphology4393-1"
         operator="dilate"
         radius="4"
         result="result3" />
      <feComposite
         id="feComposite4385-9"
         in2="result3"
         in="SourceGraphic"
         operator="over"
         result="composite2" />
    </filter>
    <filter
       id="filter4375-4-1"
       inkscape:label="deevad outline effect"
       style="color-interpolation-filters:sRGB">
      <feFlood
         id="feFlood4377-7-9"
         flood-opacity="1"
         flood-color="rgb(0,0,0)"
         result="flood" />
      <feComposite
         id="feComposite4379-3-8"
         in2="SourceGraphic"
         in="flood"
         operator="in"
         result="composite1" />
      <feMorphology
         id="feMorphology4393-1-0"
         operator="dilate"
         radius="4"
         result="result3" />
      <feComposite
         id="feComposite4385-9-5"
         in2="result3"
         in="SourceGraphic"
         operator="over"
         result="composite2" />
    </filter>
    <filter
       id="filter4375-4-1-4"
       inkscape:label="deevad outline effect"
       style="color-interpolation-filters:sRGB">
      <feFlood
         id="feFlood4377-7-9-7"
         flood-opacity="1"
         flood-color="rgb(0,0,0)"
         result="flood" />
      <feComposite
         id="feComposite4379-3-8-1"
         in2="SourceGraphic"
         in="flood"
         operator="in"
         result="composite1" />
      <feMorphology
         id="feMorphology4393-1-0-6"
         operator="dilate"
         radius="4"
         result="result3" />
      <feComposite
         id="feComposite4385-9-5-9"
         in2="result3"
         in="SourceGraphic"
         operator="over"
         result="composite2" />
    </filter>
    <filter
       id="filter4375-4-1-7"
       inkscape:label="deevad outline effect"
       style="color-interpolation-filters:sRGB">
      <feFlood
         id="feFlood4377-7-9-2"
         flood-opacity="1"
         flood-color="rgb(0,0,0)"
         result="flood" />
      <feComposite
         id="feComposite4379-3-8-5"
         in2="SourceGraphic"
         in="flood"
         operator="in"
         result="composite1" />
      <feMorphology
         id="feMorphology4393-1-0-4"
         operator="dilate"
         radius="4"
         result="result3" />
      <feComposite
         id="feComposite4385-9-5-2"
         in2="result3"
         in="SourceGraphic"
         operator="over"
         result="composite2" />
    </filter>
    <filter
       id="filter4375-4-1-1"
       inkscape:label="deevad outline effect"
       style="color-interpolation-filters:sRGB">
      <feFlood
         id="feFlood4377-7-9-0"
         flood-opacity="1"
         flood-color="rgb(0,0,0)"
         result="flood" />
      <feComposite
         id="feComposite4379-3-8-8"
         in2="SourceGraphic"
         in="flood"
         operator="in"
         result="composite1" />
      <feMorphology
         id="feMorphology4393-1-0-49"
         operator="dilate"
         radius="4"
         result="result3" />
      <feComposite
         id="feComposite4385-9-5-7"
         in2="result3"
         in="SourceGraphic"
         operator="over"
         result="composite2" />
    </filter>
    <filter
       id="filter4375-4-1-40"
       inkscape:label="deevad outline effect"
       style="color-interpolation-filters:sRGB">
      <feFlood
         id="feFlood4377-7-9-5"
         flood-opacity="1"
         flood-color="rgb(0,0,0)"
         result="flood" />
      <feComposite
         id="feComposite4379-3-8-7"
         in2="SourceGraphic"
         in="flood"
         operator="in"
         result="composite1" />
      <feMorphology
         id="feMorphology4393-1-0-7"
         operator="dilate"
         radius="4"
         result="result3" />
      <feComposite
         id="feComposite4385-9-5-5"
         in2="result3"
         in="SourceGraphic"
         operator="over"
         result="composite2" />
    </filter>
    <filter
       id="filter4375-4-1-40-7"
       inkscape:label="deevad outline effect"
       style="color-interpolation-filters:sRGB">
      <feFlood
         id="feFlood4377-7-9-5-6"
         flood-opacity="1"
         flood-color="rgb(0,0,0)"
         result="flood" />
      <feComposite
         id="feComposite4379-3-8-7-8"
         in2="SourceGraphic"
         in="flood"
         operator="in"
         result="composite1" />
      <feMorphology
         id="feMorphology4393-1-0-7-9"
         operator="dilate"
         radius="4"
         result="result3" />
      <feComposite
         id="feComposite4385-9-5-5-3"
         in2="result3"
         in="SourceGraphic"
         operator="over"
         result="composite2" />
    </filter>
    <filter
       id="filter4375-4-1-1-1"
       inkscape:label="deevad outline effect"
       style="color-interpolation-filters:sRGB">
      <feFlood
         id="feFlood4377-7-9-0-8"
         flood-opacity="1"
         flood-color="rgb(0,0,0)"
         result="flood" />
      <feComposite
         id="feComposite4379-3-8-8-2"
         in2="SourceGraphic"
         in="flood"
         operator="in"
         result="composite1" />
      <feMorphology
         id="feMorphology4393-1-0-49-8"
         operator="dilate"
         radius="4"
         result="result3" />
      <feComposite
         id="feComposite4385-9-5-7-0"
         in2="result3"
         in="SourceGraphic"
         operator="over"
         result="composite2" />
    </filter>
    <filter
       id="filter4375-4-1-7-8"
       inkscape:label="deevad outline effect"
       style="color-interpolation-filters:sRGB">
      <feFlood
         id="feFlood4377-7-9-2-5"
         flood-opacity="1"
         flood-color="rgb(0,0,0)"
         result="flood" />
      <feComposite
         id="feComposite4379-3-8-5-8"
         in2="SourceGraphic"
         in="flood"
         operator="in"
         result="composite1" />
      <feMorphology
         id="feMorphology4393-1-0-4-9"
         operator="dilate"
         radius="4"
         result="result3" />
      <feComposite
         id="feComposite4385-9-5-2-2"
         in2="result3"
         in="SourceGraphic"
         operator="over"
         result="composite2" />
    </filter>
    <filter
       id="filter4375-4-1-7-3"
       inkscape:label="deevad outline effect"
       style="color-interpolation-filters:sRGB">
      <feFlood
         id="feFlood4377-7-9-2-4"
         flood-opacity="1"
         flood-color="rgb(0,0,0)"
         result="flood" />
      <feComposite
         id="feComposite4379-3-8-5-4"
         in2="SourceGraphic"
         in="flood"
         operator="in"
         result="composite1" />
      <feMorphology
         id="feMorphology4393-1-0-4-5"
         operator="dilate"
         radius="4"
         result="result3" />
      <feComposite
         id="feComposite4385-9-5-2-1"
         in2="result3"
         in="SourceGraphic"
         operator="over"
         result="composite2" />
    </filter>
    <filter
       id="filter4375-4-1-7-3-3"
       inkscape:label="deevad outline effect"
       style="color-interpolation-filters:sRGB">
      <feFlood
         id="feFlood4377-7-9-2-4-4"
         flood-opacity="1"
         flood-color="rgb(0,0,0)"
         result="flood" />
      <feComposite
         id="feComposite4379-3-8-5-4-7"
         in2="SourceGraphic"
         in="flood"
         operator="in"
         result="composite1" />
      <feMorphology
         id="feMorphology4393-1-0-4-5-4"
         operator="dilate"
         radius="4"
         result="result3" />
      <feComposite
         id="feComposite4385-9-5-2-1-3"
         in2="result3"
         in="SourceGraphic"
         operator="over"
         result="composite2" />
    </filter>
    <filter
       id="filter4375-4-1-7-3-7"
       inkscape:label="deevad outline effect"
       style="color-interpolation-filters:sRGB">
      <feFlood
         id="feFlood4377-7-9-2-4-1"
         flood-opacity="1"
         flood-color="rgb(0,0,0)"
         result="flood" />
      <feComposite
         id="feComposite4379-3-8-5-4-75"
         in2="SourceGraphic"
         in="flood"
         operator="in"
         result="composite1" />
      <feMorphology
         id="feMorphology4393-1-0-4-5-8"
         operator="dilate"
         radius="4"
         result="result3" />
      <feComposite
         id="feComposite4385-9-5-2-1-5"
         in2="result3"
         in="SourceGraphic"
         operator="over"
         result="composite2" />
    </filter>
    <filter
       id="filter4375-4-1-1-1-1"
       inkscape:label="deevad outline effect"
       style="color-interpolation-filters:sRGB">
      <feFlood
         id="feFlood4377-7-9-0-8-5"
         flood-opacity="1"
         flood-color="rgb(0,0,0)"
         result="flood" />
      <feComposite
         id="feComposite4379-3-8-8-2-7"
         in2="SourceGraphic"
         in="flood"
         operator="in"
         result="composite1" />
      <feMorphology
         id="feMorphology4393-1-0-49-8-7"
         operator="dilate"
         radius="4"
         result="result3" />
      <feComposite
         id="feComposite4385-9-5-7-0-3"
         in2="result3"
         in="SourceGraphic"
         operator="over"
         result="composite2" />
    </filter>
    <filter
       id="filter4375-4-1-1-1-8"
       inkscape:label="deevad outline effect"
       style="color-interpolation-filters:sRGB">
      <feFlood
         id="feFlood4377-7-9-0-8-4"
         flood-opacity="1"
         flood-color="rgb(0,0,0)"
         result="flood" />
      <feComposite
         id="feComposite4379-3-8-8-2-6"
         in2="SourceGraphic"
         in="flood"
         operator="in"
         result="composite1" />
      <feMorphology
         id="feMorphology4393-1-0-49-8-2"
         operator="dilate"
         radius="4"
         result="result3" />
      <feComposite
         id="feComposite4385-9-5-7-0-33"
         in2="result3"
         in="SourceGraphic"
         operator="over"
         result="composite2" />
    </filter>
    <filter
       id="filter4375-4-1-1-7"
       inkscape:label="deevad outline effect"
       style="color-interpolation-filters:sRGB">
      <feFlood
         id="feFlood4377-7-9-0-6"
         flood-opacity="1"
         flood-color="rgb(0,0,0)"
         result="flood" />
      <feComposite
         id="feComposite4379-3-8-8-6"
         in2="SourceGraphic"
         in="flood"
         operator="in"
         result="composite1" />
      <feMorphology
         id="feMorphology4393-1-0-49-4"
         operator="dilate"
         radius="4"
         result="result3" />
      <feComposite
         id="feComposite4385-9-5-7-4"
         in2="result3"
         in="SourceGraphic"
         operator="over"
         result="composite2" />
    </filter>
    <filter
       id="filter4375-4-1-1-7-3"
       inkscape:label="deevad outline effect"
       style="color-interpolation-filters:sRGB">
      <feFlood
         id="feFlood4377-7-9-0-6-8"
         flood-opacity="1"
         flood-color="rgb(0,0,0)"
         result="flood" />
      <feComposite
         id="feComposite4379-3-8-8-6-8"
         in2="SourceGraphic"
         in="flood"
         operator="in"
         result="composite1" />
      <feMorphology
         id="feMorphology4393-1-0-49-4-0"
         operator="dilate"
         radius="4"
         result="result3" />
      <feComposite
         id="feComposite4385-9-5-7-4-7"
         in2="result3"
         in="SourceGraphic"
         operator="over"
         result="composite2" />
    </filter>
  </defs>
  <sodipodi:namedview
     pagecolor="#ffffff"
     bordercolor="#666666"
     borderopacity="1"
     objecttolerance="10"
     gridtolerance="10"
     guidetolerance="10"
     inkscape:pageopacity="0"
     inkscape:pageshadow="2"
     inkscape:window-width="1866"
     inkscape:window-height="1016"
     id="namedview4"
     showgrid="false"
     inkscape:zoom="0.40000002"
     inkscape:cx="1527.4164"
     inkscape:cy="331.27621"
     inkscape:window-x="54"
     inkscape:window-y="27"
     inkscape:window-maximized="1"
     inkscape:current-layer="layer1"
     showguides="true"
     inkscape:guide-bbox="true">
    <sodipodi:guide
       orientation="0,1"
       position="262.49999,3074.9998"
       id="guide3937"
       inkscape:locked="false" />
  </sodipodi:namedview>
  <g
     inkscape:groupmode="layer"
     id="layer2"
     inkscape:label="artwork"
     sodipodi:insensitive="true"
     style="display:inline">
    <image
       sodipodi:absref="/home/user/lojban/webcomics/ep06_The-Potion-Contest/lang/jb/../gfx_Pepper-and-Carrot_by-David-Revoy_E06P04.png"
       xlink:href="../gfx_Pepper-and-Carrot_by-David-Revoy_E06P04.png"
       width="2481"
       height="3503"
       id="image10"
       x="0"
       y="0" />
  </g>
  <g
     inkscape:groupmode="layer"
     id="layer3"
     inkscape:label="speechbubbles" />
  <g
     inkscape:groupmode="layer"
     id="layer1"
     inkscape:label="txt">
    <flowRoot
       xml:space="preserve"
       id="flowRoot2987-7-9-9-7-0-3-4-1-8"
       style="font-style:normal;font-variant:normal;font-weight:normal;font-stretch:normal;line-height:0.01%;font-family:Lavi;-inkscape-font-specification:Lavi;letter-spacing:0px;word-spacing:0px;fill:#000000;fill-opacity:1;stroke:#000000;stroke-width:0.99236238;stroke-miterlimit:4;stroke-dasharray:none;stroke-opacity:1;filter:url(#filter4375-4-1-1-1-1)"
       transform="matrix(0.97473736,-0.59368706,0,2.2063487,2122.1852,2644.9138)"><flowRegion
         id="flowRegion2989-4-5-8-7-41-7-62-2-0"
         style="stroke-width:5.40286207"><rect
           id="rect2991-45-1-3-3-8-0-4-6-1"
           width="319.66232"
           height="56.089447"
           x="120.55251"
           y="265.53046"
           style="font-style:normal;font-variant:normal;font-weight:normal;font-stretch:normal;font-family:Lavi;-inkscape-font-specification:Lavi;fill:#000000;fill-opacity:1;stroke:#000000;stroke-width:0.99236238;stroke-miterlimit:4;stroke-dasharray:none;stroke-opacity:1" /></flowRegion><flowPara
         id="flowPara2995-4-1-5-0-7-2-6-4-3"
         style="font-weight:normal;font-size:48px;line-height:1.25;-inkscape-font-specification:Lavi;letter-spacing:7.06853437px;fill:#ffffff;fill-opacity:1;stroke:#ffffff;stroke-width:0.99236238;stroke-linejoin:miter;stroke-miterlimit:4;stroke-dasharray:none;stroke-opacity:1"> </flowPara></flowRoot>    <path
       inkscape:connector-curvature="0"
       id="path5208-3-6"
       d="m 1496.2938,2196.4246 c 22.7984,-6.2071 53.9035,-14.714 84.2447,-14.0584 30.3413,0.6559 56.9309,9.067 78.4147,35.3288 24.8122,36.6399 50.2795,13.081 19.3552,-14.4214 -31.5522,-38.569 -72.4984,-50.884 -107.764,-51.6462 -35.2657,-0.7622 -67.8477,8.6184 -90.5081,14.7877 -55.1405,6.4013 -216.3127,102.3392 16.2575,30.0095 z"
       style="color:#000000;font-style:normal;font-variant:normal;font-weight:normal;font-stretch:normal;font-size:medium;line-height:normal;font-family:Sans;-inkscape-font-specification:Sans;text-indent:0;text-align:start;text-decoration:none;text-decoration-line:none;letter-spacing:normal;word-spacing:normal;text-transform:none;writing-mode:lr-tb;direction:ltr;baseline-shift:baseline;text-anchor:start;display:inline;overflow:visible;visibility:visible;fill:#ffffff;fill-opacity:1;fill-rule:nonzero;stroke:none;stroke-width:31.89999962;marker:none;enable-background:accumulate"
       sodipodi:nodetypes="csccscc" />
    <path
       inkscape:connector-curvature="0"
       id="path5208-3"
       d="m 945.68212,2343.1577 c 18.48539,-23.8118 53.55747,-56.3505 80.77608,-76.2754 27.2189,-19.925 58.3035,-23.7585 85.149,-3.827 32.8568,31.3448 40.4068,-10.6167 4.7881,-25.7165 -39.4266,-29.2719 -79.5138,-17.4646 -111.1501,5.694 -31.63624,23.1588 -57.90475,57.8622 -76.27818,81.53 -47.23693,46.2294 -169.21228,273.3942 16.7151,18.5949 z"
       style="color:#000000;font-style:normal;font-variant:normal;font-weight:normal;font-stretch:normal;font-size:medium;line-height:normal;font-family:Sans;-inkscape-font-specification:Sans;text-indent:0;text-align:start;text-decoration:none;text-decoration-line:none;letter-spacing:normal;word-spacing:normal;text-transform:none;writing-mode:lr-tb;direction:ltr;baseline-shift:baseline;text-anchor:start;display:inline;overflow:visible;visibility:visible;fill:#ffffff;fill-opacity:1;fill-rule:nonzero;stroke:none;stroke-width:31.89999962;marker:none;enable-background:accumulate"
       sodipodi:nodetypes="csccscc" />
    <path
       style="color:#000000;display:inline;overflow:visible;visibility:visible;fill:#ffffff;fill-opacity:1;fill-rule:nonzero;stroke:none;stroke-width:0.87548488px;marker:none;enable-background:accumulate"
       d="m 810.88531,2622.0058 c -52.93375,-6.5994 -130.56982,-28.0475 -145.5678,-68.4688 -14.99787,-40.4213 -11.46895,-90.7418 19.40909,-113.0148 30.87796,-22.273 83.8117,-41.2463 129.68763,-33.822 45.87592,7.4244 105.86751,34.6469 119.98318,72.5935 14.11566,37.9466 0.8822,118.7894 -58.22709,134.4628 -59.10938,15.6736 -65.28501,8.2493 -65.28501,8.2493 z"
       id="path3970"
       inkscape:connector-curvature="0" />
    <path
       style="color:#000000;display:inline;overflow:visible;visibility:visible;fill:#ffffff;fill-opacity:1;fill-rule:nonzero;stroke:none;stroke-width:1px;marker:none;enable-background:accumulate"
       d="m 901.03102,2091.2128 c -1.84703,26.9409 -9.88688,52.8977 -22.41937,71.7737 -10.59406,16.0795 -25.39767,25.3267 -40.24526,24.3082 -19.58439,-1.0733 -37.5715,-15.9638 -53.11499,-33.4618 -11.59129,-12.2928 -23.47548,-24.6703 -36.86391,-31.7267 -5.18531,-2.4084 -11.53021,-4.7873 -16.28954,0.6338 -2.84549,3.6271 -3.84412,10.1591 -3.13814,15.5104 9.43448,15.8621 18.86899,31.7242 28.30351,47.5864 21.89013,12.4319 44.7188,21.3748 67.96167,24.6781 17.41851,2.1213 35.85099,1.2426 51.75225,-11.2318 11.57383,-8.8982 20.17349,-25.9155 23.40192,-45.2702 3.61716,-20.4382 2.83845,-42.0962 0.65186,-62.8001 z"
       id="path4048"
       inkscape:connector-curvature="0" />
    <path
       style="color:#000000;display:inline;overflow:visible;visibility:visible;fill:#ffffff;fill-opacity:1;fill-rule:nonzero;stroke:none;stroke-width:0.84767073px;marker:none;enable-background:accumulate"
       d="m 419.34703,2116.407 c 51.46827,-49.943 319.29736,-54.4414 353.45477,-16.9374 34.15742,37.5042 62.37436,129.4494 14.85108,159.6947 -47.52338,30.2451 -340.08889,42.3432 -371.27607,-2.4197 -31.18719,-44.7629 -48.49812,-90.3946 2.97022,-140.3376 z"
       id="path4008-8"
       inkscape:connector-curvature="0"
       sodipodi:nodetypes="zsssz" />
    <path
       inkscape:connector-curvature="0"
       id="path5208"
       d="m 698.83755,1782.6244 c -29.35548,-11.9054 -69.44188,-28.1159 -100.30159,-51.5254 -30.85959,-23.4098 -50.68956,-50.5737 -48.79257,-89.0376 7.99925,-49.7764 -40.09716,-48.9694 -33.34663,-2.3422 -2.78576,56.4898 28.33791,97.7794 64.20609,124.9883 35.86804,27.2089 78.29042,43.7908 107.46823,55.6241 63.07215,36.101 318.52062,76.0964 10.76647,-37.7072 z"
       style="color:#000000;font-style:normal;font-variant:normal;font-weight:normal;font-stretch:normal;font-size:medium;line-height:normal;font-family:Sans;-inkscape-font-specification:Sans;text-indent:0;text-align:start;text-decoration:none;text-decoration-line:none;letter-spacing:normal;word-spacing:normal;text-transform:none;writing-mode:lr-tb;direction:ltr;baseline-shift:baseline;text-anchor:start;display:inline;overflow:visible;visibility:visible;fill:#ffffff;fill-opacity:1;fill-rule:nonzero;stroke:none;stroke-width:31.89999962;marker:none;enable-background:accumulate"
       sodipodi:nodetypes="csccscc" />
    <path
       style="color:#000000;display:inline;overflow:visible;visibility:visible;fill:#ffffff;fill-opacity:1;fill-rule:nonzero;stroke:none;stroke-width:1px;marker:none;enable-background:accumulate"
       d="m 1380.0517,1873.7848 c -51.4287,53.2544 -122.847,86.2056 -196.5922,91.7894 -66.3698,5.5593 -134.5787,-7.1349 -193.71546,-38.0251 -20.55354,-11.2495 -40.41416,-24.3883 -56.97689,-41.0648 -7.72516,-5.7683 -11.15252,-20.1711 1.14374,-22.7742 7.61944,-2.4443 15.70855,-1.6736 23.11764,0.9973 8.89759,2.5266 17.79518,5.0533 26.69277,7.5799 47.7086,34.5502 102.6963,59.4803 160.5544,70.9329 54.6408,10.4359 113.0432,5.712 163.41,-18.8692 26.6854,-12.7368 50.9952,-30.187 72.366,-50.5662 z"
       id="path3541"
       inkscape:connector-curvature="0" />
    <path
       style="fill:#ffffff;fill-opacity:1;stroke:none;stroke-width:17.07323837;stroke-linecap:round;stroke-linejoin:miter;stroke-miterlimit:4;stroke-dasharray:17.07323807, 17.07323807;stroke-dashoffset:0;stroke-opacity:1"
       d="m 565.1999,1856.4745 c -8.11475,-72.3198 42.18202,-68.5892 84.86383,-83.2365 46.41935,-15.9298 438.33347,-19.5067 481.39247,20.1712 42.8577,39.4921 74.8452,109.1115 -56.019,140.7788 -130.86405,31.6672 -357.32339,20.9763 -393.79267,13.9642 -34.4658,-6.6269 -104.08183,-34.7706 -116.44463,-91.6777 z"
       id="path3659-7"
       inkscape:connector-curvature="0"
       sodipodi:nodetypes="cssssc" />
    <path
       style="fill:#ffffff;fill-opacity:1;stroke:none"
       d="m 177.21437,1685.0399 c -6.13236,-90.2333 31.87721,-85.5787 64.13212,-103.854 35.07938,-19.8756 331.25123,-24.3384 363.79132,25.1675 32.38781,49.2743 56.56091,136.1383 -42.33387,175.6495 -98.89489,39.5111 -270.03159,26.1721 -297.59165,17.4231 -26.04601,-8.2684 -78.65528,-43.3833 -87.99792,-114.3861 z"
       id="path3659"
       inkscape:connector-curvature="0"
       sodipodi:nodetypes="cssssc" />
    <path
       style="color:#000000;display:inline;overflow:visible;visibility:visible;fill:#ffffff;fill-opacity:1;fill-rule:nonzero;stroke:none;stroke-width:1px;marker:none;enable-background:accumulate"
       d="m 1748.2356,156.06366 c 14.4686,-109.724836 76.967,-110.015726 292.643,-105.570426 215.6762,4.445302 354.2189,12.960958 372.3361,20.926134 32.5551,14.312783 12.8361,114.164622 -9.2845,197.515422 -22.1209,83.3508 -120.0956,138.27119 -331.624,131.60319 -211.5286,-6.6682 -170.045,11.30895 -247.1042,-39.39738 -114.8914,-75.60049 -91.435,-95.35208 -76.9664,-205.07694 z"
       id="path4530-7-6-0"
       inkscape:connector-curvature="0"
       sodipodi:nodetypes="zsssssz" />
    <path
       style="color:#000000;display:inline;overflow:visible;visibility:visible;fill:#ffffff;fill-opacity:1;fill-rule:nonzero;stroke:none;stroke-width:1px;marker:none;enable-background:accumulate"
       d="m 1255.9322,176.85762 c 10.9242,-109.724846 58.112,-110.015736 220.9526,-105.570436 162.8408,4.445302 267.4439,12.960958 281.1228,20.926134 24.5799,14.312782 9.6916,114.164632 -7.01,197.515432 -16.7018,83.3508 -90.6751,138.27119 -250.3842,131.60319 -159.7092,-6.6682 -128.3881,11.30895 -186.5697,-39.39738 -86.7458,-75.60049 -69.0356,-95.35208 -58.1115,-205.07694 z"
       id="path4530-7-6"
       inkscape:connector-curvature="0"
       sodipodi:nodetypes="zsssssz" />
    <path
       style="color:#000000;display:inline;overflow:visible;visibility:visible;fill:#ffffff;fill-opacity:1;fill-rule:nonzero;stroke:none;stroke-width:0.83612794px;marker:none;enable-background:accumulate"
       d="m 854.64426,463.60351 c 24.45654,-14.7905 49.39749,-29.41822 5.8693,-67.06471 41.31797,9.67373 16.0308,-11.15288 5.89364,-25.04189 73.80063,27.41781 26.15307,-16.92424 8.03117,-43.82059 16.44649,10.70828 42.66423,40.90205 32.76231,-0.93284 5.22809,1.91823 11.38158,7.42204 13.96396,-0.91057 6.66329,5.74406 11.612,7.21525 14.50366,3.55931 6.55157,10.45977 10.78266,13.21086 10.74287,1.77548 6.19328,8.61604 8.09744,5.64584 9.66876,1.77684 10.63137,18.50139 14.59483,13.2739 18.80355,8.91882 6.0196,11.1089 13.05526,8.58289 20.94354,-5.3893 8.09028,18.89586 16.77148,17.73541 25.78358,5.33415 2.652,4.65418 5.0623,12.54772 8.5967,5.35452 3.5822,2.48252 7.1664,8.85062 10.7435,2.66965 37.8059,24.42838 54.278,3.73655 71.9625,-14.3906 9.8711,7.98213 16.9898,23.42438 33.8443,12.47747 1.5826,11.15604 10.6256,15.67591 26.3258,14.27461 -16.0964,13.48482 -16.9204,21.15186 20.4179,14.28158 -26.0213,11.05799 -50.0008,22.11357 -9.6486,33.09323 -9.4469,4.38908 -40.3391,-5.87309 -6.4183,46.50102 -24.0723,-11.53981 -45.9211,-14.51962 -52.6168,32.24989 -12.9901,-12.28225 -27.3686,-18.35722 -38.6652,9.8808 -10.3116,-13.2125 -24.7269,-10.02051 -32.2278,-3.53837 -2.0388,-14.48133 -17.3849,-36.6761 -38.1317,3.62142 4.544,-22.89575 1.0736,-59.35117 -23.09461,0.92134 -0.4859,-10.47917 9.44781,-67.48221 -58.00573,0.96264 8.39281,-45.87742 -14.00108,-19.16199 -31.69066,-3.53902 8.75998,-28.76809 -4.44963,-30.97641 -33.30811,-14.26636 22.25393,-27.33214 -0.64018,-19.76613 -15.04953,-18.75852 z"
       id="path3549-3-3"
       inkscape:connector-curvature="0"
       sodipodi:nodetypes="ccccccccccccccccccccccccccccc" />
    <path
       style="color:#000000;display:inline;overflow:visible;visibility:visible;fill:#ffffff;fill-opacity:1;fill-rule:nonzero;stroke:none;stroke-width:0.84599817px;marker:none;enable-background:accumulate"
       d="M 838.47422,152.28295 C 846.46168,42.558101 880.96427,42.267211 1000.0293,46.712511 c 119.0653,4.445302 195.5485,12.960959 205.5503,20.926135 17.9721,14.312778 7.0862,114.164634 -5.1256,197.515434 -12.2119,83.3508 -66.2995,138.27119 -183.0748,131.60319 -116.77555,-6.6682 -143.21691,-5.42045 -161.29467,-22.38415 -34.34578,-32.229 -25.59777,-112.36531 -17.61031,-222.09017 z"
       id="path4530-7"
       inkscape:connector-curvature="0"
       sodipodi:nodetypes="zsssssz" />
    <path
       style="color:#000000;display:inline;overflow:visible;visibility:visible;fill:#ffffff;fill-opacity:1;fill-rule:nonzero;stroke:none;stroke-width:0.96589261px;marker:none;enable-background:accumulate"
       d="M 79.220173,158.91071 C 93.615127,48.294567 155.79549,48.001314 370.37393,52.482724 584.95246,56.964135 722.79008,65.548965 740.8151,73.578843 773.20457,88.007883 753.58586,188.67084 731.5779,272.6987 709.56967,356.72655 612.09353,412.09306 401.64151,405.3709 191.18946,398.64853 143.53698,399.90642 110.95737,382.80492 49.059595,350.31413 64.825218,269.52687 79.220173,158.91071 Z"
       id="path4530"
       inkscape:connector-curvature="0"
       sodipodi:nodetypes="zsssssz" />
    <path
       style="color:#000000;display:inline;overflow:visible;visibility:visible;fill:#ffffff;fill-opacity:1;fill-rule:nonzero;stroke:none;stroke-width:0.9105162px;marker:none;enable-background:accumulate"
       d="m 193.92581,359.8968 c 29.00181,14.7905 58.57805,29.41822 6.96012,67.06471 48.99691,-9.67373 19.01014,11.15288 6.98898,25.04189 87.51648,-27.41781 31.01362,16.92424 9.52376,43.82059 19.50307,-10.70828 50.59337,-40.90205 38.85119,0.93284 6.19972,-1.91823 13.49685,-7.42204 16.55915,0.91057 7.90166,-5.74406 13.7701,-7.21525 17.19918,-3.55931 7.76918,-10.45977 12.78661,-13.21086 12.73943,-1.77548 7.3443,-8.61604 9.60236,-5.64584 11.46571,-1.77684 12.6072,-18.50139 17.30729,-13.2739 22.29818,-8.91882 7.13837,-11.1089 15.48158,-8.58289 24.83588,5.3893 9.59389,-18.89586 19.8885,-17.73541 30.57565,-5.33415 1.93943,-14.83109 7.86978,-29.67994 14.86938,1.22438 4.24783,-2.48252 6.9399,-22.00842 21.31101,10.48814 1.19873,-35.70649 51.11965,-23.47324 72.09087,-5.34609 -6.21529,-27.71882 4.56399,-40.34155 40.13423,-12.47747 1.8767,-11.15604 12.60041,-15.67591 31.21849,-14.27461 -19.08789,-13.48482 -20.06509,-21.15186 24.2126,-14.28158 -30.85744,-11.05799 -59.2935,-22.11357 -11.44182,-33.09323 -11.20265,-4.38908 -47.83618,5.87309 -7.61117,-46.50102 -28.54616,11.53981 -54.45547,14.51962 -62.39561,-32.24989 -15.4043,12.28225 -32.45507,18.35722 -45.8512,-9.8808 -12.228,13.2125 -29.3223,10.02051 -38.21724,3.53837 -2.41781,14.48133 -20.61598,36.6761 -45.21848,-3.62142 5.38835,22.89575 1.27307,59.35117 -27.38683,-0.92134 -0.57626,10.47917 11.20356,67.48221 -68.78617,-0.96264 9.95262,45.87742 -16.60318,19.16199 -37.58035,3.53902 10.38801,28.76809 -5.2766,30.97641 -39.49845,14.26636 26.38983,27.33214 -0.75914,19.76613 -17.84649,18.75852 z"
       id="path3549-3-3-0"
       inkscape:connector-curvature="0"
       sodipodi:nodetypes="ccccccccccccccccccccccccccccc" />
    <path
       style="color:#000000;display:inline;overflow:visible;visibility:visible;fill:#ffffff;fill-opacity:1;fill-rule:nonzero;stroke:none;stroke-width:0.88771653px;marker:none;enable-background:accumulate"
       d="m 1306.0272,358.73331 c 27.5772,14.76163 55.7003,29.35991 6.6596,67.05776 46.5675,-9.72249 18.0772,11.13396 6.6596,25.03493 83.1706,-27.50491 29.4909,16.89336 9.0813,43.81109 18.5315,-10.72768 48.0647,-40.95239 36.9304,0.89418 5.892,-1.9244 12.8246,-7.43548 15.7409,0.89408 7.5071,-5.75192 13.0843,-7.22895 16.3462,-3.57642 7.3782,-10.4675 12.1457,-13.22358 12.1084,-1.78816 6.9755,-8.62335 9.1238,-5.6554 10.8975,-1.78825 11.9717,-18.51393 16.4427,-13.29112 21.1895,-8.94101 6.7783,-11.116 14.7104,-8.5983 23.6112,5.36458 9.1072,-18.90541 18.8934,-17.7552 29.0601,-5.36458 2.9861,-4.65731 5.6979,-12.55369 9.6866,-5.36467 4.0363,-2.48674 8.0722,-8.85907 12.1085,-2.68233 42.599,-24.47299 61.1799,-3.80061 81.1259,14.30566 11.1214,-7.99377 19.1356,-23.44442 38.1412,-12.51741 1.7766,-11.1579 11.9671,-15.68844 29.6654,-14.30567 -18.1528,-13.46582 -19.0866,-21.13189 23.0059,-14.30568 -29.3387,-11.02727 -56.3757,-22.05455 -10.8975,-33.08183 -10.6516,-4.37793 -45.4668,5.9207 -7.265,-46.49343 -27.127,11.56822 -51.7531,14.57382 -59.3309,-32.18777 -14.6345,12.29757 -30.8381,18.38951 -43.59,-9.83517 -11.6148,13.22467 -27.8658,10.04969 -36.3251,3.57641 -2.2887,14.48373 -19.5725,36.69661 -42.9846,-3.57641 5.1368,22.89038 1.2487,59.34988 -26.0329,-0.89409 -0.541,10.47974 10.6934,67.47104 -65.3851,-0.89417 9.4903,45.8675 -15.7696,19.1785 -35.7195,3.57642 9.893,28.75774 -4.9955,30.98165 -37.5359,14.30567 25.1026,27.30586 -0.7086,19.76687 -16.9517,18.77627 z"
       id="path3549"
       inkscape:connector-curvature="0"
       sodipodi:nodetypes="ccccccccccccccccccccccccccccc" />
    <path
       style="color:#000000;display:inline;overflow:visible;visibility:visible;fill:#ffffff;fill-opacity:1;fill-rule:nonzero;stroke:none;stroke-width:0.80274689px;marker:none;enable-background:accumulate"
       d="m 2237.7934,463.71697 c -22.5427,-14.7905 -45.532,-29.41822 -5.41,-67.06471 -38.0847,9.67373 -14.7764,-11.15288 -5.4325,-25.04189 -68.0255,27.41781 -24.1065,-16.92424 -7.4027,-43.82059 -15.1595,10.70828 -39.3256,40.90205 -30.1985,-0.93284 -4.819,1.91823 -10.491,7.42204 -12.8713,-0.91057 -6.1418,5.74406 -10.7033,7.21525 -13.3687,3.55931 -6.0389,10.45977 -9.9389,13.21086 -9.9022,1.77548 -5.7086,8.61604 -7.4638,5.64584 -8.9121,1.77684 -9.7995,18.50139 -13.4528,13.2739 -17.3322,8.91882 -5.5485,11.1089 -12.0336,8.58289 -19.3046,-5.3893 -7.4572,18.89586 -15.4591,17.73541 -23.766,5.33415 -2.4444,4.65418 -4.6661,12.54772 -7.924,5.35452 -3.3018,2.48252 -6.6055,8.85062 -9.9028,2.66965 -34.8474,24.42838 -50.0305,3.73655 -66.3312,-14.3906 -9.0985,7.98213 -15.6602,23.42438 -31.1958,12.47747 -1.4588,11.15604 -9.7941,15.67591 -24.2658,14.27461 14.8369,13.48482 15.5964,21.15186 -18.8201,14.28158 23.9851,11.05799 46.0881,22.11357 8.8935,33.09323 8.7078,4.38908 37.1826,-5.87309 5.9162,46.50102 22.1885,-11.53981 42.3275,-14.51962 48.4992,32.24989 11.9737,-12.28225 25.227,-18.35722 35.6396,9.8808 9.5047,-13.2125 22.7919,-10.02051 29.7058,-3.53837 1.8794,-14.48133 16.0246,-36.6761 35.1479,3.62142 -4.1883,-22.89575 -0.9896,-59.35117 21.2873,0.92134 0.448,-10.47917 -8.7083,-67.48221 53.4667,0.96264 -7.736,-45.87742 12.9054,-19.16199 29.2108,-3.53902 -8.0746,-28.76809 4.1014,-30.97641 30.7016,-14.26636 -20.5125,-27.33214 0.5901,-19.76613 13.8719,-18.75852 z"
       id="path3549-3"
       inkscape:connector-curvature="0"
       sodipodi:nodetypes="ccccccccccccccccccccccccccccc" />
    <flowRoot
       xml:space="preserve"
       id="flowRoot2987"
       style="font-style:normal;font-variant:normal;font-weight:normal;font-stretch:normal;line-height:0.01%;font-family:Lavi;-inkscape-font-specification:Lavi;text-align:center;letter-spacing:0px;word-spacing:0px;text-anchor:middle;fill:#000000;fill-opacity:1;stroke:none"
       transform="matrix(0.95842652,0,0,0.92639044,61.631114,-94.148029)"><flowRegion
         id="flowRegion2989"><rect
           id="rect2991"
           width="802.00476"
           height="222.0042"
           x="120.55251"
           y="265.53046"
           style="font-style:normal;font-variant:normal;font-weight:normal;font-stretch:normal;font-family:Lavi;-inkscape-font-specification:Lavi;text-align:center;text-anchor:middle" /></flowRegion><flowPara
         id="flowPara2995"
         style="font-size:48px;line-height:1.25;text-align:center;text-anchor:middle"> </flowPara></flowRoot>    <flowRoot
       xml:space="preserve"
       id="flowRoot2987-4-9-4"
       style="font-style:normal;font-variant:normal;font-weight:normal;font-stretch:normal;line-height:0.01%;font-family:Lavi;-inkscape-font-specification:Lavi;text-align:start;letter-spacing:0px;word-spacing:0px;text-anchor:start;fill:#000000;fill-opacity:1;stroke:none"
       transform="translate(-19.08278,-144.63986)"><flowRegion
         id="flowRegion2989-5-4-3"><rect
           id="rect2991-7-9-5"
           width="613.05389"
           height="260.30518"
           x="120.55251"
           y="265.53046"
           style="font-style:normal;font-variant:normal;font-weight:normal;font-stretch:normal;font-family:Lavi;-inkscape-font-specification:Lavi;text-align:start;text-anchor:start" /></flowRegion><flowPara
         style="font-size:48px;line-height:1.25;text-align:center;text-anchor:middle"
         id="flowPara5066">.i klama fi la minji fa le noi se sinma gi'e melbi gi'e stati vau</flowPara><flowPara
         style="font-size:48px;line-height:1.25;text-align:center;text-anchor:middle"
         id="flowPara5072">se cmene be zo</flowPara></flowRoot>    <flowRoot
       xml:space="preserve"
       id="flowRoot2987-4-9-4-9"
       style="font-style:normal;font-variant:normal;font-weight:normal;font-stretch:normal;line-height:0.01%;font-family:Lavi;-inkscape-font-specification:Lavi;text-align:center;letter-spacing:0px;word-spacing:0px;text-anchor:middle;fill:#000000;fill-opacity:1;stroke:none"
       transform="translate(685.28986,-151.39098)"><flowRegion
         id="flowRegion2989-5-4-3-2"><rect
           id="rect2991-7-9-5-0"
           width="429.35825"
           height="477.69647"
           x="120.55251"
           y="265.53046"
           style="font-style:normal;font-variant:normal;font-weight:normal;font-stretch:normal;font-family:Lavi;-inkscape-font-specification:Lavi;text-align:center;text-anchor:middle" /></flowRegion><flowPara
         style="font-size:48px;line-height:1.25;text-align:center;text-anchor:middle"
         id="flowPara5080">.i fi le nixli</flowPara><flowPara
         style="font-size:48px;line-height:1.25;text-align:center;text-anchor:middle"
         id="flowPara3578">poi diklo mi'a</flowPara><flowPara
         style="font-size:48px;line-height:1.25;text-align:center;text-anchor:middle"
         id="flowPara3580">cu .ei morji</flowPara><flowPara
         style="font-size:48px;line-height:1.25;text-align:center;text-anchor:middle"
         id="flowPara5078">.i fi'i la</flowPara><flowPara
         style="font-size:48px;line-height:1.25;text-align:center;text-anchor:middle"
         id="flowPara4529"> </flowPara></flowRoot>    <flowRoot
       xml:space="preserve"
       id="flowRoot2987-4-9-4-0"
       style="font-style:normal;font-variant:normal;font-weight:normal;font-stretch:normal;line-height:0.01%;font-family:Lavi;-inkscape-font-specification:Lavi;text-align:center;letter-spacing:0px;word-spacing:0px;text-anchor:middle;fill:#000000;fill-opacity:1;stroke:none"
       transform="translate(1134.8551,-147.47794)"><flowRegion
         id="flowRegion2989-5-4-3-9"><rect
           id="rect2991-7-9-5-3"
           width="482.4017"
           height="380.73993"
           x="120.55251"
           y="265.53046"
           style="font-style:normal;font-variant:normal;font-weight:normal;font-stretch:normal;font-family:Lavi;-inkscape-font-specification:Lavi;text-align:center;text-anchor:middle" /></flowRegion><flowPara
         style="font-size:48px;line-height:1.25;text-align:center;text-anchor:middle"
         id="flowPara3941">.i le ci moi jivna cu klama fi le tumla pe le za'u dizlo lunra</flowPara><flowPara
         style="font-size:48px;line-height:1.25;text-align:center;text-anchor:middle"
         id="flowPara5082">.i coi la</flowPara></flowRoot>    <flowRoot
       xml:space="preserve"
       id="flowRoot2987-4-9-4-99"
       style="font-style:normal;font-variant:normal;font-weight:normal;font-stretch:normal;line-height:0.01%;font-family:Lavi;-inkscape-font-specification:Lavi;text-align:center;letter-spacing:0px;word-spacing:0px;text-anchor:middle;fill:#000000;fill-opacity:1;stroke:none"
       transform="translate(1676.0506,-147.15186)"><flowRegion
         id="flowRegion2989-5-4-3-5"><rect
           id="rect2991-7-9-5-9"
           width="557.40173"
           height="438.23993"
           x="120.55251"
           y="265.53046"
           style="font-style:normal;font-variant:normal;font-weight:normal;font-stretch:normal;font-family:Lavi;-inkscape-font-specification:Lavi;text-align:center;text-anchor:middle" /></flowRegion><flowPara
         style="font-size:48px;line-height:1.25;text-align:center;text-anchor:middle"
         id="flowPara4533">.i .uo ro moi jivna gi'e xabju le noi foldi le tricu vau me la rebla be lo ricyratcu vau fa la</flowPara></flowRoot>    <flowRoot
       xml:space="preserve"
       id="flowRoot3095"
       style="font-style:normal;font-variant:normal;font-weight:normal;font-stretch:normal;line-height:0.01%;font-family:Arial;-inkscape-font-specification:Arial;letter-spacing:0px;word-spacing:0px;fill:#000000;fill-opacity:1;stroke:none;stroke-width:1px;stroke-linecap:butt;stroke-linejoin:miter;stroke-opacity:1"><flowRegion
         id="flowRegion3097"><rect
           id="rect3099"
           width="573.91302"
           height="178.26086"
           x="128.26086"
           y="263.86972" /></flowRegion><flowPara
         id="flowPara3101"
         style="font-size:12px;line-height:1.25"> </flowPara></flowRoot>    <flowRoot
       transform="matrix(1.1614703,0,0,1.3822798,-48.179531,-0.7845234)"
       style="font-style:normal;font-variant:normal;font-weight:normal;font-stretch:normal;line-height:0.01%;font-family:Lavi;-inkscape-font-specification:Lavi;text-align:center;letter-spacing:0px;word-spacing:0px;text-anchor:middle;fill:#000000;fill-opacity:1;stroke:#000000;stroke-width:0.68843514;stroke-miterlimit:4;stroke-dasharray:none;stroke-opacity:1"
       id="flowRoot3103"
       xml:space="preserve"><flowRegion
         id="flowRegion3105"><rect
           style="font-style:normal;font-variant:normal;font-weight:normal;font-stretch:normal;font-family:Lavi;-inkscape-font-specification:Lavi;text-align:center;text-anchor:middle;stroke:#000000;stroke-width:0.68843514;stroke-miterlimit:4;stroke-dasharray:none;stroke-opacity:1"
           y="265.53046"
           x="120.55251"
           height="191.17474"
           width="541.5321"
           id="rect3107" /></flowRegion><flowPara
         id="flowPara3109"
         style="font-size:48px;line-height:1.25;text-align:center;text-anchor:middle;stroke:#000000;stroke-width:0.68843514;stroke-miterlimit:4;stroke-dasharray:none;stroke-opacity:1">.koriander.</flowPara></flowRoot>    <flowRoot
       transform="matrix(1.1614703,0,0,1.3822798,568.35145,-0.7845234)"
       style="font-style:normal;font-variant:normal;font-weight:normal;font-stretch:normal;line-height:0.01%;font-family:Lavi;-inkscape-font-specification:Lavi;text-align:center;letter-spacing:0px;word-spacing:0px;text-anchor:middle;fill:#000000;fill-opacity:1;stroke:#000000;stroke-width:0.68843514;stroke-miterlimit:4;stroke-dasharray:none;stroke-opacity:1"
       id="flowRoot3103-0"
       xml:space="preserve"><flowRegion
         id="flowRegion3105-1"><rect
           style="font-style:normal;font-variant:normal;font-weight:normal;font-stretch:normal;font-family:Lavi;-inkscape-font-specification:Lavi;text-align:center;text-anchor:middle;stroke:#000000;stroke-width:0.68843514;stroke-miterlimit:4;stroke-dasharray:none;stroke-opacity:1"
           y="265.53046"
           x="120.55251"
           height="191.17474"
           width="541.5321"
           id="rect3107-0" /></flowRegion><flowPara
         id="flowPara3109-9"
         style="font-size:48px;line-height:1.25;text-align:center;text-anchor:middle;stroke:#000000;stroke-width:0.68843514;stroke-miterlimit:4;stroke-dasharray:none;stroke-opacity:1">.safran.</flowPara></flowRoot>    <flowRoot
       transform="matrix(1.1614703,0,0,1.3822798,1040.9059,-0.04500665)"
       style="font-style:normal;font-variant:normal;font-weight:normal;font-stretch:normal;line-height:0.01%;font-family:Lavi;-inkscape-font-specification:Lavi;text-align:center;letter-spacing:0px;word-spacing:0px;text-anchor:middle;fill:#000000;fill-opacity:1;stroke:#000000;stroke-width:0.68843514;stroke-miterlimit:4;stroke-dasharray:none;stroke-opacity:1"
       id="flowRoot3103-0-9-1"
       xml:space="preserve"><flowRegion
         id="flowRegion3105-1-5-6"><rect
           style="font-style:normal;font-variant:normal;font-weight:normal;font-stretch:normal;font-family:Lavi;-inkscape-font-specification:Lavi;text-align:center;text-anchor:middle;stroke:#000000;stroke-width:0.68843514;stroke-miterlimit:4;stroke-dasharray:none;stroke-opacity:1"
           y="265.53046"
           x="120.55251"
           height="191.17474"
           width="541.5321"
           id="rect3107-0-2-0" /></flowRegion><flowPara
         id="flowPara3109-9-9-7"
         style="font-size:48px;line-height:1.25;text-align:center;text-anchor:middle;stroke:#000000;stroke-width:0.68843514;stroke-miterlimit:4;stroke-dasharray:none;stroke-opacity:1">.citcimin.</flowPara></flowRoot>    <flowRoot
       transform="matrix(1.1614703,0,0,1.3822798,1638.4059,-0.7845234)"
       style="font-style:normal;font-variant:normal;font-weight:normal;font-stretch:normal;line-height:0.01%;font-family:Lavi;-inkscape-font-specification:Lavi;text-align:center;letter-spacing:0px;word-spacing:0px;text-anchor:middle;fill:#000000;fill-opacity:1;stroke:#000000;stroke-width:0.68843514;stroke-miterlimit:4;stroke-dasharray:none;stroke-opacity:1"
       id="flowRoot3103-0-9-3"
       xml:space="preserve"><flowRegion
         id="flowRegion3105-1-5-7"><rect
           style="font-style:normal;font-variant:normal;font-weight:normal;font-stretch:normal;font-family:Lavi;-inkscape-font-specification:Lavi;text-align:center;text-anchor:middle;stroke:#000000;stroke-width:0.68843514;stroke-miterlimit:4;stroke-dasharray:none;stroke-opacity:1"
           y="265.53046"
           x="120.55251"
           height="191.17474"
           width="541.5321"
           id="rect3107-0-2-2" /></flowRegion><flowPara
         id="flowPara3109-9-9-8"
         style="font-size:48px;line-height:1.25;text-align:center;text-anchor:middle;stroke:#000000;stroke-width:0.68843514;stroke-miterlimit:4;stroke-dasharray:none;stroke-opacity:1">.piper.</flowPara></flowRoot>    <flowRoot
       xml:space="preserve"
       id="flowRoot2987-4-9-8"
       style="font-style:normal;font-variant:normal;font-weight:normal;font-stretch:normal;line-height:0.01%;font-family:Lavi;-inkscape-font-specification:Lavi;text-align:center;letter-spacing:0px;word-spacing:0px;text-anchor:middle;fill:#000000;fill-opacity:1;stroke:none"
       transform="translate(-26.918183,1346.1073)"><flowRegion
         id="flowRegion2989-5-4-5"><rect
           id="rect2991-7-9-47"
           width="602.40173"
           height="310.73996"
           x="120.55251"
           y="265.53046"
           style="font-style:normal;font-variant:normal;font-weight:normal;font-stretch:normal;font-family:Lavi;-inkscape-font-specification:Lavi;text-align:center;text-anchor:middle" /></flowRegion><flowPara
         style="font-size:48px;line-height:1.25;text-align:center;text-anchor:middle"
         id="flowPara4539">.i .e'e co'a jivna</flowPara><flowPara
         style="font-size:48px;line-height:1.25;text-align:center;text-anchor:middle"
         id="flowPara5098">.i mi'o ba jdice</flowPara><flowPara
         style="font-size:48px;line-height:1.25;text-align:center;text-anchor:middle"
         id="flowPara5102">le du'u</flowPara></flowRoot>    <flowRoot
       xml:space="preserve"
       id="flowRoot2987-4-9-3"
       style="font-style:normal;font-variant:normal;font-weight:normal;font-stretch:normal;line-height:0.01%;font-family:Lavi;-inkscape-font-specification:Lavi;text-align:center;letter-spacing:0px;word-spacing:0px;text-anchor:middle;fill:#000000;fill-opacity:1;stroke:none"
       transform="translate(496.80074,1529.8263)"><flowRegion
         id="flowRegion2989-5-4-4"><rect
           id="rect2991-7-9-57"
           width="487.1517"
           height="293.23993"
           x="120.55251"
           y="265.53046"
           style="font-style:normal;font-variant:normal;font-weight:normal;font-stretch:normal;font-family:Lavi;-inkscape-font-specification:Lavi;text-align:center;text-anchor:middle" /></flowRegion><flowPara
         style="font-size:48px;line-height:1.25;text-align:center;text-anchor:middle"
         id="flowPara4239">ma kau jinga vau ta'i le nu mi'o cladu zanru</flowPara></flowRoot>    <flowRoot
       transform="translate(190.02576,1863.8014)"
       style="font-style:normal;font-variant:normal;font-weight:normal;font-stretch:normal;line-height:0.01%;font-family:Lavi;-inkscape-font-specification:Lavi;text-align:center;letter-spacing:0px;word-spacing:0px;text-anchor:middle;fill:#000000;fill-opacity:1;stroke:none"
       id="flowRoot4212"
       xml:space="preserve"><flowRegion
         id="flowRegion4214"><rect
           style="font-style:normal;font-variant:normal;font-weight:normal;font-stretch:normal;font-family:Lavi;-inkscape-font-specification:Lavi;text-align:center;text-anchor:middle"
           y="265.53046"
           x="120.55251"
           height="310.73996"
           width="602.40173"
           id="rect4216" /></flowRegion><flowPara
         style="font-size:48px;line-height:1.25;text-align:center;text-anchor:middle"
         id="flowPara4220">.i pa mai tigni</flowPara><flowPara
         style="font-size:48px;line-height:1.25;text-align:center;text-anchor:middle"
         id="flowPara4545">fa la .koriander.</flowPara></flowRoot>    <path
       style="color:#000000;display:inline;overflow:visible;visibility:visible;fill:#ffffff;fill-opacity:1;fill-rule:nonzero;stroke:none;stroke-width:1px;marker:none;enable-background:accumulate"
       d="m 780.28717,2580.2849 c -2.4049,47.1601 -60.1208,116.0864 -121.44397,107.924 73.34739,-26.3008 92.58602,-87.0647 87.77636,-101.5755 -4.80966,-14.5108 33.66761,-6.3485 33.66761,-6.3485 z"
       id="path3978"
       inkscape:connector-curvature="0" />
    <path
       style="color:#000000;display:inline;overflow:visible;visibility:visible;fill:#ffffff;fill-opacity:1;fill-rule:nonzero;stroke:none;stroke-width:1px;marker:none;enable-background:accumulate"
       d="m 1241.5645,2288.9702 c -89.6471,-6.0129 -257.29259,-17.8141 -282.69274,-54.6434 -25.39998,-36.8292 -26.33895,-123.015 18.07653,-150.5226 32.76741,-20.2937 197.82991,-14.3583 275.52411,-7.5937 77.694,6.7646 176.0064,-8.2423 199.9122,26.332 23.906,34.5746 32.7262,157.9958 -67.3796,172.2765 -100.1059,14.2808 -143.4405,14.1512 -143.4405,14.1512 z"
       id="path3970-7"
       inkscape:connector-curvature="0"
       sodipodi:nodetypes="csssssc" />
    <flowRoot
       transform="translate(793.37811,1841.7474)"
       style="font-style:normal;font-variant:normal;font-weight:normal;font-stretch:normal;line-height:0.01%;font-family:Lavi;-inkscape-font-specification:Lavi;text-align:center;letter-spacing:0px;word-spacing:0px;text-anchor:middle;fill:#000000;fill-opacity:1;stroke:none"
       id="flowRoot4212-3-7"
       xml:space="preserve"><flowRegion
         id="flowRegion4214-6-7"><rect
           style="font-style:normal;font-variant:normal;font-weight:normal;font-stretch:normal;font-family:Lavi;-inkscape-font-specification:Lavi;text-align:center;text-anchor:middle"
           y="265.53046"
           x="120.55251"
           height="310.73996"
           width="602.40173"
           id="rect4216-4-0" /></flowRegion><flowPara
         style="font-style:normal;font-variant:normal;font-weight:normal;font-stretch:normal;font-size:48.00000381px;line-height:110.00000238%;font-family:Lavi;-inkscape-font-specification:'Lavi, Normal';text-align:center;writing-mode:lr-tb;text-anchor:middle"
         id="flowPara4558">ko co'u terpa tu'a</flowPara><flowPara
         style="font-style:normal;font-variant:normal;font-weight:normal;font-stretch:normal;font-size:48.00000381px;line-height:110.00000238%;font-family:Lavi;-inkscape-font-specification:'Lavi, Normal';text-align:center;writing-mode:lr-tb;text-anchor:middle"
         id="flowPara4560">lo'e morsi .i ki'u bo</flowPara><flowPara
         style="font-style:normal;font-variant:normal;font-weight:normal;font-stretch:normal;font-size:48.00000381px;line-height:110.00000238%;font-family:Lavi;-inkscape-font-specification:'Lavi, Normal';text-align:center;writing-mode:lr-tb;text-anchor:middle"
         id="flowPara5126">mi co'i finti </flowPara></flowRoot>    <path
       style="color:#000000;display:inline;overflow:visible;visibility:visible;fill:#ffffff;fill-opacity:1;fill-rule:nonzero;stroke:none;stroke-width:0.96079648px;marker:none;enable-background:accumulate"
       d="m 1937.6537,2333.0578 c -109.7648,-7.2067 -270.7529,-30.6287 -301.8531,-74.7699 -31.1,-44.1412 -23.7823,-99.0926 40.2472,-123.4155 64.0292,-24.3227 173.7942,-45.0421 268.9237,-36.9346 95.1295,8.1077 219.5295,37.8355 248.8001,79.2742 29.2707,41.4388 1.8295,129.7215 -120.7411,146.8374 -122.5708,17.1161 -135.3768,9.0084 -135.3768,9.0084 z"
       id="path3970-7-9"
       inkscape:connector-curvature="0" />
    <flowRoot
       transform="translate(1489.4921,1890.9669)"
       style="font-style:normal;font-variant:normal;font-weight:normal;font-stretch:normal;line-height:0.01%;font-family:Lavi;-inkscape-font-specification:Lavi;text-align:center;letter-spacing:0px;word-spacing:0px;text-anchor:middle;fill:#000000;fill-opacity:1;stroke:none"
       id="flowRoot4212-3-7-9"
       xml:space="preserve"><flowRegion
         id="flowRegion4214-6-7-9"><rect
           style="font-style:normal;font-variant:normal;font-weight:normal;font-stretch:normal;font-family:Lavi;-inkscape-font-specification:Lavi;text-align:center;text-anchor:middle"
           y="265.53046"
           x="120.55251"
           height="310.73996"
           width="602.40173"
           id="rect4216-4-0-2" /></flowRegion><flowPara
         style="font-size:48px;line-height:1.25;text-align:center;text-anchor:middle"
         id="flowPara4358-6"> </flowPara></flowRoot>    <flowRoot
       transform="translate(1484.4921,1875.9669)"
       style="font-style:normal;font-variant:normal;font-weight:normal;font-stretch:normal;line-height:0.01%;font-family:Lavi;-inkscape-font-specification:Lavi;text-align:center;letter-spacing:0px;word-spacing:0px;text-anchor:middle;fill:#000000;fill-opacity:1;stroke:none"
       id="flowRoot4212-3-7-8"
       xml:space="preserve"><flowRegion
         id="flowRegion4214-6-7-8"><rect
           style="font-style:normal;font-variant:normal;font-weight:normal;font-stretch:normal;font-family:Lavi;-inkscape-font-specification:Lavi;text-align:center;text-anchor:middle"
           y="265.53046"
           x="120.55251"
           height="310.73996"
           width="602.40173"
           id="rect4216-4-0-26" /></flowRegion><flowPara
         style="font-size:48px;line-height:1.25;text-align:center;text-anchor:middle"
         id="flowPara4358-7">le mixre pe ja'e le nu</flowPara></flowRoot>    <flowRoot
       transform="matrix(0.90617713,0,-0.22078013,1.6225798,1521.4457,1775.1189)"
       style="font-style:normal;font-variant:normal;font-weight:normal;font-stretch:normal;line-height:0.01%;font-family:Lavi;-inkscape-font-specification:Lavi;text-align:center;letter-spacing:0px;word-spacing:0px;text-anchor:middle;fill:#000000;fill-opacity:1;stroke:#000000;stroke-width:4.69999981;stroke-miterlimit:4;stroke-dasharray:none;stroke-opacity:1"
       id="flowRoot4212-3-7-8-6"
       xml:space="preserve"><flowRegion
         id="flowRegion4214-6-7-8-3"><rect
           style="font-style:normal;font-variant:normal;font-weight:normal;font-stretch:normal;font-family:Lavi;-inkscape-font-specification:Lavi;text-align:center;text-anchor:middle;stroke:#000000;stroke-width:4.69999981;stroke-miterlimit:4;stroke-dasharray:none;stroke-opacity:1"
           y="265.53046"
           x="120.55251"
           height="355.03918"
           width="798.1947"
           id="rect4216-4-0-26-5" /></flowRegion><flowPara
         style="font-size:48px;line-height:1.25;text-align:center;letter-spacing:5.20896292px;text-anchor:middle;stroke:#000000;stroke-width:4.69999981;stroke-miterlimit:4;stroke-dasharray:none;stroke-opacity:1"
         id="flowPara4358-7-1">no'e morsi</flowPara></flowRoot>    <flowRoot
       xml:space="preserve"
       id="flowRoot2987-7-9-9-7-0"
       style="font-style:normal;font-variant:normal;font-weight:normal;font-stretch:normal;line-height:0.01%;font-family:Lavi;-inkscape-font-specification:Lavi;letter-spacing:0px;word-spacing:0px;fill:#000000;fill-opacity:1;stroke:#000000;stroke-width:0.99236238;stroke-miterlimit:4;stroke-dasharray:none;stroke-opacity:1;filter:url(#filter4375-4)"
       transform="matrix(0.93207984,-0.67152285,0,2.1472773,1415.8943,2784.4145)"><flowRegion
         id="flowRegion2989-4-5-8-7-41"
         style="stroke-width:5.40286207"><rect
           id="rect2991-45-1-3-3-8"
           width="319.66232"
           height="56.089447"
           x="120.55251"
           y="265.53046"
           style="font-style:normal;font-variant:normal;font-weight:normal;font-stretch:normal;font-family:Lavi;-inkscape-font-specification:Lavi;fill:#000000;fill-opacity:1;stroke:#000000;stroke-width:0.99236238;stroke-miterlimit:4;stroke-dasharray:none;stroke-opacity:1" /></flowRegion><flowPara
         id="flowPara2995-4-1-5-0-7"
         style="font-weight:normal;font-size:48px;line-height:1.25;-inkscape-font-specification:Lavi;letter-spacing:7.06853437px;fill:#ffffff;fill-opacity:1;stroke:#ffffff;stroke-width:0.99236238;stroke-linejoin:miter;stroke-miterlimit:4;stroke-dasharray:none;stroke-opacity:1">.io sai</flowPara></flowRoot>    <flowRoot
       xml:space="preserve"
       id="flowRoot2987-7-9-9-7-0-3"
       style="font-style:normal;font-variant:normal;font-weight:normal;font-stretch:normal;line-height:0.01%;font-family:Lavi;-inkscape-font-specification:Lavi;letter-spacing:0px;word-spacing:0px;fill:#000000;fill-opacity:1;stroke:#000000;stroke-width:0.99236238;stroke-miterlimit:4;stroke-dasharray:none;stroke-opacity:1;filter:url(#filter4375-4-1)"
       transform="matrix(0.81295734,-0.5582143,0,2.0745194,1540.0356,2816.3429)"><flowRegion
         id="flowRegion2989-4-5-8-7-41-7"
         style="stroke-width:5.40286207"><rect
           id="rect2991-45-1-3-3-8-0"
           width="319.66232"
           height="56.089447"
           x="120.55251"
           y="265.53046"
           style="font-style:normal;font-variant:normal;font-weight:normal;font-stretch:normal;font-family:Lavi;-inkscape-font-specification:Lavi;fill:#000000;fill-opacity:1;stroke:#000000;stroke-width:0.99236238;stroke-miterlimit:4;stroke-dasharray:none;stroke-opacity:1" /></flowRegion><flowPara
         id="flowPara2995-4-1-5-0-7-2"
         style="font-weight:normal;font-size:48px;line-height:1.25;-inkscape-font-specification:Lavi;letter-spacing:7.06853437px;fill:#ffffff;fill-opacity:1;stroke:#ffffff;stroke-width:0.99236238;stroke-linejoin:miter;stroke-miterlimit:4;stroke-dasharray:none;stroke-opacity:1">.ui sai</flowPara></flowRoot>    <flowRoot
       xml:space="preserve"
       id="flowRoot2987-7-9-9-7-0-3-0"
       style="font-style:normal;font-variant:normal;font-weight:normal;font-stretch:normal;line-height:0.01%;font-family:Lavi;-inkscape-font-specification:Lavi;letter-spacing:0px;word-spacing:0px;fill:#000000;fill-opacity:1;stroke:#000000;stroke-width:0.99236238;stroke-miterlimit:4;stroke-dasharray:none;stroke-opacity:1;filter:url(#filter4375-4-1-4)"
       transform="matrix(0.81295734,-0.5582143,0,2.0745194,1392.2095,2686.9951)"><flowRegion
         id="flowRegion2989-4-5-8-7-41-7-6"
         style="stroke-width:5.40286207"><rect
           id="rect2991-45-1-3-3-8-0-8"
           width="319.66232"
           height="56.089447"
           x="120.55251"
           y="265.53046"
           style="font-style:normal;font-variant:normal;font-weight:normal;font-stretch:normal;font-family:Lavi;-inkscape-font-specification:Lavi;fill:#000000;fill-opacity:1;stroke:#000000;stroke-width:0.99236238;stroke-miterlimit:4;stroke-dasharray:none;stroke-opacity:1" /></flowRegion><flowPara
         id="flowPara2995-4-1-5-0-7-2-9"
         style="font-weight:normal;font-size:48px;line-height:1.25;-inkscape-font-specification:Lavi;letter-spacing:7.06853437px;fill:#ffffff;fill-opacity:1;stroke:#ffffff;stroke-width:0.99236238;stroke-linejoin:miter;stroke-miterlimit:4;stroke-dasharray:none;stroke-opacity:1">.ui</flowPara></flowRoot>    <flowRoot
       xml:space="preserve"
       id="flowRoot2987-7-9-9-7-0-3-5"
       style="font-style:normal;font-variant:normal;font-weight:normal;font-stretch:normal;line-height:0.01%;font-family:Lavi;-inkscape-font-specification:Lavi;letter-spacing:0px;word-spacing:0px;fill:#000000;fill-opacity:1;stroke:#000000;stroke-width:0.99236238;stroke-miterlimit:4;stroke-dasharray:none;stroke-opacity:1;filter:url(#filter4375-4-1-7)"
       transform="matrix(0.81295734,-0.5582143,0,2.0745194,1650.9052,2771.7777)"
       inkscape:transform-center-x="260.86955"
       inkscape:transform-center-y="-152.17391"><flowRegion
         id="flowRegion2989-4-5-8-7-41-7-68"
         style="stroke-width:5.40286207"><rect
           id="rect2991-45-1-3-3-8-0-3"
           width="319.66232"
           height="56.089447"
           x="120.55251"
           y="265.53046"
           style="font-style:normal;font-variant:normal;font-weight:normal;font-stretch:normal;font-family:Lavi;-inkscape-font-specification:Lavi;fill:#000000;fill-opacity:1;stroke:#000000;stroke-width:0.99236238;stroke-miterlimit:4;stroke-dasharray:none;stroke-opacity:1" /></flowRegion><flowPara
         id="flowPara2995-4-1-5-0-7-2-5"
         style="font-weight:normal;font-size:48px;line-height:1.25;-inkscape-font-specification:Lavi;letter-spacing:7.06853437px;fill:#ffffff;fill-opacity:1;stroke:#ffffff;stroke-width:0.99236238;stroke-linejoin:miter;stroke-miterlimit:4;stroke-dasharray:none;stroke-opacity:1">.io</flowPara></flowRoot>    <flowRoot
       xml:space="preserve"
       id="flowRoot2987-7-9-9-7-0-3-7"
       style="font-style:normal;font-variant:normal;font-weight:normal;font-stretch:normal;line-height:0.01%;font-family:Lavi;-inkscape-font-specification:Lavi;letter-spacing:0px;word-spacing:0px;fill:#000000;fill-opacity:1;stroke:#000000;stroke-width:0.99236238;stroke-miterlimit:4;stroke-dasharray:none;stroke-opacity:1;filter:url(#filter4375-4-1-40)"
       transform="matrix(0.66064967,-0.45648241,0,1.6964482,1776.2569,2816.2132)"><flowRegion
         id="flowRegion2989-4-5-8-7-41-7-5"
         style="stroke-width:5.40286207"><rect
           id="rect2991-45-1-3-3-8-0-5"
           width="319.66232"
           height="56.089447"
           x="120.55251"
           y="265.53046"
           style="font-style:normal;font-variant:normal;font-weight:normal;font-stretch:normal;font-family:Lavi;-inkscape-font-specification:Lavi;fill:#000000;fill-opacity:1;stroke:#000000;stroke-width:0.99236238;stroke-miterlimit:4;stroke-dasharray:none;stroke-opacity:1" /></flowRegion><flowPara
         id="flowPara2995-4-1-5-0-7-2-92"
         style="font-weight:normal;font-size:48px;line-height:1.25;-inkscape-font-specification:Lavi;letter-spacing:7.06853437px;fill:#ffffff;fill-opacity:1;stroke:#ffffff;stroke-width:0.99236238;stroke-linejoin:miter;stroke-miterlimit:4;stroke-dasharray:none;stroke-opacity:1">.i'e sai</flowPara></flowRoot>    <flowRoot
       xml:space="preserve"
       id="flowRoot2987-7-9-9-7-0-3-7-7"
       style="font-style:normal;font-variant:normal;font-weight:normal;font-stretch:normal;line-height:0.01%;font-family:Lavi;-inkscape-font-specification:Lavi;letter-spacing:0px;word-spacing:0px;fill:#000000;fill-opacity:1;stroke:#000000;stroke-width:0.99236238;stroke-miterlimit:4;stroke-dasharray:none;stroke-opacity:1;filter:url(#filter4375-4-1-40-7)"
       transform="matrix(0.66064967,-0.45648241,0,1.6964482,1871.1529,2839.1811)"><flowRegion
         id="flowRegion2989-4-5-8-7-41-7-5-8"
         style="stroke-width:5.40286207"><rect
           id="rect2991-45-1-3-3-8-0-5-8"
           width="319.66232"
           height="56.089447"
           x="120.55251"
           y="265.53046"
           style="font-style:normal;font-variant:normal;font-weight:normal;font-stretch:normal;font-family:Lavi;-inkscape-font-specification:Lavi;fill:#000000;fill-opacity:1;stroke:#000000;stroke-width:0.99236238;stroke-miterlimit:4;stroke-dasharray:none;stroke-opacity:1" /></flowRegion><flowPara
         id="flowPara2995-4-1-5-0-7-2-92-2"
         style="font-weight:normal;font-size:48px;line-height:1.25;-inkscape-font-specification:Lavi;letter-spacing:7.06853437px;fill:#ffffff;fill-opacity:1;stroke:#ffffff;stroke-width:0.99236238;stroke-linejoin:miter;stroke-miterlimit:4;stroke-dasharray:none;stroke-opacity:1">.io sai</flowPara></flowRoot>    <flowRoot
       xml:space="preserve"
       id="flowRoot2987-7-9-9-7-0-3-4-1"
       style="font-style:normal;font-variant:normal;font-weight:normal;font-stretch:normal;line-height:0.01%;font-family:Lavi;-inkscape-font-specification:Lavi;letter-spacing:0px;word-spacing:0px;fill:#000000;fill-opacity:1;stroke:#000000;stroke-width:0.99236238;stroke-miterlimit:4;stroke-dasharray:none;stroke-opacity:1;filter:url(#filter4375-4-1-1-1)"
       transform="matrix(0.95025051,-0.6235099,0,2.3171807,2053.2197,2699.2558)"><flowRegion
         id="flowRegion2989-4-5-8-7-41-7-62-2"
         style="stroke-width:5.40286207"><rect
           id="rect2991-45-1-3-3-8-0-4-6"
           width="319.66232"
           height="56.089447"
           x="120.55251"
           y="265.53046"
           style="font-style:normal;font-variant:normal;font-weight:normal;font-stretch:normal;font-family:Lavi;-inkscape-font-specification:Lavi;fill:#000000;fill-opacity:1;stroke:#000000;stroke-width:0.99236238;stroke-miterlimit:4;stroke-dasharray:none;stroke-opacity:1" /></flowRegion><flowPara
         id="flowPara2995-4-1-5-0-7-2-6-4"
         style="font-weight:normal;font-size:48px;line-height:1.25;-inkscape-font-specification:Lavi;letter-spacing:7.06853437px;fill:#ffffff;fill-opacity:1;stroke:#ffffff;stroke-width:0.99236238;stroke-linejoin:miter;stroke-miterlimit:4;stroke-dasharray:none;stroke-opacity:1">.io sai</flowPara></flowRoot>    <flowRoot
       xml:space="preserve"
       id="flowRoot2987-7-9-9-7-0-3-5-6"
       style="font-style:normal;font-variant:normal;font-weight:normal;font-stretch:normal;line-height:0.01%;font-family:Lavi;-inkscape-font-specification:Lavi;letter-spacing:0px;word-spacing:0px;fill:#000000;fill-opacity:1;stroke:#000000;stroke-width:0.99236238;stroke-miterlimit:4;stroke-dasharray:none;stroke-opacity:1;filter:url(#filter4375-4-1-7-8)"
       transform="matrix(0.81295734,-0.5582143,0,2.0745194,1870.0923,2822.2502)"
       inkscape:transform-center-x="260.86955"
       inkscape:transform-center-y="-152.17391"><flowRegion
         id="flowRegion2989-4-5-8-7-41-7-68-6"
         style="stroke-width:5.40286207"><rect
           id="rect2991-45-1-3-3-8-0-3-9"
           width="319.66232"
           height="56.089447"
           x="120.55251"
           y="265.53046"
           style="font-style:normal;font-variant:normal;font-weight:normal;font-stretch:normal;font-family:Lavi;-inkscape-font-specification:Lavi;fill:#000000;fill-opacity:1;stroke:#000000;stroke-width:0.99236238;stroke-miterlimit:4;stroke-dasharray:none;stroke-opacity:1" /></flowRegion><flowPara
         id="flowPara2995-4-1-5-0-7-2-5-5"
         style="font-weight:normal;font-size:48px;line-height:1.25;-inkscape-font-specification:Lavi;letter-spacing:7.06853437px;fill:#ffffff;fill-opacity:1;stroke:#ffffff;stroke-width:0.99236238;stroke-linejoin:miter;stroke-miterlimit:4;stroke-dasharray:none;stroke-opacity:1">.io sai</flowPara></flowRoot>    <flowRoot
       xml:space="preserve"
       id="flowRoot2987-7-9-9-7-0-3-4"
       style="font-style:normal;font-variant:normal;font-weight:normal;font-stretch:normal;line-height:0.01%;font-family:Lavi;-inkscape-font-specification:Lavi;letter-spacing:0px;word-spacing:0px;fill:#000000;fill-opacity:1;stroke:#000000;stroke-width:0.99236238;stroke-miterlimit:4;stroke-dasharray:none;stroke-opacity:1;filter:url(#filter4375-4-1-1)"
       transform="matrix(0.95025051,-0.6235099,0,2.3171807,1709.7887,2775.2954)"><flowRegion
         id="flowRegion2989-4-5-8-7-41-7-62"
         style="stroke-width:5.40286207"><rect
           id="rect2991-45-1-3-3-8-0-4"
           width="319.66232"
           height="56.089447"
           x="120.55251"
           y="265.53046"
           style="font-style:normal;font-variant:normal;font-weight:normal;font-stretch:normal;font-family:Lavi;-inkscape-font-specification:Lavi;fill:#000000;fill-opacity:1;stroke:#000000;stroke-width:0.99236238;stroke-miterlimit:4;stroke-dasharray:none;stroke-opacity:1" /></flowRegion><flowPara
         id="flowPara2995-4-1-5-0-7-2-6"
         style="font-weight:normal;font-size:48px;line-height:1.25;-inkscape-font-specification:Lavi;letter-spacing:7.06853437px;fill:#ffffff;fill-opacity:1;stroke:#ffffff;stroke-width:0.99236238;stroke-linejoin:miter;stroke-miterlimit:4;stroke-dasharray:none;stroke-opacity:1">.ue sai</flowPara></flowRoot>    <flowRoot
       xml:space="preserve"
       id="flowRoot2987-7-9-9-7-0-3-5-2"
       style="font-style:normal;font-variant:normal;font-weight:normal;font-stretch:normal;line-height:0.01%;font-family:Lavi;-inkscape-font-specification:Lavi;letter-spacing:0px;word-spacing:0px;fill:#000000;fill-opacity:1;stroke:#000000;stroke-width:0.99236238;stroke-miterlimit:4;stroke-dasharray:none;stroke-opacity:1;filter:url(#filter4375-4-1-7-3)"
       transform="matrix(0.64072204,-0.45082614,0,1.6754275,1972.1078,2818.9119)"
       inkscape:transform-center-x="205.60104"
       inkscape:transform-center-y="-122.89897"><flowRegion
         id="flowRegion2989-4-5-8-7-41-7-68-63"
         style="stroke-width:5.40286207"><rect
           id="rect2991-45-1-3-3-8-0-3-6"
           width="319.66232"
           height="56.089447"
           x="120.55251"
           y="265.53046"
           style="font-style:normal;font-variant:normal;font-weight:normal;font-stretch:normal;font-family:Lavi;-inkscape-font-specification:Lavi;fill:#000000;fill-opacity:1;stroke:#000000;stroke-width:0.99236238;stroke-miterlimit:4;stroke-dasharray:none;stroke-opacity:1" /></flowRegion><flowPara
         id="flowPara2995-4-1-5-0-7-2-5-3"
         style="font-weight:normal;font-size:48px;line-height:1.25;-inkscape-font-specification:Lavi;letter-spacing:7.06853437px;fill:#ffffff;fill-opacity:1;stroke:#ffffff;stroke-width:0.99236238;stroke-linejoin:miter;stroke-miterlimit:4;stroke-dasharray:none;stroke-opacity:1">.ue sai</flowPara></flowRoot>    <flowRoot
       xml:space="preserve"
       id="flowRoot2987-7-9-9-7-0-3-5-2-9"
       style="font-style:normal;font-variant:normal;font-weight:normal;font-stretch:normal;line-height:0.01%;font-family:Lavi;-inkscape-font-specification:Lavi;letter-spacing:0px;word-spacing:0px;fill:#000000;fill-opacity:1;stroke:#000000;stroke-width:0.99236238;stroke-miterlimit:4;stroke-dasharray:none;stroke-opacity:1;filter:url(#filter4375-4-1-7-3-3)"
       transform="matrix(0.64072204,-0.45082614,0,1.6754275,2001.4084,2904.9232)"
       inkscape:transform-center-x="205.60104"
       inkscape:transform-center-y="-122.89897"><flowRegion
         id="flowRegion2989-4-5-8-7-41-7-68-63-4"
         style="stroke-width:5.40286207"><rect
           id="rect2991-45-1-3-3-8-0-3-6-3"
           width="319.66232"
           height="56.089447"
           x="120.55251"
           y="265.53046"
           style="font-style:normal;font-variant:normal;font-weight:normal;font-stretch:normal;font-family:Lavi;-inkscape-font-specification:Lavi;fill:#000000;fill-opacity:1;stroke:#000000;stroke-width:0.99236238;stroke-miterlimit:4;stroke-dasharray:none;stroke-opacity:1" /></flowRegion><flowPara
         id="flowPara2995-4-1-5-0-7-2-5-3-1"
         style="font-weight:normal;font-size:48px;line-height:1.25;-inkscape-font-specification:Lavi;letter-spacing:7.06853437px;fill:#ffffff;fill-opacity:1;stroke:#ffffff;stroke-width:0.99236238;stroke-linejoin:miter;stroke-miterlimit:4;stroke-dasharray:none;stroke-opacity:1">.io sai</flowPara></flowRoot>    <flowRoot
       xml:space="preserve"
       id="flowRoot2987-7-9-9-7-0-3-5-2-6"
       style="font-style:normal;font-variant:normal;font-weight:normal;font-stretch:normal;line-height:0.01%;font-family:Lavi;-inkscape-font-specification:Lavi;letter-spacing:0px;word-spacing:0px;fill:#000000;fill-opacity:1;stroke:#000000;stroke-width:0.99236238;stroke-miterlimit:4;stroke-dasharray:none;stroke-opacity:1;filter:url(#filter4375-4-1-7-3-7)"
       transform="matrix(0.64072204,-0.45082614,0,1.6754275,2210.69,2832.5414)"
       inkscape:transform-center-x="205.60104"
       inkscape:transform-center-y="-122.89897"><flowRegion
         id="flowRegion2989-4-5-8-7-41-7-68-63-1"
         style="stroke-width:5.40286207"><rect
           id="rect2991-45-1-3-3-8-0-3-6-32"
           width="319.66232"
           height="56.089447"
           x="120.55251"
           y="265.53046"
           style="font-style:normal;font-variant:normal;font-weight:normal;font-stretch:normal;font-family:Lavi;-inkscape-font-specification:Lavi;fill:#000000;fill-opacity:1;stroke:#000000;stroke-width:0.99236238;stroke-miterlimit:4;stroke-dasharray:none;stroke-opacity:1" /></flowRegion><flowPara
         id="flowPara2995-4-1-5-0-7-2-5-3-0"
         style="font-weight:normal;font-size:48px;line-height:1.25;-inkscape-font-specification:Lavi;letter-spacing:7.06853437px;fill:#ffffff;fill-opacity:1;stroke:#ffffff;stroke-width:0.99236238;stroke-linejoin:miter;stroke-miterlimit:4;stroke-dasharray:none;stroke-opacity:1"> </flowPara></flowRoot>    <flowRoot
       xml:space="preserve"
       id="flowRoot2987-7-9-9-7-0-3-4-1-7"
       style="font-style:normal;font-variant:normal;font-weight:normal;font-stretch:normal;line-height:0.01%;font-family:Lavi;-inkscape-font-specification:Lavi;letter-spacing:0px;word-spacing:0px;fill:#000000;fill-opacity:1;stroke:#000000;stroke-width:0.99236238;stroke-miterlimit:4;stroke-dasharray:none;stroke-opacity:1;filter:url(#filter4375-4-1-1-1-8)"
       transform="matrix(0.80795325,-0.55028753,0,2.0450608,1508.9929,2668.928)"><flowRegion
         id="flowRegion2989-4-5-8-7-41-7-62-2-4"
         style="stroke-width:5.40286207"><rect
           id="rect2991-45-1-3-3-8-0-4-6-7"
           width="319.66232"
           height="56.089447"
           x="120.55251"
           y="265.53046"
           style="font-style:normal;font-variant:normal;font-weight:normal;font-stretch:normal;font-family:Lavi;-inkscape-font-specification:Lavi;fill:#000000;fill-opacity:1;stroke:#000000;stroke-width:0.99236238;stroke-miterlimit:4;stroke-dasharray:none;stroke-opacity:1" /></flowRegion><flowPara
         id="flowPara2995-4-1-5-0-7-2-6-4-2"
         style="font-weight:normal;font-size:48px;line-height:1.25;-inkscape-font-specification:Lavi;letter-spacing:7.06853437px;fill:#ffffff;fill-opacity:1;stroke:#ffffff;stroke-width:0.99236238;stroke-linejoin:miter;stroke-miterlimit:4;stroke-dasharray:none;stroke-opacity:1">.ue sai</flowPara></flowRoot>    <flowRoot
       transform="translate(374.26601,2186.0326)"
       style="font-style:normal;font-variant:normal;font-weight:normal;font-stretch:normal;line-height:0.01%;font-family:Lavi;-inkscape-font-specification:Lavi;text-align:center;letter-spacing:0px;word-spacing:0px;text-anchor:middle;fill:#000000;fill-opacity:1;stroke:none"
       id="flowRoot4212-3"
       xml:space="preserve"><flowRegion
         id="flowRegion4214-6"><rect
           style="font-style:normal;font-variant:normal;font-weight:normal;font-stretch:normal;font-family:Lavi;-inkscape-font-specification:Lavi;text-align:center;text-anchor:middle"
           y="265.53046"
           x="120.55251"
           height="310.73996"
           width="602.40173"
           id="rect4216-4" /></flowRegion><flowPara
         style="font-size:48px;line-height:1.25;text-align:center;text-anchor:middle"
         id="flowPara4551">.i doi</flowPara><flowPara
         style="font-size:48px;line-height:1.25;text-align:center;text-anchor:middle"
         id="flowPara5120">lei nobli</flowPara></flowRoot>  </g>
</svg>
