<?xml version="1.0" encoding="UTF-8" standalone="no"?>
<svg
   xmlns:dc="http://purl.org/dc/elements/1.1/"
   xmlns:cc="http://creativecommons.org/ns#"
   xmlns:rdf="http://www.w3.org/1999/02/22-rdf-syntax-ns#"
   xmlns:svg="http://www.w3.org/2000/svg"
   xmlns="http://www.w3.org/2000/svg"
   xmlns:xlink="http://www.w3.org/1999/xlink"
   xmlns:sodipodi="http://sodipodi.sourceforge.net/DTD/sodipodi-0.dtd"
   xmlns:inkscape="http://www.inkscape.org/namespaces/inkscape"
   sodipodi:docname="E04P01.svg"
   height="3503"
   width="2481"
   inkscape:version="1.0 (4035a4fb49, 2020-05-01)"
   version="1.1"
   id="svg2">
  <metadata
     id="metadata8">
    <rdf:RDF>
      <cc:Work
         rdf:about="">
        <dc:format>image/svg+xml</dc:format>
        <dc:type
           rdf:resource="http://purl.org/dc/dcmitype/StillImage" />
        <dc:title />
      </cc:Work>
    </rdf:RDF>
  </metadata>
  <defs
     id="defs6" />
  <sodipodi:namedview
     inkscape:document-rotation="0"
     inkscape:current-layer="layer1"
     inkscape:window-maximized="0"
     inkscape:window-y="0"
     inkscape:window-x="522"
     inkscape:cy="779.47308"
     inkscape:cx="815.87072"
     inkscape:zoom="0.80168338"
     showgrid="false"
     id="namedview4"
     inkscape:window-height="703"
     inkscape:window-width="840"
     inkscape:pageshadow="2"
     inkscape:pageopacity="0"
     guidetolerance="10"
     gridtolerance="10"
     objecttolerance="10"
     borderopacity="1"
     bordercolor="#666666"
     pagecolor="#ffffff" />
  <g
     sodipodi:insensitive="true"
     inkscape:label="artwork"
     id="layer2"
     inkscape:groupmode="layer">
    <image
       sodipodi:absref="/felles/omsetting/pepper-carrot/webcomics/ep04_Stroke-of-genius/lang/gfx_Pepper-and-Carrot_by-David-Revoy_E04P01.png"
       xlink:href="../gfx_Pepper-and-Carrot_by-David-Revoy_E04P01.png"
       y="0"
       x="0"
       id="image10"
       height="3503"
       width="2481" />
  </g>
  <g
     inkscape:label="speechbubbles"
     id="layer3"
     inkscape:groupmode="layer">
    <path
       sodipodi:nodetypes="cccccccccccccccccccccccccccccccscscccccsccssscssssssssssscccccccccc"
       inkscape:connector-curvature="0"
       id="path3894"
       d="m 429.55613,2404.9985 c -5.97038,-45.7602 -11.94075,-139.1296 0,-159.4675 7.59865,0 20.08217,-0.4622 20.08217,-0.4622 l -11.94075,-24.9601 21.71044,6.0089 10.85523,-8.3201 -7.05589,-13.8666 19.53939,6.4711 9.7697,-13.4046 16.28284,9.7068 8.14142,-13.8668 17.91111,11.0935 33.10844,-6.009 c 81.24454,-2.4492 161.58061,-6.1879 246.95636,-2.7734 l 26.05256,-8.7822 7.59864,12.9422 13.56904,0.4623 13.02627,-5.5467 13.02629,6.0089 43.42087,-4.16 14.1118,12.0179 16.82561,-10.169 5.42759,13.4045 16.82562,-8.32 2.71381,8.7822 40.16431,-10.169 -5.9703,20.8002 c 0,0 29.8518,9.2445 51.0196,2.3111 2.171,4.6223 -1.0858,12.9423 -1.0858,12.9423 l 10.8553,4.6222 v 12.0179 c 0,0 21.7106,15.7156 23.8815,19.8757 2.1711,4.16 7.0559,117.8673 -0.5427,135.8939 5.9704,0 9.7697,2.7734 9.2271,5.5468 -0.5428,2.7734 -4.8851,10.6311 -4.8851,10.6311 0,0 5.9705,7.3956 4.3423,9.7067 -1.6285,2.3112 -4.885,5.5468 -4.885,5.5468 0,0 5.4278,6.0089 3.7993,7.8578 -1.6282,1.8489 -10.8551,5.0844 -14.6544,6.9333 4.3422,3.6978 8.1413,11.5557 4.8848,13.4046 -3.2564,1.8489 -10.8552,3.2355 -10.8552,3.2355 l -2.7138,4.6222 c 0,0 -1.0855,9.2446 -3.7993,9.7068 -2.7139,0.4622 -14.1118,-4.6223 -15.7402,-3.6979 -1.6283,0.9245 -5.9703,8.3202 -8.6841,8.3202 -2.7138,0 -11.398,-8.7824 -11.398,-8.7824 -1.16,1.9756 -144.49581,5.2911 -156.31525,3.2357 -11.89113,-2.068 -58.61821,2.7733 -65.13135,2.7733 -6.51315,0 -33.65121,-1.3867 -37.45052,-2.3111 -3.79935,-0.9244 -18.99666,-4.1601 -24.42426,-3.6979 -5.42763,0.4622 -15.74009,5.0846 -21.71045,5.0846 -5.97038,0 -40.16433,-2.7734 -46.67746,-2.3111 -6.51313,0.4622 -36.36502,2.3111 -41.24986,2.3111 -4.88485,0 -59.70374,-5.0846 -65.67412,-5.5468 -5.97037,-0.4622 -32.02292,4.6223 -36.90775,4.1601 -4.88486,-0.4622 -32.56568,-4.6223 -41.24986,-4.1601 -8.68418,0.4622 -41.24986,-6.0089 -43.4209,-5.5467 -2.17105,0.4622 -5.44957,0.9234 -25.50978,0 10.31248,-6.9333 7.05588,-12.9422 7.05588,-12.9422 l -7.59862,-3.6979 1.08549,-4.16 -15.74006,-6.9333 2.17104,-5.0845 1.08551,-8.3201 -15.74006,-6.4711 24.96702,-18.489 z"
       style="fill:#ffffff;stroke:none;stroke-width:1.11083px;stroke-linecap:butt;stroke-linejoin:miter;stroke-opacity:1" />
    <path
       inkscape:connector-curvature="0"
       id="path3896"
       d="m 820.04625,2461.3394 c 1.81385,78.9025 3.6277,268.4498 28.11468,311.9822 24.48697,43.5324 33.55622,70.7401 98.85481,79.8094 -68.92629,-32.6493 -89.78557,-105.2033 -96.13404,-230.3589 -6.34847,-125.1557 43.5324,-212.2205 43.5324,-212.2205 l -68.01937,-3.6277 z"
       style="color:#000000;display:inline;overflow:visible;visibility:visible;fill:#ffffff;fill-opacity:1;fill-rule:nonzero;stroke:none;stroke-width:1px;stroke-linecap:butt;stroke-linejoin:miter;stroke-opacity:1;marker:none;enable-background:accumulate" />
    <path
       sodipodi:nodetypes="cccccsssccsssssccccccssscssscccccscscsscccc"
       inkscape:connector-curvature="0"
       id="path3915"
       d="m 696.3406,2540.8609 c 12.94915,-3.4254 25.26753,-9.3111 19.87205,-18.0653 3.77684,-0.3806 16.72599,1.9031 14.56778,-4.1869 3.23731,-0.761 7.55369,-0.761 4.85595,-5.7092 3.77684,-0.3805 14.56779,1.5225 11.87006,-3.4256 7.01413,-1.1418 68.83898,-2.6641 92.5791,-0.761 23.74011,1.9028 87.40679,0.3805 93.88136,0 6.47458,-0.3808 56.113,0 60.42939,0 4.31637,0 21.58191,4.1866 26.97731,6.4704 8.0933,-3.045 18.3447,-1.9032 18.3447,-1.9032 0,0 0,12.941 1.6186,14.0829 1.6187,1.1418 9.7119,-1.903 11.3306,0 1.6186,1.903 -11.3306,13.3216 -9.7119,13.7022 1.6187,0.3806 14.5678,4.5673 14.5678,6.0898 0,1.5224 -10.2514,8.754 -9.7118,9.1346 0.5394,0.3808 8.6327,5.3288 7.5537,9.5156 9.7119,1.5224 14.5678,5.3286 17.2655,7.9929 -4.3164,4.948 -14.5679,9.5153 -16.7261,12.1797 2.6978,4.5673 9.7119,10.6573 8.0932,12.5604 -1.6186,1.9031 -9.1722,1.5225 -14.5677,-0.7611 2.1582,5.7091 7.6186,51.3829 -2.0933,68.1301 2.6978,3.8062 7.5537,6.4704 8.6329,10.2767 1.079,3.8061 -2.1582,9.8959 -1.6188,11.799 0.5396,1.9031 4.856,8.3737 4.3165,11.4184 -0.5396,3.045 -2.6977,6.0899 -5.9351,7.993 -0.5395,3.045 2.1582,5.3287 -0.5395,6.0899 -2.6978,0.7613 -13.4887,-3.4256 -16.1864,-2.6644 -2.6978,0.7613 -0.5396,11.038 -3.2374,12.9411 -2.6977,1.903 -66.96887,6.851 -79.91802,2.6642 -13.4887,-0.7612 -113.30509,15.6053 -154.85029,9.1349 -4.85593,-0.7613 -3.77684,-3.4255 -7.55367,-4.1869 -3.77685,-0.7612 -5.93503,1.9032 -14.02825,1.1419 -7.01412,-3.8062 -42.56826,4.6936 -57.13608,-13.576 -4.85592,0 -12.94914,1.9031 -14.02824,-1.142 -1.07909,-3.0448 0.53954,-5.3285 0.53954,-5.3285 0,0 -5.39547,1.1418 -5.93502,-1.1418 -0.53953,-2.2837 7.01413,-8.3736 6.47458,-9.5155 -0.53956,-1.1418 -15.64689,2.2837 -16.18644,-0.3806 -0.53954,-2.6642 5.93504,-9.1348 5.39548,-11.0379 -0.53955,-1.9029 -18.12543,-45.5645 -0.28118,-130.1203 4.3164,-1.142 8.63276,-2.2837 8.09322,-3.8062 -0.53954,-1.5225 -7.01413,-4.5675 -7.01413,-4.5675 z"
       style="color:#000000;display:inline;overflow:visible;visibility:visible;fill:#ffffff;fill-opacity:1;fill-rule:nonzero;stroke:none;stroke-width:1.00502px;marker:none;enable-background:accumulate" />
    <path
       inkscape:connector-curvature="0"
       id="path3923"
       d="m 2161.9635,2759.6873 c 75.5442,-65.8317 129.3057,-115.4309 140.8923,-189.8298 11.5865,-74.3988 -1.8538,-91.5331 -5.5615,-100.5511 -12.977,1.8036 -33.8327,13.978 -38.0039,19.3888 1.8539,-19.8397 -11.5865,-82.5151 -31.9788,-107.3147 -20.3923,-24.7996 -39.3943,-7.6653 -39.3943,-7.6653 0,0 61.177,94.6894 55.1519,157.8157 12.0501,-12.6253 34.7597,-36.974 40.3212,-32.465 5.5615,4.5091 8.3423,64.9299 -3.7077,92.4349 -12.05,27.5051 -38.9308,101.9039 -117.7192,168.1865 z"
       style="color:#000000;display:inline;overflow:visible;visibility:visible;fill:#ffffff;fill-opacity:1;fill-rule:nonzero;stroke:none;stroke-width:1px;marker:none;enable-background:accumulate" />
    <path
       sodipodi:nodetypes="ccccccccccccccccccccccccccccccccccccccccccccccccccccc"
       inkscape:connector-curvature="0"
       id="path3931"
       d="m 1846.2,2353.2992 c 0,0 37.5681,7.7521 43.5312,11.9264 5.9632,4.1742 29.8159,-2.9816 -3.5779,44.7238 33.9901,-15.5043 60.8244,-32.2012 73.3471,-30.4122 -5.3668,11.9263 -11.33,27.4306 -11.33,27.4306 0,0 31.0085,-12.5227 36.9717,-11.9263 -1.789,5.3668 2.3853,16.1005 2.3853,16.1005 l 16.1005,-2.3852 4.7706,14.3116 c 0,0 64.4023,-25.0454 72.1544,-22.0638 7.7522,2.9816 -3.5779,34.5865 -3.5779,34.5865 l 17.2933,-12.5227 8.3484,0.5963 20.2748,-20.2748 6.5595,11.33 4.7705,-4.1742 9.5411,4.7706 22.6601,-17.2933 7.7521,1.789 19.6785,27.4306 10.7338,-12.5227 5.3668,-0.5963 35.1828,1.1927 2.3852,-2.9816 5.9632,-1.1927 8.3485,-5.9631 4.7705,-13.7154 h 10.1374 l 20.2748,12.5227 9.5411,8.3485 7.1558,-20.2748 4.1742,-2.3853 1.1927,-12.5227 23.2564,9.5411 7.1558,5.9632 1.7889,-10.7337 7.7522,-0.5964 14.3116,4.1743 15.5043,11.33 23.2564,12.5227 -20.2143,-32.1954 -5.8536,-19.5747 12.9489,-10.8433 v -95.4108 l -11.9264,-131.19 -519.3928,6.5595 -13.119,86.4661 0.5963,76.925 -2.9816,25.6417 0.5963,22.6601 v 0 l 16.1006,9.541 z"
       style="color:#000000;display:inline;overflow:visible;visibility:visible;fill:#ffffff;fill-opacity:1;fill-rule:nonzero;stroke:none;stroke-width:1px;stroke-linecap:butt;stroke-linejoin:miter;stroke-opacity:1;marker:none;enable-background:accumulate" />
  </g>
  <g
     inkscape:label="txt"
     id="layer1"
     inkscape:groupmode="layer">
    <flowRoot
       transform="translate(52.552065,-126.62151)"
       style="font-style:normal;font-variant:normal;font-weight:normal;font-stretch:normal;line-height:0.01%;font-family:Lavi;-inkscape-font-specification:Lavi;letter-spacing:0px;word-spacing:0px;fill:#000000;fill-opacity:1;stroke:none"
       id="flowRoot2987"
       xml:space="preserve"><flowRegion
         id="flowRegion2989"><rect
           style="font-style:normal;font-variant:normal;font-weight:normal;font-stretch:normal;font-family:Lavi;-inkscape-font-specification:Lavi"
           y="265.53046"
           x="120.55251"
           height="213.03587"
           width="973.52362"
           id="rect2991" /></flowRegion><flowPara
         id="flowPara3914"
         style="font-size:48px;line-height:1.25">Klokka 2, natta før</flowPara><flowPara
         id="flowPara859"
         style="font-size:48px;line-height:1.25">trylledrikk-konkurransen</flowPara></flowRoot>
    <flowRoot
       transform="translate(341.31241,1949.0059)"
       style="font-style:normal;font-variant:normal;font-weight:normal;font-stretch:normal;line-height:0.01%;font-family:Lavi;-inkscape-font-specification:Lavi;text-align:center;letter-spacing:0px;word-spacing:0px;text-anchor:middle;fill:#000000;fill-opacity:1;stroke:none"
       id="flowRoot2987-4"
       xml:space="preserve"><flowRegion
         id="flowRegion2989-5"><rect
           style="font-style:normal;font-variant:normal;font-weight:normal;font-stretch:normal;font-family:Lavi;-inkscape-font-specification:Lavi;text-align:center;text-anchor:middle"
           y="265.53046"
           x="120.55251"
           height="310.73996"
           width="602.40173"
           id="rect2991-7" /></flowRegion><flowPara
         id="flowPara3407"
         style="font-size:48px;line-height:1.25;text-align:center;text-anchor:middle">Endeleg ...</flowPara><flowPara
         id="flowPara3925"
         style="font-size:48px;line-height:1.25;text-align:center;text-anchor:middle">Ikkje eingong Safran kan laga noko som kan måla seg med denne trylledrikken!</flowPara></flowRoot>
    <flowRoot
       transform="matrix(0.96141471,0,0,0.91963896,474.97616,2294.6837)"
       style="font-style:normal;font-variant:normal;font-weight:normal;font-stretch:normal;line-height:0.01%;font-family:Lavi;-inkscape-font-specification:Lavi;text-align:center;letter-spacing:0px;word-spacing:0px;text-anchor:middle;fill:#000000;fill-opacity:1;stroke:none"
       id="flowRoot2987-4-8"
       xml:space="preserve"><flowRegion
         id="flowRegion2989-5-9"><rect
           style="font-style:normal;font-variant:normal;font-weight:normal;font-stretch:normal;font-family:Lavi;-inkscape-font-specification:Lavi;text-align:center;text-anchor:middle"
           y="265.53046"
           x="120.55251"
           height="310.73996"
           width="602.40173"
           id="rect2991-7-4" /></flowRegion><flowPara
         id="flowPara39"
         style="font-size:48px;line-height:1.25;text-align:center;text-anchor:middle">No treng eg</flowPara><flowPara
         id="flowPara3938"
         style="font-size:48px;line-height:1.25;text-align:center;text-anchor:middle">berre ein</flowPara><flowPara
         id="flowPara47"
         style="font-size:48px;line-height:1.25;text-align:center;text-anchor:middle">prøvekanin ...</flowPara></flowRoot>
    <flowRoot
       transform="matrix(1.4179226,0,0,1.4152108,1527.4333,1745.8167)"
       style="font-style:normal;font-variant:normal;font-weight:normal;font-stretch:normal;line-height:0.01%;font-family:Lavi;-inkscape-font-specification:Lavi;text-align:center;letter-spacing:0px;word-spacing:0px;text-anchor:middle;fill:#000000;fill-opacity:1;stroke:none"
       id="flowRoot2987-4-8-2"
       xml:space="preserve"><flowRegion
         id="flowRegion2989-5-9-2"><rect
           style="font-style:normal;font-variant:normal;font-weight:normal;font-stretch:normal;font-family:Lavi;-inkscape-font-specification:Lavi;text-align:center;text-anchor:middle"
           y="265.53046"
           x="120.55251"
           height="310.73996"
           width="602.40173"
           id="rect2991-7-4-2" /></flowRegion><flowPara
         id="flowPara3892"
         style="font-size:48px;line-height:1.25;text-align:center;text-anchor:middle"> </flowPara><flowPara
         id="flowPara3945"
         style="font-size:48px;line-height:1.25;text-align:center;text-anchor:middle">GUUUUUUUUL-</flowPara><flowPara
         id="flowPara3947"
         style="font-size:48px;line-height:1.25;text-align:center;text-anchor:middle">ROOOOT!!!</flowPara></flowRoot>
  </g>
</svg>
