<?xml version="1.0" encoding="UTF-8" standalone="no"?>
<svg
   id="svg2"
   version="1.1"
   inkscape:version="1.1.1 (3bf5ae0d25, 2021-09-20, custom)"
   width="2481"
   height="3503"
   sodipodi:docname="E34P09.svg"
   xmlns:inkscape="http://www.inkscape.org/namespaces/inkscape"
   xmlns:sodipodi="http://sodipodi.sourceforge.net/DTD/sodipodi-0.dtd"
   xmlns:xlink="http://www.w3.org/1999/xlink"
   xmlns="http://www.w3.org/2000/svg"
   xmlns:svg="http://www.w3.org/2000/svg"
   xmlns:rdf="http://www.w3.org/1999/02/22-rdf-syntax-ns#"
   xmlns:cc="http://creativecommons.org/ns#"
   xmlns:dc="http://purl.org/dc/elements/1.1/">
  <metadata
     id="metadata8">
    <rdf:RDF>
      <cc:Work
         rdf:about="">
        <dc:format>image/svg+xml</dc:format>
        <dc:type
           rdf:resource="http://purl.org/dc/dcmitype/StillImage" />
        <dc:title />
      </cc:Work>
    </rdf:RDF>
  </metadata>
  <defs
     id="defs6">
    <filter
       style="color-interpolation-filters:sRGB"
       id="filter4375-4-1-1-1-9-5-8-8-5-5-3-3-3-0"
       inkscape:label="soundFX1"
       x="-0.031921386"
       y="-0.0062077671"
       width="1.0331446"
       height="1.0412401">
      <feFlood
         id="feFlood4377-7-9-0-8-1-7-3-1-2-7-6-6-5-96"
         flood-opacity="1"
         flood-color="rgb(52,52,52)"
         result="flood" />
      <feComposite
         id="feComposite4379-3-8-8-2-77-4-1-0-6-4-7-7-6-3"
         in2="SourceGraphic"
         in="flood"
         operator="in"
         result="composite1"
         baseFrequency="0.053999999999999999 0.053999999999999999" />
      <feMorphology
         id="feMorphology4393-1-0-49-8-9-3-0-1-9-9-5-5-2-8"
         operator="dilate"
         radius="2.5856550817276021"
         result="result3" />
      <feComposite
         id="feComposite4385-9-5-7-0-8-8-7-5-4-9-3-3-9-5"
         in2="result3"
         in="SourceGraphic"
         operator="over"
         result="fbSourceGraphic" />
      <feColorMatrix
         result="fbSourceGraphicAlpha"
         in="fbSourceGraphic"
         values="0 0 0 -1 0 0 0 0 -1 0 0 0 0 -1 0 0 0 0 1 0"
         id="feColorMatrix4544-9-4-4-5-5-1-6" />
      <feTurbulence
         id="feTurbulence4546-3-6-5-6-6-2-1"
         type="fractalNoise"
         numOctaves="4"
         seed="147"
         baseFrequency="0.046080819231719368"
         result="turbulence" />
      <feDisplacementMap
         id="feDisplacementMap4548-8-0-9-2-2-7-1"
         in2="turbulence"
         in="fbSourceGraphic"
         scale="13.20326"
         yChannelSelector="G"
         xChannelSelector="R"
         result="fbSourceGraphic" />
      <feColorMatrix
         result="fbSourceGraphicAlpha"
         in="fbSourceGraphic"
         values="0 0 0 -1 0 0 0 0 -1 0 0 0 0 -1 0 0 0 0 1 0"
         id="feColorMatrix4670-7-7-3-9-9-0-5" />
      <feFlood
         id="feFlood4672-4-4-5-1-1-9-9"
         flood-opacity="1"
         flood-color="rgb(28,28,28)"
         result="flood"
         in="fbSourceGraphic" />
      <feComposite
         id="feComposite4674-8-3-7-2-2-3-8"
         in2="fbSourceGraphic"
         in="flood"
         operator="in"
         result="composite1" />
      <feGaussianBlur
         id="feGaussianBlur4676-3-7-08-7-7-6-4"
         in="composite1"
         stdDeviation="0"
         result="blur" />
      <feOffset
         id="feOffset4678-6-9-1-0-0-0-8"
         dx="-8.3919392296330813"
         dy="1.5526614972014983"
         result="offset" />
      <feComposite
         id="feComposite4680-4-0-9-9-9-6-1"
         in2="offset"
         in="fbSourceGraphic"
         operator="over"
         result="composite2" />
    </filter>
    <filter
       style="color-interpolation-filters:sRGB"
       id="filter4375-4-1-1-1-9-5-8-8-5-5-3-3-3-0-6"
       inkscape:label="soundFX1"
       x="-0.047730991"
       y="-0.0059629702"
       width="1.04956"
       height="1.0396138">
      <feFlood
         id="feFlood4377-7-9-0-8-1-7-3-1-2-7-6-6-5-96-3"
         flood-opacity="1"
         flood-color="rgb(52,52,52)"
         result="flood" />
      <feComposite
         id="feComposite4379-3-8-8-2-77-4-1-0-6-4-7-7-6-3-2"
         in2="SourceGraphic"
         in="flood"
         operator="in"
         result="composite1"
         baseFrequency="0.053999999999999999 0.053999999999999999" />
      <feMorphology
         id="feMorphology4393-1-0-49-8-9-3-0-1-9-9-5-5-2-8-0"
         operator="dilate"
         radius="2.5856550817276021"
         result="result3" />
      <feComposite
         id="feComposite4385-9-5-7-0-8-8-7-5-4-9-3-3-9-5-6"
         in2="result3"
         in="SourceGraphic"
         operator="over"
         result="fbSourceGraphic" />
      <feColorMatrix
         result="fbSourceGraphicAlpha"
         in="fbSourceGraphic"
         values="0 0 0 -1 0 0 0 0 -1 0 0 0 0 -1 0 0 0 0 1 0"
         id="feColorMatrix4544-9-4-4-5-5-1-6-1" />
      <feTurbulence
         id="feTurbulence4546-3-6-5-6-6-2-1-5"
         type="fractalNoise"
         numOctaves="4"
         seed="147"
         baseFrequency="0.046080819231719368"
         result="turbulence" />
      <feDisplacementMap
         id="feDisplacementMap4548-8-0-9-2-2-7-1-5"
         in2="turbulence"
         in="fbSourceGraphic"
         scale="13.20326"
         yChannelSelector="G"
         xChannelSelector="R"
         result="fbSourceGraphic" />
      <feColorMatrix
         result="fbSourceGraphicAlpha"
         in="fbSourceGraphic"
         values="0 0 0 -1 0 0 0 0 -1 0 0 0 0 -1 0 0 0 0 1 0"
         id="feColorMatrix4670-7-7-3-9-9-0-5-4" />
      <feFlood
         id="feFlood4672-4-4-5-1-1-9-9-7"
         flood-opacity="1"
         flood-color="rgb(28,28,28)"
         result="flood"
         in="fbSourceGraphic" />
      <feComposite
         id="feComposite4674-8-3-7-2-2-3-8-6"
         in2="fbSourceGraphic"
         in="flood"
         operator="in"
         result="composite1" />
      <feGaussianBlur
         id="feGaussianBlur4676-3-7-08-7-7-6-4-5"
         in="composite1"
         stdDeviation="0"
         result="blur" />
      <feOffset
         id="feOffset4678-6-9-1-0-0-0-8-6"
         dx="-8.3919392296330813"
         dy="1.5526614972014983"
         result="offset" />
      <feComposite
         id="feComposite4680-4-0-9-9-9-6-1-9"
         in2="offset"
         in="fbSourceGraphic"
         operator="over"
         result="composite2" />
    </filter>
  </defs>
  <sodipodi:namedview
     pagecolor="#ffffff"
     bordercolor="#666666"
     borderopacity="1"
     objecttolerance="10"
     gridtolerance="10"
     guidetolerance="10"
     inkscape:pageopacity="0"
     inkscape:pageshadow="2"
     inkscape:window-width="1888"
     inkscape:window-height="1146"
     id="namedview4"
     showgrid="false"
     inkscape:zoom="0.3740595"
     inkscape:cx="1055.9817"
     inkscape:cy="1944.8778"
     inkscape:window-x="32"
     inkscape:window-y="0"
     inkscape:window-maximized="1"
     inkscape:current-layer="layer3"
     inkscape:document-rotation="0"
     inkscape:snap-global="false"
     borderlayer="true"
     inkscape:pagecheckerboard="0" />
  <g
     inkscape:groupmode="layer"
     id="layer2"
     inkscape:label="artwork"
     sodipodi:insensitive="true">
    <image
       xlink:href="../gfx_Pepper-and-Carrot_by-David-Revoy_E34P09.png"
       width="2481"
       height="3503.4727"
       id="image10"
       x="0"
       y="0" />
  </g>
  <g
     inkscape:groupmode="layer"
     id="layer3"
     inkscape:label="speechbubbles"
     style="display:inline">
    <path
       style="color:#000000;display:inline;overflow:visible;visibility:visible;fill:#ffffff;fill-opacity:1;fill-rule:nonzero;stroke:none;stroke-width:1.06937px;marker:none;enable-background:accumulate"
       d="m 1413.9252,2288.6897 c -21.0035,-5.3737 -81.566,-47.9371 -7.2888,-45.7139 -54.6661,-17.9093 -47.3991,-53.5519 -2.4758,-74.369 -58.9238,4.2548 -100.5769,0.6207 -70.2151,-36.1664 -79.2184,3.5955 -122.8044,10.2673 -109.8003,-28.5578 -40.1503,42.6369 -78.6617,34.6793 -88.5825,-15.1981 -6.9274,35.2294 -81.7002,33.1271 -167.99998,12.6992 8.30388,14.5849 88.47908,54.7735 -30.55105,45.7152 47.04927,26.0011 49.14048,39.3386 -30.92339,50.3382 40.80347,11.6971 66.82446,27.5422 3.23088,52.7159 41.20562,7.9508 106.39464,5.6199 27.23252,53.7673 52.19075,-22.7557 139.25082,-6.3139 101.72672,30.3911 102.2721,-41.2428 121.9423,-30.2458 137.385,-0.6941 38.0267,-43.2711 92.9821,-38.37 124.9467,-13.2168 -15.5391,-38.3461 66.3526,-31.727 113.3151,-31.7108 z"
       id="path3549-3-78-5"
       inkscape:connector-curvature="0"
       sodipodi:nodetypes="ccccccccccccccc" />
    <path
       style="color:#000000;display:inline;overflow:visible;visibility:visible;fill:#ffffff;fill-opacity:1;fill-rule:nonzero;stroke:none;stroke-width:1.66785px;marker:none;enable-background:accumulate"
       d="m 1149.3898,2415.596 c -37.8813,-0.2135 -76.6452,8.0996 -108.6984,28.5617 -34.7076,22.4198 -58.33361,58.8762 -69.31471,97.8212 -10.71968,38.0609 -8.67792,79.8529 7.58875,116.1214 7.47957,16.2521 19.80378,29.7963 32.79736,42.0173 8.2824,8.1945 18.0781,14.8 28.6972,19.7229 15.8109,7.3451 32.7085,12.1395 49.6316,16.2975 28.7906,6.6505 58.7478,8.5192 88.1254,4.9904 20.2875,-2.2329 40.7036,-5.9295 59.4895,-14.0338 23.43,-10.5794 43.8446,-26.8022 61.4093,-45.19 11.5137,-12.2907 20.5736,-26.8394 25.8234,-42.7636 12.0801,-35.2335 9.3167,-74.2986 -3.5993,-108.9162 -11.0231,-29.9138 -30.1075,-57.1165 -55.6594,-76.7985 -25.1948,-19.7502 -56.0265,-32.3308 -88.0004,-36.1863 -9.3759,-1.1977 -18.8376,-1.705 -28.2903,-1.644 z"
       id="path3365-3"
       inkscape:connector-curvature="0"
       sodipodi:nodetypes="cssccsc" />
    <path
       style="display:inline;fill:#ffffff;fill-rule:evenodd;stroke:none;stroke-width:1.11135px;stroke-linecap:butt;stroke-linejoin:miter;stroke-opacity:1"
       d="m 96.899402,2165.0968 c 26.372858,28.2738 29.602648,48.0781 6.750558,37.3592 22.23867,18.3529 17.63802,22.6486 1.30107,31.3901 43.77292,44.6505 32.65043,79.6697 20.23681,114.4624 45.19418,-22.7687 47.70868,5.7616 59.56987,23.0583 9.33377,-40.1063 14.82659,-16.3343 19.24787,25.2615 9.3583,-51.3518 16.44139,-56.502 21.45214,-19.5221 9.19257,-33.0408 21.63614,-47.2326 37.81598,-39.7596 29.66433,-34.3551 41.7612,3.8148 59.53604,18.5438 -1.79972,-38.2097 10.73495,-50.519 41.27199,-17.8885 -0.81021,-23.148 20.44977,-26.3836 43.37923,2.7713 -32.09803,-59.6355 15.97351,-9.4497 23.1351,-6.8831 -15.60227,-30.8533 -3.25112,-55.8076 57.64906,-21.1803 -19.37826,-4.7726 -32.62271,-41.4194 -6.44113,-59.5301 -29.14404,-9.3466 -28.83699,-26.1759 -13.05806,-46.9366 -33.27588,-21.36 0.10366,-53.0572 16.85132,-82.1747 -33.81511,18.2569 -60.80866,22.5325 -66.82393,-16.1893 -51.38822,39.7577 -43.70091,21.4624 -38.70696,5.8137 -31.93337,42.7655 -37.6341,9.6512 -38.12196,-0.8674 -44.2532,48.2542 -84.12003,13.4114 -102.0246,-8.7539 -7.42826,55.1075 -25.69265,37.5649 -44.00197,19.7228 13.64592,37.0218 -2.90115,36.9256 -21.41809,24.0365 7.79152,25.1383 -4.06395,50.2569 -35.75167,18.6313 11.40921,16.4532 -4.65203,28.3673 -41.848668,-1.3653 z"
       id="path4289-9"
       inkscape:connector-curvature="0"
       sodipodi:nodetypes="cccccccccccccccccccccccc" />
    <path
       style="fill:#ffffff;fill-rule:evenodd;stroke:none;stroke-width:1.85719px;stroke-linecap:butt;stroke-linejoin:miter;stroke-opacity:1"
       d="m 838.43509,1281.9721 c 51.28283,91.7805 70.73542,84.7087 78.70756,41.9832 14.01269,15.4323 16.99565,60.6932 57.09123,5.5858 24.75744,40.023 44.72292,34.914 60.76192,-7.1739 43.0073,75.8538 69.2312,32.0394 92.3092,15.1094 58.2362,42.4272 218.4054,48.8759 288.5173,-5.8369 14.85,19.5051 30.6738,34.8489 60.446,-1.9364 -2.9127,44.5449 35.9368,7.5009 68.9248,-49.2058 -4.2253,33.3537 -25.9183,90.2026 19.1319,57.2753 5.216,23.8344 1.0952,55.3699 97.4549,4.0248 -28.0265,67.9175 53.0635,-1.2141 131.6389,-67.1871 -49.5194,57.5257 -117.1747,128.2944 -32.6053,105.1684 -47.5454,48.1932 -43.2861,65.8771 91.692,63.4999 -127.7546,24.8181 -159.1115,57.3228 -82.7454,123.2148 -55.2551,-31.0307 -134.5984,-35.2418 -66.3928,7.5461 -68.7298,-34.2663 -78.6314,-17.672 -54.1717,10.4041 -75.039,-49.3277 -39.7512,-9.7825 -35.5901,29.1527 -54.0191,-24.5276 -90.1832,-52.6972 -82.2307,10.0835 -56.2194,-48.1752 -65.8067,-30.9006 -72.4158,-9.4462 -99.8177,-72.8026 -86.9048,-29.2975 -106.087,-18.9061 -28.8617,-26.9338 -28.1312,-4.8298 -22.8106,24.8798 -27.6223,-31.4777 -52.6466,-43.6108 -71.0134,-6.1606 -17.305,-17.3167 -34.2869,-41.8525 -53.9972,-5.4578 -23.8358,-19.8523 -48.9765,-27.744 -79.7577,16.0725 -13.092,-26.4714 -32.4097,-45.5282 -97.1662,-10.4684 -12.2072,-56.7978 -67.6501,-47.6201 -137.16963,-16.9621 2.13399,-33.3735 -3.35701,-55.2983 -75.40567,22.7077 14.96858,-34.0901 32.01695,-70.0258 -11.61376,-52.1235 27.37808,-65.2228 -10.94401,-47.7521 -92.10166,-34.4229 82.9065,-37.9606 125.9453,-76.2312 45.887,-75.6147 55.01937,-37.8995 50.70429,-57.7575 25.90414,-56.1043 3.75761,-11.7108 48.56063,-32.981 -14.20203,-32.175 33.14545,-15.9508 82.04002,-11.3665 69.0098,-87.5263 z"
       id="path4656"
       inkscape:connector-curvature="0"
       sodipodi:nodetypes="ccccccccccccccccccccccccccccccccc" />
    <path
       style="fill:#ffffff;fill-rule:evenodd;stroke:none;stroke-width:0.88858px;stroke-linecap:butt;stroke-linejoin:miter;stroke-opacity:1"
       d="m 759.19541,1241.283 c 23.87574,13.5269 85.11353,21.0234 2.433,61.3674 43.76687,0.9671 67.97938,1.7537 26.76279,19.124 56.00944,0.3154 1.18805,9.9013 -26.49922,19.2955 30.48234,-0.2589 75.65043,-7.2784 6.94877,24.6341 56.826,-9.2869 41.66355,2.0347 -15.59633,24.1629 55.50022,-18.0895 78.42746,-15.5403 54.89431,-1.2529 23.281,-4.4671 26.17156,9.3935 -19.85959,23.1786 62.63973,-18.6636 61.31095,-11.588 64.67747,34.6472 14.88908,-81.4311 17.42218,-18.0057 20.98895,21.1079 23.73457,-121.4005 55.82258,-31.7441 62.8579,-18.6724 -5.90437,-94.3594 37.35097,-55.4681 48.65972,-19.5954 -2.91536,-23.0122 10.95317,-69.487 52.34632,-13.1188 -9.8695,-20.7496 -3.1526,-42.2962 34.0246,9.0732 -11.2745,-34.3451 9.6112,-44.1683 74.6823,-11.8006 -0.5021,-17.0771 -6.8483,-35.014 61.5652,-4.833 -1.2835,-15.6767 -15.2326,-37.2075 77.8554,-9.2545 0.6074,-27.3754 15.6022,-29.1099 41.7269,-16.5125 -4.463,-23.4934 24.0681,-12.9018 60.23,2.7953 -23.0317,-32.042 8.3719,-28.6243 53.7544,-18.8217 -4.4068,-15.5655 -10.707,-31.5384 15.8144,-40.4365 -51.2782,-45.8169 -5.9183,-49.5374 9.7319,-54.4273 -25.6854,-1.4095 -44.886,-17.4541 -11.8084,-30.1681 -38.5133,7.4451 -24.3709,-15.1614 -22.2534,-27.4943 l -62.0411,-18.905 -60.8247,-8.3897 -72.9896,-8.3137 -68.1237,-1.3291 -69.3402,0.4324 -60.8246,3.8873 -52.30925,-8.4427 -53.5257,9.1027 -75.42258,-1.2836 -36.49479,30.0425 c 12.28937,28.7919 -26.54669,28.5474 -62.04117,30.2008 z"
       id="path4323"
       inkscape:connector-curvature="0"
       sodipodi:nodetypes="ccccccccccccccccccccccccccccccccccc" />
    <path
       style="color:#000000;display:inline;overflow:visible;visibility:visible;fill:#ffffff;fill-opacity:1;fill-rule:nonzero;stroke:none;stroke-width:1.23498px;marker:none;enable-background:accumulate"
       d="m 1920.5612,2168.9481 c -35.6248,1.6625 -71.3636,1.7932 -106.8382,6.2878 -18.3017,2.6696 -36.6144,9.0988 -51.5094,21.9885 -20.4397,16.8362 -33.8754,43.9344 -36.9536,72.5415 -4.4901,30.1077 -7.4471,61.3223 -1.7895,91.5017 5.6936,24.0415 23.9728,42.3572 44.5382,48.7845 43.0835,15.7157 88.4909,20.5974 133.4842,21.6138 28.5921,0.6629 57.1936,0.2292 85.7869,-0.023 40.1981,-1.1053 80.2568,-5.5872 120.2076,-10.5872 17.032,-2.5703 34.3209,-5.7442 50.0946,-13.9192 16.6255,-8.9603 30.6391,-24.6461 37.8466,-44.1947 11.1704,-28.3165 11.0142,-61.2633 3.2709,-90.6872 -7.8623,-29.0892 -25.1531,-54.751 -48.0388,-70.1975 -23.4556,-16.6745 -51.0866,-23.9269 -78.3982,-25.4174 -49.0704,-4.6915 -98.2926,-7.6161 -147.5358,-7.8805 -1.3885,0.063 -2.777,0.1256 -4.1655,0.1885 z"
       id="path4546-6-5-5"
       inkscape:connector-curvature="0"
       sodipodi:nodetypes="cssssc" />
    <path
       style="color:#000000;display:inline;overflow:visible;visibility:visible;fill:#ffffff;fill-opacity:1;fill-rule:nonzero;stroke:none;stroke-width:0.710908px;marker:none;enable-background:accumulate"
       d="m 427.36079,1539.322 c -18.49435,2.3317 -20.41009,4.4325 -21.96654,15.8617 -1.55611,11.4299 -0.85275,28.3587 -14.56075,40.6485 -13.70771,12.2903 -23.6764,10.0093 -30.31719,9.0645 4.26773,13.7681 1.4232,41.4005 9.47615,45.7822 8.05295,4.3816 -16.23573,2.0167 -16.23573,2.0167 0,0 -18.78665,-30.5045 -14.52874,-48.8854 4.25786,-18.3808 31.63742,-15.9961 42.0788,-22.7096 10.44133,-6.7135 10.50842,-30.2213 17.90427,-37.5835 7.39563,-7.363 19.29539,-5.4547 28.14973,-4.1951 z"
       id="path4538-7"
       inkscape:connector-curvature="0"
       sodipodi:nodetypes="ccscccsscc" />
    <path
       style="color:#000000;display:inline;overflow:visible;visibility:visible;fill:#ffffff;fill-opacity:1;fill-rule:nonzero;stroke:none;stroke-width:0.576009px;marker:none;enable-background:accumulate"
       d="m 269.38616,1653.529 c 23.98622,-18.7388 72.99975,-31.6297 113.83578,1.6461 32.33893,26.3516 21.53309,64.4595 4.25504,76.2832 -17.27802,11.8238 -72.26174,14.2552 -97.55286,8.4261 -19.52455,-4.5006 -40.92884,-15.7046 -42.10867,-45.5966 -0.48149,-12.2006 -2.41553,-22.02 21.57071,-40.7588 z"
       id="path4040-2-9"
       inkscape:connector-curvature="0"
       sodipodi:nodetypes="zssssz" />
    <path
       style="color:#000000;display:inline;overflow:visible;visibility:visible;fill:#ffffff;fill-opacity:1;fill-rule:nonzero;stroke:none;stroke-width:0.590855px;marker:none;enable-background:accumulate"
       d="m 248.38875,1580.4882 c 25.2386,-18.1575 76.81125,-29.8607 119.77943,4.4047 34.02742,27.1353 22.65738,64.9814 4.47719,76.3864 -18.18014,11.405 -76.0347,12.504 -102.64632,6.062 -20.54397,-4.9737 -43.06584,-16.6964 -44.30727,-46.617 -0.50663,-12.2123 -2.54165,-22.0785 22.69697,-40.2361 z"
       id="path4040-2"
       inkscape:connector-curvature="0"
       sodipodi:nodetypes="zssssz" />
    <path
       style="display:inline;fill:#ffffff;stroke:none;stroke-width:0.811572"
       d="m 2003.8146,1064.1092 c -1.4551,-22.1968 24.634,-77.76431 151.8953,-73.58457 127.2611,4.17973 167.092,28.59477 170.8213,68.04977 5.8994,62.4164 -61.0525,79.0958 -157.1894,83.7193 -99.1069,4.7657 -167.0652,-38.0787 -165.5272,-78.1845 z"
       id="path3280-8-3-6"
       inkscape:connector-curvature="0"
       sodipodi:nodetypes="csssc" />
    <path
       style="display:inline;fill:#ffffff;stroke:none;stroke-width:1.44075"
       d="m 2087.2065,173.40714 c -47.1763,1.18297 -94.8145,0.6301 -141.2494,11.22117 -30.9275,7.0055 -61.7058,17.5826 -88.5741,36.28607 -20.4639,15.05212 -35.0767,38.91006 -41.2198,65.07917 -7.967,32.95035 -3.0985,69.95733 14.9667,97.92351 11.2293,17.62187 27.5677,30.79097 45.5619,38.86328 22.306,10.71684 46.042,17.05758 69.5556,23.60922 67.8051,17.57808 138.6295,22.70643 207.6468,11.23833 27.8185,-4.49431 55.4901,-10.95036 82.0488,-21.24994 25.0827,-10.40748 49.2111,-25.31811 67.6511,-47.08688 15.8856,-20.51853 22.8558,-48.03578 22.4313,-74.70691 -0.01,-23.17973 -5.1759,-47.17748 -18.3197,-65.69051 -13.0725,-17.75696 -31.341,-29.48416 -49.5043,-39.84392 -27.3449,-14.71262 -57.4183,-21.33505 -87.1084,-27.47375 -27.6275,-5.72104 -55.7721,-8.58336 -83.8865,-8.16884 z"
       id="path3280-8-3"
       inkscape:connector-curvature="0"
       sodipodi:nodetypes="csssc" />
    <path
       style="color:#000000;display:inline;overflow:visible;visibility:visible;fill:#ffffff;fill-opacity:1;fill-rule:nonzero;stroke:none;stroke-width:0.651552px;marker:none;enable-background:accumulate"
       d="m 1759.01,118.06982 c -20.656,0.18933 -41.3131,0.22455 -61.9692,0.0344 -13.5242,-0.14349 -27.1171,0.0747 -40.4634,1.9339 -24.859,3.33547 -49.1252,10.36344 -69.847,21.58126 -5.7747,3.15184 -11.3115,6.71023 -15.1339,11.37103 -14.3189,16.257 -14.7949,39.54684 0.5613,55.49229 10.2526,10.35064 25.9898,16.12839 41.3079,20.81189 38.0033,11.68115 79.2736,15.30029 119.9191,15.4305 35.109,0.016 70.6115,3.38414 105.39,-1.81956 30.4631,-4.66092 60.3114,-14.43113 83.2245,-30.91977 13.9581,-10.71873 20.8843,-27.36074 14.9328,-42.12219 -5.6502,-15.01303 -20.8883,-26.96879 -38.6332,-33.98225 -27.7729,-11.69586 -59.6091,-16.28689 -90.9533,-17.27415 -16.1,-0.58807 -32.2216,-0.61588 -48.3356,-0.53739 z"
       id="path3525-8"
       inkscape:connector-curvature="0"
       sodipodi:nodetypes="cscsc" />
    <path
       style="fill:#ffffff;fill-rule:evenodd;stroke:none;stroke-width:1.06468px;stroke-linecap:butt;stroke-linejoin:miter;stroke-opacity:1"
       d="m 784.7483,393.5361 c 0,0 22.37691,25.375 30.38987,41.353 9.55841,41.6769 -15.08254,52.26548 -11.80509,72.946 4.69971,21.617 12.77263,34.196 42.40829,52.053 -36.46109,-14.098 -60.72938,-25.376 -65.42892,-46.992 -4.6996,-21.617 12.02504,-48.872 9.37974,-58.27 -2.64548,-9.399 -11.01511,-33.835 -33.19349,-51.692 -22.17826,-17.857 28.2496,-9.398 28.2496,-9.398 z"
       id="path1303"
       inkscape:connector-curvature="0"
       sodipodi:nodetypes="cccccccc" />
    <path
       style="color:#000000;display:inline;overflow:visible;visibility:visible;fill:#ffffff;fill-opacity:1;fill-rule:nonzero;stroke:none;stroke-width:1.00622px;marker:none;enable-background:accumulate"
       d="m 1286.9981,956.51659 c -56.431,0.54927 -113.4548,5.63537 -165.6855,18.7354 -26.2964,6.21276 -47.8957,18.41323 -61.3851,33.05721 -19.0709,18.8944 -26.4307,41.237 -25.8355,63.0679 -0.3679,19.8322 2.1488,40.1816 15.0415,58.7025 10.7932,14.9036 25.424,29.5057 47.805,39.2746 17.0458,7.2148 38.1146,9.8654 58.6244,10.9622 49.9104,2.9203 100.3816,-3.0148 150.0383,2.2393 36.5695,3.3853 73.2499,8.447 110.5037,7.031 22.4365,-1.1971 43.8692,-5.6536 66.015,-7.8624 14.5529,-1.4926 29.8904,-2.4773 42.7264,-7.1697 3.6592,-1.06 5.8323,-3.1456 7.0069,-5.3891 2.9838,-5.7249 1.4556,-11.8115 0.8399,-17.6741 -1.8731,-11.6133 -4.5504,-23.4708 -0.2433,-35.0131 4.7911,-24.6352 14.0909,-49.3143 9.9707,-74.2328 -3.5419,-17.7947 -13.1782,-35.6705 -32.3901,-49.7577 -17.3511,-11.46013 -41.7423,-17.97142 -65.9598,-22.74871 -37.1186,-6.99883 -76.0018,-9.72487 -114.5914,-12.12559 -14.1256,-0.71714 -28.301,-1.14275 -42.4811,-1.09691 z"
       id="path4040-40"
       inkscape:connector-curvature="0"
       sodipodi:nodetypes="zsssszccccccccz" />
    <path
       style="display:inline;fill:#ffffff;stroke:none;stroke-width:0.950164"
       d="m 759.70626,81.427948 c -60.39991,2.742756 -127.66956,-2.60138 -160.12625,1.019636 -4.61777,90.211936 -21.73978,159.893156 -15.91635,202.741276 5.06758,35.48505 10.75756,70.96103 19.48282,105.96079 5.76192,19.79998 16.64567,39.24698 35.15376,52.92023 20.597,15.70449 47.25624,24.16914 73.68567,30.38359 63.81139,15.04651 132.91756,16.31652 196.55826,-0.0475 17.21419,-4.29199 33.5735,-10.8388 48.43664,-19.27882 27.99168,-15.67753 51.57879,-36.88333 68.26019,-61.38015 16.4729,-25.7918 21.4256,-55.24627 24.9289,-83.96207 4.1893,-35.018 2.5413,-71.2645 -11.9893,-104.60674 C 1026.9987,180.00078 1009.923,156.3155 986.47265,137.82603 957.49398,115.95362 920.48291,103.36874 883.28725,94.858741 843.0778,85.702853 801.3789,81.120897 759.70626,81.427948 Z"
       id="path3280-5"
       inkscape:connector-curvature="0"
       sodipodi:nodetypes="ccsscccccccccc" />
    <path
       style="fill:#ffffff;fill-rule:evenodd;stroke:none;stroke-width:1.36569px;stroke-linecap:butt;stroke-linejoin:miter;stroke-opacity:1"
       d="m 1268.569,968.30701 c 8.7674,-29.78389 -2.55,-70.85724 -21.3421,-92.51878 19.294,12.00335 47.6581,40.90723 49.4868,77.53639 2.8542,57.16678 -26.6522,18.09019 -26.6522,18.09019 z"
       id="path4248"
       inkscape:connector-curvature="0"
       sodipodi:nodetypes="ccscc" />
    <path
       style="color:#000000;display:inline;overflow:visible;visibility:visible;fill:#ffffff;fill-opacity:1;fill-rule:nonzero;stroke:none;stroke-width:1.27845px;marker:none;enable-background:accumulate"
       d="m 2207.1691,546.46208 c 47.5494,-40.109 11.4958,-121.92186 -22.0631,-138.04748 -43.9644,-41.61081 21.7355,-52.5057 21.7355,-52.5057 l 27.3389,46.67174 c -4.9414,6.99806 59.5251,106.49368 -27.0113,143.88144 z"
       id="path3072-56"
       inkscape:connector-curvature="0"
       sodipodi:nodetypes="ccccc" />
    <path
       style="fill:#ffffff;fill-rule:evenodd;stroke:none;stroke-width:1px;stroke-linecap:butt;stroke-linejoin:miter;stroke-opacity:1"
       d="m 2069.3392,947.92077 c 17.8164,6.86787 32.8659,22.27667 36.9127,41.22902 2.4357,13.03641 -1.9004,26.29121 -8.401,37.50331 -6.139,11.5177 -13.902,22.8752 -15.1546,36.2162 -0.038,3.7486 4.352,7.1591 7.7995,4.9374 5.4591,-2.2621 9.1063,-7.2123 13.9986,-10.3572 13.619,-10.9723 25.9848,-24.8517 30.732,-42.0536 4.3293,-16.93723 -3.8025,-35.5508 -17.8163,-45.50967 -14.6218,-11.8782 -32.4276,-19.47815 -50.851,-23.07104 0.9267,0.36853 1.8534,0.73706 2.7801,1.10558 z"
       id="path914"
       inkscape:connector-curvature="0"
       sodipodi:nodetypes="cscc" />
    <path
       style="fill:#ffffff;fill-rule:evenodd;stroke:none;stroke-width:1px;stroke-linecap:butt;stroke-linejoin:miter;stroke-opacity:1"
       d="m 1859.1104,1611.6362 -101.7503,-92.9388 -6.0669,33.3207 -71.4256,-61.6811 -11.1854,27.4382 91.4542,66.5103 8.19,-37.7549 z"
       id="path4667"
       inkscape:connector-curvature="0" />
    <path
       style="color:#000000;display:inline;overflow:visible;visibility:visible;fill:#ffffff;fill-opacity:1;fill-rule:nonzero;stroke:none;stroke-width:1.14715px;marker:none;enable-background:accumulate"
       d="m 284.24765,2318.4867 c -40.4116,58.36 -53.3089,167.707 24.2468,263.215 -108.4132,-99.32 -82.2954,-214.062 -72.6196,-244.978 2.0322,-33.697 48.3728,-18.237 48.3728,-18.237 z"
       id="path4008-0"
       inkscape:connector-curvature="0"
       sodipodi:nodetypes="cccc" />
    <path
       style="color:#000000;display:inline;overflow:visible;visibility:visible;fill:#ffffff;fill-opacity:1;fill-rule:nonzero;stroke:none;stroke-width:1px;marker:none;enable-background:accumulate"
       d="m 1978.2069,2401.6372 c -16.2035,68.7147 -23.8042,123.8365 19.1198,161.3448 -35.9827,-18.9303 -60.1167,-37.3437 -55.228,-133.0047 3.2811,-29.3033 15.4575,-25.6682 36.1082,-28.3401 z"
       id="path4064-5"
       inkscape:connector-curvature="0"
       sodipodi:nodetypes="cccc" />
    <path
       style="fill:#ffffff;fill-rule:evenodd;stroke:none;stroke-width:1.0599px;stroke-linecap:butt;stroke-linejoin:miter;stroke-opacity:1"
       d="m 1312.6704,2517.7831 c 23.7195,-14.0861 43.1327,-10.969 67.1439,-1.3968 -21.0663,-24.318 -50.0172,-29.1023 -87.4659,-14.9118 -44.493,16.8599 17.6099,16.5876 17.6099,16.5876 z"
       id="path4248-5"
       inkscape:connector-curvature="0"
       sodipodi:nodetypes="ccscc" />
    <path
       style="fill:#ffffff;fill-opacity:1;stroke:none;stroke-width:0.571962"
       d="m 2157.8205,2459.9252 c -18.8734,-3.6701 -26.1323,-7.078 -22.7447,-9.1755 -31.6051,-17.5369 -4.7214,-33.7372 -0.968,-35.6537 -0.01,-1.2977 -10.1626,0.5243 -11.6142,-0.5241 -1.4518,-1.0491 9.964,-9.8029 8.0284,-10.3273 -1.9359,-0.5246 -43.3554,3.2491 -49.6465,0.8896 -6.2913,-2.3596 -2.9038,-8.3893 -4.8394,-8.6515 -1.9357,-0.262 -19.8412,1.3106 -22.2609,1.0485 -2.4195,-0.2621 -6.7749,-8.1266 -9.1946,-8.3888 -2.4197,-0.2621 -13.5503,3.4082 -15.4859,3.1459 -1.9357,-0.2621 -0.9678,-6.816 -3.3875,-7.078 -2.4197,-0.2622 -13.0661,5.5048 -14.518,5.2427 -1.4518,-0.262 -6.775,-13.3699 -9.1947,-14.1562 -2.4198,-0.7864 -17.9054,14.4183 -19.3572,14.6804 -1.4518,0.2628 -10.6465,-17.8265 -12.5824,-18.0886 -1.9356,-0.262 -11.6143,12.3217 -13.066,12.0595 -1.4519,-0.2622 -10.6466,-7.603 -12.5822,-8.1272 -1.9357,-0.5241 -14.518,16.2537 -16.4538,16.2537 -1.9358,0 -18.3894,-7.0779 -19.8411,-8.3887 -1.452,-1.311 -2.9037,6.8161 -4.8394,6.8161 -1.9357,0 -24.1966,-4.7191 -24.6806,-4.4571 -0.4838,0.2623 3.3876,5.2434 1.9358,5.2434 -1.4518,0 -24.1965,-6.5538 -25.1646,-5.2434 -0.9677,1.3113 -49.361,-6.5538 -52.7485,-5.5054 -3.3875,1.0491 21.7771,21.4971 19.3573,23.0704 -2.4196,1.5727 -11.1305,-0.262 -11.6145,0.5243 -0.4837,0.7862 5.3234,4.1943 3.8718,5.2428 -1.452,1.049 -17.9057,5.2433 -19.3574,6.5539 -1.4519,1.3112 7.2588,4.7191 5.3232,5.5055 -1.9357,0.7868 -30.488,5.7676 -30.9716,7.0787 -0.484,1.3107 14.518,7.6023 12.5821,9.4372 -1.9357,1.8353 -7.259,2.6216 -6.775,3.9329 0.4839,1.3105 9.6787,2.8838 9.1947,4.1943 -0.4838,1.3106 -5.3232,7.8651 -6.775,8.9135 -1.4519,1.0485 10.1625,0.5242 10.1625,1.5727 0,1.049 -0.8548,16.7952 -18.0475,26.3231 30.0714,-6.3114 42.7281,-3.2527 58.6979,-1.1558 15.9698,2.0974 9.6786,15.2054 12.0982,15.9918 2.4196,0.7868 20.3252,-4.4566 22.7449,-2.6217 2.4196,1.8353 3.3874,5.2433 5.3232,5.2433 1.9356,0 13.0661,-7.3404 15.4858,-7.0782 2.4196,0.2621 25.1644,11.7973 28.5522,12.0594 3.3874,0.2621 16.4535,-4.4569 19.3573,-4.719 2.9035,-0.2622 5.323,6.2918 7.7427,5.7675 2.4198,-0.5243 17.9056,-5.2433 20.325,-4.719 2.4198,0.5246 4.3554,2.6216 6.2913,2.0974 1.9357,-0.5243 10.6466,-2.6217 10.6466,-2.6217 0,0 6.291,1.5732 9.1944,1.5732 2.9037,0 22.7449,-8.6514 25.1646,-9.1757 2.4196,-0.5243 27.2608,8.9355 25.809,10.5083 3.0832,-6.8838 17.9816,-11.212 21.1325,-11.5568 3.3874,-0.7867 13.55,1.5728 14.5179,0.7864 0.9678,-0.7864 3.8714,-4.9812 6.775,-5.2433 2.9036,-0.2622 9.6786,-1.3107 9.6786,-1.3107 l -0.9677,-1.573 c 0,0 20.325,4.1947 22.7448,5.7675 2.4196,1.5731 -1.4519,-6.8162 -2.9038,-8.9135 8.7108,2.0973 34.3593,6.5539 36.2948,7.865 1.9359,1.3106 -3.3872,-4.719 -6.2909,-6.554 3.8714,0.7863 7.259,1.0485 7.259,1.0485 l -11.1306,-6.2918 3.3878,-0.5243 c 0,0 -7.2591,-2.8837 -7.2591,-4.1943 0,-1.3112 18.8732,-2.8838 18.8732,-2.8838 0,0 -7.7428,-2.3595 -5.8071,-3.6702 1.9358,-1.3111 6.7751,-2.0974 6.7751,-2.0974 l 0.9678,-3.4081 z"
       id="path5888-3"
       inkscape:connector-curvature="0"
       sodipodi:nodetypes="cccccsscccccccsccscscsccsccccccsccscscssccsccscscccccccsccccccsccccc" />
  </g>
  <g
     inkscape:groupmode="layer"
     id="layer1"
     inkscape:label="txt">
    <text
       xml:space="preserve"
       style="font-style:normal;font-variant:normal;font-weight:normal;font-stretch:normal;font-size:80px;line-height:1.25;font-family:Lavi;-inkscape-font-specification:Lavi;letter-spacing:0px;word-spacing:0px;fill:#ffffff;fill-opacity:1;stroke:#ffffff;stroke-width:0.668774;stroke-miterlimit:4;stroke-dasharray:none;stroke-opacity:1;filter:url(#filter4375-4-1-1-1-9-5-8-8-5-5-3-3-3-0)"
       id="text4580-6-0-0-0-9-3-3-2-0"
       transform="matrix(1.1484433,-0.31259721,-0.62973044,2.2133476,1615.3614,-1809.1372)"
       x="-607.91235"
       y="1245.0809"><tspan
         id="tspan1534-6"
         style="font-size:61.3371px"><tspan
   id="tspan882"
   style="font-size:71.8115px">DZ</tspan><tspan
   style="font-size:66.5743px"
   id="tspan1814">Z</tspan>UH!!</tspan></text>
    <text
       xml:space="preserve"
       style="font-style:normal;font-variant:normal;font-weight:normal;font-stretch:normal;font-size:45px;line-height:1.25;font-family:Lavi;-inkscape-font-specification:Lavi;text-align:center;letter-spacing:0px;word-spacing:0px;text-anchor:middle;fill:#000000;fill-opacity:1;stroke:none"
       x="817.88531"
       y="158.59686"
       id="text4246-3-2-2-6-3-7-9-3-3-56-9-3-20"><tspan
         style="font-size:45px"
         sodipodi:role="line"
         x="817.88531"
         y="158.59686"
         id="tspan7853">Že razumem.</tspan><tspan
         style="font-size:45px"
         sodipodi:role="line"
         x="817.88531"
         y="214.84686"
         id="tspan8995">Tvoje sposobnosti so</tspan><tspan
         style="font-size:45px"
         sodipodi:role="line"
         x="817.88531"
         y="271.09686"
         id="tspan11051">postale enakovredne</tspan><tspan
         style="font-size:45px"
         sodipodi:role="line"
         x="817.88531"
         y="327.34686"
         id="tspan13805">tvojim predhodnicam</tspan><tspan
         style="font-size:45px"
         sodipodi:role="line"
         x="817.88531"
         y="383.59686"
         id="tspan28935">veliko hitreje kot</tspan><tspan
         style="font-size:45px"
         sodipodi:role="line"
         x="817.88531"
         y="439.84686"
         id="tspan35429">pričakovano...</tspan></text>
    <text
       xml:space="preserve"
       style="font-style:normal;font-variant:normal;font-weight:normal;font-stretch:normal;font-size:45px;line-height:1.25;font-family:Lavi;-inkscape-font-specification:Lavi;text-align:center;letter-spacing:0px;word-spacing:0px;text-anchor:middle;fill:#000000;fill-opacity:1;stroke:none"
       x="1286.8784"
       y="1030.0464"
       id="text4246-3-2-2-6-3-7-9-3-3-56-9-3-20-3"><tspan
         style="font-size:45px"
         sodipodi:role="line"
         x="1286.8784"
         y="1030.0464"
         id="tspan94960">To sicer pospeši</tspan><tspan
         style="font-size:45px"
         sodipodi:role="line"
         x="1286.8784"
         y="1086.2964"
         id="tspan100300">moje namene, vendar</tspan><tspan
         style="font-size:45px"
         sodipodi:role="line"
         x="1286.8784"
         y="1142.5464"
         id="tspan95778">v dobrem smislu.</tspan></text>
    <text
       xml:space="preserve"
       style="font-style:normal;font-variant:normal;font-weight:normal;font-stretch:normal;font-size:45px;line-height:1.25;font-family:Lavi;-inkscape-font-specification:Lavi;text-align:center;letter-spacing:0px;word-spacing:0px;text-anchor:middle;fill:#000000;fill-opacity:1;stroke:none"
       x="1743.1007"
       y="193.33838"
       id="text4246-3-2-2-6-3-7-9-3-3-56-9-3-20-3-2"><tspan
         style="font-size:45px"
         sodipodi:role="line"
         x="1743.1007"
         y="193.33838"
         id="tspan994-7">Vaši nameni?</tspan></text>
    <text
       xml:space="preserve"
       style="font-style:normal;font-variant:normal;font-weight:normal;font-stretch:normal;font-size:45px;line-height:1.25;font-family:Lavi;-inkscape-font-specification:Lavi;text-align:center;letter-spacing:0px;word-spacing:0px;text-anchor:middle;fill:#000000;fill-opacity:1;stroke:none"
       x="2072.3057"
       y="237.60721"
       id="text4246-3-2-2-6-3-7-9-3-3-56-9-3-20-3-2-0"><tspan
         style="font-size:45px"
         sodipodi:role="line"
         x="2072.3057"
         y="237.60721"
         id="tspan180">Torej ste me</tspan><tspan
         style="font-size:45px"
         sodipodi:role="line"
         x="2072.3057"
         y="293.85721"
         id="tspan211716">samo preizkušali in</tspan><tspan
         style="font-size:45px"
         sodipodi:role="line"
         x="2072.3057"
         y="350.10721"
         id="tspan214814">nima nobene veze s</tspan><tspan
         style="font-size:45px"
         sodipodi:role="line"
         x="2072.3057"
         y="406.35721"
         id="tspan217588">tem da zamujam?</tspan></text>
    <text
       xml:space="preserve"
       style="font-style:normal;font-variant:normal;font-weight:normal;font-stretch:normal;font-size:45px;line-height:1.25;font-family:Lavi;-inkscape-font-specification:Lavi;text-align:center;letter-spacing:0px;word-spacing:0px;text-anchor:middle;fill:#000000;fill-opacity:1;stroke:none"
       x="2168.7754"
       y="1051.5746"
       id="text4246-3-2-2-6-3-7-9-3-3-56-9-3-20-3-2-0-3"><tspan
         style="font-size:45px"
         sodipodi:role="line"
         x="2168.7754"
         y="1051.5746"
         id="tspan184">To je pa res</tspan><tspan
         style="font-size:45px"
         sodipodi:role="line"
         x="2168.7754"
         y="1107.8246"
         id="tspan156628">zahrbtno!</tspan></text>
    <text
       xml:space="preserve"
       style="font-style:normal;font-variant:normal;font-weight:normal;font-stretch:normal;font-size:45px;line-height:1.25;font-family:Lavi;-inkscape-font-specification:Lavi;text-align:center;letter-spacing:0px;word-spacing:0px;text-anchor:middle;fill:#000000;fill-opacity:1;stroke:none"
       x="314.83337"
       y="1631.6757"
       id="text4246-3-2-2-6-3-7-9-3-3-56-9-3-20-3-2-0-3-1"><tspan
         style="font-size:45px"
         sodipodi:role="line"
         x="314.83337"
         y="1631.6757"
         id="tspan1224">hee...</tspan></text>
    <text
       xml:space="preserve"
       style="font-style:normal;font-variant:normal;font-weight:normal;font-stretch:normal;font-size:45px;line-height:1.25;font-family:Lavi;-inkscape-font-specification:Lavi;text-align:center;letter-spacing:0px;word-spacing:0px;text-anchor:middle;fill:#000000;fill-opacity:1;stroke:none"
       x="327.27063"
       y="1708.0287"
       id="text4246-3-2-2-6-3-7-9-3-3-56-9-3-20-3-2-0-3-1-2"><tspan
         style="font-size:45px"
         sodipodi:role="line"
         x="327.27063"
         y="1708.0287"
         id="tspan1224-2">hee.</tspan></text>
    <text
       xml:space="preserve"
       style="font-style:normal;font-variant:normal;font-weight:normal;font-stretch:normal;font-size:51.7551px;line-height:1.25;font-family:Lavi;-inkscape-font-specification:Lavi;text-align:center;letter-spacing:0px;word-spacing:0px;text-anchor:middle;fill:#000000;fill-opacity:1;stroke:none;stroke-width:1.15011"
       x="1277.4315"
       y="1304.3386"
       id="text4246-3-2-2-6-3-7-9-3-3-56-9-3-20-3-3"
       transform="skewX(-7.1285627)"><tspan
         style="font-style:normal;font-variant:normal;font-weight:bold;font-stretch:normal;font-size:51.7551px;font-family:Lavi;-inkscape-font-specification:'Lavi Bold';stroke-width:1.15011"
         sodipodi:role="line"
         x="1277.4315"
         y="1304.3386"
         id="tspan188">KAJ SAMO STRMITE?!</tspan></text>
    <text
       xml:space="preserve"
       style="font-style:normal;font-variant:normal;font-weight:normal;font-stretch:normal;font-size:47.4643px;line-height:1.25;font-family:Lavi;-inkscape-font-specification:Lavi;text-align:center;letter-spacing:0px;word-spacing:0px;text-anchor:middle;fill:#000000;fill-opacity:1;stroke:none;stroke-width:1.05476"
       x="1448.0925"
       y="1426.4849"
       id="text4246-3-2-2-6-3-7-9-3-3-56-9-3-20-3-3-2"
       transform="skewX(-7.1285625)"><tspan
         style="font-style:normal;font-variant:normal;font-weight:bold;font-stretch:normal;font-size:47.4643px;font-family:Lavi;-inkscape-font-specification:'Lavi Bold';stroke-width:1.05476"
         sodipodi:role="line"
         x="1448.0925"
         y="1426.4849"
         id="tspan197">PRAVKAR SEM BILA NAPADENA, </tspan><tspan
         style="font-style:normal;font-variant:normal;font-weight:bold;font-stretch:normal;font-size:47.4643px;font-family:Lavi;-inkscape-font-specification:'Lavi Bold';stroke-width:1.05476"
         sodipodi:role="line"
         x="1448.0925"
         y="1485.8152"
         id="tspan228179">VI PA SAMO STOJITE IN NE STORITE</tspan><tspan
         style="font-style:normal;font-variant:normal;font-weight:bold;font-stretch:normal;font-size:47.4643px;font-family:Lavi;-inkscape-font-specification:'Lavi Bold';stroke-width:1.05476"
         sodipodi:role="line"
         x="1448.0925"
         y="1545.1456"
         id="tspan232575">NIČESAR?! ZGRABITE JO!!!</tspan></text>
    <text
       xml:space="preserve"
       style="font-style:normal;font-variant:normal;font-weight:normal;font-stretch:normal;font-size:55.0712px;line-height:1.25;font-family:Lavi;-inkscape-font-specification:Lavi;text-align:center;letter-spacing:0px;word-spacing:0px;text-anchor:middle;fill:#000000;fill-opacity:1;stroke:none;stroke-width:1.22379"
       x="228.7438"
       y="2232.6843"
       id="text4246-3-2-2-6-3-7-9-3-3-56-9-3-20-3-3-2-7"
       transform="matrix(0.98550891,-0.15260478,0.03019571,1.0100284,0,0)"><tspan
         style="font-style:normal;font-variant:normal;font-weight:bold;font-stretch:normal;font-size:55.0712px;font-family:Lavi;-inkscape-font-specification:'Lavi Bold';stroke-width:1.22379"
         sodipodi:role="line"
         x="228.7438"
         y="2232.6843"
         id="tspan1414">HOČEM JO</tspan><tspan
         style="font-style:normal;font-variant:normal;font-weight:bold;font-stretch:normal;font-size:55.0712px;font-family:Lavi;-inkscape-font-specification:'Lavi Bold';stroke-width:1.22379"
         sodipodi:role="line"
         x="228.7438"
         y="2301.5234"
         id="tspan37719">ŽIVO!</tspan></text>
    <text
       xml:space="preserve"
       style="font-style:normal;font-variant:normal;font-weight:normal;font-stretch:normal;font-size:70.9781px;line-height:1.25;font-family:Lavi;-inkscape-font-specification:Lavi;text-align:center;letter-spacing:0px;word-spacing:0px;text-anchor:middle;fill:#000000;fill-opacity:1;stroke:none;stroke-width:1.57727"
       x="1546.9048"
       y="2006.6577"
       id="text4246-3-2-2-6-3-7-9-3-3-56-9-3-20-3-3-2-7-2"
       transform="matrix(0.89307378,0,-0.11169036,1.1197283,0,0)"><tspan
         style="font-style:normal;font-variant:normal;font-weight:bold;font-stretch:normal;font-size:70.9781px;font-family:Lavi;-inkscape-font-specification:'Lavi Bold';stroke-width:1.57727"
         sodipodi:role="line"
         x="1546.9048"
         y="2006.6577"
         id="tspan1414-3">DAJTE JO!!!</tspan></text>
    <text
       xml:space="preserve"
       style="font-style:normal;font-variant:normal;font-weight:normal;font-stretch:normal;font-size:45px;line-height:1.25;font-family:Lavi;-inkscape-font-specification:Lavi;text-align:center;letter-spacing:0px;word-spacing:0px;text-anchor:middle;fill:#000000;fill-opacity:1;stroke:none"
       x="1144.3885"
       y="2511.6572"
       id="text4246-3-2-2-6-3-7-9-3-3-56-9-3-20-3-2-0-3-19"><tspan
         style="font-size:45px"
         sodipodi:role="line"
         x="1144.3885"
         y="2511.6572"
         id="tspan1484">Shichimi, </tspan><tspan
         style="font-size:45px"
         sodipodi:role="line"
         x="1144.3885"
         y="2567.9072"
         id="tspan206">pozneje se bova</tspan><tspan
         style="font-size:45px"
         sodipodi:role="line"
         x="1144.3885"
         y="2624.1572"
         id="tspan177963">morali o tem</tspan><tspan
         style="font-size:45px"
         sodipodi:role="line"
         x="1144.3885"
         y="2680.4072"
         id="tspan177965">pogovoriti!</tspan></text>
    <text
       xml:space="preserve"
       style="font-style:normal;font-variant:normal;font-weight:normal;font-stretch:normal;font-size:45px;line-height:1.25;font-family:Lavi;-inkscape-font-specification:Lavi;text-align:center;letter-spacing:0px;word-spacing:0px;text-anchor:middle;fill:#000000;fill-opacity:1;stroke:none"
       x="1959.3646"
       y="2232.1138"
       id="text4246-3-2-2-6-3-7-9-3-3-56-9-3-20-3-2-0-3-19-8-3"><tspan
         style="font-size:45px"
         sodipodi:role="line"
         x="1959.3646"
         y="2232.1138"
         id="tspan8507">Oprosti Korenček,</tspan><tspan
         style="font-size:45px"
         sodipodi:role="line"
         x="1959.3646"
         y="2288.3638"
         id="tspan231">ampak kot kaže bova</tspan><tspan
         style="font-size:45px"
         sodipodi:role="line"
         x="1959.3646"
         y="2344.6138"
         id="tspan237348">spet potrebovala</tspan><tspan
         style="font-size:45px"
         sodipodi:role="line"
         x="1959.3646"
         y="2400.8638"
         id="tspan239366">hiper pogon.</tspan></text>
    <text
       xml:space="preserve"
       style="font-style:normal;font-variant:normal;font-weight:normal;font-stretch:normal;font-size:45px;line-height:1.25;font-family:Lavi;-inkscape-font-specification:Lavi;text-align:center;letter-spacing:0px;word-spacing:0px;text-anchor:middle;fill:#000000;fill-opacity:1;stroke:none"
       x="1954.3956"
       y="2464.7966"
       id="text4246-3-2-2-6-3-7-9-3-3-56-9-3-20-3-2-0-3-19-8"><tspan
         style="font-size:45px"
         sodipodi:role="line"
         x="1954.3956"
         y="2464.7966"
         id="tspan1046">Trdno se primi!</tspan></text>
    <text
       xml:space="preserve"
       style="font-style:normal;font-variant:normal;font-weight:normal;font-stretch:normal;font-size:6.99764px;line-height:0%;font-family:Lavi;-inkscape-font-specification:Lavi;letter-spacing:0px;word-spacing:0px;fill:#000000;fill-opacity:1;stroke:#000000;stroke-width:6.65341;stroke-miterlimit:4;stroke-dasharray:none;stroke-opacity:1;paint-order:stroke fill markers"
       x="1234.3364"
       y="2988.7241"
       id="text4580-25"
       transform="matrix(0.70061135,-0.52267462,0.27429036,1.222697,0,0)"><tspan
         sodipodi:role="line"
         id="tspan4582-4"
         x="1234.3364"
         y="2988.7241"
         style="font-size:40.8195px;line-height:100%;letter-spacing:2.84772px;fill:#ffffff;stroke:#000000;stroke-width:6.65341;stroke-miterlimit:4;stroke-dasharray:none;stroke-opacity:1;paint-order:stroke fill markers"><tspan
           style="font-size:46.8842px;line-height:100%;letter-spacing:2.84772px;stroke:#000000;stroke-width:6.65341;stroke-miterlimit:4;stroke-dasharray:none;stroke-opacity:1;paint-order:stroke fill markers"
           id="tspan4617-9">Tap!</tspan></tspan></text>
    <text
       xml:space="preserve"
       style="font-style:normal;font-variant:normal;font-weight:normal;font-stretch:normal;font-size:6.12727px;line-height:0%;font-family:Lavi;-inkscape-font-specification:Lavi;letter-spacing:0px;word-spacing:0px;fill:#000000;fill-opacity:1;stroke:#000000;stroke-width:5.82585;stroke-miterlimit:4;stroke-dasharray:none;stroke-opacity:1;paint-order:stroke fill markers"
       x="1244.6915"
       y="2939.7729"
       id="text4580-25-6"
       transform="matrix(0.70061135,-0.52267462,0.27429036,1.222697,0,0)"><tspan
         sodipodi:role="line"
         id="tspan4582-4-1"
         x="1244.6915"
         y="2939.7729"
         style="font-size:35.7423px;line-height:100%;letter-spacing:2.49352px;fill:#ffffff;stroke:#000000;stroke-width:5.82585;stroke-miterlimit:4;stroke-dasharray:none;stroke-opacity:1;paint-order:stroke fill markers"><tspan
           style="font-size:41.0527px;line-height:100%;letter-spacing:2.49352px;stroke:#000000;stroke-width:5.82585;stroke-miterlimit:4;stroke-dasharray:none;stroke-opacity:1;paint-order:stroke fill markers"
           id="tspan4617-9-0">Tap!</tspan></tspan></text>
    <text
       xml:space="preserve"
       style="font-style:normal;font-variant:normal;font-weight:normal;font-stretch:normal;font-size:80px;line-height:1.25;font-family:Lavi;-inkscape-font-specification:Lavi;letter-spacing:0px;word-spacing:0px;fill:#ffffff;fill-opacity:1;stroke:#ffffff;stroke-width:0.668774;stroke-miterlimit:4;stroke-dasharray:none;stroke-opacity:1;filter:url(#filter4375-4-1-1-1-9-5-8-8-5-5-3-3-3-0-6)"
       id="text4580-6-0-0-0-9-3-3-2-0-3"
       transform="matrix(1.2199315,-0.31719701,-0.66892978,2.2459164,3443.4589,177.24169)"
       x="-607.91235"
       y="1245.0809"><tspan
         id="tspan1534-6-7"
         style="font-size:61.3371px"><tspan
   style="font-size:66.5743px"
   id="tspan1814-4">Sišš</tspan><tspan
   style="font-size:63.853px"
   id="tspan257944">š</tspan>!!</tspan></text>
  </g>
</svg>
