<?xml version="1.0" encoding="UTF-8" standalone="no"?>
<svg
   id="svg2"
   version="1.1"
   inkscape:version="1.1.1 (3bf5ae0d25, 2021-09-20, custom)"
   width="2481"
   height="3503"
   sodipodi:docname="E34P02.svg"
   xmlns:inkscape="http://www.inkscape.org/namespaces/inkscape"
   xmlns:sodipodi="http://sodipodi.sourceforge.net/DTD/sodipodi-0.dtd"
   xmlns:xlink="http://www.w3.org/1999/xlink"
   xmlns="http://www.w3.org/2000/svg"
   xmlns:svg="http://www.w3.org/2000/svg"
   xmlns:rdf="http://www.w3.org/1999/02/22-rdf-syntax-ns#"
   xmlns:cc="http://creativecommons.org/ns#"
   xmlns:dc="http://purl.org/dc/elements/1.1/">
  <metadata
     id="metadata8">
    <rdf:RDF>
      <cc:Work
         rdf:about="">
        <dc:format>image/svg+xml</dc:format>
        <dc:type
           rdf:resource="http://purl.org/dc/dcmitype/StillImage" />
        <dc:title />
      </cc:Work>
    </rdf:RDF>
  </metadata>
  <defs
     id="defs6">
    <inkscape:path-effect
       effect="bend_path"
       id="path-effect1045" />
    <inkscape:path-effect
       effect="bend_path"
       id="path-effect1076" />
    <filter
       style="color-interpolation-filters:sRGB"
       id="filter4375-4-1-1-1-9-5-8-8-5-5"
       inkscape:label="soundFX1"
       x="-0.0037286023"
       y="-0.0038711246"
       width="1.0043007"
       height="1.0790283">
      <feFlood
         id="feFlood4377-7-9-0-8-1-7-3-1-2-7"
         flood-opacity="1"
         flood-color="rgb(52,52,52)"
         result="flood" />
      <feComposite
         id="feComposite4379-3-8-8-2-77-4-1-0-6-4"
         in2="SourceGraphic"
         in="flood"
         operator="in"
         result="composite1"
         baseFrequency="0.053999999999999999 0.053999999999999999" />
      <feMorphology
         id="feMorphology4393-1-0-49-8-9-3-0-1-9-9"
         operator="dilate"
         radius="6.2000000000000002"
         result="result3" />
      <feComposite
         id="feComposite4385-9-5-7-0-8-8-7-5-4-9"
         in2="result3"
         in="SourceGraphic"
         operator="over"
         result="fbSourceGraphic" />
      <feColorMatrix
         result="fbSourceGraphicAlpha"
         in="fbSourceGraphic"
         values="0 0 0 -1 0 0 0 0 -1 0 0 0 0 -1 0 0 0 0 1 0"
         id="feColorMatrix4544-9-4-4" />
      <feTurbulence
         id="feTurbulence4546-3-6-5"
         type="fractalNoise"
         numOctaves="5"
         seed="174"
         baseFrequency="0.053999999999999999 0.054054054054054057"
         result="turbulence" />
      <feDisplacementMap
         id="feDisplacementMap4548-8-0-9"
         in2="turbulence"
         in="fbSourceGraphic"
         scale="6.6"
         yChannelSelector="G"
         xChannelSelector="R"
         result="fbSourceGraphic" />
      <feColorMatrix
         result="fbSourceGraphicAlpha"
         in="fbSourceGraphic"
         values="0 0 0 -1 0 0 0 0 -1 0 0 0 0 -1 0 0 0 0 1 0"
         id="feColorMatrix4670-7-7-3" />
      <feFlood
         id="feFlood4672-4-4-5"
         flood-opacity="1"
         flood-color="rgb(28,28,28)"
         result="flood"
         in="fbSourceGraphic" />
      <feComposite
         id="feComposite4674-8-3-7"
         in2="fbSourceGraphic"
         in="flood"
         operator="in"
         result="composite1" />
      <feGaussianBlur
         id="feGaussianBlur4676-3-7-08"
         in="composite1"
         stdDeviation="0"
         result="blur" />
      <feOffset
         id="feOffset4678-6-9-1"
         dx="-1.7978952891791096"
         dy="6"
         result="offset" />
      <feComposite
         id="feComposite4680-4-0-9"
         in2="offset"
         in="fbSourceGraphic"
         operator="over"
         result="composite2" />
    </filter>
    <filter
       style="color-interpolation-filters:sRGB"
       id="filter4375-4-1-1-1-9-5-8-8-5-5-3"
       inkscape:label="soundFX1"
       x="-0.00049819965"
       y="-0.002477818"
       width="1.0093437"
       height="1.0464713">
      <feFlood
         id="feFlood4377-7-9-0-8-1-7-3-1-2-7-6"
         flood-opacity="1"
         flood-color="rgb(52,52,52)"
         result="flood" />
      <feComposite
         id="feComposite4379-3-8-8-2-77-4-1-0-6-4-7"
         in2="SourceGraphic"
         in="flood"
         operator="in"
         result="composite1"
         baseFrequency="0.053999999999999999 0.053999999999999999" />
      <feMorphology
         id="feMorphology4393-1-0-49-8-9-3-0-1-9-9-5"
         operator="dilate"
         radius="6.2000000000000002"
         result="result3" />
      <feComposite
         id="feComposite4385-9-5-7-0-8-8-7-5-4-9-3"
         in2="result3"
         in="SourceGraphic"
         operator="over"
         result="fbSourceGraphic" />
      <feColorMatrix
         result="fbSourceGraphicAlpha"
         in="fbSourceGraphic"
         values="0 0 0 -1 0 0 0 0 -1 0 0 0 0 -1 0 0 0 0 1 0"
         id="feColorMatrix4544-9-4-4-5" />
      <feTurbulence
         id="feTurbulence4546-3-6-5-6"
         type="fractalNoise"
         numOctaves="5"
         seed="174"
         baseFrequency="0.053999999999999999 0.054054054054054057"
         result="turbulence" />
      <feDisplacementMap
         id="feDisplacementMap4548-8-0-9-2"
         in2="turbulence"
         in="fbSourceGraphic"
         scale="6.6"
         yChannelSelector="G"
         xChannelSelector="R"
         result="fbSourceGraphic" />
      <feColorMatrix
         result="fbSourceGraphicAlpha"
         in="fbSourceGraphic"
         values="0 0 0 -1 0 0 0 0 -1 0 0 0 0 -1 0 0 0 0 1 0"
         id="feColorMatrix4670-7-7-3-9" />
      <feFlood
         id="feFlood4672-4-4-5-1"
         flood-opacity="1"
         flood-color="rgb(28,28,28)"
         result="flood"
         in="fbSourceGraphic" />
      <feComposite
         id="feComposite4674-8-3-7-2"
         in2="fbSourceGraphic"
         in="flood"
         operator="in"
         result="composite1" />
      <feGaussianBlur
         id="feGaussianBlur4676-3-7-08-7"
         in="composite1"
         stdDeviation="0"
         result="blur" />
      <feOffset
         id="feOffset4678-6-9-1-0"
         dx="6"
         dy="6"
         result="offset" />
      <feComposite
         id="feComposite4680-4-0-9-9"
         in2="offset"
         in="fbSourceGraphic"
         operator="over"
         result="composite2" />
    </filter>
    <filter
       style="color-interpolation-filters:sRGB"
       id="filter4375-4-1-1-1-9-5-8-8-5-5-3-3"
       inkscape:label="soundFX1"
       x="-0.028462889"
       y="-0.00081695011"
       width="1.029403"
       height="1.0025286">
      <feFlood
         id="feFlood4377-7-9-0-8-1-7-3-1-2-7-6-6"
         flood-opacity="1"
         flood-color="rgb(52,52,52)"
         result="flood" />
      <feComposite
         id="feComposite4379-3-8-8-2-77-4-1-0-6-4-7-7"
         in2="SourceGraphic"
         in="flood"
         operator="in"
         result="composite1"
         baseFrequency="0.053999999999999999 0.053999999999999999" />
      <feMorphology
         id="feMorphology4393-1-0-49-8-9-3-0-1-9-9-5-5"
         operator="dilate"
         radius="4.0330969769021738"
         result="result3" />
      <feComposite
         id="feComposite4385-9-5-7-0-8-8-7-5-4-9-3-3"
         in2="result3"
         in="SourceGraphic"
         operator="over"
         result="fbSourceGraphic" />
      <feColorMatrix
         result="fbSourceGraphicAlpha"
         in="fbSourceGraphic"
         values="0 0 0 -1 0 0 0 0 -1 0 0 0 0 -1 0 0 0 0 1 0"
         id="feColorMatrix4544-9-4-4-5-5" />
      <feTurbulence
         id="feTurbulence4546-3-6-5-6-6"
         type="fractalNoise"
         numOctaves="4"
         seed="147"
         baseFrequency="0.053999999999999999 0.054054054054054057"
         result="turbulence" />
      <feDisplacementMap
         id="feDisplacementMap4548-8-0-9-2-2"
         in2="turbulence"
         in="fbSourceGraphic"
         scale="10.561763084739264"
         yChannelSelector="G"
         xChannelSelector="R"
         result="fbSourceGraphic" />
      <feColorMatrix
         result="fbSourceGraphicAlpha"
         in="fbSourceGraphic"
         values="0 0 0 -1 0 0 0 0 -1 0 0 0 0 -1 0 0 0 0 1 0"
         id="feColorMatrix4670-7-7-3-9-9" />
      <feFlood
         id="feFlood4672-4-4-5-1-1"
         flood-opacity="1"
         flood-color="rgb(28,28,28)"
         result="flood"
         in="fbSourceGraphic" />
      <feComposite
         id="feComposite4674-8-3-7-2-2"
         in2="fbSourceGraphic"
         in="flood"
         operator="in"
         result="composite1" />
      <feGaussianBlur
         id="feGaussianBlur4676-3-7-08-7-7"
         in="composite1"
         stdDeviation="0"
         result="blur" />
      <feOffset
         id="feOffset4678-6-9-1-0-0"
         dx="-10.48377497279229"
         dy="0.39217365321829334"
         result="offset" />
      <feComposite
         id="feComposite4680-4-0-9-9-9"
         in2="offset"
         in="fbSourceGraphic"
         operator="over"
         result="composite2" />
    </filter>
    <filter
       style="color-interpolation-filters:sRGB"
       id="filter4375-4-1-1-1-9-5-8-8-5-5-3-8"
       inkscape:label="soundFX1">
      <feFlood
         id="feFlood4377-7-9-0-8-1-7-3-1-2-7-6-7"
         flood-opacity="1"
         flood-color="rgb(52,52,52)"
         result="flood" />
      <feComposite
         id="feComposite4379-3-8-8-2-77-4-1-0-6-4-7-9"
         in2="SourceGraphic"
         in="flood"
         operator="in"
         result="composite1"
         baseFrequency="0.053999999999999999 0.053999999999999999" />
      <feMorphology
         id="feMorphology4393-1-0-49-8-9-3-0-1-9-9-5-2"
         operator="dilate"
         radius="2.9756367599225957"
         result="result3" />
      <feComposite
         id="feComposite4385-9-5-7-0-8-8-7-5-4-9-3-0"
         in2="result3"
         in="SourceGraphic"
         operator="over"
         result="fbSourceGraphic" />
      <feColorMatrix
         result="fbSourceGraphicAlpha"
         in="fbSourceGraphic"
         values="0 0 0 -1 0 0 0 0 -1 0 0 0 0 -1 0 0 0 0 1 0"
         id="feColorMatrix4544-9-4-4-5-2" />
      <feTurbulence
         id="feTurbulence4546-3-6-5-6-3"
         type="fractalNoise"
         numOctaves="5"
         seed="174"
         baseFrequency="0.053999999999999999 0.054054054054054057"
         result="turbulence" />
      <feDisplacementMap
         id="feDisplacementMap4548-8-0-9-2-7"
         in2="turbulence"
         in="fbSourceGraphic"
         scale="6.6"
         yChannelSelector="G"
         xChannelSelector="R"
         result="fbSourceGraphic" />
      <feColorMatrix
         result="fbSourceGraphicAlpha"
         in="fbSourceGraphic"
         values="0 0 0 -1 0 0 0 0 -1 0 0 0 0 -1 0 0 0 0 1 0"
         id="feColorMatrix4670-7-7-3-9-5" />
      <feFlood
         id="feFlood4672-4-4-5-1-9"
         flood-opacity="1"
         flood-color="rgb(28,28,28)"
         result="flood"
         in="fbSourceGraphic" />
      <feComposite
         id="feComposite4674-8-3-7-2-22"
         in2="fbSourceGraphic"
         in="flood"
         operator="in"
         result="composite1" />
      <feGaussianBlur
         id="feGaussianBlur4676-3-7-08-7-8"
         in="composite1"
         stdDeviation="0"
         result="blur" />
      <feOffset
         id="feOffset4678-6-9-1-0-9"
         dx="-6.3258232761971414"
         dy="6"
         result="offset" />
      <feComposite
         id="feComposite4680-4-0-9-9-7"
         in2="offset"
         in="fbSourceGraphic"
         operator="over"
         result="composite2" />
    </filter>
  </defs>
  <sodipodi:namedview
     pagecolor="#ffffff"
     bordercolor="#666666"
     borderopacity="1"
     objecttolerance="10"
     gridtolerance="10"
     guidetolerance="10"
     inkscape:pageopacity="0"
     inkscape:pageshadow="2"
     inkscape:window-width="1888"
     inkscape:window-height="1146"
     id="namedview4"
     showgrid="false"
     inkscape:zoom="0.43016844"
     inkscape:cx="1280.8936"
     inkscape:cy="2397.8979"
     inkscape:window-x="32"
     inkscape:window-y="0"
     inkscape:window-maximized="1"
     inkscape:current-layer="layer3"
     inkscape:document-rotation="0"
     inkscape:snap-global="false"
     showborder="true"
     inkscape:pagecheckerboard="false"
     inkscape:showpageshadow="true"
     borderlayer="true" />
  <g
     inkscape:groupmode="layer"
     id="layer2"
     inkscape:label="artwork"
     sodipodi:insensitive="true">
    <image
       xlink:href="../gfx_Pepper-and-Carrot_by-David-Revoy_E34P02.png"
       y="0"
       x="0"
       id="image10"
       height="3503"
       width="2481" />
  </g>
  <g
     inkscape:groupmode="layer"
     id="layer3"
     inkscape:label="speechbubbles"
     style="display:inline">
    <path
       style="fill:#ffffff;fill-rule:evenodd;stroke:none;stroke-width:1.00848px;stroke-linecap:butt;stroke-linejoin:miter;stroke-opacity:1"
       d="m 1504.1518,295.73768 c 13.2052,-14.01464 23.1192,-27.09488 10.4478,-33.76277 l -5.0723,-7.33588 -43.0303,-54.69256 c 44.35,9.69243 92.0832,22.88206 58.8153,-47.65984 43.4508,33.00197 78.1149,48.54186 78.8121,-3.42187 18.4,21.59545 37.2469,56.49934 54.0623,30.89631 9.2928,11.14068 16.8349,5.8215 22.5431,-16.74036 13.0396,26.0669 28.6171,8.08031 44.9121,-22.35793 19.7435,28.02016 40.1625,50.93515 69.3513,7.57343 -0.4637,30.50736 17.9431,27.52677 44.8793,9.40981 -2.2525,13.43317 3.4615,17.32758 36.554,3.83476 -7.1382,13.43407 -22.068,15.87009 14.5562,15.37304 -2.2222,12.70423 -24.0613,24.69128 22.1718,39.16698 -45.1982,-1.06358 -10.0628,18.3666 -7.3063,29.53666 -29.7043,-4.23968 -42.4343,-0.15331 -8.8759,26.63806 -14.915,0.83094 -59.4683,-27.80395 -34.5473,12.63114 -26.6795,-21.56679 -47.391,9.03202 -34.256,8.97973 l -52.5238,13.09442 -85.7043,-0.63011 -60.0577,5.21564 -49.5371,9.49524 c 5.1587,-19.00605 -11.1565,-11.13073 -24.2633,-7.27162 -4.9217,-5.04664 3.1939,-18.89589 -24.975,-8.24624 -0.6232,-13.39811 -14.6811,-10.47936 -26.956,-9.72604 z"
       id="path1058"
       sodipodi:nodetypes="ccccccccccccccccccccccccc" />
    <path
       style="fill:#ffffff;fill-rule:evenodd;stroke:none;stroke-width:0.954737px;stroke-linecap:butt;stroke-linejoin:miter;stroke-opacity:1"
       d="m 1530.7758,262.92735 c -35.9072,10.10196 -75.8305,16.24992 -118.7864,19.41205 l 21.3884,19.60641 c -21.2547,3.62778 -30.9065,7.87998 -78.7794,11.98957 l 8.0313,9.59761 -119.5365,7.98838 148.067,7.74645 -10.6519,-15.27464 91.053,-11.04829 -19.2666,-17.88249 c 34.3908,-13.46395 81.0551,-12.27309 121.6588,-18.31863 z"
       id="path957"
       sodipodi:nodetypes="cccccccccccc" />
    <path
       style="fill:#ffffff;fill-rule:evenodd;stroke:none;stroke-width:1.063px;stroke-linecap:butt;stroke-linejoin:miter;stroke-opacity:1"
       d="m 1582.1178,323.97706 c 14.9843,12.75119 18.7199,25.89347 -1.3781,39.8644 26.4234,-12.91703 24.7747,1.17371 19.8916,18.37606 28.7448,-11.38363 34.8448,-6.90373 24.5438,7.21408 16.9355,-1.22126 54.8301,-11.85348 53.7728,-1.758 l 220.0872,-24.68435 1.726,-22.42574 c -8.7491,-3.20819 -23.995,1.46176 -18.8356,-18.61232 -16.7498,3.94968 -30.1878,-2.13698 -6.6853,-24.07066 -32.5863,14.47681 -10.6718,-6.36397 -7.5336,-18.68894 -32.3319,13.13592 -27.5647,-3.57842 -19.882,-16.30999 -11.552,13.376 -68.4408,-2.75419 -72.199,6.85183 l -161.5255,18.49782 c -5.7093,13.60051 17.3096,36.97853 -31.9823,35.74581 z"
       id="path959"
       sodipodi:nodetypes="cccccccccccccc" />
    <path
       style="fill:#ffffff;fill-rule:evenodd;stroke:none;stroke-width:0.999815px;stroke-linecap:butt;stroke-linejoin:miter;stroke-opacity:1"
       d="m 1604.6941,395.35824 c 38.5304,0.64155 33.4254,12.50383 19.5498,26.62153 10.6743,-0.94958 35.6397,-14.02714 20.8364,6.64533 32.3229,-7.51042 12.4095,7.6856 9.7831,15.32662 13.0295,-1.60841 21.0055,5.3125 5.1588,31.05447 16.002,-6.05805 40.455,-28.80223 38.6327,0.33428 12.9546,-3.61655 29.9753,-17.55119 32.1355,6.2234 17.1247,-11.73692 34.138,-21.75031 49.4386,-5.23357 15.9141,-23.90651 29.7721,-28.36225 40.6562,-4.68236 15.1553,-15.71267 33.0273,0.48906 52.079,30.55032 -5.5619,-23.81264 2.8816,-38.58578 65.2087,-18.58082 -0.452,-20.96468 12.5536,-30.34306 64.5295,-6.16992 -11.0466,-13.95314 -37.7546,-36.16791 24.4183,-11.49559 -32.698,-29.70342 2.7792,-47.99984 30.0055,-67.6768 -33.1523,13.72187 -36.6639,8.36477 -24.1733,-7.29249 -52.7179,18.33465 -47.1887,-9.50786 -33.1611,-44.08798 -38.6029,18.30037 -33.0652,7.65077 -23.8104,-2.08244 -68.6109,19.2312 -39.9955,-11.20691 -33.6601,-23.072 -49.7016,53.30694 -35.0887,20.38997 -29.6024,-0.29133 -28.2161,31.77485 -49.5812,53.19757 -44.197,21.94921 l -47.1474,-5.43596 -178.8535,21.52238 -25.6362,22.9431 c 59.1777,-2.76838 23.1949,9.71183 -12.1907,12.93062 z"
       id="path961"
       sodipodi:nodetypes="cccccccccccccccccccccccc" />
    <path
       style="fill:#ffffff;fill-rule:evenodd;stroke:none;stroke-width:0.743887px;stroke-linecap:butt;stroke-linejoin:miter;stroke-opacity:1"
       d="m 402.3377,2283.3594 c 22.36564,51.5132 28.26382,65.1671 32.70811,75.7246 4.44431,10.5576 6.95122,24.2595 0.64038,26.9082 -15.54782,6.5255 -33.53774,22.8752 27.24564,95.9666 -21.63483,-46.9619 -28.34094,-72.815 -15.566,-78.5231 8.57301,-6.7097 22.80991,-8.6107 5.94489,-60.3706 -16.86495,-51.7599 -49.30756,-108.1476 -49.30756,-108.1476 l -11.57148,18.7287 z"
       id="path895"
       inkscape:connector-curvature="0"
       sodipodi:nodetypes="csscccccc"
       inkscape:transform-center-x="6.2803954"
       inkscape:transform-center-y="10.079755" />
    <path
       style="color:#000000;display:inline;overflow:visible;visibility:visible;fill:#ffffff;fill-opacity:1;fill-rule:nonzero;stroke:none;stroke-width:1.04081px;marker:none;enable-background:accumulate"
       d="m 481.0385,2135.4802 c 163.91282,11.1098 187.22601,50.8252 188.85969,87.6588 -2.8322,37.9577 -35.69524,65.6516 -59.87909,71.2068 -24.18386,5.5545 -60.53481,13.2645 -127.63713,14.442 -77.52247,0.05 -135.75532,-5.4644 -170.76599,-35.3226 -99.11332,-121.975 122.11143,-140.3719 169.42252,-137.985 z"
       id="path3365-7-3"
       inkscape:connector-curvature="0"
       sodipodi:nodetypes="ccsccc" />
    <path
       style="color:#000000;display:inline;overflow:visible;visibility:visible;fill:#ffffff;fill-opacity:1;fill-rule:nonzero;stroke:none;stroke-width:0.5335px;marker:none;enable-background:accumulate"
       d="m 282.50415,2086.6855 c 67.59443,7.0784 78.31202,26.7283 78.98572,50.1965 -1.16794,24.1844 -14.72002,41.8293 -24.69297,45.3687 -9.97295,3.539 -24.96338,8.4515 -52.63505,9.2016 -31.96875,0.032 -50.81432,-1.453 -71.05746,-20.7303 -41.91307,-50.8976 6.52436,-83.9778 69.39976,-84.0365 z"
       id="path3365-7"
       inkscape:connector-curvature="0"
       sodipodi:nodetypes="ccsccc" />
    <path
       style="color:#000000;display:inline;overflow:visible;visibility:visible;fill:#ffffff;fill-opacity:1;fill-rule:nonzero;stroke:none;stroke-width:0.621982px;marker:none;enable-background:accumulate"
       d="m 1427.1523,2074.2617 c -32.4721,0.2058 -65.7562,6.5038 -93.8265,23.4932 -25.2497,15.5664 -36.3258,50.6093 -24.2589,77.7832 11.7846,26.6175 39.3277,44.5142 68.0176,47.0026 40.8292,7.2639 82.5674,4.7404 123.6211,0.9846 20.286,-2.5436 41.3531,-6.7033 58.1851,-19.0253 24.5507,-19.4152 31.0524,-56.9896 16.0318,-84.1331 -8.0465,-15.3461 -23.0381,-26.0052 -39.2135,-31.4607 -25.5145,-9.584 -52.9285,-12.1266 -79.9084,-14.0465 -9.5412,-0.4723 -19.0959,-0.6477 -28.6483,-0.598 z"
       id="path4546-1"
       inkscape:connector-curvature="0"
       sodipodi:nodetypes="cssssc" />
    <path
       style="fill:#ffffff;stroke:none;stroke-width:0.574142"
       d="m 1403.9856,2372.7936 c -39.0821,-62.787 -19.4125,-123.7423 -4.7627,-176.2444 l -28.056,-13.3069 c -14.9515,56.8343 -28.5621,131.5641 32.8187,189.5513 z"
       id="path3063-8"
       inkscape:connector-curvature="0"
       sodipodi:nodetypes="cccc" />
    <path
       style="color:#000000;display:inline;overflow:visible;visibility:visible;fill:#ffffff;fill-opacity:1;fill-rule:nonzero;stroke:none;stroke-width:0.922761px;marker:none;enable-background:accumulate"
       d="m 1912.4009,2590.2055 c -74.221,-67.2131 -28.7488,-124.1048 -6.9154,-139.9246 43.9344,-31.8336 28.2195,30.5317 28.2195,30.5317 -4.287,-9.0831 -80.3291,30.236 -21.3041,109.3929 z"
       id="path5002-7"
       inkscape:connector-curvature="0"
       sodipodi:nodetypes="cscc" />
    <path
       style="color:#000000;display:inline;overflow:visible;visibility:visible;fill:#ffffff;fill-opacity:1;fill-rule:nonzero;stroke:none;stroke-width:0.953594px;marker:none;enable-background:accumulate"
       d="m 1931.3395,2296.9889 c -38.8865,2.281 -77.9342,7.6739 -114.9061,20.3545 -15.483,7.7865 -27.7687,20.4284 -38.944,33.3889 -10.7917,13.9163 -16.0889,31.3853 -17.3636,48.7582 -2.2486,16.6863 -1.52,34.3922 5.9864,49.747 13.3896,28.857 41.6272,49.802 72.7852,55.7754 31.3427,7.3295 63.6619,8.9378 95.7431,9.7802 26.559,0.4284 53.2123,-0.024 79.6069,-3.2765 23.6988,-3.3825 47.2422,-9.8449 68.2918,-21.4496 14.8814,-9.0812 26.4392,-23.5175 31.7248,-40.1242 7.2515,-20.4207 7.9313,-42.8441 3.4755,-63.9315 -5.7799,-24.7683 -19.8949,-47.6336 -39.8157,-63.5451 -15.4739,-11.825 -34.4834,-18.1043 -53.5867,-21.0302 -30.6365,-5.5993 -61.9707,-5.5841 -92.9976,-4.4471 z"
       id="path4040-4-5-3-4"
       inkscape:connector-curvature="0"
       sodipodi:nodetypes="zssssz" />
    <path
       style="color:#000000;display:inline;overflow:visible;visibility:visible;fill:#ffffff;fill-opacity:1;fill-rule:nonzero;stroke:none;stroke-width:0.884224px;marker:none;enable-background:accumulate"
       d="m 2011.4445,2107.3127 c -61.2979,1.521 -122.9084,9.9736 -179.9038,29.3384 -13.9326,4.7412 -27.5939,10.9701 -37.5205,20.6255 -21.4378,19.6853 -32.6243,46.0414 -34.9345,72.3199 -1.8556,20.6424 3.6508,42.5456 19.6818,58.8047 14.1223,14.2515 35.3166,22.2646 56.6298,25.997 31.506,5.6942 63.7349,8.1832 95.9149,9.0797 60.8024,1.3161 121.786,-5.0501 180.4944,-18.2426 13.9326,-3.2735 28.4484,-6.3867 40.285,-13.6584 8.793,-5.4166 15.3094,-13.0302 19.678,-21.327 10.9599,-18.4688 18.2105,-39.3651 14.6683,-60.1025 -3.9026,-23.8888 -20.0968,-45.391 -41.186,-61.4488 -24.8467,-19.0201 -56.2375,-31.6269 -89.0299,-37.7116 -14.6961,-2.6375 -29.7476,-3.8667 -44.7775,-3.6743 z"
       id="path4040-40"
       inkscape:connector-curvature="0"
       sodipodi:nodetypes="zssssz" />
    <path
       style="fill:#ffffff;stroke:none;stroke-width:0.623572"
       d="m 1974.8649,2050.4923 c -42.2261,0.5403 -84.4968,5.9831 -124.3514,17.1761 -16.5965,5.2991 -29.6763,17.77 -31.6164,32.0417 -1.8162,11.2538 2.5244,23.5809 13.5245,31.1915 10.1758,6.9609 23.6482,9.4359 36.4239,11.7313 42.4918,7.5715 86.2808,9.0742 129.6935,8.334 39.2002,-0.2233 78.9885,-0.483 117.1011,-8.6449 13.3576,-2.8686 27.053,-6.918 36.7598,-15.0782 7.0951,-6.1004 10.1927,-14.7324 8.9535,-22.9172 -1.6635,-15.641 -14.7232,-29.8286 -32.2791,-36.7993 -14.3366,-5.9796 -30.1723,-9.2605 -45.9796,-11.7458 -35.6372,-5.3406 -72.104,-5.2752 -108.2298,-5.2892 z"
       id="path3280-10"
       inkscape:connector-curvature="0"
       sodipodi:nodetypes="csssc" />
  </g>
  <g
     inkscape:groupmode="layer"
     id="layer1"
     inkscape:label="txt">
    <text
       xml:space="preserve"
       style="font-style:normal;font-variant:normal;font-weight:normal;font-stretch:normal;font-size:105.817px;line-height:1.25;font-family:Lavi;-inkscape-font-specification:Lavi;letter-spacing:0px;word-spacing:0px;fill:#ffffff;fill-opacity:1;stroke:#ffffff;stroke-width:0.651649;stroke-miterlimit:4;stroke-dasharray:none;stroke-opacity:1;filter:url(#filter4375-4-1-1-1-9-5-8-8-5-5)"
       x="787.65729"
       y="1584.5073"
       id="text4580-6-0-0-0-9"
       transform="matrix(0.85173785,-0.2120138,-0.27862433,0.92213476,-61.467437,-1084.276)"><tspan
         style="font-size:105.817px;fill:#ffffff;fill-opacity:1;stroke:#ffffff;stroke-width:0.651649;stroke-miterlimit:4;stroke-dasharray:none;stroke-opacity:1"
         sodipodi:role="line"
         id="tspan876"
         x="787.65729"
         y="1584.5073"><tspan
   style="font-size:68.9103px;fill:#ffffff;fill-opacity:1"
   id="tspan884">Siš</tspan>šŠŠŠŠŠ</tspan></text>
    <text
       xml:space="preserve"
       style="font-style:normal;font-variant:normal;font-weight:normal;font-stretch:normal;font-size:105.817px;line-height:1.25;font-family:Lavi;-inkscape-font-specification:Lavi;letter-spacing:0px;word-spacing:0px;fill:#ffffff;fill-opacity:1;stroke:#ffffff;stroke-width:0.716208;stroke-miterlimit:4;stroke-dasharray:none;stroke-opacity:1;filter:url(#filter4375-4-1-1-1-9-5-8-8-5-5-3)"
       x="787.65729"
       y="1584.5073"
       id="text4580-6-0-0-0-9-3"
       transform="matrix(0.94373699,-0.22067211,-0.3715186,1.0168112,628.1392,-1137.5397)"><tspan
         style="font-size:105.817px;fill:#ffffff;fill-opacity:1;stroke:#ffffff;stroke-width:0.716208;stroke-miterlimit:4;stroke-dasharray:none;stroke-opacity:1"
         sodipodi:role="line"
         id="tspan876-6"
         x="787.65729"
         y="1584.5073"><tspan
           style="font-size:78.6226px;fill:#ffffff;fill-opacity:1;stroke-width:0.716208"
           id="tspan884-0"><tspan
   style="font-size:93.191px;stroke-width:0.716208"
   id="tspan976">Siš</tspan>Š<tspan
   style="font-size:107.759px;stroke-width:0.716208"
   id="tspan972">Š</tspan></tspan><tspan
           id="tspan974"
           style="font-size:166.033px;stroke-width:0.716208">Š</tspan><tspan
           style="font-size:195.17px;stroke-width:0.716208"
           id="tspan958">ŠS</tspan></tspan></text>
    <text
       xml:space="preserve"
       style="font-style:normal;font-variant:normal;font-weight:normal;font-stretch:normal;font-size:56.2847px;line-height:1.25;font-family:Lavi;-inkscape-font-specification:Lavi;text-align:center;letter-spacing:0px;word-spacing:0px;text-anchor:middle;fill:#000000;fill-opacity:1;stroke:none;stroke-width:1.25077"
       x="1687.9755"
       y="254.68315"
       id="text4246-3-2-2"><tspan
         style="font-size:56.2847px;stroke-width:1.25077"
         sodipodi:role="line"
         id="tspan1097"
         x="1687.9755"
         y="254.68315">Prihajam!</tspan></text>
    <text
       xml:space="preserve"
       style="font-style:normal;font-variant:normal;font-weight:normal;font-stretch:normal;font-size:45px;line-height:1.25;font-family:Lavi;-inkscape-font-specification:Lavi;text-align:center;letter-spacing:0px;word-spacing:0px;text-anchor:middle;fill:#000000;fill-opacity:1;stroke:none"
       x="1733.1383"
       y="345.86694"
       id="text4246-3-2-2-6"><tspan
         style="font-size:45px"
         sodipodi:role="line"
         id="tspan1097-2"
         x="1733.1383"
         y="345.86694">Pozor!</tspan></text>
    <text
       xml:space="preserve"
       style="font-style:normal;font-variant:normal;font-weight:normal;font-stretch:normal;font-size:45px;line-height:1.25;font-family:Lavi;-inkscape-font-specification:Lavi;text-align:center;letter-spacing:0px;word-spacing:0px;text-anchor:middle;fill:#000000;fill-opacity:1;stroke:none"
       x="1826.4692"
       y="422.97653"
       id="text4246-3-2-2-6-6"><tspan
         style="font-style:normal;font-variant:normal;font-weight:normal;font-stretch:normal;font-size:45px;font-family:Lavi;-inkscape-font-specification:Lavi;stroke:#000000;stroke-opacity:1"
         sodipodi:role="line"
         id="tspan1097-2-1"
         x="1826.4692"
         y="422.97653">Umaknite se!!!</tspan></text>
    <text
       xml:space="preserve"
       style="font-style:normal;font-variant:normal;font-weight:normal;font-stretch:normal;font-size:140px;line-height:1.25;font-family:Lavi;-inkscape-font-specification:Lavi;letter-spacing:0px;word-spacing:0px;fill:#ffffff;fill-opacity:1;stroke:#ffffff;stroke-width:0.716208;stroke-miterlimit:4;stroke-dasharray:none;stroke-opacity:1;filter:url(#filter4375-4-1-1-1-9-5-8-8-5-5-3-3)"
       id="text4580-6-0-0-0-9-3-3"
       transform="matrix(0.87975325,-0.28432023,0,1.2307016,213.79529,79.674623)"><textPath
         xlink:href="#path974"
         id="textPath2837"><tspan
           style="font-size:140px;fill:#ffffff;fill-opacity:1;stroke:#ffffff;stroke-width:0.716208;stroke-miterlimit:4;stroke-dasharray:none;stroke-opacity:1"
           id="tspan876-6-6"
           rotate="335 335 335 335 335 0"><tspan
   style="font-size:150.644px"
   id="tspan2855">KR</tspan>A<tspan
   id="tspan2853"
   style="font-size:113.39px">H!</tspan></tspan></textPath></text>
    <path
       style="fill:none;fill-rule:evenodd;stroke:none;stroke-width:1px;stroke-linecap:butt;stroke-linejoin:miter;stroke-opacity:1"
       d="m 614.46906,1135.6082 c 207.04629,193.6764 366.91889,371.9512 546.13244,556.5406"
       id="path974"
       sodipodi:nodetypes="cc" />
    <text
       xml:space="preserve"
       style="font-style:normal;font-variant:normal;font-weight:normal;font-stretch:normal;font-size:45px;line-height:1.25;font-family:Lavi;-inkscape-font-specification:Lavi;text-align:center;letter-spacing:0px;word-spacing:0px;text-anchor:middle;fill:#000000;fill-opacity:1;stroke:none"
       x="283.30829"
       y="2153.9836"
       id="text4246-3-2-2-6-3"><tspan
         style="font-size:45px"
         sodipodi:role="line"
         id="tspan1097-2-6"
         x="283.30829"
         y="2153.9836">Ups!</tspan></text>
    <text
       xml:space="preserve"
       style="font-style:normal;font-variant:normal;font-weight:normal;font-stretch:normal;font-size:45px;line-height:1.25;font-family:Lavi;-inkscape-font-specification:Lavi;text-align:center;letter-spacing:0px;word-spacing:0px;text-anchor:middle;fill:#000000;fill-opacity:1;stroke:none"
       x="478.98965"
       y="2210.3066"
       id="text4246-3-2-2-6-3-7"><tspan
         style="font-size:45px"
         sodipodi:role="line"
         id="tspan1097-2-6-5"
         x="478.98965"
         y="2210.3066">Je vse v redu?</tspan><tspan
         style="font-size:45px"
         sodipodi:role="line"
         x="478.98965"
         y="2266.5566"
         id="tspan982">Nič polomljeno?</tspan></text>
    <text
       xml:space="preserve"
       style="font-style:normal;font-variant:normal;font-weight:normal;font-stretch:normal;font-size:55.5556px;line-height:1.25;font-family:Lavi;-inkscape-font-specification:Lavi;text-align:center;letter-spacing:0px;word-spacing:0px;text-anchor:middle;fill:#000000;fill-opacity:1;stroke:none;stroke-width:1.23457"
       x="1443.8728"
       y="2168.6335"
       id="text4246-3-2-2-6-3-7-5"><tspan
         style="font-size:55.5556px;stroke-width:1.23457"
         sodipodi:role="line"
         x="1443.8728"
         y="2168.6335"
         id="tspan982-2">Pepper!</tspan></text>
    <text
       xml:space="preserve"
       style="font-style:normal;font-variant:normal;font-weight:normal;font-stretch:normal;font-size:45px;line-height:1.25;font-family:Lavi;-inkscape-font-specification:Lavi;text-align:center;letter-spacing:0px;word-spacing:0px;text-anchor:middle;fill:#000000;fill-opacity:1;stroke:none"
       x="1994.0602"
       y="2118.3254"
       id="text4246-3-2-2-6-3-7-9"><tspan
         style="font-size:45px"
         sodipodi:role="line"
         x="1994.0602"
         y="2118.3254"
         id="tspan952">Živjo Shichimi!</tspan></text>
    <text
       xml:space="preserve"
       style="font-style:normal;font-variant:normal;font-weight:normal;font-stretch:normal;font-size:45px;line-height:1.25;font-family:Lavi;-inkscape-font-specification:Lavi;text-align:center;letter-spacing:0px;word-spacing:0px;text-anchor:middle;fill:#000000;fill-opacity:1;stroke:none"
       x="1970.9279"
       y="2186.6506"
       id="text4246-3-2-2-6-3-7-9-3"><tspan
         style="font-size:45px"
         sodipodi:role="line"
         x="1970.9279"
         y="2186.6506"
         id="tspan912">Oprosti za tako</tspan><tspan
         style="font-size:45px"
         sodipodi:role="line"
         x="1970.9279"
         y="2242.9006"
         id="tspan51974">dramatičen prihod</tspan><tspan
         style="font-size:45px"
         sodipodi:role="line"
         x="1970.9279"
         y="2299.1506"
         id="tspan53424">in zamudo!</tspan></text>
    <text
       xml:space="preserve"
       style="font-style:normal;font-variant:normal;font-weight:normal;font-stretch:normal;font-size:45px;line-height:1.25;font-family:Lavi;-inkscape-font-specification:Lavi;text-align:center;letter-spacing:0px;word-spacing:0px;text-anchor:middle;fill:#000000;fill-opacity:1;stroke:none"
       x="1943.2391"
       y="2366.1584"
       id="text4246-3-2-2-6-3-7-9-3-3"><tspan
         style="font-size:45px"
         sodipodi:role="line"
         x="1943.2391"
         y="2366.1584"
         id="tspan921">Že cel dan</tspan><tspan
         style="font-size:45px"
         sodipodi:role="line"
         x="1943.2391"
         y="2422.4084"
         id="tspan929">sem na begu,</tspan><tspan
         style="font-size:45px"
         sodipodi:role="line"
         x="1943.2391"
         y="2478.6584"
         id="tspan60090">dolga zgodba.</tspan></text>
  </g>
  <g
     inkscape:groupmode="layer"
     id="layer4"
     inkscape:label="mask"
     sodipodi:insensitive="true">
    <path
       id="rect879"
       style="color:#000000;overflow:visible;fill:#ffffff;stroke-width:3.8337;stop-color:#000000"
       d="M 91.951172,-31.222656 V 102.93359 l 520.126238,1.04131 -1.08166,40.10974 21.2893,243.88191 12.80888,-285.03303 H 2287.9512 V -31.222656 Z"
       sodipodi:nodetypes="ccccccccc" />
  </g>
  <g
     inkscape:groupmode="layer"
     id="layer5"
     inkscape:label="notes"
     style="opacity:0.60045649">
    <path
       style="color:#000000;clip-rule:nonzero;display:inline;overflow:visible;visibility:visible;isolation:auto;mix-blend-mode:normal;color-interpolation:sRGB;color-interpolation-filters:linearRGB;solid-color:#000000;solid-opacity:1;fill:#87cefa;fill-opacity:1;fill-rule:nonzero;stroke:#4682b4;stroke-width:1.8164;stroke-linecap:butt;stroke-linejoin:miter;stroke-miterlimit:4;stroke-dasharray:none;stroke-dashoffset:0;stroke-opacity:1;marker:none;color-rendering:auto;image-rendering:auto;shape-rendering:auto;text-rendering:auto;enable-background:accumulate"
       d="m 574.78169,-141.74548 v 95.563112 H 1932.6084 v -95.563112 z"
       id="path158"
       inkscape:connector-curvature="0"
       sodipodi:nodetypes="ccccc" />
    <flowRoot
       xml:space="preserve"
       id="flowRoot180"
       style="font-style:normal;font-variant:normal;font-weight:normal;font-stretch:normal;font-size:26.7486px;line-height:0.01%;font-family:Lavi;-inkscape-font-specification:'Lavi, Normal';font-variant-ligatures:normal;font-variant-caps:normal;font-variant-numeric:normal;font-feature-settings:normal;text-align:start;letter-spacing:0px;word-spacing:0px;writing-mode:lr-tb;text-anchor:start;display:inline;opacity:0.86;fill:#000000;fill-opacity:1;stroke:none;stroke-width:0.903147px;stroke-linecap:butt;stroke-linejoin:miter;stroke-opacity:1"
       transform="matrix(0.89724289,0,0,0.89724289,854.27309,-1075.7516)"><flowRegion
         id="flowRegion174"
         style="font-style:normal;font-variant:normal;font-weight:normal;font-stretch:normal;font-family:Lavi;-inkscape-font-specification:'Lavi, Normal';font-variant-ligatures:normal;font-variant-caps:normal;font-variant-numeric:normal;font-feature-settings:normal;text-align:start;writing-mode:lr-tb;text-anchor:start;stroke-width:0.903147px"><rect
           id="rect172"
           width="1464.0667"
           height="126.9518"
           x="-275.14545"
           y="1061.6674"
           style="font-style:normal;font-variant:normal;font-weight:normal;font-stretch:normal;font-family:Lavi;-inkscape-font-specification:'Lavi, Normal';font-variant-ligatures:normal;font-variant-caps:normal;font-variant-numeric:normal;font-feature-settings:normal;text-align:start;writing-mode:lr-tb;text-anchor:start;stroke-width:0.903147px" /></flowRegion><flowPara
         style="font-style:normal;font-variant:normal;font-weight:normal;font-stretch:normal;font-size:26.7486px;line-height:1.25;font-family:monospace;-inkscape-font-specification:monospace;font-variant-ligatures:normal;font-variant-caps:normal;font-variant-numeric:normal;font-feature-settings:normal;text-align:start;writing-mode:lr-tb;text-anchor:start;stroke-width:0.903147px"
         id="flowPara176">Dear translator: if editing the soundFX is difficult, I made a special documentation here:</flowPara><flowPara
         style="font-style:normal;font-variant:normal;font-weight:bold;font-stretch:normal;font-size:26.7486px;line-height:1.25;font-family:monospace;-inkscape-font-specification:'monospace Bold';font-variant-ligatures:normal;font-variant-caps:normal;font-variant-numeric:normal;font-feature-settings:normal;text-align:start;writing-mode:lr-tb;text-anchor:start;fill:#0000cd;stroke-width:0.903147px"
         id="flowPara181">https://www.peppercarrot.com/en/static14/documentation&amp;page=055_Sound-Effect_translation</flowPara><flowPara
         style="font-style:normal;font-variant:normal;font-weight:normal;font-stretch:normal;font-size:26.7486px;line-height:1.25;font-family:monospace;-inkscape-font-specification:monospace;font-variant-ligatures:normal;font-variant-caps:normal;font-variant-numeric:normal;font-feature-settings:normal;text-align:start;writing-mode:lr-tb;text-anchor:start;stroke-width:0.903147px"
         id="flowPara179" /></flowRoot>
  </g>
</svg>
