<?xml version="1.0" encoding="UTF-8" standalone="no"?>
<!-- Created with Inkscape (http://www.inkscape.org/) -->

<svg
   xmlns:dc="http://purl.org/dc/elements/1.1/"
   xmlns:cc="http://creativecommons.org/ns#"
   xmlns:rdf="http://www.w3.org/1999/02/22-rdf-syntax-ns#"
   xmlns:svg="http://www.w3.org/2000/svg"
   xmlns="http://www.w3.org/2000/svg"
   xmlns:xlink="http://www.w3.org/1999/xlink"
   xmlns:sodipodi="http://sodipodi.sourceforge.net/DTD/sodipodi-0.dtd"
   xmlns:inkscape="http://www.inkscape.org/namespaces/inkscape"
   id="svg2"
   version="1.1"
   inkscape:version="0.92.4 (5da689c313, 2019-01-14)"
   width="2481"
   height="663"
   sodipodi:docname="E29P00.svg">
  <metadata
     id="metadata8">
    <rdf:RDF>
      <cc:Work
         rdf:about="">
        <dc:format>image/svg+xml</dc:format>
        <dc:type
           rdf:resource="http://purl.org/dc/dcmitype/StillImage" />
        <dc:title />
      </cc:Work>
    </rdf:RDF>
  </metadata>
  <defs
     id="defs6">
    <linearGradient
       inkscape:collect="always"
       id="linearGradient892">
      <stop
         style="stop-color:#f56bbd;stop-opacity:1"
         offset="0"
         id="stop888" />
      <stop
         style="stop-color:#00000b;stop-opacity:1"
         offset="1"
         id="stop890" />
    </linearGradient>
    <filter
       style="color-interpolation-filters:sRGB"
       inkscape:label="Drop Shadow"
       id="filter1194">
      <feFlood
         flood-opacity="1"
         flood-color="rgb(56,56,56)"
         result="flood"
         id="feFlood1184" />
      <feComposite
         in="flood"
         in2="SourceGraphic"
         operator="in"
         result="composite1"
         id="feComposite1186" />
      <feGaussianBlur
         in="composite1"
         stdDeviation="2.5"
         result="blur"
         id="feGaussianBlur1188" />
      <feOffset
         dx="6"
         dy="3.6"
         result="offset"
         id="feOffset1190" />
      <feComposite
         in="SourceGraphic"
         in2="offset"
         operator="over"
         result="composite2"
         id="feComposite1192" />
    </filter>
    <radialGradient
       inkscape:collect="always"
       xlink:href="#linearGradient892"
       id="radialGradient839"
       cx="1183.0828"
       cy="649.12555"
       fx="1183.0828"
       fy="649.12555"
       r="931.55713"
       gradientTransform="matrix(0.80761994,-0.00420271,0.00265624,0.50463687,223.80387,78.191314)"
       gradientUnits="userSpaceOnUse" />
  </defs>
  <sodipodi:namedview
     pagecolor="#ffffff"
     bordercolor="#666666"
     borderopacity="1"
     objecttolerance="10"
     gridtolerance="10"
     guidetolerance="10"
     inkscape:pageopacity="0"
     inkscape:pageshadow="2"
     inkscape:window-width="1920"
     inkscape:window-height="1027"
     id="namedview4"
     showgrid="false"
     inkscape:zoom="0.51643698"
     inkscape:cx="1318.3933"
     inkscape:cy="216.51163"
     inkscape:window-x="0"
     inkscape:window-y="26"
     inkscape:window-maximized="1"
     inkscape:current-layer="layer1" />
  <g
     inkscape:groupmode="layer"
     id="layer2"
     inkscape:label="artwork"
     sodipodi:insensitive="true">
    <image
       sodipodi:absref="/felles/omsetting/pepper-carrot/webcomics/ep29_Destroyer-of-Worlds/lang/nn/../gfx_Pepper-and-Carrot_by-David-Revoy_E29P00.png"
       xlink:href="../gfx_Pepper-and-Carrot_by-David-Revoy_E29P00.png"
       width="2481"
       height="663"
       id="image10"
       x="0"
       y="0" />
  </g>
  <g
     inkscape:groupmode="layer"
     id="layer1"
     inkscape:label="txt"
     style="display:inline">
    <text
       xml:space="preserve"
       style="font-style:normal;font-variant:normal;font-weight:normal;font-stretch:normal;font-size:72.5px;line-height:1.25;font-family:Lavi;-inkscape-font-specification:'Lavi, Normal';font-variant-ligatures:normal;font-variant-caps:normal;font-variant-numeric:normal;font-feature-settings:normal;text-align:center;letter-spacing:0px;word-spacing:0px;writing-mode:lr-tb;text-anchor:middle;display:inline;fill:#2b1100;fill-opacity:1;stroke:none"
       x="1240.1814"
       y="589.40344"
       id="episode-title"><tspan
         sodipodi:role="line"
         id="tspan4180"
         x="1240.1814"
         y="589.40344">Episode 29: Verdsøydeleggjaren</tspan></text>
    <path
       style="display:inline;opacity:1;fill:url(#radialGradient839);fill-opacity:1;stroke:#ffffff;stroke-width:2.5;stroke-miterlimit:4;stroke-dasharray:none;stroke-opacity:1;enable-background:new;filter:url(#filter1194)"
       d="m 745.46978,497.50138 c -5.39642,-5.3657 -5.76945,-6.06714 -5.76945,-10.84831 0,-6.40979 2.06659,-9.42282 7.45189,-10.86467 2.38847,-0.63949 4.76325,-2.12723 5.5242,-3.46079 0.95743,-1.67792 1.43977,-10.71481 1.70636,-31.96879 l 0.37174,-29.6297 -6.20016,-1.34812 c -8.54375,-1.85768 -15.22357,-4.89443 -15.22357,-6.92086 0,-0.92168 -0.71666,-1.94922 -1.59238,-2.28336 -0.87582,-0.33418 -1.59239,-1.29078 -1.59239,-2.1258 0,-1.19106 0.85785,-1.34805 3.98097,-0.72863 5.79118,1.14858 8.0206,0.86739 14.5908,-1.84029 l 5.89415,-2.42906 -0.38484,-39.11447 c -0.21158,-21.51296 -0.7529,-40.64646 -1.20288,-42.51891 -0.96905,-4.03232 -3.75448,-4.85766 -16.77127,-4.96932 -10.23325,-0.0878 -10.69812,-1.53474 -2.65676,-8.26957 6.32595,-5.2982 8.1187,-6.31896 21.75505,-12.38692 6.83878,-3.04316 10.53826,-4.14731 12.20829,-3.64369 3.42068,1.03159 7.12502,4.67542 8.80419,8.66039 l 1.44553,3.4305 h 12.20759 c 18.69261,0 31.8063,4.57533 48.09693,16.78076 13.03049,9.76275 17.29988,17.45952 17.29988,31.18747 0,9.06716 -2.03382,16.47302 -7.26303,26.4474 -5.00562,9.54778 -20.04729,24.8212 -30.48895,30.95867 -7.60548,4.47035 -31.61219,13.90178 -35.38554,13.90178 -5.49779,0 -5.42014,-0.34284 -5.42014,23.93197 0,13.51659 0.44074,23.4695 1.09306,24.68135 1.27159,2.36242 6.38404,5.21923 9.34015,5.21923 1.12523,0 2.61912,0.68675 3.3197,1.52611 0.91375,1.09467 1.97167,1.26227 3.74247,0.59287 1.4506,-0.54838 5.39314,-0.52145 9.55997,0.0652 5.859,0.825 7.72989,0.69718 10.76662,-0.73564 2.67592,-1.26258 5.27876,-1.56963 9.5708,-1.12917 3.24245,0.33274 7.10894,0.14619 8.5922,-0.41453 3.3061,-1.24981 3.97779,-0.72047 2.52063,1.98659 -1.17299,2.17932 -6.48769,3.85033 -6.48769,2.03984 0,-0.57947 -2.36812,1.14885 -5.26248,3.84079 -2.89435,2.69189 -5.96533,4.89436 -6.82447,4.89436 -0.85915,0 -2.29605,0.72976 -3.19312,1.62169 -2.08962,2.07784 -7.59654,4.35943 -13.92557,5.76974 -2.74036,0.61064 -6.49931,2.26053 -8.35302,3.6664 -3.95962,3.00295 -12.05221,6.03475 -22.42118,8.39997 -4.0872,0.93229 -7.59039,2.16059 -7.78499,2.72957 -0.19461,0.56898 -2.49492,1.03452 -5.11186,1.03452 -4.34475,0 -5.2588,-0.4981 -10.52743,-5.73663 z m 46.06498,-110.88411 c 17.42221,-8.30175 34.57506,-23.71618 41.18189,-37.00818 3.4322,-6.90506 3.80384,-8.43798 3.35366,-13.83535 -0.46883,-5.62088 -0.87006,-6.3974 -5.42431,-10.49715 -6.08836,-5.48068 -12.56314,-7.3035 -25.65788,-7.22325 -10.29261,0.0631 -22.0264,2.58671 -25.16709,5.41278 -1.74866,1.57348 -1.90345,4.25742 -1.90345,33.00429 0,32.16302 0.20751,33.8248 4.22322,33.8248 0.9215,0 5.14879,-1.65509 9.39396,-3.67794 z m 364.83994,82.44252 c -15.1924,-4.93552 -21.9661,-9.88585 -27.2947,-19.94755 -1.8167,-3.43071 -2.3683,-6.27921 -2.3951,-12.37326 -0.049,-11.17023 4.0292,-19.51086 15.0431,-30.76408 l 8.1726,-8.35027 -3.4108,-6.87701 c -2.6437,-5.33085 -3.1689,-7.32584 -2.3362,-8.87303 1.6272,-3.02313 1.303,-4.24586 -1.1259,-4.24586 h -2.2003 l 2.2003,-2.78122 c 2.8558,-3.60988 2.8328,-6.7518 -0.055,-7.50272 -2.0443,-0.53153 -2.2006,-1.1156 -1.6689,-6.23757 1.6667,-16.0553 16.2771,-31.67436 31.5255,-33.70182 5.5989,-0.74441 13.836,1.94505 21.5821,7.04659 7.0086,4.61579 12.764,14.29277 12.7603,21.45474 -0.01,9.85799 -3.0642,17.07464 -11.5448,27.23361 -3.1968,3.82923 -5.8121,7.68105 -5.8121,8.5596 0,0.87857 -1.9812,3.28362 -4.4029,5.34463 l -4.4029,3.74727 7.3222,8.08274 c 4.0273,4.44553 8.6707,9.68367 10.3189,11.64035 1.6483,1.95665 3.3929,3.55756 3.8772,3.55756 0.9418,0 3.2113,-5.70623 3.2113,-8.07407 0,-0.97165 -1.4371,-1.42995 -4.5117,-1.43886 -4.0001,-0.0116 -4.7901,-0.44018 -6.9661,-3.77915 -3.5174,-5.39769 -2.4708,-9.2194 3.1357,-11.44987 10.8884,-4.33184 24.833,-7.07209 38.0666,-7.48044 7.2986,-0.22521 16.1363,-0.71953 19.6396,-1.09848 l 6.3694,-0.68903 -7.431,7.7999 c -4.0872,4.28995 -8.3477,8.26098 -9.4677,8.82453 -1.1198,0.56351 -2.553,1.97457 -3.1847,3.13569 -0.6316,1.16109 -1.2672,2.30834 -1.4124,2.54948 -0.1452,0.24114 -3.4891,0.96366 -7.431,1.60561 l -7.1672,1.16722 -0.7142,7.16059 c -0.3927,3.93834 -1.655,9.05152 -2.8049,11.36264 l -2.091,4.20202 6.5207,4.33895 c 10.7111,7.12753 10.4636,6.78184 8.0549,11.25029 -1.136,2.10718 -2.0652,4.41561 -2.0652,5.1299 0,0.71426 -1.4171,2.74003 -3.149,4.50166 -3.6558,3.71858 -7.4166,4.121 -11.5494,1.2359 -1.5498,-1.08191 -5.0253,-2.92806 -7.7234,-4.10254 -2.698,-1.17448 -5.2491,-2.68802 -5.6689,-3.36343 -0.5357,-0.8618 -1.7637,-0.47069 -4.1179,1.31141 -5.0176,3.79816 -10.8934,6.52766 -20.3401,9.44846 -13.0027,4.02028 -15.0255,4.14489 -23.355,1.43892 z m 25.5847,-27.0427 c 2.277,-1.36295 4.3152,-2.60953 4.5294,-2.7702 0.2144,-0.16067 -5.0245,-5.52679 -11.6418,-11.92473 l -12.0317,-11.63266 -2.4904,2.32628 c -1.3696,1.27947 -3.455,3.87813 -4.634,5.77481 -1.1788,1.89668 -2.747,3.44852 -3.4846,3.44852 -2.1631,0 -5.1774,3.97587 -4.4478,5.86635 0.3657,0.94759 1.5588,1.95528 2.6511,2.23931 1.0926,0.28406 2.6066,1.66855 3.3644,3.0766 0.7579,1.40809 2.8474,3.49711 4.6432,4.64226 4.7359,3.01983 17.7128,2.44293 23.5422,-1.04654 z m -7.6276,-63.95296 c 13.1669,-11.17062 15.3667,-17.12616 8.848,-23.95435 -4.0803,-4.27404 -9.9486,-5.79725 -14.3002,-3.71181 -4.275,2.04883 -8.9345,9.32172 -9.5713,14.94003 -0.8271,7.29492 2.9188,19.67951 5.9524,19.67951 0.4812,0 4.5633,-3.12904 9.0711,-6.95338 z m 194.8918,62.23428 c -9.4805,-1.86582 -19.5415,-5.35319 -25.5428,-8.85371 -17.0291,-9.93305 -28.6992,-21.57018 -35.9731,-35.87179 -4.6874,-9.21602 -6.4221,-14.83009 -9.9723,-32.27592 -2.4495,-12.03531 -2.5156,-13.27521 -1.1824,-22.16635 3.4054,-22.71075 11.3701,-51.40812 18.4497,-66.47599 8.8337,-18.80132 27.7534,-45.88505 42.0125,-60.14145 11.2303,-11.22803 19.1649,-17.12077 31.0304,-23.04506 l 9.7985,-4.89228 11.4334,0.006 c 10.7995,0.005 12.0385,0.23959 22.3506,4.22216 14.684,5.67091 14.7138,5.66688 15.621,-2.10452 0.4461,-3.82272 1.5854,-7.39253 2.8829,-9.03253 2.0008,-2.52892 2.5485,-2.66276 8.1247,-1.98528 6.9694,0.8467 17.2406,5.60331 22.1688,10.26615 2.9287,2.77108 3.4432,3.9909 3.4039,8.07119 -0.086,8.95204 -1.6025,13.73439 -5.6668,17.87297 -4.4356,4.51665 -5.0116,7.50532 -1.4526,7.5403 1.3137,0.0129 3.5335,0.8988 4.933,1.96866 l 2.5444,1.9452 -1.7519,18.89279 c -3.1078,33.51346 -13.8388,79.55728 -18.5416,79.55728 -1.2808,0 -2.312,-5.25327 -2.312,-11.77678 0,-2.84881 -0.6705,-6.77498 -1.4897,-8.7248 -0.8369,-1.9913 -1.8304,-9.72581 -2.2668,-17.64642 -0.7085,-12.8521 -1.1945,-15.31471 -5.4882,-27.79984 -9.0805,-26.40381 -19.0463,-41.73116 -27.1177,-41.707 -8.5157,0.0256 -22.9628,9.4714 -37.5956,24.58102 -8.421,8.69532 -11.2663,11.02216 -12.9446,10.58577 -1.4177,-0.36867 -3.0765,0.36061 -4.865,2.13906 -2.9131,2.89643 -3.3342,4.94736 -1.6561,8.06499 1.4266,2.65045 0.3262,5.0903 -2.4745,5.487 -1.7365,0.24595 -2.3312,1.10023 -2.4313,3.49222 -0.072,1.74164 -4.0806,11.47899 -8.9064,21.63858 -11.0302,23.22153 -19.6784,48.7319 -20.7546,61.22136 -0.6118,7.09883 -1.3088,9.6723 -3.3386,12.32588 -2.4194,3.16268 -2.4732,3.53143 -0.9442,6.47141 0.8918,1.71467 2.9964,4.26791 4.6768,5.67386 1.6805,1.40593 4.4003,4.9062 6.044,7.77838 4.1614,7.27196 11.7742,14.93214 17.9822,18.09423 4.9819,2.53764 5.9059,2.64624 18.5778,2.18388 12.212,-0.44555 14.3635,-0.84698 25.5435,-4.76571 6.7146,-2.35355 13.9844,-5.03795 16.1552,-5.96531 2.1707,-0.92735 5.2531,-1.6861 6.8497,-1.6861 1.7129,0 4.2295,-1.22124 6.1384,-2.97899 1.7793,-1.63845 6.6431,-4.2712 10.8084,-5.8506 4.165,-1.57936 8.4633,-3.84989 9.5516,-5.04562 1.0884,-1.19569 3.2514,-2.82839 4.807,-3.62812 3.3134,-1.7037 3.0844,-4.19772 -0.7652,-8.32775 -2.3413,-2.51163 -3.1115,-2.66851 -13.1057,-2.66851 -8.9013,0 -11.7848,-0.4461 -17.8324,-2.75868 -17.778,-6.79843 -21.1387,-7.74275 -27.6496,-7.76946 -3.6492,-0.0149 -6.6184,-0.38352 -6.5981,-0.81894 0.02,-0.4354 4.5718,-3.81013 10.1148,-7.49942 5.884,-3.91623 12.5742,-9.51704 16.0757,-13.45814 3.2985,-3.71269 6.5769,-6.75037 7.2852,-6.75037 0.7081,0 5.7497,2.91331 11.2035,6.474 l 9.9158,6.47396 9.0436,-0.69027 c 4.974,-0.37967 12.0856,-1.34573 15.8033,-2.14683 6.3807,-1.37491 7.1655,-1.31922 14.0058,0.99413 3.9858,1.34786 8.2234,2.19669 9.4171,1.88631 3.1881,-0.82897 3.7388,1.91258 1.6438,8.18397 -1.4759,4.41867 -2.4754,5.69676 -5.4063,6.91441 -4.084,1.69672 -4.3057,2.88851 -1.8275,9.8265 l 1.7681,4.94998 -5.9394,10.52178 c -8.1809,14.49292 -21.2151,26.83314 -28.3422,26.83314 -1.5983,0 -2.964,1.57436 -5.0718,5.84779 -2.6802,5.4338 -3.7342,6.36743 -14.8862,13.18705 -8.2976,5.07403 -15.5132,8.5117 -23.3783,11.13797 -10.4155,3.47773 -12.5877,3.8292 -25.7082,4.15919 -7.8824,0.19823 -15.5258,0.12539 -16.9854,-0.1619 z M 487.7182,421.54808 c -8.02368,-2.9953 -14.07292,-11.18592 -15.19041,-20.5677 -0.50627,-4.25016 -0.21476,-5.44427 1.93622,-7.93064 2.06123,-2.38267 3.76948,-3.07215 9.18427,-3.70698 9.38572,-1.10033 10.21338,-2.21697 10.66137,-14.38345 0.35645,-9.68068 0.43905,-9.96843 2.70044,-9.4041 1.5629,0.39004 3.00337,-0.15468 4.36482,-1.65052 2.41995,-2.65875 1.46519,-4.82349 -3.28069,-7.43821 l -3.09064,-1.70279 -0.28039,-32.16221 -0.28049,-32.1622 3.59979,0.41785 c 2.84938,0.33076 3.96577,-0.098 5.35571,-2.05739 1.64451,-2.31825 1.63429,-2.57571 -0.16085,-4.05859 -1.05424,-0.87081 -3.53158,-3.82995 -5.50523,-6.57586 l -3.58858,-4.99256 0.89747,-17.17382 c 0.49356,-9.4456 0.92586,-21.53013 0.96081,-26.8545 0.0576,-8.76198 -0.17395,-9.93168 -2.43713,-12.32516 -1.37524,-1.45446 -5.19694,-3.70414 -8.49272,-4.99932 -3.29577,-1.29517 -7.02852,-3.27672 -8.29504,-4.40345 -3.64328,-3.24112 -6.80402,-11.77128 -7.0027,-18.89887 -0.16591,-5.95147 0.0566,-6.60839 3.17574,-9.37948 7.25578,-6.44613 40.7903,-14.23829 66.50188,-15.45253 14.19932,-0.67057 32.31188,0.69461 45.78698,3.45103 9.87909,2.02087 27.16776,10.63065 34.63552,17.24862 9.70623,8.60169 21.92623,27.74287 28.06621,43.96226 12.12747,32.03621 -2.62965,63.87632 -41.59006,89.73467 -14.18194,9.41266 -47.37103,23.84762 -64.15174,27.90155 -12.32405,2.97728 -14.74152,4.06367 -15.4707,6.95225 -1.00271,3.97258 0.0129,28.70095 1.2286,29.90894 0.60794,0.60414 3.37202,1.51948 6.14237,2.03412 2.77044,0.51461 5.89345,1.70626 6.94025,2.64813 1.31844,1.18644 3.89627,1.7125 8.39174,1.7125 3.56882,0 6.72052,0.37283 7.00379,0.82854 0.64399,1.03608 32.72214,0.87944 34.42682,-0.16812 0.68697,-0.42212 2.92364,-0.30773 4.97047,0.25419 2.13509,0.5862 3.96885,0.62374 4.30176,0.0881 0.50538,-0.81301 6.67178,-0.2554 7.81498,0.70667 1.13596,0.95591 -2.67473,3.59535 -6.0967,4.22278 -2.13082,0.39073 -5.50344,1.57173 -7.49467,2.62447 -1.99123,1.05274 -3.98851,1.68787 -4.43838,1.41141 -0.44988,-0.27646 -2.00692,0.59299 -3.4602,1.93206 -1.51693,1.39786 -6.40826,3.46128 -11.48547,4.84513 -4.86373,1.32575 -10.41206,3.08783 -12.32942,3.91576 -1.91745,0.82792 -4.95428,1.50533 -6.74862,1.50533 -1.79424,0 -6.19698,1.37201 -9.78367,3.04892 -13.58759,6.35266 -48.89003,10.64089 -58.39351,7.09313 z m 71.51168,-114.60827 c 2.62736,-0.71988 7.80634,-2.67395 11.5087,-4.34236 6.07217,-2.7363 7.00826,-2.89304 9.55441,-1.59988 5.23448,2.6586 9.59829,-1.09392 8.11334,-6.97684 -0.92745,-3.67422 2.99185,-7.08084 5.9986,-5.21384 3.12798,1.94235 5.5516,-0.29829 4.73168,-4.37453 -0.5305,-2.63727 0.21377,-3.97365 5.32334,-9.55897 7.18599,-7.85503 14.74282,-20.28655 17.01761,-27.99518 2.33884,-7.92592 1.57769,-18.06691 -1.92133,-25.5962 -8.37635,-18.02484 -25.82656,-25.1725 -52.94963,-21.68829 -12.19548,1.56663 -15.86954,1.15142 -15.86954,-1.79346 0,-0.7523 -1.24557,-2.03063 -2.76796,-2.84076 -2.55171,-1.35787 -2.93178,-1.27181 -4.86453,1.10143 -1.31934,1.62002 -1.93821,3.64681 -1.66953,5.46739 0.34622,2.34522 -0.11617,3.1168 -2.4419,4.07463 -4.59407,1.89211 -8.60472,6.81524 -9.59293,11.77554 -1.15194,5.78237 -2.60294,87.06831 -1.62346,90.94854 0.40172,1.59172 1.71222,3.25513 2.91212,3.69646 2.03859,0.74984 16.93153,-1.90285 28.54101,-5.08368 z m 107.75139,112.17422 c -15.58994,-2.05595 -21.38282,-7.12846 -28.11009,-24.61465 -4.51504,-11.73609 -4.67708,-12.57162 -5.1061,-26.32913 -0.82558,-26.47602 4.46976,-44.43075 18.69072,-63.37381 9.37221,-12.48437 15.0655,-17.53942 25.19946,-22.3743 15.46146,-7.37663 20.6372,-6.793 33.53008,3.781 7.62564,6.25412 12.64982,14.39639 14.59885,23.65906 1.48684,7.06616 1.52447,31.11956 0.0566,36.37417 -1.44474,5.17275 -4.08144,6.75295 -13.74407,8.23715 -11.2717,1.73134 -53.16255,12.59974 -55.74534,14.4629 -2.58546,1.86509 -3.23372,7.00166 -1.49419,11.84 2.69032,7.48269 3.34304,8.75235 6.05629,11.7801 6.37301,7.11187 15.233,6.78721 31.29427,-1.1467 16.47911,-8.14039 21.8236,-11.12399 24.64239,-13.75706 1.55813,-1.45539 3.25388,-2.1419 4.30266,-1.74177 2.05894,0.78561 1.47274,4.70201 -1.88042,12.56329 -1.65871,3.88852 -2.57465,4.90605 -4.00896,4.45342 -2.30776,-0.72826 -7.69673,5.26261 -6.99764,7.77919 0.26381,0.94988 0.79004,2.80007 1.16932,4.11161 0.62373,2.15658 -0.25637,2.83849 -9.20462,7.13216 -13.08306,6.27756 -23.29058,8.47671 -33.2494,7.16337 z m 7.96193,-77.41959 c 18.83528,-4.18537 27.23888,-6.99909 29.19436,-9.77508 1.1996,-1.70298 1.57928,-5.25742 1.54086,-14.42743 -0.0616,-14.68594 -1.69009,-19.36381 -6.91851,-19.87249 -7.8318,-0.76198 -27.93727,17.77285 -36.80332,33.92812 -2.76349,5.03568 -5.34191,10.41278 -5.72973,11.94914 -0.64448,2.55321 -0.48631,2.7327 1.83992,2.08785 1.39966,-0.38804 8.99412,-2.1386 16.87642,-3.89011 z m 267.52094,75.31978 c -3.13483,-1.19294 -5.33456,-3.89739 -6.41491,-7.88691 -0.60397,-2.23 -1.69128,-4.05454 -2.41628,-4.05454 -0.7252,0 -5.36455,1.69738 -10.3097,3.77199 -37.28651,15.64228 -63.35326,6.90558 -61.27654,-20.53797 1.00767,-13.31656 9.06829,-26.56174 20.94058,-34.40945 10.37047,-6.85494 27.75614,-14.81747 37.95016,-17.38086 4.80079,-1.20721 9.99694,-2.67436 11.54703,-3.26035 l 2.8183,-1.0654 -0.71637,-8.68333 c -0.84087,-10.19124 -3.11269,-18.94098 -5.41022,-20.83689 -0.89746,-0.74061 -2.93257,-1.31347 -4.52248,-1.273 -1.5898,0.0405 -5.19277,0.12596 -8.0066,0.19001 -6.4873,0.14761 -17.89721,5.55231 -28.20293,13.35929 -4.12583,3.1255 -7.94584,5.68272 -8.48895,5.68272 -0.54311,0 -2.76031,2.45372 -4.92728,5.45272 -3.38076,4.67902 -4.08521,5.1944 -4.96451,3.63212 -1.1727,-2.08352 2.52768,-12.26403 7.80991,-21.4867 6.28793,-10.97872 23.23485,-22.40209 36.39302,-24.53145 14.12982,-2.28657 28.7938,4.75643 35.08371,16.85052 3.87403,7.44859 6.83014,31.79319 6.89289,56.76283 0.0218,8.66545 0.68697,10.14355 3.20661,7.12492 0.72679,-0.87084 2.04067,-1.58331 2.91957,-1.58331 2.40596,0 0.91236,7.65014 -2.93982,15.05686 -2.85811,5.49577 -4.16236,11.33163 -2.53225,11.33163 0.34791,0 1.90038,-0.88792 3.45017,-1.97314 1.54979,-1.08522 5.68415,-3.25488 9.18744,-4.82148 3.50319,-1.56657 7.63755,-3.52863 9.18724,-4.3601 1.54979,-0.83146 3.10236,-1.51176 3.45027,-1.51176 1.61999,0 0.27791,3.54891 -3.46417,9.16134 -4.48803,6.7312 -5.66281,9.65211 -5.98331,14.8765 -0.28585,4.66014 -3.57497,7.84946 -12.60256,12.22044 -7.54799,3.65453 -14.63479,5.33322 -17.65802,4.18275 z m -37.37637,-24.14363 c 13.66901,-2.75094 27.21938,-10.0357 30.53859,-16.41775 3.60595,-6.93343 0.35257,-16.76829 -5.54704,-16.76829 -1.78351,0 -2.86149,-0.70427 -3.23153,-2.1111 -0.66841,-2.54165 -2.15635,-2.6852 -4.64262,-0.44795 -1.01652,0.91471 -2.48727,1.77582 -3.26838,1.91357 -6.00336,1.0588 -13.62721,4.20576 -15.80073,6.52217 -1.43263,1.52687 -5.35323,4.69907 -8.71235,7.04938 -7.7277,5.40672 -12.85932,12.7255 -11.99293,17.10433 0.33897,1.7128 1.20616,3.48674 1.92719,3.94211 2.13807,1.35033 11.96483,0.97748 20.7298,-0.78647 z m 608.38623,22.89073 c -2.6968,-0.94405 -6.9964,-3.44094 -9.5544,-5.54866 -3.7781,-3.1131 -4.9996,-5.03564 -6.5087,-10.2458 -2.2525,-7.77632 -2.3643,-13.81188 -0.3447,-18.61766 0.832,-1.98031 2.0599,-7.30871 2.7283,-11.84093 0.6683,-4.53222 1.8698,-12.27787 2.6701,-17.21254 1.4074,-8.68035 1.948,-14.77232 3.3507,-37.76797 0.3642,-5.96844 1.0604,-11.09658 1.5475,-11.39586 0.4871,-0.29931 1.8739,-0.0182 3.0821,0.62466 1.8503,0.98459 2.7809,0.65863 5.9039,-2.06786 3.2619,-2.84761 4.2446,-3.16199 8.1759,-2.61533 2.4578,0.34177 5.0657,0.80435 5.7955,1.02801 2.2491,0.68918 1.5086,9.08817 -1.7747,20.12701 -1.706,5.73582 -3.4278,14.46621 -3.8265,19.40087 -0.3984,4.93465 -1.8523,14.43451 -3.2306,21.11079 -2.9398,14.23916 -4.1789,25.17252 -3.2641,28.79724 1.8424,7.29905 22.9231,5.6389 40.2212,-3.16759 5.105,-2.59897 10.4055,-6.05317 11.7788,-7.676 2.5464,-3.00886 4.1252,-10.21043 5.614,-25.60631 0.3787,-3.91869 1.1007,-7.1249 1.604,-7.1249 1.3596,0 1.1086,-6.08958 -0.2862,-6.9467 -1.5017,-0.92277 -0.5859,-29.7362 1.1246,-35.38376 l 1.1517,-3.80327 11.2908,-0.72581 c 10.7136,-0.68869 11.4188,-0.60627 13.7938,1.61228 3.048,2.84695 3.1913,6.09326 0.4239,9.59151 -1.6992,2.14799 -2.1918,4.92328 -2.6935,15.1838 -0.3378,6.90548 -1.0362,15.40536 -1.5521,18.88864 -0.5159,3.48329 -1.2658,11.55816 -1.6662,17.94421 -0.4523,7.21261 -1.4894,13.61018 -2.7376,16.88865 -2.4352,6.39592 -2.5086,7.91654 -0.3829,7.91654 1.8658,0 11.3425,-4.59383 15.5218,-7.52414 1.5499,-1.08664 4.058,-1.97571 5.5733,-1.97571 3.8283,0 3.6298,3.21032 -0.6035,9.76974 -1.8473,2.86257 -3.7238,7.49979 -4.1699,10.30494 -0.4458,2.80514 -1.6128,6.31753 -2.5934,7.80532 -3.5333,5.36185 -18.7678,12.19441 -27.2448,12.21911 -3.2122,0.01 -4.4196,-0.63094 -6.6349,-3.51874 -1.4893,-1.94156 -2.708,-4.25837 -2.708,-5.14844 0,-3.82135 -2.6642,-4.08153 -10.1974,-0.99587 -14.669,6.00852 -23.9531,8.41768 -34.3893,8.92384 -7.6055,0.36888 -11.2909,0.0671 -14.9885,-1.22731 z m -526.24048,-3.23878 c -2.3854,-2.44398 -4.65305,-5.47624 -5.03938,-6.73835 -0.38633,-1.26211 -1.29829,-3.00724 -2.02657,-3.87804 -2.25434,-2.69544 -2.82237,-7.08738 -1.13377,-8.76632 1.20317,-1.19648 3.60773,-1.41293 11.02467,-0.99244 l 9.48594,0.53777 0.40489,-22.26952 c 0.287,-15.7889 0.7862,-22.6487 1.7152,-23.57244 0.9283,-0.92305 1.3104,-6.14184 1.3104,-17.89945 0,-15.98524 -0.094,-16.70763 -2.5515,-19.61156 -1.7703,-2.09182 -2.38976,-3.85632 -2.02319,-5.76272 0.6979,-3.63032 -1.23872,-4.65582 -4.62568,-2.44929 -2.08674,1.35949 -3.27443,1.52403 -4.99599,0.69229 -1.2421,-0.60012 -4.04987,-1.63603 -6.23937,-2.30207 -4.68373,-1.42473 -4.97137,-2.94127 -1.25739,-6.63394 3.13294,-3.11503 18.89132,-9.10452 25.93942,-9.85909 9.8516,-1.05475 15.9192,5.33402 15.9222,16.76523 8e-4,3.33816 0.3946,6.06937 0.8748,6.06937 0.4801,0 3.6124,-3.08322 6.9605,-6.85157 7.4906,-8.43099 13.8097,-12.31318 20.1983,-12.4092 6.6159,-0.0994 11.1648,1.92826 10.4472,4.65689 -0.4837,1.83917 -0.1167,2.08135 2.708,1.78676 4.6702,-0.48711 8.007,3.08612 13.5757,14.53787 5.2371,10.77009 5.3298,11.2674 3.0938,16.5884 -0.8758,2.08416 -1.5924,5.70463 -1.5924,8.04545 0,3.14009 -0.4314,4.25606 -1.6451,4.25606 -2.3534,0 -7.988,2.98812 -11.1238,5.89905 -2.4681,2.29119 -3.0227,2.39097 -6.9003,1.24126 -2.3191,-0.6876 -4.4555,-1.50671 -4.7473,-1.82029 -0.292,-0.31354 -1.4863,-1.0917 -2.654,-1.72922 -3.1409,-1.71481 -4.874,-5.66082 -3.559,-8.10381 0.9891,-1.83762 1.2307,-1.7093 2.8506,1.51337 1.8754,3.73108 4.0038,4.65381 8.2755,3.5878 2.8622,-0.71426 6.7644,-8.14649 6.7644,-12.88377 0,-3.68385 -1.9898,-6.98086 -3.7971,-6.29133 -0.9793,0.37372 -1.5109,-0.12746 -1.5109,-1.42483 0,-3.3539 -4.9886,-6.37852 -10.4937,-6.36231 -2.6947,0.009 -5.9974,0.30687 -7.3396,0.66432 -2.6344,0.70161 -6.1923,6.82663 -10.3141,17.75582 -3.0542,8.09854 -7.9526,36.94929 -8.0617,47.48019 -0.1,9.67148 1.4093,12.53806 8.1665,15.50997 3.2347,1.42274 4.6876,2.70075 4.6876,4.12343 0,2.47518 2.3889,2.70379 4.302,0.41167 1.2491,-1.49628 1.4639,-1.49628 2.3059,0 1.1575,2.05639 4.4007,2.14 6.0566,0.15618 1.4951,-1.79128 7.3364,-0.51226 9.2152,2.01778 0.6482,0.87294 2.2008,1.58716 3.4502,1.58716 2.6905,0 2.9805,2.32302 0.5412,4.33593 -2.2469,1.85411 -12.8198,5.12841 -16.6244,5.14839 -1.6289,0.009 -4.9729,1.05268 -7.4312,2.3203 -3.4458,1.7769 -7.2654,2.47937 -16.6778,3.06715 -6.7145,0.41934 -16.5656,1.1082 -21.8912,1.53084 l -9.68327,0.76842 z m 712.54058,2.28897 c -3.5755,-2.885 -8.8883,-10.89105 -8.8883,-13.39403 0,-3.30283 5.1632,-7.67204 10.0852,-8.53452 8.3819,-1.46873 7.9619,0.78913 7.9619,-42.80994 0,-23.84723 -0.443,-40.89308 -1.1477,-44.15971 -1.2895,-5.97926 -4.1101,-8.82901 -10.6736,-10.78427 -4.1796,-1.24512 -5.1572,-2.9548 -2.7755,-4.85482 1.3244,-1.05677 19.7046,-4.47752 24.0583,-4.47752 3.4483,0 10.7386,7.28616 11.6309,11.62434 1.1329,5.50708 3.3701,4.99683 8.664,-1.97599 3.6162,-4.76294 6.3097,-7.02182 11.3204,-9.49334 6.4216,-3.16757 6.6942,-3.20801 11.6858,-1.73409 6.4872,1.91551 13.1685,6.77744 15.6763,11.40741 1.8501,3.41591 1.8673,4.3109 0.3413,17.7315 -1.5974,14.04616 -1.6403,14.1865 -6.9104,22.57834 -2.9167,4.64439 -5.9682,8.44431 -6.7811,8.44431 -1.1271,0 -1.613,-2.50837 -2.0447,-10.5554 -0.6547,-12.2023 -2.2471,-16.05591 -8.0396,-19.45408 -6.3467,-3.72327 -7.9081,-2.82798 -11.76,6.74285 -5.4848,13.6289 -11.8379,53.8588 -9.4985,60.14749 2.7482,7.38737 2.2954,7.20407 14.5564,5.8924 6.0839,-0.65087 12.864,-1.5719 15.067,-2.0468 2.4299,-0.52374 4.2559,-0.46054 4.642,0.16072 0.3502,0.56326 -2.7264,4.41889 -6.8371,8.56806 -4.1101,4.14916 -8.1746,9.25273 -9.0318,11.34128 -2.7155,6.61709 -6.4188,7.96083 -25.6878,9.32142 -9.3421,0.65966 -18.4186,1.41024 -20.1702,1.66801 -2.0238,0.29781 -4.008,-0.19557 -5.4432,-1.35362 z m 260.7557,0.81635 c -14.5693,-1.24103 -23.4719,-10.09957 -26.9484,-26.81577 -1.3341,-6.41328 -1.7145,-14.64043 -1.7145,-37.07069 0,-15.85547 -0.29,-29.57947 -0.6444,-30.49777 -0.5109,-1.32414 -2.3502,-1.66965 -8.8883,-1.66965 h -8.2439 l -4.4682,-4.81976 c -2.7208,-2.93492 -4.2296,-5.43782 -3.8583,-6.40012 0.3355,-0.86917 -0.1,-2.94511 -0.9675,-4.61321 -0.8674,-1.66809 -1.3304,-3.67255 -1.0287,-4.45437 0.817,-2.11689 15.2022,-9.01118 20.5152,-9.83204 8.6203,-1.3319 8.7373,-1.69773 8.6035,-26.88403 -0.07,-13.37444 -0.584,-23.32557 -1.2996,-25.21104 -1.3291,-3.50064 0.2181,-6.48071 3.3295,-6.41359 2.7113,0.0584 14.666,7.70285 17.3476,11.09274 2.2126,2.7966 2.477,4.50056 3.0619,19.72142 0.5377,13.99588 0.9465,16.99703 2.5557,18.76524 2.4561,2.69836 4.106,2.63825 10.6412,-0.38765 3.4519,-1.59828 8.5055,-2.74657 14.2992,-3.24906 4.9281,-0.42746 10.1693,-1.38687 11.6466,-2.13202 1.4774,-0.74514 5.6932,-1.63759 9.3682,-1.98318 5.5649,-0.52333 6.7921,-0.34213 7.3426,1.08395 0.4545,1.17765 -0.6332,2.73222 -3.4837,4.97868 -2.2794,1.79649 -9.6613,8.06282 -16.4041,13.92516 -9.0626,7.87956 -13.8469,11.24943 -18.3482,12.92394 -3.3488,1.24581 -8.3956,3.42751 -11.2153,4.84816 l -5.1267,2.58303 -0.6977,30.93682 c -0.7876,34.91765 -0.2103,41.91288 3.7868,45.88718 2.5335,2.51895 2.8486,2.57864 5.741,1.08726 1.6834,-0.86792 9.4061,-7.56269 17.1619,-14.8772 14.9158,-14.06705 19.1056,-16.40081 17.7163,-9.86863 -1.7003,7.9966 -4.6934,14.49575 -8.0486,17.47642 -3.1165,2.76887 -3.3858,3.42074 -2.3483,5.68524 1.8969,4.13904 -2.6547,12.29726 -10.4943,18.81059 -8.8458,7.34926 -10.6964,8.07174 -18.8885,7.37395 z m -137.7202,-1.61429 c -5.4645,-1.71074 -14.4248,-7.97931 -19.5694,-13.69073 -4.8235,-5.35482 -10.8808,-17.3385 -12.4312,-24.59326 -1.6178,-7.57102 -1.4458,-26.41293 0.3296,-36.10032 1.4153,-7.72061 6.2582,-22.0321 9.6865,-28.62406 4.1307,-7.94196 15.2595,-17.22964 28.5983,-23.86678 15.4875,-7.70623 41.1902,-3.42061 50.5714,8.43211 1.5399,1.94561 4.2246,6.3611 5.9659,9.8122 9.8594,19.54006 12.1493,38.23282 7.2981,59.57951 -1.81,7.96431 -3.3649,12.50171 -4.5214,13.19426 -0.9696,0.58053 -2.8825,2.00552 -4.2505,3.16662 -2.381,2.02053 -2.4166,2.2536 -0.8281,5.43527 1.5892,3.18277 1.5379,3.51609 -1.2042,7.83526 -4.4338,6.98318 -11.9156,14.40731 -18.0183,17.87902 -5.5059,3.13227 -5.6631,3.15473 -21.3415,3.05112 -9.9104,-0.0654 -17.4675,-0.62809 -20.2852,-1.51022 z m 30.7167,-22.80555 c 9.7681,-2.15211 16.9906,-13.7865 18.4415,-29.70585 0.3955,-4.33853 0.3472,-16.61595 -0.1072,-27.28317 l -0.8262,-19.39495 -8.855,-6.59711 c -9.8554,-7.34259 -11.8176,-7.78799 -21.682,-4.92169 -9.4848,2.75604 -19.0773,13.87971 -21.7214,25.18828 -0.8025,3.43328 -3.0097,7.89816 -5.6828,11.49613 -4.9326,6.63877 -5.2057,8.0407 -2.3546,12.08493 1.109,1.573 2.2797,5.34534 2.6018,8.38298 0.7381,6.96215 9.5953,25.25924 13.607,28.10844 6.3693,4.52403 14.4095,5.32325 26.5789,2.64201 z m -222.0813,19.15135 c -2.3141,-2.49235 -4.5136,-5.53268 -4.8875,-6.75627 -0.374,-1.22362 -1.2758,-2.93723 -2.0042,-3.80803 -2.363,-2.82551 -2.8196,-7.09023 -0.9569,-8.94217 1.3039,-1.29648 2.8163,-1.54197 6.3,-1.02254 l 4.584,0.6835 1.2581,-4.59538 c 0.6919,-2.52746 1.1773,-8.49142 1.0786,-13.25324 -0.1265,-6.11906 0.3127,-9.60403 1.4987,-11.8844 1.3008,-2.50086 1.4122,-3.72043 0.4958,-5.42297 -1.6168,-3.00374 -1.4715,-9.09723 0.5071,-21.25884 0.9198,-5.65408 1.6723,-12.24791 1.6723,-14.65297 0,-2.63652 0.9092,-5.83547 2.2897,-8.0565 2.0047,-3.2249 2.1317,-4.11783 1.0219,-7.16995 -1.4519,-3.99207 -0.1384,-17.73751 2.5308,-26.48562 0.8611,-2.82235 1.5708,-7.66773 1.5772,-10.76754 0.01,-3.09982 1.3992,-11.64974 3.0951,-18.99977 1.6959,-7.35005 3.1198,-15.73871 3.1644,-18.64144 0.045,-2.90274 0.4537,-10.10606 0.9088,-16.0074 l 0.8279,-10.72971 -2.8611,1.68042 c -2.0666,1.21381 -3.2488,1.36934 -4.2577,0.56007 -0.7681,-0.61618 -2.9161,-1.44322 -4.7734,-1.83785 -10.1744,-2.16189 -4.6921,-8.73526 11.8282,-14.18214 8.9502,-2.95084 11.4454,-3.37221 16.443,-2.77668 7.5864,0.90403 17.3507,3.65629 18.3412,5.16984 1.1464,1.75169 -0.1487,4.96962 -3.569,8.86894 -1.6731,1.90697 -3.0418,4.17809 -3.0418,5.04694 0,0.86884 -0.8359,1.89162 -1.8576,2.27282 -4.329,1.61505 -5.9334,7.54029 -2.934,10.83559 1.7292,1.89981 1.7601,1.63426 -3.1915,27.46004 -1.3913,7.25685 -3.0561,17.94425 -3.6993,23.74971 -2.6654,24.05523 -5.5481,45.17121 -8.0029,58.62002 -1.7875,9.79165 -2.608,18.11469 -2.608,26.45066 0,9.06068 -0.3975,12.68597 -1.5586,14.21225 -2.2166,2.91384 -2.1966,15.5696 0.029,17.40488 0.9096,0.75055 2.3022,2.90797 3.0947,4.79423 1.8922,4.5023 5.2509,6.3288 8.7352,4.75024 3.4537,-1.56464 4.5634,-0.6942 4.5634,3.57963 0,2.94911 -0.9142,4.34554 -5.4005,8.2475 -5.8829,5.11694 -6.7071,5.32599 -26.512,6.72376 l -9.52,0.6719 z m -562.917,-6.08657 c -2.1661,-0.47846 -2.2278,-0.76248 -0.7588,-3.49159 1.044,-1.93949 5.2138,-2.80193 6.6488,-1.37515 0.894,0.88895 -0.9689,4.24473 -2.6757,4.81995 -0.7461,0.25143 -2.1924,0.27248 -3.2143,0.0468 z"
       id="path8305"
       inkscape:connector-curvature="0" />
  </g>
</svg>
