<?xml version="1.0" encoding="UTF-8" standalone="no"?>
<!-- Created with Inkscape (http://www.inkscape.org/) -->

<svg
   xmlns:dc="http://purl.org/dc/elements/1.1/"
   xmlns:cc="http://creativecommons.org/ns#"
   xmlns:rdf="http://www.w3.org/1999/02/22-rdf-syntax-ns#"
   xmlns:svg="http://www.w3.org/2000/svg"
   xmlns="http://www.w3.org/2000/svg"
   xmlns:xlink="http://www.w3.org/1999/xlink"
   xmlns:sodipodi="http://sodipodi.sourceforge.net/DTD/sodipodi-0.dtd"
   xmlns:inkscape="http://www.inkscape.org/namespaces/inkscape"
   id="svg2"
   version="1.1"
   inkscape:version="0.92.3 (2405546, 2018-03-11)"
   width="2481"
   height="3503"
   sodipodi:docname="E11P05.svg">
  <sodipodi:namedview
     pagecolor="#ffffff"
     bordercolor="#666666"
     inkscape:pageopacity="0"
     inkscape:pageshadow="2"
     inkscape:window-width="1813"
     inkscape:window-height="955"
     id="namedview70"
     showgrid="false"
     inkscape:zoom="0.28284271"
     inkscape:cx="1336.3108"
     inkscape:cy="1932.1068"
     inkscape:current-layer="layer1"
     inkscape:snap-nodes="false"
     inkscape:window-x="64"
     inkscape:window-y="0"
     inkscape:window-maximized="0" />
  <metadata
     id="metadata8">
    <rdf:RDF>
      <cc:Work
         rdf:about="">
        <dc:format>image/svg+xml</dc:format>
        <dc:type
           rdf:resource="http://purl.org/dc/dcmitype/StillImage" />
        <dc:title />
      </cc:Work>
    </rdf:RDF>
  </metadata>
  <defs
     id="defs6">
    <filter
       style="color-interpolation-filters:sRGB"
       id="filter4375-4-1-1"
       inkscape:label="deevad outline effect">
      <feFlood
         id="feFlood4377-7-9-0"
         flood-opacity="1"
         flood-color="rgb(118,29,43)"
         result="flood" />
      <feComposite
         id="feComposite4379-3-8-8"
         in2="SourceGraphic"
         in="flood"
         operator="in"
         result="composite1" />
      <feMorphology
         id="feMorphology4393-1-0-49"
         operator="dilate"
         radius="4"
         result="result3" />
      <feComposite
         id="feComposite4385-9-5-7"
         in2="result3"
         in="SourceGraphic"
         operator="over"
         result="composite2" />
    </filter>
    <filter
       style="color-interpolation-filters:sRGB"
       id="filter4375-4-1-1-9"
       inkscape:label="deevad outline effect">
      <feFlood
         id="feFlood4377-7-9-0-2"
         flood-opacity="1"
         flood-color="rgb(0,0,0)"
         result="flood" />
      <feComposite
         id="feComposite4379-3-8-8-5"
         in2="SourceGraphic"
         in="flood"
         operator="in"
         result="composite1" />
      <feMorphology
         id="feMorphology4393-1-0-49-5"
         operator="dilate"
         radius="4"
         result="result3" />
      <feComposite
         id="feComposite4385-9-5-7-5"
         in2="result3"
         in="SourceGraphic"
         operator="over"
         result="composite2" />
    </filter>
  </defs>
  <sodipodi:namedview
     pagecolor="#ffffff"
     bordercolor="#666666"
     borderopacity="1"
     objecttolerance="10"
     gridtolerance="10"
     guidetolerance="10"
     inkscape:pageopacity="0"
     inkscape:pageshadow="2"
     inkscape:window-width="1920"
     inkscape:window-height="1025"
     id="namedview4"
     showgrid="false"
     inkscape:zoom="0.34782609"
     inkscape:cx="849.68266"
     inkscape:cy="571.54505"
     inkscape:window-x="0"
     inkscape:window-y="26"
     inkscape:window-maximized="1"
     inkscape:current-layer="layer1" />
  <g
     inkscape:groupmode="layer"
     id="layer2"
     inkscape:label="artwork"
     sodipodi:insensitive="true">
    <image
       sodipodi:absref="/home/fici/Desktop/P&amp;C/all/sl/../gfx_Pepper-and-Carrot_by-David-Revoy_E11P05.png"
       xlink:href="../gfx_Pepper-and-Carrot_by-David-Revoy_E11P05.png"
       y="0"
       x="0"
       id="image10"
       height="3503"
       width="2481" />
  </g>
  <g
     inkscape:groupmode="layer"
     id="layer3"
     inkscape:label="speechbubbles" />
  <g
     inkscape:groupmode="layer"
     id="layer1"
     inkscape:label="txt">
    <flowRoot
       xml:space="preserve"
       id="flowRoot2987-7-9-9-7-0-3-4"
       style="font-style:normal;font-variant:normal;font-weight:normal;font-stretch:normal;line-height:0.01%;font-family:Lavi;-inkscape-font-specification:Lavi;letter-spacing:0px;word-spacing:0px;fill:#000000;fill-opacity:1;stroke:#000000;stroke-width:0.99236238;stroke-miterlimit:4;stroke-dasharray:none;stroke-opacity:1;filter:url(#filter4375-4-1-1)"
       transform="matrix(0.72826899,-0.81755759,0.24767521,2.1649058,787.1265,-276.56588)"><flowRegion
         id="flowRegion2989-4-5-8-7-41-7-62"
         style="stroke-width:5.40286207"><rect
           id="rect2991-45-1-3-3-8-0-4"
           width="319.66232"
           height="56.089447"
           x="120.55251"
           y="265.53046"
           style="font-style:normal;font-variant:normal;font-weight:normal;font-stretch:normal;font-family:Lavi;-inkscape-font-specification:Lavi;fill:#000000;fill-opacity:1;stroke:#000000;stroke-width:0.99236238;stroke-miterlimit:4;stroke-dasharray:none;stroke-opacity:1" /></flowRegion><flowPara
         id="flowPara2995-4-1-5-0-7-2-6"
         style="font-weight:normal;font-size:48px;line-height:1.25;-inkscape-font-specification:Lavi;letter-spacing:7.06853437px;fill:#ffffff;fill-opacity:1;stroke:#ffffff;stroke-width:0.99236238;stroke-linejoin:miter;stroke-miterlimit:4;stroke-dasharray:none;stroke-opacity:1">Dzzz</flowPara></flowRoot>    <path
       style="color:#000000;display:inline;overflow:visible;visibility:visible;fill:#ffffff;fill-opacity:1;fill-rule:nonzero;stroke:none;stroke-width:0.78347868px;marker:none;enable-background:accumulate"
       d="m 1311.2771,1056.6229 c -7.2907,0.4803 -13.7974,2.7765 -17.9388,6.7324 -10.733,-11.1159 -25.7998,0.9036 -27.1857,3.4145 -13.5047,-6.0939 -32.5542,-2.1431 -40.0881,3.8663 -17.9316,-8.9874 -56.4739,4.0893 -55.7117,22.3554 -20.992,12.9302 -22.332,28.4549 -16.138,37.9707 -16.1184,10.6489 -25.1222,60.7994 19.9956,66.3725 12.3882,19.0316 46.708,27.7984 62.8261,17.1494 21.7547,5.3359 35.3708,10.1346 40.9145,0.091 8.7086,9.0195 28.793,11.0767 31.9255,1.5285 15.5694,9.4646 37.169,12.1053 48.9893,4.2958 21.7546,5.336 35.3709,10.1363 40.9145,0.092 10.7327,11.1159 29.0036,13.923 38.9291,-0.07 18.6241,7.161 21.5949,2.6533 34.262,-4.6959 20.7866,14.7594 39.8536,8.3537 47.833,-4.2892 29.5294,6.4079 34.7667,-15.5649 33.4746,-23.833 26.1663,-7.7986 33.7535,-27.5016 14.694,-44.4497 6.4368,-20.3944 -2.0181,-44.3702 -40.8764,-54.7357 -9.1237,-16.2143 -40.7832,-28.7088 -62.9379,-15.8552 -15.2716,-12.7156 -39.7973,-13.0295 -49.9912,-3.2916 -7.7055,-7.9804 -17.6188,-4.0363 -23.1257,-0.2472 -13.8026,-8.0766 -33.498,-11.2048 -48.7123,-2.3777 -9.0676,-7.55 -21.3968,-10.7267 -32.0524,-10.0241 z"
       id="path4043"
       inkscape:connector-curvature="0"
       sodipodi:nodetypes="ccccccccccccccccccccccc" />
    <flowRoot
       xml:space="preserve"
       id="flowRoot2987-4-9-3-5-9-8-3-5-4-0-5-5"
       style="font-style:normal;font-variant:normal;font-weight:normal;font-stretch:normal;line-height:0.01%;font-family:Lavi;-inkscape-font-specification:Lavi;text-align:center;letter-spacing:0px;word-spacing:0px;text-anchor:middle;fill:#000000;fill-opacity:1;stroke:none"
       transform="translate(996.95336,817.3584)"><flowRegion
         id="flowRegion2989-5-4-5-8-9-5-4-2-2-5-0-8"><rect
           id="rect2991-7-9-6-5-7-5-4-9-5-4-3-2"
           width="493.73337"
           height="314.38708"
           x="120.55251"
           y="265.53046"
           style="font-style:normal;font-variant:normal;font-weight:normal;font-stretch:normal;font-family:Lavi;-inkscape-font-specification:Lavi;text-align:center;text-anchor:middle" /></flowRegion><flowPara
         style="font-size:45px;line-height:1.25;text-align:center;text-anchor:middle"
         id="flowPara4272-0">Jaz in ti imava</flowPara><flowPara
         style="font-size:45px;line-height:1.25;text-align:center;text-anchor:middle"
         id="flowPara53">nekaj skupnega...</flowPara></flowRoot>    <path
       style="color:#000000;display:inline;overflow:visible;visibility:visible;fill:#ffffff;fill-opacity:1;fill-rule:nonzero;stroke:none;stroke-width:1px;marker:none;enable-background:accumulate"
       d="m 1263.0275,1261.586 c 3.2526,-13.9142 12.362,-12.7945 19.7109,-8.2909 7.1257,-0.1505 15.5492,0.9462 9.5739,13.2654 4.4484,3.5928 10.3777,11.5837 -2.1306,18.3276 -1.7432,6.2934 -19.9536,11.285 -26.591,-2.8511 -12.9529,-6.0801 -17.4582,-18.2401 -0.5632,-20.451 z"
       id="path4051"
       inkscape:connector-curvature="0"
       sodipodi:nodetypes="cccccc" />
    <path
       style="color:#000000;display:inline;overflow:visible;visibility:visible;fill:#ffffff;fill-opacity:1;fill-rule:nonzero;stroke:none;stroke-width:1px;marker:none;enable-background:accumulate"
       d="m 1286.2708,1309.2578 c 3.6765,-1.0212 6.7369,1.1598 9.1289,4.1414 11.2359,-14.5964 27.0112,26.7457 -0.4784,19.6785 -16.7378,5.7055 -18.2129,-9.5291 -11.4815,-14.9079 -2.5821,-3.2186 -0.8455,-7.8909 2.831,-8.912 z"
       id="path4059"
       inkscape:connector-curvature="0"
       sodipodi:nodetypes="zcccz" />
    <path
       style="color:#000000;display:inline;overflow:visible;visibility:visible;fill:#ffffff;fill-opacity:1;fill-rule:nonzero;stroke:none;stroke-width:0.91013092px;marker:none;enable-background:accumulate"
       d="m 915.78659,2375.7845 c 4.66932,-0.5176 8.7982,-2.3865 11.37486,-5.4552 7.11699,8.1455 16.53991,-1.2315 17.37766,-3.1528 8.79275,4.3028 20.9375,0.9197 25.64925,-3.7686 11.6935,6.3882 36.16134,-4.2865 35.29674,-18.0317 13.2069,-10.1899 13.7477,-21.9146 9.5767,-28.9515 10.126,-8.3668 14.8735,-46.3421 -14.1978,-49.5776 -8.34222,-14.0737 -30.54898,-19.9459 -40.67483,-11.5788 -14.07201,-3.5557 -22.90962,-6.8803 -26.26103,0.8052 -5.77475,-6.6095 -18.70734,-7.7304 -20.52135,-0.4701 -10.18727,-6.7982 -24.10424,-8.3265 -31.53008,-2.1906 -14.07191,-3.5555 -22.90964,-6.8814 -26.26105,0.8042 -7.1168,-8.1454 -18.90097,-9.8704 -24.9835,0.8829 -12.10033,-4.9974 -13.9143,-1.538 -21.89303,4.2692 -13.64443,-10.6757 -25.75004,-5.4426 -30.61134,4.2528 -19.08387,-4.1973 -21.99353,12.4687 -20.99424,18.6702 -16.63341,6.434 -21.09785,21.44 -8.51688,33.8017 -3.7119,15.5024 2.20746,33.3851 27.36004,40.3648 6.18893,12.021 26.76516,20.7583 40.72,10.6015 10.06277,9.2538 25.8099,8.9666 32.15234,1.4127 5.10942,5.8477 11.39077,2.6646 14.84725,-0.3076 9.02464,5.7901 21.72959,7.7264 31.31279,0.7514 5.97482,5.4945 13.95313,7.6246 20.7775,6.8679 z"
       id="path4043-4"
       inkscape:connector-curvature="0"
       sodipodi:nodetypes="ccccccccccccccccccccccc" />
    <flowRoot
       xml:space="preserve"
       id="flowRoot2987-4-9-3-5-9-8-3-5-4-0-5-5-7"
       style="font-style:normal;font-variant:normal;font-weight:normal;font-stretch:normal;line-height:0.01%;font-family:Lavi;-inkscape-font-specification:Lavi;text-align:center;letter-spacing:0px;word-spacing:0px;text-anchor:middle;fill:#000000;fill-opacity:1;stroke:none"
       transform="translate(526.87792,2012.1239)"><flowRegion
         id="flowRegion2989-5-4-5-8-9-5-4-2-2-5-0-8-9"><rect
           id="rect2991-7-9-6-5-7-5-4-9-5-4-3-2-2"
           width="493.73337"
           height="314.38708"
           x="120.55251"
           y="265.53046"
           style="font-style:normal;font-variant:normal;font-weight:normal;font-stretch:normal;font-family:Lavi;-inkscape-font-specification:Lavi;text-align:center;text-anchor:middle" /></flowRegion><flowPara
         style="font-size:45px;line-height:1.25;text-align:center;text-anchor:middle"
         id="flowPara4272-0-7">mlada...</flowPara></flowRoot>    <path
       style="color:#000000;display:inline;overflow:visible;visibility:visible;fill:#ffffff;fill-opacity:1;fill-rule:nonzero;stroke:none;stroke-width:1px;marker:none;enable-background:accumulate"
       d="m 1069.3278,2467.0345 c 5.2576,-0.5176 9.9066,-2.3865 12.808,-5.4552 8.0137,8.1455 18.6238,-1.2315 19.5671,-3.1528 9.9005,4.3028 23.5754,0.9197 28.8808,-3.7686 13.1669,6.3882 40.7174,-4.2865 39.7438,-18.0317 14.8709,-10.1899 15.4799,-21.9146 10.7834,-28.9515 11.4017,-8.3668 16.7475,-46.3421 -15.9866,-49.5776 -9.3933,-14.0737 -34.398,-19.9459 -45.7996,-11.5788 -15.8449,-3.5557 -25.796,-6.8803 -29.5697,0.8052 -6.5023,-6.6095 -21.0643,-7.7304 -23.1068,-0.4701 -11.4708,-6.7982 -27.1413,-8.3265 -35.5026,-2.1906 -15.8449,-3.5555 -25.7961,-6.8814 -29.5698,0.8042 -8.01337,-8.1454 -21.28227,-9.8704 -28.13119,0.8829 -13.62485,-4.9974 -15.66737,-1.538 -24.65135,4.2692 -15.3635,-10.6757 -28.99432,-5.4426 -34.46811,4.2528 -21.48827,-4.1973 -24.76452,12.4687 -23.63933,18.6702 -18.72907,6.434 -23.756,21.44 -9.58994,33.8017 -4.17957,15.5024 2.48559,33.3851 30.80718,40.3648 6.96867,12.021 30.13733,20.7583 45.85037,10.6015 11.33059,9.2538 29.06174,8.9666 36.20325,1.4127 5.75318,5.8477 12.82592,2.6646 16.71792,-0.3076 10.1616,5.7901 24.4673,7.7264 35.2579,0.7514 6.7276,5.4945 15.7111,7.6246 23.3953,6.8679 z"
       id="path4043-4-9"
       inkscape:connector-curvature="0"
       sodipodi:nodetypes="ccccccccccccccccccccccc" />
    <flowRoot
       xml:space="preserve"
       id="flowRoot2987-4-9-3-5-9-8-3-5-4-0-5-5-7-1"
       style="font-style:normal;font-variant:normal;font-weight:normal;font-stretch:normal;line-height:0.01%;font-family:Lavi;-inkscape-font-specification:Lavi;text-align:center;letter-spacing:0px;word-spacing:0px;text-anchor:middle;fill:#000000;fill-opacity:1;stroke:none"
       transform="translate(670.59475,2107.915)"><flowRegion
         id="flowRegion2989-5-4-5-8-9-5-4-2-2-5-0-8-9-8"><rect
           id="rect2991-7-9-6-5-7-5-4-9-5-4-3-2-2-3"
           width="493.73337"
           height="314.38708"
           x="120.55251"
           y="265.53046"
           style="font-style:normal;font-variant:normal;font-weight:normal;font-stretch:normal;font-family:Lavi;-inkscape-font-specification:Lavi;text-align:center;text-anchor:middle" /></flowRegion><flowPara
         style="font-size:45px;line-height:1.25;text-align:center;text-anchor:middle"
         id="flowPara4272-0-7-7">osamljena...</flowPara></flowRoot>    <path
       style="color:#000000;display:inline;overflow:visible;visibility:visible;fill:#ffffff;fill-opacity:1;fill-rule:nonzero;stroke:none;stroke-width:0.85396659px;marker:none;enable-background:accumulate"
       d="m 1707.3758,2601.3246 c 5.6191,-0.7381 10.5877,-3.4028 13.6884,-7.7784 8.5645,11.6143 19.904,-1.7559 20.912,-4.4952 10.581,6.135 25.196,1.3112 30.8661,-5.3736 14.0719,9.1086 43.516,-6.1118 42.4757,-25.7102 15.893,-14.5292 16.5438,-31.2468 11.5244,-41.2804 12.1855,-11.9297 17.8988,-66.0763 -17.0855,-70.6897 -10.0388,-20.0668 -36.7621,-28.4397 -48.9476,-16.5096 -16.9341,-5.0698 -27.5691,-9.8102 -31.6022,1.1482 -6.9491,-9.4241 -22.5122,-11.0225 -24.695,-0.6704 -12.2595,-9.693 -29.0069,-11.8721 -37.9432,-3.1234 -16.9339,-5.0696 -27.5691,-9.8119 -31.6022,1.1466 -8.5642,-11.614 -22.7452,-14.0736 -30.0649,1.259 -14.5613,-7.1256 -16.7442,-2.193 -26.3459,6.0872 -16.4194,-15.2219 -30.9872,-7.7605 -36.8372,6.0638 -22.9652,-5.9847 -26.4668,17.7784 -25.2643,26.6208 -20.0165,9.1739 -25.3889,30.57 -10.2492,48.1959 -4.4668,22.1038 2.6566,47.6018 32.9249,57.5536 7.4477,17.1401 32.2088,29.598 49.0021,15.1161 12.1094,13.1945 31.0592,12.785 38.6916,2.0143 6.1488,8.3379 13.7076,3.7994 17.8671,-0.4385 10.8601,8.2558 26.1492,11.0165 37.6816,1.0714 7.1899,7.8343 16.7908,10.8714 25.0033,9.7925 z"
       id="path4043-4-9-1"
       inkscape:connector-curvature="0"
       sodipodi:nodetypes="ccccccccccccccccccccccc" />
    <flowRoot
       xml:space="preserve"
       id="flowRoot2987-4-9-3-5-9-8-3-5-4-0-5-5-7-1-9"
       style="font-style:normal;font-variant:normal;font-weight:normal;font-stretch:normal;line-height:0.01%;font-family:Lavi;-inkscape-font-specification:Lavi;text-align:center;letter-spacing:0px;word-spacing:0px;text-anchor:middle;fill:#000000;fill-opacity:1;stroke:none"
       transform="translate(1303.6676,2187.634)"><flowRegion
         id="flowRegion2989-5-4-5-8-9-5-4-2-2-5-0-8-9-8-8"><rect
           id="rect2991-7-9-6-5-7-5-4-9-5-4-3-2-2-3-4"
           width="493.73337"
           height="314.38708"
           x="120.55251"
           y="265.53046"
           style="font-style:normal;font-variant:normal;font-weight:normal;font-stretch:normal;font-family:Lavi;-inkscape-font-specification:Lavi;text-align:center;text-anchor:middle" /></flowRegion><flowPara
         style="font-size:45px;line-height:1.25;text-align:center;text-anchor:middle"
         id="flowPara4435">...ujetnika</flowPara><flowPara
         style="font-size:45px;line-height:1.25;text-align:center;text-anchor:middle"
         id="flowPara51">svojih usod.</flowPara></flowRoot>    <path
       style="color:#000000;display:inline;overflow:visible;visibility:visible;fill:#ffffff;fill-opacity:1;fill-rule:nonzero;stroke:none;stroke-width:1px;marker:none;enable-background:accumulate"
       d="m 1199.2151,2323.7893 c 2.225,-9.385 13.0044,-12.9003 20.604,-6.006 5.7937,-4.4838 15.1847,0.9709 10.4045,11.3728 7.9371,3.6245 10.2853,20.5369 -3.8877,20.7106 -3.8301,8.4751 -19.496,8.8047 -25.723,-3.4794 -10.5094,4.3941 -19.2873,-20.2128 -1.3978,-22.598 z"
       id="path4051-1"
       inkscape:connector-curvature="0"
       sodipodi:nodetypes="cccccc" />
    <path
       style="color:#000000;display:inline;overflow:visible;visibility:visible;fill:#ffffff;fill-opacity:1;fill-rule:nonzero;stroke:none;stroke-width:1px;marker:none;enable-background:accumulate"
       d="m 1261.6184,2282.2669 c 3.7043,-1.6524 6.641,0 8.8742,2.5696 6.3848,-5.2404 23.2295,7.2113 -1.4295,19.7477 -9.1804,4.5419 -17.6092,-6.4102 -10.6909,-12.9246 -2.4109,-2.7727 -0.4581,-7.7403 3.2462,-9.3927 z"
       id="path4059-6"
       inkscape:connector-curvature="0"
       sodipodi:nodetypes="zcccz" />
    <path
       style="color:#000000;display:inline;overflow:visible;visibility:visible;fill:#ffffff;fill-opacity:1;fill-rule:nonzero;stroke:none;stroke-width:1px;marker:none;enable-background:accumulate"
       d="m 1765.5082,2376.4339 c 14.1067,14.7269 5.3775,33.1901 -19.7909,27.1407 -14.6783,6.3004 -38.9492,-22.0463 -11.6312,-27.7892 -1.0944,-13.4466 34.9155,-16.36 31.4221,0.6485 z"
       id="path4051-1-3"
       inkscape:connector-curvature="0"
       sodipodi:nodetypes="cccc" />
    <path
       style="color:#000000;display:inline;overflow:visible;visibility:visible;fill:#ffffff;fill-opacity:1;fill-rule:nonzero;stroke:none;stroke-width:1px;marker:none;enable-background:accumulate"
       d="m 1734.4609,2345.1465 c -3.6004,3.1824 -7.7715,3.0113 -11.5262,1.6893 -2.5115,3.1494 -25.5738,-4.2698 -7.1025,-18.6006 8.7242,-8.2935 23.4543,-2.1601 18.2536,6.9001 4.0532,1.4271 3.9754,6.829 0.3751,10.0112 z"
       id="path4059-6-7"
       inkscape:connector-curvature="0"
       sodipodi:nodetypes="zcccz" />
  </g>
</svg>
