<?xml version="1.0" encoding="UTF-8" standalone="no"?>
<svg
   xmlns:dc="http://purl.org/dc/elements/1.1/"
   xmlns:cc="http://creativecommons.org/ns#"
   xmlns:rdf="http://www.w3.org/1999/02/22-rdf-syntax-ns#"
   xmlns:svg="http://www.w3.org/2000/svg"
   xmlns="http://www.w3.org/2000/svg"
   xmlns:xlink="http://www.w3.org/1999/xlink"
   xmlns:sodipodi="http://sodipodi.sourceforge.net/DTD/sodipodi-0.dtd"
   xmlns:inkscape="http://www.inkscape.org/namespaces/inkscape"
   sodipodi:docname="E28P09.svg"
   height="3503"
   width="2481"
   inkscape:version="1.0 (4035a4fb49, 2020-05-01)"
   version="1.1"
   id="svg2">
  <metadata
     id="metadata8">
    <rdf:RDF>
      <cc:Work
         rdf:about="">
        <dc:format>image/svg+xml</dc:format>
        <dc:type
           rdf:resource="http://purl.org/dc/dcmitype/StillImage" />
        <dc:title />
      </cc:Work>
    </rdf:RDF>
  </metadata>
  <defs
     id="defs6" />
  <sodipodi:namedview
     inkscape:document-rotation="0"
     inkscape:current-layer="layer1"
     inkscape:window-maximized="1"
     inkscape:window-y="24"
     inkscape:window-x="49"
     inkscape:cy="2489.8341"
     inkscape:cx="1189.8896"
     inkscape:zoom="0.38319192"
     showgrid="false"
     id="namedview4"
     inkscape:window-height="1056"
     inkscape:window-width="1871"
     inkscape:pageshadow="2"
     inkscape:pageopacity="0"
     guidetolerance="10"
     gridtolerance="10"
     objecttolerance="10"
     borderopacity="1"
     bordercolor="#666666"
     pagecolor="#ffffff" />
  <g
     sodipodi:insensitive="true"
     inkscape:label="artwork"
     id="layer2"
     inkscape:groupmode="layer">
    <image
       sodipodi:absref="C:\Users\stero\Documents\Kernewek\Pepper and Carrot\webcomics\ep28_The-Festivities\lang\gfx_Pepper-and-Carrot_by-David-Revoy_E28P09.png"
       xlink:href="../gfx_Pepper-and-Carrot_by-David-Revoy_E28P09.png"
       y="0"
       x="0"
       id="image10"
       height="3503"
       width="2481" />
  </g>
  <g
     inkscape:label="speechbubbles"
     id="layer3"
     inkscape:groupmode="layer">
    <path
       inkscape:connector-curvature="0"
       id="path889"
       d="m 1178.8263,231.14214 c 18.3925,-70.03977 45.2737,-95.76867 77.8143,-101.4862 32.5405,-5.71753 149.9693,-4.28815 189.5838,-2.85876 39.6145,1.42938 94.7919,15.72321 103.2807,62.89285 8.4889,47.16964 8.4889,155.80276 -14.1481,182.96103 -22.6368,27.15828 -74.9846,44.31088 -127.3324,42.8815 -52.3477,-1.42939 -168.3616,12.86444 -199.4874,-35.73458 -31.1257,-48.59902 -32.5405,-112.92126 -29.7109,-148.65584 z"
       style="fill:#ffffff;fill-rule:evenodd;stroke:none;stroke-width:0.99488729px;stroke-linecap:butt;stroke-linejoin:miter;stroke-opacity:1" />
    <path
       inkscape:connector-curvature="0"
       id="path891"
       d="m 1115.0193,506.87426 c 34.1115,-49.03527 51.8779,-64.6697 63.2484,-73.19757 -2.8427,27.00493 -2.8427,32.69017 4.2639,32.69017 7.1066,0 170.5574,-137.15661 170.5574,-137.15661 l -87.4106,23.45165 c 0,0 -32.6902,47.61396 -46.9033,61.11642 -14.2132,13.50246 -29.1369,24.87296 -29.1369,24.87296 0,0 6.3959,-14.92378 4.2639,-19.89837 -2.132,-4.97459 -20.609,-17.7664 -78.8828,88.12135 z"
       style="fill:#ffffff;fill-rule:evenodd;stroke:none;stroke-width:1px;stroke-linecap:butt;stroke-linejoin:miter;stroke-opacity:1" />
    <path
       sodipodi:nodetypes="zsscssz"
       inkscape:connector-curvature="0"
       id="path893"
       d="m 2013.2128,131.58118 c 11.1846,-47.498697 40.0257,-45.937906 60.0386,-47.006229 20.0128,-1.068325 200.1287,-1.068325 228.7185,2.136646 28.5899,3.204972 54.3207,21.366473 57.1797,48.074563 2.8589,26.70809 7.884,68.7919 -33.3548,89.73919 -44.1149,22.40827 -218.2357,21.36647 -264.9323,6.40994 -46.6968,-14.95654 -58.8343,-51.85539 -47.6497,-99.35411 z"
       style="fill:#ffffff;fill-rule:evenodd;stroke:none;stroke-width:1.23464px;stroke-linecap:butt;stroke-linejoin:miter;stroke-opacity:1" />
    <path
       sodipodi:nodetypes="csscccccc"
       inkscape:connector-curvature="0"
       id="path895"
       d="m 2267.1497,172.17705 c -25.3365,54.38062 -31.9986,68.79 -36.9423,79.91331 -4.9437,11.12331 1.2237,26.43947 21.9453,22.50245 28.8196,-5.4756 85.7031,8.41081 27.3562,113.25288 42.6394,-101.96369 -1.8539,-98.25592 -18.5389,-93.93019 -16.6849,4.32573 -76.0093,8.65147 -60.5602,-45.11121 15.449,-53.76267 50.0549,-124.2103 50.0549,-124.2103 l 25.9544,16.68497 z"
       style="fill:#ffffff;fill-rule:evenodd;stroke:none;stroke-width:1px;stroke-linecap:butt;stroke-linejoin:miter;stroke-opacity:1" />
    <path
       sodipodi:nodetypes="cscsc"
       inkscape:connector-curvature="0"
       id="path912"
       d="m 1958.8058,1018.3127 c 11.793,-65.50215 112.8368,-85.20122 216.2974,-78.39563 103.4607,6.80558 156.7978,49.3144 158.6588,86.85223 0.4021,31.1419 -13.0366,78.9591 -119.4571,88.8286 -106.4205,9.8696 -264.9692,-2.882 -255.4991,-97.2852 z"
       style="fill:#ffffff;fill-rule:evenodd;stroke:none;stroke-width:1.01307px;stroke-linecap:butt;stroke-linejoin:miter;stroke-opacity:1" />
    <path
       inkscape:connector-curvature="0"
       id="path914"
       d="m 2172.6623,824.46041 c 28.5876,33.55943 48.4747,75.81945 -1.243,121.8083 -49.7176,45.98884 31.0736,31.07354 31.0736,31.07354 0,0 72.0906,-75.81945 -29.8306,-152.88184 z"
       style="fill:#ffffff;fill-rule:evenodd;stroke:none;stroke-width:1px;stroke-linecap:butt;stroke-linejoin:miter;stroke-opacity:1" />
    <text
       transform="matrix(0.96049651,0,-0.32716292,1.0411282,0,0)"
       id="text4213"
       y="3314.9802"
       x="2421.6179"
       style="font-style:normal;font-variant:normal;font-weight:normal;font-stretch:normal;font-size:43.8573px;line-height:0%;font-family:Lavi;-inkscape-font-specification:'Lavi, Normal';font-variant-ligatures:normal;font-variant-caps:normal;font-variant-numeric:normal;font-feature-settings:normal;text-align:center;letter-spacing:0px;word-spacing:0px;writing-mode:lr-tb;text-anchor:middle;display:inline;fill:#241c1c;fill-opacity:1;stroke:#000000;stroke-width:0.822;stroke-miterlimit:4;stroke-dasharray:none;stroke-opacity:1"
       xml:space="preserve"><tspan
         style="font-style:normal;font-variant:normal;font-weight:normal;font-stretch:normal;font-size:43.8573px;line-height:1.25;font-family:Lavi;-inkscape-font-specification:'Lavi, Normal';font-variant-ligatures:normal;font-variant-caps:normal;font-variant-numeric:normal;font-feature-settings:normal;text-align:center;writing-mode:lr-tb;text-anchor:middle;stroke-width:0.822"
         y="3314.9802"
         x="2421.6179"
         id="tspan3562"
         sodipodi:role="line">DHE VOS YSTYNNYS...</tspan></text>
  </g>
  <g
     inkscape:label="txt"
     id="layer1"
     inkscape:groupmode="layer">
    <text
       id="text4246"
       y="207.29631"
       x="1372.3652"
       style="font-style:normal;font-variant:normal;font-weight:normal;font-stretch:normal;line-height:0%;font-family:Lavi;-inkscape-font-specification:Lavi;text-align:center;letter-spacing:0px;word-spacing:0px;text-anchor:middle;fill:#000000;fill-opacity:1;stroke:none"
       xml:space="preserve"><tspan
         id="tspan831"
         y="207.29631"
         x="1372.3652"
         style="font-size:45px;line-height:1.2"
         sodipodi:role="line">Ogh! Pepper!?</tspan><tspan
         id="tspan37"
         y="261.29633"
         x="1372.3652"
         style="font-size:45px;line-height:1.2"
         sodipodi:role="line">A leversyn</tspan><tspan
         id="tspan39"
         y="315.29633"
         x="1372.3652"
         style="font-size:45px;line-height:1.2"
         sodipodi:role="line">neppyth dhe'th</tspan><tspan
         id="tspan41"
         y="369.29633"
         x="1372.3652"
         style="font-size:45px;line-height:1.2"
         sodipodi:role="line">wul trist?</tspan></text>
    <text
       id="text4246-3"
       y="151.13844"
       x="2186.4995"
       style="font-style:normal;font-variant:normal;font-weight:normal;font-stretch:normal;line-height:0%;font-family:Lavi;-inkscape-font-specification:Lavi;text-align:center;letter-spacing:0px;word-spacing:0px;text-anchor:middle;fill:#000000;fill-opacity:1;stroke:none"
       xml:space="preserve"><tspan
         id="tspan831-3"
         y="151.13844"
         x="2186.4995"
         style="font-size:45px;line-height:1.2"
         sodipodi:role="line">Na leversowgh</tspan><tspan
         id="tspan43"
         y="205.13844"
         x="2186.4995"
         style="font-size:45px;line-height:1.2"
         sodipodi:role="line">yndella!</tspan></text>
    <text
       id="text4246-3-5"
       y="1010.054"
       x="2146.4023"
       style="font-style:normal;font-variant:normal;font-weight:normal;font-stretch:normal;line-height:0%;font-family:Lavi;-inkscape-font-specification:Lavi;text-align:center;letter-spacing:0px;word-spacing:0px;text-anchor:middle;fill:#000000;fill-opacity:1;stroke:none"
       xml:space="preserve"><tspan
         id="tspan47"
         y="1010.054"
         x="2146.4023"
         style="font-size:45px;line-height:1.2"
         sodipodi:role="line">Meur ras,</tspan><tspan
         id="tspan51"
         y="1064.054"
         x="2146.4023"
         style="font-size:45px;line-height:1.2"
         sodipodi:role="line">ow howethesow!</tspan></text>
  </g>
</svg>
