<?xml version="1.0" encoding="UTF-8" standalone="no"?>
<!-- Created with Inkscape (http://www.inkscape.org/) -->

<svg
   xmlns:dc="http://purl.org/dc/elements/1.1/"
   xmlns:cc="http://creativecommons.org/ns#"
   xmlns:rdf="http://www.w3.org/1999/02/22-rdf-syntax-ns#"
   xmlns:svg="http://www.w3.org/2000/svg"
   xmlns="http://www.w3.org/2000/svg"
   xmlns:xlink="http://www.w3.org/1999/xlink"
   xmlns:sodipodi="http://sodipodi.sourceforge.net/DTD/sodipodi-0.dtd"
   xmlns:inkscape="http://www.inkscape.org/namespaces/inkscape"
   id="svg2"
   version="1.1"
   inkscape:version="0.92.4 5da689c313, 2019-01-14"
   width="2481"
   height="3503"
   sodipodi:docname="E28P05.svg">
  <metadata
     id="metadata8">
    <rdf:RDF>
      <cc:Work
         rdf:about="">
        <dc:format>image/svg+xml</dc:format>
        <dc:type
           rdf:resource="http://purl.org/dc/dcmitype/StillImage" />
        <dc:title />
      </cc:Work>
    </rdf:RDF>
  </metadata>
  <defs
     id="defs6" />
  <sodipodi:namedview
     pagecolor="#ffffff"
     bordercolor="#666666"
     borderopacity="1"
     objecttolerance="10"
     gridtolerance="10"
     guidetolerance="10"
     inkscape:pageopacity="0"
     inkscape:pageshadow="2"
     inkscape:window-width="1853"
     inkscape:window-height="1016"
     id="namedview4"
     showgrid="false"
     inkscape:zoom="0.091037727"
     inkscape:cx="1089.6838"
     inkscape:cy="3438.4543"
     inkscape:window-x="67"
     inkscape:window-y="27"
     inkscape:window-maximized="1"
     inkscape:current-layer="layer1" />
  <g
     inkscape:groupmode="layer"
     id="layer2"
     inkscape:label="artwork"
     sodipodi:insensitive="true">
    <image
       sodipodi:absref="/home/midgard/git/peppercarrot/comics/ep28_The-Festivities/lang/no/../gfx_Pepper-and-Carrot_by-David-Revoy_E28P05.png"
       xlink:href="../gfx_Pepper-and-Carrot_by-David-Revoy_E28P05.png"
       y="0"
       x="0"
       id="image10"
       height="3503"
       width="2481" />
  </g>
  <g
     inkscape:groupmode="layer"
     id="layer3"
     inkscape:label="speechbubbles">
    <path
       style="fill:#ffffff;fill-rule:evenodd;stroke:none;stroke-width:0.92832726px;stroke-linecap:butt;stroke-linejoin:miter;stroke-opacity:1"
       d="m 152.11689,193.33767 c 25.16822,-21.78436 62.59987,-22.94717 99.1173,-30.02191 34.16854,-6.74016 69.7705,-6.90109 104.82213,-5.43789 44.44925,1.9301 89.47096,4.3065 132.33747,13.85416 13.10599,2.79175 39.38428,12.15315 47.53347,20.47285 34.50907,28.17212 45.56667,60.58991 44.72324,99.42132 -3.4718,57.06612 -5.13112,114.20421 -9.9944,171.21671 -1.47629,18.77328 -7.24071,38.57093 -25.38605,52.37002 -20.83763,16.58397 -48.46602,27.77588 -77.90746,32.74452 -46.84275,8.39527 -95.27215,11.35816 -143.33823,10.71853 -18.78642,-1.53832 -37.5637,-3.59011 -56.2952,-5.63436 -40.13753,-5.22203 -83.24347,-13.25176 -112.02803,-36.68753 -22.85441,-18.68563 -35.51005,-43.89966 -37.86039,-69.09016 0.17781,-52.97456 -2.03169,-105.87311 1.1195,-158.78062 0.6446,-33.18118 12.92376,-72.41569 33.15665,-95.14564 z"
       id="path1006"
       inkscape:connector-curvature="0"
       sodipodi:nodetypes="ccccccccccccccc" />
    <path
       style="fill:#ffffff;fill-rule:evenodd;stroke:none;stroke-width:1px;stroke-linecap:butt;stroke-linejoin:miter;stroke-opacity:1"
       d="M 333.27358,346.17986 C 395.90659,299.25879 684.65819,123.37673 1012.4941,266.75583 759.55842,143.42811 491.69794,181.66189 330.00219,300.24071 Z"
       id="path1008"
       inkscape:connector-curvature="0"
       sodipodi:nodetypes="cccc" />
    <path
       style="fill:#ffffff;fill-rule:evenodd;stroke:none;stroke-width:1px;stroke-linecap:butt;stroke-linejoin:miter;stroke-opacity:1"
       d="m 1819.6761,521.16397 c 116.7092,-13.15033 182.4608,-4.93138 226.8431,52.60129 44.3824,57.53267 34.5196,90.40848 23.0131,80.54574 -11.5065,-9.86274 -23.0131,-151.22873 -249.8562,-133.14703 z"
       id="path1011"
       inkscape:connector-curvature="0" />
    <path
       style="fill:#ffffff;fill-rule:evenodd;stroke:none;stroke-width:1px;stroke-linecap:butt;stroke-linejoin:miter;stroke-opacity:1"
       d="m 2132.5652,554.33779 c 95.389,1.60884 145.7833,12.87069 165.581,28.95907 19.7978,16.08837 46.7945,59.52699 37.7956,85.26839 -8.999,25.7414 -43.195,67.57118 -142.1836,64.35351 -98.9886,-3.21769 -170.9803,-19.30606 -194.3776,-51.48281 -23.3972,-32.17675 8.9991,-99.74792 46.7947,-111.00979 37.7956,-11.26186 43.195,-14.47953 86.3899,-16.08837 z"
       id="path1013"
       inkscape:connector-curvature="0" />
    <path
       style="fill:#ffffff;fill-rule:evenodd;stroke:none;stroke-width:0.99999994px;stroke-linecap:butt;stroke-linejoin:miter;stroke-opacity:1"
       d="m 1994.3888,724.28739 c 56.109,-47.01977 124.2502,-43.88512 142.4857,-40.75047 18.2352,3.13466 63.9605,7.91307 98.1059,10.97129 15.7885,1.4141 73.6744,31.44165 77.8262,83.06825 2.5148,31.26926 0,62.69303 -39.2761,75.23163 -39.2763,12.53861 -97.0416,12.53861 -146.1369,10.97128 -49.0953,-1.56732 -104.9503,0 -134.4075,-28.21187 -29.4571,-28.21186 -37.8734,-67.395 1.4027,-111.28011 z"
       id="path1015"
       inkscape:connector-curvature="0"
       sodipodi:nodetypes="cssssssc" />
    <path
       style="fill:#ffffff;fill-rule:evenodd;stroke:none;stroke-width:1px;stroke-linecap:butt;stroke-linejoin:miter;stroke-opacity:1"
       d="m 308.74674,1071.6194 c 90.05114,1.4294 186.76364,1.4294 206.775,15.7232 20.01137,14.2939 45.01214,49.1115 46.44152,80.5579 1.42939,31.4464 12.16319,83.0121 -14.99509,104.4528 -27.15828,21.4408 -89.34987,32.768 -137.9489,39.9149 -48.59902,7.1469 -157.44785,5.2051 -190.32366,-1.9418 -32.87581,-7.1469 -93.93472,-15.912 -101.08164,-40.2115 -7.14691,-24.2996 -6.12209,-99.868 2.45421,-124.1676 8.5763,-24.2995 22.84327,-58.2001 64.29537,-66.7764 41.45211,-8.5763 124.38319,-7.5515 124.38319,-7.5515 z"
       id="path1017"
       inkscape:connector-curvature="0"
       sodipodi:nodetypes="ccscssccsc" />
    <path
       style="fill:#ffffff;fill-rule:evenodd;stroke:none;stroke-width:1px;stroke-linecap:butt;stroke-linejoin:miter;stroke-opacity:1"
       d="m 464.5495,1496.1462 c 57.17532,-75.7573 57.17532,-148.6559 4.28815,-244.4245 -52.88717,-95.7687 -80.04545,-97.1981 -80.04545,-97.1981 l -4.28815,52.8872 c 0,0 168.6672,128.6445 80.04545,288.7354 z"
       id="path1019"
       inkscape:connector-curvature="0" />
    <path
       style="fill:#ffffff;fill-rule:evenodd;stroke:none;stroke-width:1.00006592px;stroke-linecap:butt;stroke-linejoin:miter;stroke-opacity:1"
       d="m 1938.4538,1180.7297 c -3.2031,-48.9156 80.0996,-89.9884 189.5212,-90.3394 109.4214,-0.3508 204.5706,20.1067 203.9701,70.6277 -0.6006,50.5209 -19.3067,93.1597 -160.0049,93.4053 -140.6983,0.2456 -227.5808,-13.3518 -233.4864,-73.6936 z"
       id="path1021"
       inkscape:connector-curvature="0" />
    <path
       style="fill:#ffffff;fill-rule:evenodd;stroke:none;stroke-width:1px;stroke-linecap:butt;stroke-linejoin:miter;stroke-opacity:1"
       d="m 2223.4008,1243.0202 c 9.6724,22.1135 -3.7615,81.471 -16.6581,91.9459 -8.9785,11.3235 4.9225,16.0942 9.6724,15.1304 4.2989,-2.9097 37.6151,-18.04 42.9887,-9.3111 5.3736,8.7291 -48.8996,51.2105 -42.9887,57.0298 5.911,5.8194 27.9427,-8.1471 30.6294,-3.4916 2.6868,4.6554 -4.2988,17.4581 -16.6581,25.6052 20.957,-6.9833 30.0921,-18.6219 25.7932,-26.769 -4.2988,-8.1471 -12.3592,-6.9833 -17.7328,-5.8194 10.2098,-8.7291 49.9875,-38.2659 39.7777,-53.9782 -10.2098,-15.7122 -36.0426,-12.0787 -41.9536,-9.169 14.5087,-12.8026 28.0737,-53.8649 21.6254,-85.8713 -6.4483,-32.0065 -34.4955,4.6983 -34.4955,4.6983 z"
       id="path1023"
       inkscape:connector-curvature="0"
       sodipodi:nodetypes="ccccsccccccsc" />
    <path
       style="fill:#ffffff;fill-rule:evenodd;stroke:none;stroke-width:1px;stroke-linecap:butt;stroke-linejoin:miter;stroke-opacity:1"
       d="m 814.14956,2344.762 c 11.2844,-40.2573 60.09988,-55.2416 97.71455,-52.849 37.61466,2.3928 93.70229,23.5682 87.85114,56.2586 -5.85117,32.6904 -50.57083,50.2768 -82.08356,51.6227 -31.51274,1.3458 -102.81343,-3.9181 -103.48213,-55.0323 z"
       id="path1025"
       inkscape:connector-curvature="0" />
    <path
       style="fill:#ffffff;fill-rule:evenodd;stroke:none;stroke-width:1px;stroke-linecap:butt;stroke-linejoin:miter;stroke-opacity:1"
       d="m 891.05439,2384.5928 c 8.97846,20.1058 2.08504,29.2013 -7.53169,42.2988 -9.61674,13.0974 -3.91478,26.6928 6.89341,31.8628 10.80819,5.1701 22.50997,25.1418 21.87169,42.5477 -2.42546,-50.8389 -20.08451,-46.2816 -21.10575,-59.2259 -1.02125,-12.9442 20.21215,-24.3759 22.42485,-32.7054 2.2127,-8.3295 0.51063,-29.1055 -5.14877,-40.9009 -5.65941,-11.7954 -17.40374,16.1229 -17.40374,16.1229 z"
       id="path1027"
       inkscape:connector-curvature="0"
       sodipodi:nodetypes="cccccssc" />
  </g>
  <g
     inkscape:groupmode="layer"
     id="layer1"
     inkscape:label="txt">
    <text
       xml:space="preserve"
       style="font-style:normal;font-variant:normal;font-weight:normal;font-stretch:normal;line-height:0%;font-family:Lavi;-inkscape-font-specification:Lavi;text-align:center;letter-spacing:0px;word-spacing:0px;text-anchor:middle;fill:#000000;fill-opacity:1;stroke:none"
       x="350.02744"
       y="245.35594"
       id="text4246"><tspan
         sodipodi:role="line"
         style="font-size:45px;line-height:1.20000005"
         x="350.02744"
         y="245.35594"
         id="tspan833">Alle vennnene mine</tspan><tspan
         sodipodi:role="line"
         style="font-size:45px;line-height:1.20000005"
         x="350.02744"
         y="299.35593"
         id="tspan4570">er så vellykkede.</tspan><tspan
         sodipodi:role="line"
         style="font-size:45px;line-height:1.20000005"
         x="350.02744"
         y="353.35593"
         id="tspan4574">Av og til skulle jeg</tspan><tspan
         sodipodi:role="line"
         style="font-size:45px;line-height:1.20000005"
         x="350.02744"
         y="407.35593"
         id="tspan4617">ønske at jeg hadde</tspan><tspan
         sodipodi:role="line"
         style="font-size:45px;line-height:1.20000005"
         x="350.02744"
         y="461.35593"
         id="tspan4578">et lite snev av</tspan><tspan
         sodipodi:role="line"
         style="font-size:45px;line-height:1.20000005"
         x="350.02744"
         y="515.35596"
         id="tspan4582">det <tspan
   style="font-style:italic"
   id="tspan4584">de</tspan> har.</tspan></text>
    <text
       xml:space="preserve"
       style="font-style:normal;font-variant:normal;font-weight:normal;font-stretch:normal;line-height:0%;font-family:Lavi;-inkscape-font-specification:Lavi;text-align:center;letter-spacing:0px;word-spacing:0px;text-anchor:middle;fill:#000000;fill-opacity:1;stroke:none"
       x="2166.6733"
       y="630.23462"
       id="text4246-3"><tspan
         sodipodi:role="line"
         style="font-size:45px;line-height:1.20000005"
         x="2166.6733"
         y="630.23462"
         id="tspan898">Koriander er</tspan><tspan
         sodipodi:role="line"
         style="font-size:45px;line-height:1.20000005"
         x="2166.6733"
         y="684.23462"
         id="tspan4592">en dronning.</tspan></text>
    <text
       xml:space="preserve"
       style="font-style:normal;font-variant:normal;font-weight:normal;font-stretch:normal;line-height:0%;font-family:Lavi;-inkscape-font-specification:Lavi;text-align:center;letter-spacing:0px;word-spacing:0px;text-anchor:middle;fill:#000000;fill-opacity:1;stroke:none"
       x="2146.4858"
       y="766.50403"
       id="text4246-3-9"><tspan
         sodipodi:role="line"
         style="font-size:45px;line-height:1.20000005"
         x="2146.4858"
         y="766.50403"
         id="tspan923">Safran er en</tspan><tspan
         sodipodi:role="line"
         style="font-size:45px;line-height:1.20000005"
         x="2146.4858"
         y="820.50403"
         id="tspan4596">superstjerne.</tspan></text>
    <text
       xml:space="preserve"
       style="font-style:normal;font-variant:normal;font-weight:normal;font-stretch:normal;line-height:0%;font-family:Lavi;-inkscape-font-specification:Lavi;text-align:center;letter-spacing:0px;word-spacing:0px;text-anchor:middle;fill:#000000;fill-opacity:1;stroke:none"
       x="337.23264"
       y="1151.152"
       id="text4246-3-9-7"><tspan
         sodipodi:role="line"
         style="font-size:45px;line-height:1.20000005"
         x="337.23264"
         y="1151.152"
         id="tspan950">Til og med Shicimi</tspan><tspan
         sodipodi:role="line"
         style="font-size:45px;line-height:1.20000005"
         x="337.23264"
         y="1205.152"
         id="tspan4611">ser helt perfekt ut</tspan><tspan
         sodipodi:role="line"
         style="font-size:45px;line-height:1.20000005"
         x="337.23264"
         y="1259.152"
         id="tspan4613">med den skolen sin.</tspan></text>
    <text
       xml:space="preserve"
       style="font-style:normal;font-variant:normal;font-weight:normal;font-stretch:normal;line-height:0%;font-family:Lavi;-inkscape-font-specification:Lavi;text-align:center;letter-spacing:0px;word-spacing:0px;text-anchor:middle;fill:#000000;fill-opacity:1;stroke:none"
       x="2140.5269"
       y="1155.4224"
       id="text4246-3-9-7-3"><tspan
         sodipodi:role="line"
         style="font-size:45px;line-height:1.20000005"
         x="2140.5269"
         y="1155.4224"
         id="tspan950-6">Og jeg?</tspan><tspan
         sodipodi:role="line"
         style="font-size:45px;line-height:1.20000005"
         x="2140.5269"
         y="1209.4224"
         id="tspan981">Hva har jeg da?</tspan></text>
    <text
       xml:space="preserve"
       style="font-style:normal;font-variant:normal;font-weight:normal;font-stretch:normal;line-height:0%;font-family:Lavi;-inkscape-font-specification:Lavi;text-align:center;letter-spacing:0px;word-spacing:0px;text-anchor:middle;fill:#000000;fill-opacity:1;stroke:none"
       x="912.00488"
       y="2360.6299"
       id="text4246-3-9-7-3-2"><tspan
         sodipodi:role="line"
         style="font-size:45px;line-height:1.20000005"
         x="912.00488"
         y="2360.6299"
         id="tspan981-1">Dette.</tspan></text>
  </g>
</svg>
