<?xml version="1.0" encoding="UTF-8" standalone="no"?>
<!-- Created with Inkscape (http://www.inkscape.org/) -->

<svg
   id="svg2"
   version="1.1"
   inkscape:version="1.1.1 (3bf5ae0d25, 2021-09-20)"
   width="2481"
   height="3503"
   sodipodi:docname="E36P02.svg"
   xmlns:inkscape="http://www.inkscape.org/namespaces/inkscape"
   xmlns:sodipodi="http://sodipodi.sourceforge.net/DTD/sodipodi-0.dtd"
   xmlns:xlink="http://www.w3.org/1999/xlink"
   xmlns="http://www.w3.org/2000/svg"
   xmlns:svg="http://www.w3.org/2000/svg"
   xmlns:rdf="http://www.w3.org/1999/02/22-rdf-syntax-ns#"
   xmlns:cc="http://creativecommons.org/ns#"
   xmlns:dc="http://purl.org/dc/elements/1.1/">
  <metadata
     id="metadata8">
    <rdf:RDF>
      <cc:Work
         rdf:about="">
        <dc:format>image/svg+xml</dc:format>
        <dc:type
           rdf:resource="http://purl.org/dc/dcmitype/StillImage" />
      </cc:Work>
    </rdf:RDF>
  </metadata>
  <defs
     id="defs6">
    <filter
       x="-0.040213067"
       width="1.0779083"
       height="1.2996185"
       inkscape:label="magic-Fx-red_background"
       id="filter4375-4-1-1-1-9-5-8-8-3-3-3-6-1-3"
       style="color-interpolation-filters:sRGB"
       y="-0.10632664">
      <feFlood
         radius="5.0999999999999996"
         result="flood"
         flood-color="rgb(136,138,133)"
         flood-opacity="1"
         id="feFlood4377-7-9-0-8-1-7-3-1-6-61-6-2-0-1" />
      <feComposite
         baseFrequency="0.053999999999999999 0.053999999999999999"
         result="composite1"
         operator="in"
         in="flood"
         in2="SourceGraphic"
         id="feComposite4379-3-8-8-2-77-4-1-0-7-2-7-6-6-4" />
      <feMorphology
         result="result3"
         radius="0.96959439099754563"
         operator="dilate"
         id="feMorphology4393-1-0-49-8-9-3-0-1-5-9-5-1-3-9" />
      <feComposite
         numOctaves="4"
         result="fbSourceGraphic"
         operator="over"
         in="SourceGraphic"
         in2="result3"
         id="feComposite4385-9-5-7-0-8-8-7-5-3-3-3-8-2-2" />
      <feColorMatrix
         id="feColorMatrix4544-9-5-1-5-7-0-0"
         values="0 0 0 -1 0 0 0 0 -1 0 0 0 0 -1 0 0 0 0 1 0"
         in="fbSourceGraphic"
         result="fbSourceGraphicAlpha" />
      <feTurbulence
         result="turbulence"
         baseFrequency="0.062 0.054054054054054057"
         seed="172"
         numOctaves="4.4123222748815163"
         type="fractalNoise"
         id="feTurbulence4546-3-6-9-6-9-6-6" />
      <feDisplacementMap
         result="fbSourceGraphic"
         xChannelSelector="R"
         yChannelSelector="G"
         scale="11.642079"
         in="fbSourceGraphic"
         in2="turbulence"
         id="feDisplacementMap4548-8-2-4-2-2-1-8" />
      <feColorMatrix
         scale="10.800000000000001"
         id="feColorMatrix4670-7-9-7-9-0-5-9"
         values="0 0 0 -1 0 0 0 0 -1 0 0 0 0 -1 0 0 0 0 1 0"
         in="fbSourceGraphic"
         result="fbSourceGraphicAlpha" />
      <feComposite
         result="composite1"
         operator="in"
         in="flood"
         in2="fbSourceGraphic"
         id="feComposite4674-8-2-4-1-2-5-2" />
      <feGaussianBlur
         result="blur"
         stdDeviation="1.5865199271065846"
         in="composite1"
         id="feGaussianBlur4676-3-7-50-2-3-4-6" />
      <feOffset
         result="offset"
         dy="5.2374444725016502"
         dx="-0.42771311737301687"
         id="feOffset4678-6-0-3-7-7-7-6" />
      <feComposite
         result="composite2"
         operator="over"
         in="fbSourceGraphic"
         in2="offset"
         id="feComposite4680-4-9-6-0-5-6-4" />
      <feGaussianBlur
         stdDeviation="0.76414472307477677"
         id="feGaussianBlur58-9-9-5-9" />
      <feOffset
         dx="0"
         dy="0"
         id="feOffset60-3-2-6-5" />
    </filter>
    <filter
       style="color-interpolation-filters:sRGB"
       id="filter4375-4-1-1-1-9-5-8-3-4"
       inkscape:label="Drop Shadow"
       x="-0.00069853879"
       y="-0.003998067"
       width="1.0143025"
       height="1.0818602">
      <feFlood
         id="feFlood4377-7-9-0-8-1-7-3-6"
         flood-opacity="1"
         flood-color="rgb(39,39,39)"
         result="flood" />
      <feComposite
         id="feComposite4379-3-8-8-2-77-4-1-7"
         in2="SourceGraphic"
         in="flood"
         operator="in"
         result="composite1" />
      <feMorphology
         id="feMorphology4393-1-0-49-8-9-3-0-5"
         operator="dilate"
         radius="6.2000000000000002"
         result="result3" />
      <feComposite
         id="feComposite4385-9-5-7-0-8-8-7-3"
         in2="result3"
         in="SourceGraphic"
         operator="over"
         result="fbSourceGraphic" />
      <feColorMatrix
         result="fbSourceGraphicAlpha"
         in="fbSourceGraphic"
         values="0 0 0 -1 0 0 0 0 -1 0 0 0 0 -1 0 0 0 0 1 0"
         id="feColorMatrix4544-5" />
      <feTurbulence
         id="feTurbulence4546-6"
         type="fractalNoise"
         numOctaves="3"
         seed="37"
         baseFrequency="0.129 0.0050000000000000001"
         result="turbulence" />
      <feDisplacementMap
         id="feDisplacementMap4548-2"
         in2="turbulence"
         in="fbSourceGraphic"
         scale="6.6"
         yChannelSelector="G"
         xChannelSelector="R"
         result="fbSourceGraphic" />
      <feColorMatrix
         result="fbSourceGraphicAlpha"
         in="fbSourceGraphic"
         values="0 0 0 -1 0 0 0 0 -1 0 0 0 0 -1 0 0 0 0 1 0"
         id="feColorMatrix4670-9-3" />
      <feFlood
         id="feFlood4672-1-0"
         flood-opacity="0.40999999999999998"
         flood-color="rgb(34,52,102)"
         result="flood"
         in="fbSourceGraphic" />
      <feComposite
         id="feComposite4674-2-3"
         in2="fbSourceGraphic"
         in="flood"
         operator="in"
         result="composite1" />
      <feGaussianBlur
         id="feGaussianBlur4676-7"
         in="composite1"
         stdDeviation="0"
         result="blur" />
      <feOffset
         id="feOffset4678-0-0"
         dx="6"
         dy="6"
         result="offset" />
      <feComposite
         id="feComposite4680-9"
         in2="offset"
         in="fbSourceGraphic"
         operator="over"
         result="composite2" />
    </filter>
  </defs>
  <sodipodi:namedview
     pagecolor="#1e1e1e"
     bordercolor="#111111"
     borderopacity="1"
     objecttolerance="10"
     gridtolerance="10"
     guidetolerance="10"
     inkscape:pageopacity="0"
     inkscape:pageshadow="2"
     inkscape:window-width="1920"
     inkscape:window-height="967"
     id="namedview4"
     showgrid="false"
     inkscape:zoom="0.92000004"
     inkscape:cx="1313.5869"
     inkscape:cy="3197.2825"
     inkscape:window-x="0"
     inkscape:window-y="72"
     inkscape:window-maximized="1"
     inkscape:current-layer="layer1"
     inkscape:pagecheckerboard="0"
     inkscape:snap-global="false" />
  <g
     inkscape:groupmode="layer"
     id="layer2"
     inkscape:label="artwork"
     sodipodi:insensitive="true"
     style="display:inline">
    <image
       xlink:href="../gfx_Pepper-and-Carrot_by-David-Revoy_E36P02.png"
       y="0"
       x="0"
       id="image10"
       height="3503"
       width="2481" />
  </g>
  <g
     inkscape:groupmode="layer"
     id="layer3"
     inkscape:label="speechbubbles"
     style="display:inline">
    <path
       style="fill:#ffffff;fill-rule:evenodd;stroke:none;stroke-width:1.12837px;stroke-linecap:butt;stroke-linejoin:miter;stroke-opacity:1"
       d="m 1688.2673,3174.5438 c -26.8814,0.047 -44.8256,32.383 -14.2886,63.1375 -53.4889,-11.6811 -83.4353,13.8973 -89.4363,32.7295 -19.6387,-16.7648 -46.7514,-35.9073 -87.9747,-19.5625 -8.2619,-26.2602 -23.7137,-39.1745 -65.2688,-25.4618 24.1254,-25.4355 41.3931,-34.8997 -15.1054,-56.1071 53.2635,-9.146 49.154,-26.5786 20.5272,-50.9013 49.4015,6.4919 57.2952,-4.7192 49.9502,-27.1689 31.1151,12.2505 33.0506,34.5046 60.3256,2.1069 24.7644,38.7642 51.772,27.7861 66.6945,0.416 1.5423,46.046 45.4797,32.9408 77.3531,37.4417 -53.6996,17.931 -15.9611,47.8808 -2.7768,43.37 z"
       id="path1087"
       inkscape:connector-curvature="0"
       sodipodi:nodetypes="cccccccccccc" />
    <path
       style="color:#000000;display:inline;overflow:visible;visibility:visible;fill:#ffffff;fill-opacity:1;fill-rule:nonzero;stroke:none;stroke-width:1.25596px;marker:none;enable-background:accumulate"
       d="m 1654.5567,3199.4042 c -34.6184,0.2263 -69.9022,1.8199 -102.8188,13.0854 -20.9528,6.6629 -41.7833,16.0239 -57.3208,31.4223 -13.6025,16.6015 -14.8766,39.1321 -12.8089,59.3315 1.8685,16.3119 6.0179,36.2299 18.7454,47.1496 23.1463,21.8076 58.7464,29.745 90.8075,32.9525 22.6926,2.6558 45.5015,4.4456 68.3116,5.833 43.8038,1.8222 87.7736,-0.8644 131.1272,-6.9764 26.5156,-4.1552 52.3521,-17.3215 67.2788,-39.2571 16.2417,-22.9342 18.3601,-52.7562 11.8955,-79.1707 -3.7061,-14.6476 -13.3296,-27.7327 -26.8722,-35.4935 -31.3922,-18.5298 -68.6629,-25.0252 -104.9946,-26.8555 -27.7642,-1.0888 -55.5566,-2.1725 -83.3507,-2.0211 z"
       id="path3525-1"
       inkscape:connector-curvature="0"
       sodipodi:nodetypes="ccccccccccccc" />
    <path
       style="display:inline;fill:#ffffff;fill-rule:evenodd;stroke:none;stroke-width:1.15535px;stroke-linecap:butt;stroke-linejoin:miter;stroke-opacity:1"
       d="m 1745.887,3125.589 c 0,0 -31.1297,10.6197 -29.6046,30.7051 1.5241,20.0848 39.7798,57.0682 39.7798,57.0682 0,0 -43.1985,14.7678 -30.1879,66.8145 13.0065,52.0474 68.7366,79.0285 56.201,44.2814 -12.5352,-34.7474 -59.487,-93.1013 31.0091,-110.0964 -38.7178,-20.2906 -66.5605,-49.4492 -68.0429,-53.167 -5.5633,-13.9523 24.211,-31.7546 38.0375,-35.692 -77.269,-40.3671 -39.5481,-84.9531 -43.8262,-145.1919 -12.4786,60.3397 -45.7767,113.1669 6.6342,145.2781 z"
       id="path4394-0"
       inkscape:connector-curvature="0"
       sodipodi:nodetypes="cscsscsccc" />
    <path
       style="display:inline;fill:#ffffff;fill-rule:evenodd;stroke:none;stroke-width:1.14529px;stroke-linecap:butt;stroke-linejoin:miter;stroke-opacity:1"
       d="m 2107.0276,2198.5782 c -5.6729,9.3652 -10.2412,20.2228 -20.1664,26.2598 -8.083,4.6087 -18.7182,1.3641 -24.7614,-4.9372 -4.6259,-4.3684 -8.9377,-9.0289 -13.4662,-13.4886 1.7691,8.2123 2.8093,17.1629 -0.8441,25.0586 -6.4878,5.2699 -16.7264,3.1589 -22.1782,-2.5176 -1.9719,-1.3789 -3.9437,-2.7578 -5.9155,-4.1367 2.3278,10.4861 -0.154,22.5651 -8.655,29.9766 -8.36,3.8263 -18.6273,-0.6367 -23.2038,-7.8872 -1.8719,-1.9146 -3.744,-3.8291 -5.6161,-5.7437 4.7303,4.7151 3.3572,14.3631 -3.5774,16.3761 -9.0262,1.3432 -17.1817,-3.7639 -24.336,-8.3516 -7.9234,-5.1353 -15.2315,-11.0707 -22.6146,-16.8839 10.189,11.2585 20.6957,23.1749 24.7412,37.9121 0.3929,6.1843 -9.1728,9.6193 -13.2544,4.9278 -2.49,-1.1485 -4.945,-2.3646 -7.4084,-3.5645 6.7497,6.3869 13.81,13.3899 16.0005,22.5508 -3.2281,6.3366 -12.0707,7.7735 -18.3822,5.219 -2.5176,-0.4708 -5.0353,-0.9416 -7.5531,-1.4124 12.3926,13.2081 28.2298,30.7373 26.5755,49.3465 -1.5495,17.4303 -35.2053,42.1287 -32.6548,41.1047 15.5158,-2.5934 45.3828,-20.2295 60.6219,-9.4347 9.5126,3.7684 0.229,26.1835 -5.4871,34.4425 4.5624,-3.889 11.1518,-7.3641 17.2961,-4.8867 7.7114,3.2897 10.6591,12.183 9.9934,19.7432 -0.2159,5.8807 -2.0632,11.5424 -3.7689,17.1474 7.3896,-10.3551 15.1756,-21.41 27.276,-27.0918 7.6758,-2.2408 15.436,6.071 13.2036,13.2207 0.1264,2.0088 3.1283,0.9918 3.228,-0.5194 8.3921,-9.672 20.2566,-17.6764 33.7177,-18.2785 4.5265,0.5295 7.6833,5.3928 6.5808,9.5616 7.0102,-5.4657 15.5982,-10.4435 24.9969,-9.4575 13.0161,0.6157 24.1527,8.1002 34.078,15.5392 2.6452,1.9825 5.2275,4.0411 7.832,6.0726 2.7406,-8.9364 5.5626,-18.8743 13.7409,-24.7014 9.0616,-4.6708 20.6022,-1.0511 27.1569,5.9933 5.5898,4.6637 10.3559,10.131 15.2689,15.4269 2.1318,-9.7726 14.9813,-14.5942 24.0029,-10.4305 9.5325,3.7713 17.0941,10.8988 23.8341,18.1876 1.7355,2.02 3.4013,4.0937 5.0486,6.1804 -1.9684,-7.4534 -4.9408,-15.1807 -3.0796,-22.9473 4.2815,-3.6425 10.9097,-1.401 14.2352,2.3765 7.016,4.9325 13.1708,10.9285 18.5571,17.4672 -3.2316,-9.9466 3.0865,-22.239 13.985,-24.5459 12.5862,-3.7154 19.6463,-1.7758 31.7406,2.0882 7.9662,2.7277 15.5126,6.4531 22.8505,10.4635 -10.2761,-7.5463 -25.165,-22.3348 -23.1291,-35.0177 1.8083,-8.9338 17.9577,-12.6789 26.593,-15.1213 0.6676,-0.2129 2.5456,-0.3432 1.1006,-1.1227 -5.5063,-3.8955 -6.7824,-5.1257 -9.3013,-11.798 -2.8843,-7.8087 1.7183,-16.2274 7.9232,-21.2393 4.95,-4.1718 10.2107,-7.983 15.4859,-11.7634 -9.7522,-3.4558 -20.901,-5.4723 -28.1408,-13.2452 -4.8789,-6.2561 -1.8361,-15.57 4.4017,-19.8693 11.7379,-11.0196 10.9532,-13.9635 24.227,-23.0981 -21.9348,5.3957 -15.3315,5.7611 -38.2657,4.6839 -9.6338,-1.5136 -11.0016,-11.9579 -11.6658,-19.5043 -0.8951,-10.1701 6.8962,-20.723 10.8889,-28.6274 -17.4254,5.2297 -45.6833,16.4879 -64.1694,17.2229 -4.229,-2.5234 -3.0262,-8.9796 0.8339,-11.2773 0.6999,-1.2561 2.417,-2.2696 2.0097,-3.8848 -10.2879,6.3476 -21.5154,12.5914 -34.0676,12.957 -8.8407,-2.0389 -14.2161,-12.2569 -10.9987,-20.3535 -2.0844,-2.3696 -5.1958,0.016 -7.202,1.2506 -21.6565,10.1855 -47.8883,12.9586 -70.5496,4.1279 -18.2851,-7.1928 -33.4615,-20.3543 -44.9193,-35.6226 -0.2024,-0.1246 -0.4573,-0.1831 -0.6937,-0.1231 z"
       id="path4289-9-3"
       inkscape:connector-curvature="0"
       sodipodi:nodetypes="cccccccccccccccccccaccccccccccccscccccccccccccccccccccccacccccccccc" />
    <path
       style="color:#000000;display:inline;overflow:visible;visibility:visible;fill:#ffffff;fill-opacity:1;fill-rule:nonzero;stroke:none;stroke-width:0.634675px;marker:none;enable-background:accumulate"
       d="m 2065.5689,2358.3715 c -1.019,14.0823 -77.982,87.5377 3.591,185.0685 -57.766,-96.8638 17.7385,-154.6405 29.7695,-166.83 -23.5374,-29.6642 -17.4947,-9.4644 -33.3605,-18.2385 z"
       id="path4024-3"
       inkscape:connector-curvature="0"
       sodipodi:nodetypes="cccc" />
  </g>
  <g
     inkscape:groupmode="layer"
     id="layer1"
     inkscape:label="txt"
     style="display:inline">
    <text
       transform="matrix(1.0109872,-0.19833599,-0.21684929,1.1745089,102.88627,624.18095)"
       id="text4580-6-0-0-3-3-6-2-9-8-0"
       y="1584.5073"
       x="787.65729"
       style="font-style:normal;font-variant:normal;font-weight:normal;font-stretch:normal;line-height:0;font-family:Lavi;-inkscape-font-specification:Lavi;letter-spacing:3.03024px;word-spacing:0px;opacity:0.75027;fill:#ffffff;fill-opacity:1;stroke:#837567;stroke-width:1.52377;stroke-miterlimit:4;stroke-dasharray:none;stroke-opacity:1;paint-order:stroke fill markers;filter:url(#filter4375-4-1-1-1-9-5-8-8-3-3-3-6-1-3)"
       xml:space="preserve"
       inkscape:label="FXB-3"><tspan
         style="font-style:normal;font-variant:normal;font-weight:bold;font-stretch:normal;font-size:70px;line-height:1.25;font-family:Drukah;-inkscape-font-specification:'Drukah Bold';fill:#ffffff;fill-opacity:1;stroke:#837567;stroke-width:1.52377;stroke-miterlimit:4;stroke-dasharray:none;stroke-opacity:1;paint-order:stroke fill markers"
         y="1584.5073"
         x="787.65729"
         id="tspan4582-1-1-0-6-9-0-8-3-4-4"
         sodipodi:role="line"><tspan
   id="tspan19018"
   style="letter-spacing:-3.73913px"
   dx="0 -8.5">Fsss</tspan>j<tspan
   style="font-size:59.826px"
   id="tspan39837">...</tspan></tspan></text>
    <text
       id="text4246-5-8"
       y="3184.8403"
       x="1557.8663"
       style="font-style:normal;font-variant:normal;font-weight:normal;font-stretch:normal;font-size:53.7995px;line-height:0%;font-family:Lavi;-inkscape-font-specification:Lavi;text-align:center;letter-spacing:0px;word-spacing:0px;text-anchor:middle;fill:#000000;fill-opacity:1;stroke:none;stroke-width:1.05513"
       xml:space="preserve"
       inkscape:label="kingB"><tspan
         y="3184.8403"
         x="1557.8663"
         style="font-style:normal;font-variant:normal;font-weight:bold;font-stretch:normal;font-size:53.7995px;line-height:1.25;font-family:Lavi;-inkscape-font-specification:'Lavi Bold';stroke-width:1.05513"
         sodipodi:role="line"
         id="tspan858">Søren!</tspan></text>
    <text
       id="text4246-5-8-3"
       y="3278.2717"
       x="1677.6675"
       style="font-style:normal;font-variant:normal;font-weight:normal;font-stretch:normal;font-size:45px;line-height:0%;font-family:Lavi;-inkscape-font-specification:Lavi;text-align:center;letter-spacing:0px;word-spacing:0px;text-anchor:middle;fill:#000000;fill-opacity:1;stroke:none;stroke-width:0.88255"
       xml:space="preserve"
       inkscape:label="kingB"><tspan
         y="3278.2717"
         x="1677.6675"
         style="font-style:normal;font-variant:normal;font-weight:bold;font-stretch:normal;font-size:45px;line-height:1.25;font-family:Lavi;-inkscape-font-specification:'Lavi Bold';stroke-width:0.88255"
         sodipodi:role="line"
         id="tspan39734">Eg kan jo ikkje</tspan><tspan
         y="3334.5217"
         x="1677.6675"
         style="font-style:normal;font-variant:normal;font-weight:bold;font-stretch:normal;font-size:45px;line-height:1.25;font-family:Lavi;-inkscape-font-specification:'Lavi Bold';stroke-width:0.88255"
         sodipodi:role="line"
         id="tspan6658">gjera noko her!</tspan></text>
    <text
       xml:space="preserve"
       style="font-style:normal;font-variant:normal;font-weight:normal;font-stretch:normal;line-height:0%;font-family:Lavi;-inkscape-font-specification:Lavi;text-align:center;letter-spacing:0px;word-spacing:0px;text-anchor:middle;fill:#000000;fill-opacity:1;stroke:none"
       x="2148.001"
       y="2319.6943"
       id="text4246-7-6-4-6-4-5-6"
       inkscape:label="kingB"><tspan
         sodipodi:role="line"
         style="font-style:normal;font-variant:normal;font-weight:bold;font-stretch:normal;font-size:45px;line-height:1.25;font-family:Lavi;-inkscape-font-specification:'Lavi Bold'"
         x="2148.001"
         y="2319.6943"
         id="tspan50694">Hersens magiske</tspan><tspan
         sodipodi:role="line"
         style="font-style:normal;font-variant:normal;font-weight:bold;font-stretch:normal;font-size:45px;line-height:1.25;font-family:Lavi;-inkscape-font-specification:'Lavi Bold'"
         x="2148.001"
         y="2375.9443"
         id="tspan12280">fengsel! Grrr!</tspan></text>
    <text
       xml:space="preserve"
       style="font-style:normal;font-variant:normal;font-weight:normal;font-stretch:normal;line-height:0%;font-family:Lavi;-inkscape-font-specification:Lavi;letter-spacing:0px;word-spacing:0px;display:inline;fill:#ffffff;fill-opacity:1;stroke:#000000;stroke-width:0.649528;stroke-miterlimit:4;stroke-dasharray:none;stroke-opacity:1;filter:url(#filter4375-4-1-1-1-9-5-8-3-4)"
       x="787.65729"
       y="1584.5073"
       id="text4580-6-0-3"
       transform="matrix(0.56396936,0.29200899,-0.49083985,0.74440634,2292.4537,1543.4282)"
       inkscape:transform-center-x="-5.9254429"
       inkscape:transform-center-y="0.58615246"><tspan
         sodipodi:role="line"
         id="tspan4582-1-1-6"
         x="787.65729"
         y="1584.5073"
         style="font-style:normal;font-variant:normal;font-weight:normal;font-stretch:normal;font-size:70px;line-height:1.25;font-family:Combah;-inkscape-font-specification:Combah;fill:#ffffff;fill-opacity:1;stroke:#000000;stroke-width:0.649528;stroke-opacity:1"><tspan
           style="font-style:normal;font-variant:normal;font-weight:normal;font-stretch:normal;font-size:93.1495px;font-family:Combah;-inkscape-font-specification:Combah;fill:#ffffff;fill-opacity:1;stroke:#000000;stroke-width:0.649528;stroke-opacity:1"
           id="tspan4315-8-0">KLANK</tspan><tspan
           style="font-style:normal;font-variant:normal;font-weight:normal;font-stretch:normal;font-size:114.732px;font-family:Combah;-inkscape-font-specification:Combah;fill:#ffffff;fill-opacity:1;stroke:#000000;stroke-width:0.649528;stroke-opacity:1"
           id="tspan4313-2-6">!</tspan></tspan></text>
  </g>
</svg>
