<?xml version="1.0" encoding="UTF-8" standalone="no"?>
<!-- Created with Inkscape (http://www.inkscape.org/) -->

<svg
   id="svg2"
   version="1.1"
   inkscape:version="1.2.1 (9c6d41e4, 2022-07-14)"
   width="2481"
   height="3503"
   sodipodi:docname="E37P06.svg"
   xmlns:inkscape="http://www.inkscape.org/namespaces/inkscape"
   xmlns:sodipodi="http://sodipodi.sourceforge.net/DTD/sodipodi-0.dtd"
   xmlns:xlink="http://www.w3.org/1999/xlink"
   xmlns="http://www.w3.org/2000/svg"
   xmlns:svg="http://www.w3.org/2000/svg"
   xmlns:rdf="http://www.w3.org/1999/02/22-rdf-syntax-ns#"
   xmlns:cc="http://creativecommons.org/ns#"
   xmlns:dc="http://purl.org/dc/elements/1.1/">
  <metadata
     id="metadata8">
    <rdf:RDF>
      <cc:Work
         rdf:about="">
        <dc:format>image/svg+xml</dc:format>
        <dc:type
           rdf:resource="http://purl.org/dc/dcmitype/StillImage" />
        <dc:title />
      </cc:Work>
    </rdf:RDF>
  </metadata>
  <defs
     id="defs6" />
  <sodipodi:namedview
     pagecolor="#ffffff"
     bordercolor="#666666"
     borderopacity="1"
     objecttolerance="10"
     gridtolerance="10"
     guidetolerance="10"
     inkscape:pageopacity="0"
     inkscape:pageshadow="2"
     inkscape:window-width="1440"
     inkscape:window-height="847"
     id="namedview4"
     showgrid="false"
     inkscape:zoom="0.4948588"
     inkscape:cx="1424.6488"
     inkscape:cy="2779.5807"
     inkscape:window-x="0"
     inkscape:window-y="25"
     inkscape:window-maximized="0"
     inkscape:current-layer="layer3"
     inkscape:pagecheckerboard="0"
     inkscape:showpageshadow="0"
     inkscape:deskcolor="#d1d1d1" />
  <g
     inkscape:groupmode="layer"
     id="layer2"
     inkscape:label="artwork"
     sodipodi:insensitive="true">
    <image
       xlink:href="../gfx_Pepper-and-Carrot_by-David-Revoy_E37P06.png"
       y="0"
       x="0"
       id="image10"
       height="3503"
       width="2481" />
  </g>
  <g
     inkscape:groupmode="layer"
     id="layer3"
     inkscape:label="speechbubbles">
    <path
       style="fill:#ffffff;fill-rule:evenodd;stroke:none;stroke-width:1.66364px;stroke-linecap:butt;stroke-linejoin:miter;stroke-opacity:1"
       d="m 129.095,234.6388 c -1.62857,-66.38441 40.71746,-78.0979 63.51907,-82.00397 22.8018,-3.90372 117.26601,-23.42938 153.0973,7.80977 35.83129,31.23917 45.60361,83.95585 29.31655,103.4815 -16.28686,19.52329 -68.40523,48.81059 -100.97914,50.76245 C 241.47505,316.64039 171.44105,304.9269 148.63944,277.59144 125.83763,250.25839 129.095,234.6388 129.095,234.6388 Z"
       id="path1365"
       inkscape:connector-curvature="0" />
    <path
       style="fill:#ffffff;fill-rule:evenodd;stroke:none;stroke-width:1.18625px;stroke-linecap:butt;stroke-linejoin:miter;stroke-opacity:1"
       d="m 276.57128,286.65867 c 0,0 -8.31854,14.71485 -3.94644,34.32306 4.3721,19.60821 13.90542,39.57744 34.7933,54.14841 -41.89702,-20.22752 -65.69947,-37.55159 -66.67128,-74.5854 -0.97218,-37.03494 35.82442,-13.88607 35.82442,-13.88607 z"
       id="path1357"
       inkscape:connector-curvature="0" />
    <path
       style="fill:#ffffff;fill-rule:evenodd;stroke:none;stroke-width:0.785069px;stroke-linecap:butt;stroke-linejoin:miter;stroke-opacity:1"
       d="m 993.26171,186.69449 c -40.63103,1.19933 -81.73707,1.06407 -121.60006,7.17005 -17.92906,3.00488 -36.14035,7.33198 -49.90747,15.91505 -14.81571,9.96483 -22.77784,23.4875 -27.43469,36.97735 -8.87885,25.3834 -8.20968,52.74566 6.14029,77.18691 6.96681,11.80298 17.70936,23.15357 33.85608,30.17922 16.64296,7.03635 35.65567,10.91293 54.40237,14.57496 32.00518,5.31467 65.28633,4.83621 97.98087,3.84562 29.1145,-0.93525 58.7033,-3.13143 85.8474,-10.68482 15.013,-4.07172 29.8947,-9.24132 41.0504,-17.2826 11.9221,-9.16557 17.9964,-21.02196 21.4554,-32.78302 5.6692,-20.11772 3.7795,-40.79732 -0.5528,-60.94206 -1.9382,-10.05474 -3.4905,-20.58654 -11.3687,-29.48613 -7.8118,-8.41882 -20.8665,-13.75329 -33.7782,-18.10981 -29.6592,-10.12528 -62.5692,-16.84501 -96.09089,-16.56072 z"
       id="path1353"
       inkscape:connector-curvature="0"
       sodipodi:nodetypes="csssscscsscsc" />
    <path
       style="color:#000000;display:inline;overflow:visible;visibility:visible;fill:#ffffff;fill-opacity:1;fill-rule:nonzero;stroke:none;stroke-width:0.861851px;marker:none;enable-background:accumulate"
       d="m 953.70508,340.64258 c -7.89156,5.93196 -11.59104,16.28682 -10.73276,25.94957 0.42223,4.4898 2.07058,8.76171 2.48862,13.25746 1.01197,7.55227 1.05293,15.42171 -1.40821,22.71484 -1.20442,1.72882 -3.79048,1.05453 -5.01568,-0.29626 -10.07465,-6.60916 -20.06188,-13.83162 -31.69135,-17.45527 -3.79347,-0.92218 -7.49599,1.78526 -9.23632,5.00153 -1.4402,2.77657 -2.01316,5.92993 -2.32924,9.01606 -0.55273,6.5806 1.28554,13.1049 3.96106,19.05818 3.14714,8.05533 6.31422,16.4571 5.93458,25.25193 -0.84545,6.13098 -8.24835,10.22802 -13.88693,7.6472 -6.28697,-1.87961 -10.73205,-6.98767 -15.56562,-11.11151 -8.86497,-7.84865 -17.5953,-16.18188 -28.30526,-21.49467 -7.38254,-2.49937 -15.71863,0.24411 -21.23633,5.4668 -3.28278,2.9805 -6.07223,6.44058 -8.94141,9.80664 5.8814,-4.02407 11.87998,-8.29236 18.92579,-9.9668 5.92728,0.27474 10.83062,3.99283 15.65346,7.04174 9.22342,6.01627 16.39972,14.65414 22.20637,23.90936 3.76567,5.4691 7.51953,11.12941 12.67093,15.3981 3.2658,1.63675 6.90342,2.34098 10.46142,3.03947 5.33481,0.86184 10.93374,1.00049 16.1436,-0.58041 5.05084,-2.68449 7.63974,-8.48655 7.90731,-14.00736 1.31557,-10.50648 -1.34041,-20.96489 -4.32747,-30.9597 -1.34044,-4.77497 -2.55206,-9.60437 -3.14531,-14.53651 1.14339,-2.41987 4.68319,-2.64674 6.56055,-0.98047 7.59492,3.4498 13.00439,10.01681 19.08789,15.47852 8.59672,6.12612 21.82202,3.74033 27.89071,-4.84806 5.2193,-6.70376 6.94821,-15.35423 7.43486,-23.65494 0.82894,-10.02392 1.61175,-20.28559 5.5879,-29.65192 1.16442,-3.02572 2.64205,-5.92432 4.30918,-8.70251 -0.35144,-1.98682 -2.65366,-2.40619 -4.00685,-3.52799 -9.0205,-5.41384 -18.041,-10.82769 -27.06151,-16.24154 l -0.16601,-0.0293 z m 33.15039,19.79687 c -0.62158,0.68067 0.23902,-0.002 0,0 z"
       id="path5058-2"
       inkscape:connector-curvature="0"
       sodipodi:nodetypes="cscsssssscssssccscccc" />
    <path
       style="display:inline;fill:#ffffff;fill-rule:evenodd;stroke:none;stroke-width:1.00035px;stroke-linecap:butt;stroke-linejoin:miter;stroke-opacity:1"
       d="m 1173.1445,85.397215 c 44.9453,-0.463414 60.0909,0.344733 70.4996,1.354983 -1.9326,-2.470478 61.5065,-1.417509 132.8018,0.05891 -21.2124,-1.809131 35.3248,-1.928643 105.7041,-0.916818 -7.9601,-0.872767 10.223,58.90568 85.2118,22.77656 -22.6559,45.96681 -57.6548,76.28253 105.0693,21.06561 -47.6435,30.80918 -122.6459,69.74115 -18.6835,97.02039 -93.6198,12.02554 -117.5557,68.3397 -93.1353,95.0235 -44.6019,-54.00492 -83.2814,-45.12274 -65.899,41.03095 -44.8638,-40.90446 -81.6297,-68.53391 -90.1741,-21.98864 -17.6878,-26.16528 -59.5979,-27.42913 -80.4616,29.64513 -31.7772,-54.69918 -66.4919,-67.60153 -101.526,1.96349 -0.4956,-44.63382 -17.7092,-76.51256 -50.8253,-53.59717 z"
       id="path1100"
       inkscape:connector-curvature="0"
       sodipodi:nodetypes="cccccccccccccc" />
    <path
       style="display:inline;fill:#ffffff;fill-rule:evenodd;stroke:none;stroke-width:1.1839px;stroke-linecap:butt;stroke-linejoin:miter;stroke-opacity:1"
       d="m 2438.3093,804.33431 c -57.0707,0.57491 -76.3022,-0.42767 -89.519,-1.68097 2.454,3.06484 -78.0998,1.75854 -168.6291,-0.0731 26.9349,2.24438 -130.6158,12.60536 -219.9819,11.35011 8.0807,-10.18279 -64.3429,-10.17152 -98.3909,-0.15757 97.7743,-32.45072 132.2153,-98.5348 10.3391,-124.01874 86.6279,-4.85589 107.4274,-55.87849 -12.1084,-87.15318 109.8759,7.45346 104.8459,-15.36555 25.1048,-63.01035 93.5106,29.93175 171.2466,4.51295 116.9117,-58.17298 71.3604,35.31915 179.5841,77.20862 135.951,-24.06269 75.9197,74.78739 103.4895,84.93972 129.982,14.13424 40.35,67.85899 95.5325,59.05285 118.476,15.25449 -4.2527,45.57622 14.2185,72.74359 56.2687,44.31509 z"
       id="path1100-1"
       inkscape:connector-curvature="0"
       sodipodi:nodetypes="cccccccccccccc" />
    <path
       style="display:inline;fill:#ffffff;fill-rule:evenodd;stroke:none;stroke-width:1.21129px;stroke-linecap:butt;stroke-linejoin:miter;stroke-opacity:1"
       d="m 1418.7386,299.99278 c 32.8791,33.53516 56.7879,77.06946 103.0231,108.5417 l -39.4041,4.85315 c 33.1236,33.29864 86.1701,72.49084 86.1701,72.49084 0,0 -36.1582,-9.1905 -137.95,-87.08512 l 35.6661,-4.58596 c -28.5603,-35.78999 -82.3648,-65.49689 -123.704,-98.20746 z"
       id="path957"
       sodipodi:nodetypes="cccccccc" />
    <path
       style="display:inline;fill:#ffffff;fill-rule:evenodd;stroke:none;stroke-width:1.15094px;stroke-linecap:butt;stroke-linejoin:miter;stroke-opacity:1"
       d="m 2133.6663,608.00216 c -94.5252,-53.78313 -255.9511,-97.55437 -255.9511,-97.55437 0,0 30.8361,-7.14437 136.3682,19.77436 l 147.9944,28.48852 c 276.9342,105.20644 -79.315,87.53799 -28.4115,49.29149 z"
       id="path957-2"
       sodipodi:nodetypes="ccccc" />
    <path
       style="fill:#ffffff;fill-rule:evenodd;stroke:none;stroke-width:2.0696px;stroke-linecap:butt;stroke-linejoin:miter;stroke-opacity:1"
       d="m 1327.768,982.24085 c 8.7768,-54.88618 46.0784,-82.32837 96.5454,-88.21 50.467,-5.87982 267.6942,-1.95873 296.2189,11.76145 28.5251,13.722 87.7686,45.08528 61.4383,109.7723 -26.3308,64.6872 -118.4879,54.8863 -164.5664,54.8863 -46.0784,0 -221.6156,5.8816 -250.1402,-19.6018 -28.5249,-25.4835 -37.3016,-5.8799 -39.496,-68.60825 z"
       id="path1297"
       inkscape:connector-curvature="0" />
    <path
       style="fill:#ffffff;fill-rule:evenodd;stroke:none;stroke-width:0.989485px;stroke-linecap:butt;stroke-linejoin:miter;stroke-opacity:1"
       d="m 1763.2585,1028.0138 c -44.1943,0.4776 -88.2501,4.4721 -132.3793,6.3997 -17.8399,3.2608 -35.7582,8.5253 -50.9365,18.6533 -11.9275,11.8857 -18.883,27.5524 -25.3416,42.7933 -5.6704,17.9917 -1.6704,37.0434 2.1145,54.9799 3.101,13.4516 9.4876,26.4406 19.9623,35.7311 9.0462,9.0827 20.2489,17.1447 33.4249,18.3904 12.4726,1.7647 25.0699,2.5188 37.517,4.482 25.5943,2.9413 51.3275,7.2967 77.1671,5.3437 35.2311,-3.4753 70.2482,-9.046 104.9202,-16.1266 9.1978,-2.1013 18.5013,-6.6801 23.2064,-15.2103 5.0168,-7.7973 9.4563,-16.0168 13.1648,-24.4921 4.4491,-13.6935 2.3424,-28.2568 2.8118,-42.3754 -0.1919,-11.669 0.2171,-24.209 -6.2762,-34.4855 -6.335,-10.6355 -15.5998,-19.1342 -24.5975,-27.5061 -9.7617,-8.49 -21.5607,-14.2286 -33.7611,-18.3694 -13.0771,-4.9184 -26.9082,-8.5816 -40.9968,-8.208 z"
       id="path1299"
       inkscape:connector-curvature="0"
       sodipodi:nodetypes="ccssssssscscc" />
    <path
       style="display:inline;fill:#ffffff;fill-rule:evenodd;stroke:none;stroke-width:1.45351px;stroke-linecap:butt;stroke-linejoin:miter;stroke-opacity:1"
       d="m 1665.7822,1117.0506 c 36.005,26.7075 69.1958,19.7454 68.5778,-39.6058 17.1778,64.6794 29.0983,79.4106 36.168,48.0532 22.7423,27.8998 36.9468,20.7498 48.2241,1.5849 4.2034,25.2625 13.2175,15.4205 21.0187,14.4285 2.5694,5.7695 -6.2554,19.6011 29.3973,1.9574 2.3095,7.5991 5.4204,14.1808 26.3039,-1.8135 5.4105,30.7158 22.7691,-0.9446 40.5522,-34.8196 -11.0794,42.0008 -6.4853,48.1362 7.672,32.388 -6.4727,17.2334 -10.3439,30.6118 14.248,1.8067 -8.4191,31.9255 13.6682,10.5482 49.32,-34.5313 -26.6368,38.1584 -50.7125,95.6848 10.418,76.4166 -17.0852,13.1987 -45.8289,54.7231 0.3131,72.1924 -8.6141,6.5569 -34.9126,-4.3023 -12.9748,25.3768 2.9392,3.4816 -6.9006,5.2255 11.8788,14.7569 -11.0857,-0.9713 -17.8842,0.9723 -7.672,14.4759 -20.2355,-1.3764 -29.1654,30.0889 -14.309,48.2378 -29.304,-23.6177 -30.9166,-15.437 -31.7842,-6.3999 -36.7264,-32.0934 -38.8823,-22.4398 -43.8399,-16.1697 -17.9014,-0.3477 -35.8028,-4.825 -53.7042,29.0312 -4.6881,-21.5776 -14.0873,-38.3774 -53.704,-24.5271 17.3948,-26.6838 -7.3515,-10.1324 -26.3039,0.474 10.3786,-33.707 -15.9611,-12.2271 -49.3201,19.8026 18.6808,-36.9846 -2.5363,-24.1001 -33.9761,1.5613 23.9616,-66.8582 1.7572,-78.1859 -53.704,-58.0023 22.1305,-12.5955 36.342,-61.9501 13.3624,-92.8682 25.9046,9.7324 35.0091,-17.1386 5.7155,-34.501 38.8023,13.3182 25.9078,-32.0489 -1.8776,-59.3058 z"
       id="path4508-2"
       inkscape:connector-curvature="0"
       sodipodi:nodetypes="cccccccccccccccccccccccccccc" />
    <path
       style="display:inline;fill:#ffffff;fill-rule:evenodd;stroke:none;stroke-width:1.41701px;stroke-linecap:butt;stroke-linejoin:miter;stroke-opacity:1"
       d="m 1715.9751,1228.435 c 47.6698,27.5102 91.6137,20.3389 90.7954,-40.7962 22.7432,66.6234 38.5256,81.7973 47.8857,49.4975 30.1104,28.7383 48.9167,21.3734 63.8477,1.6325 5.5652,26.0218 17.4996,15.884 27.8283,14.8622 3.4019,5.9429 -8.2819,20.1902 38.9213,2.0162 3.0577,7.8275 7.1766,14.607 34.8258,-1.868 7.1634,31.639 30.1457,-0.973 53.6902,-35.8661 -14.6689,43.2631 -8.5864,49.5829 10.1576,33.3614 -8.5697,17.7514 -13.6951,31.5319 18.8641,1.861 -11.1467,32.885 18.0963,10.8652 65.2985,-35.5691 -35.2664,39.3052 -67.1422,98.5606 13.7932,78.7133 -22.6204,13.5954 -60.6764,56.3678 0.4145,74.3621 -11.4047,6.754 -46.2235,-4.4316 -17.1783,26.1396 3.8914,3.5862 -9.1361,5.3825 15.7274,15.2004 -14.6773,-1.0005 -23.6784,1.0015 -10.1577,14.911 -26.7914,-1.4178 -38.6144,30.9932 -18.9448,49.6875 -38.7979,-24.3275 -40.9329,-15.9009 -42.0816,-6.5922 -48.6249,-33.058 -51.4792,-23.1142 -58.043,-16.6557 -23.7011,-0.3581 -47.4021,-4.97 -71.1032,29.9038 -6.2069,-22.2262 -18.6513,-39.5309 -71.1029,-25.2643 23.0303,-27.4858 -9.7333,-10.4369 -34.8258,0.4882 13.7411,-34.72 -21.1322,-12.5946 -65.2987,20.3978 24.7331,-38.0962 -3.3579,-24.8244 -44.9836,1.6082 31.7247,-68.8676 2.3264,-80.5358 -71.103,-59.7455 29.3004,-12.9741 48.1161,-63.8121 17.6916,-95.6594 34.2971,10.0249 46.3513,-17.6537 7.5672,-35.5379 51.3734,13.7184 34.3014,-33.0122 -2.4859,-61.0883 z"
       id="path4508-2-3"
       inkscape:connector-curvature="0"
       sodipodi:nodetypes="cccccccccccccccccccccccccccc" />
    <path
       style="color:#000000;display:inline;overflow:visible;visibility:visible;fill:#ffffff;fill-opacity:1;fill-rule:nonzero;stroke:none;stroke-width:0.969926px;marker:none;enable-background:accumulate"
       d="m 1246.2312,1001.9329 c 22.2211,-34.14103 39.9857,-36.59103 52.6492,-39.61603 1.7643,3.396 6.1135,8.794 6.1135,8.794 1.3611,-5.44434 56.7367,-23.68633 64.0338,-12.39927 10.1747,-0.224 10.4078,17.98503 10.4078,17.98503 -1.59,-7.94978 -77.0372,12.13063 -85.791,20.76224 -4.4313,-9.518 -7.9052,-13.563 -7.9875,-17.682 -7.6447,-0.519 -31.1799,10.299 -39.4258,22.15603 z"
       id="path4456-5"
       inkscape:connector-curvature="0"
       sodipodi:nodetypes="cccccccc" />
    <path
       style="display:inline;fill:#ffffff;fill-rule:evenodd;stroke:none;stroke-width:0.840013px;stroke-linecap:butt;stroke-linejoin:miter;stroke-opacity:1"
       d="m 224.28493,2049.9977 c 45.83152,1.9562 111.86725,5.8779 59.83813,-1.6857 33.70835,1.8313 76.81286,5.4214 89.05701,2.504 11.91728,1.0885 19.00171,0.7184 13.02554,-1.5634 32.5394,2.8416 48.90339,1.7361 68.20526,1.3475 21.97816,2.0346 37.80115,1.6171 47.88257,-1.0877 -7.32887,5.6406 51.89799,1.5728 98.69236,-0.7951 -3.17364,1.2879 -31.37579,4.8783 16.69951,1.4514 -4.53802,1.8574 -4.0688,3.3811 103.34107,-2.2207 -47.43634,5.0275 -25.05931,3.8873 -0.0124,2.5113 -40.06343,5.4257 30.73232,9.4415 57.61863,8.9116 -80.39438,15.1943 -117.26652,42.3338 12.63621,88.4165 -50.62063,0.2837 -127.61358,-22.422 -102.16398,77.9462 -75.9304,-54.7599 -112.42219,-5.4464 -96.80369,40.6583 -45.36485,-62.393 -73.94348,-62.0197 -83.51735,9.4158 -26.14767,-60.767 -53.87523,-72.9244 -83.94733,-12.945 11.30861,-89.6863 -58.40405,-63.2022 -92.32527,-23.7851 26.57294,-41.6566 -20.97013,-48.5646 -74.90017,-9.3964 65.9511,-63.2583 19.13248,-58.536 -58.2419,-35.3941 92.24898,-46.0158 78.69817,-65.3801 -15.26391,-64.4883 114.63583,-6.0948 92.18447,-76.0106 40.17972,-79.8011 z"
       id="path740849"
       sodipodi:nodetypes="cccccccccccccccccccccc" />
    <path
       style="color:#000000;display:inline;overflow:visible;visibility:visible;fill:#ffffff;fill-opacity:1;fill-rule:nonzero;stroke:none;stroke-width:1px;marker:none;enable-background:accumulate"
       d="m 625.17576,2198.464 c 32.4119,11.8493 68.59806,43.3077 68.15392,52.5243 2.57923,-9.5085 6.6039,-17.4308 9.62749,-23.6657 13.04254,7.2714 43.8298,44.5047 61.80037,65.0819 -15.05247,-42.9 -51.67758,-88.1131 -70.34793,-102.0634 -0.43359,10.3146 -2.88747,18.5199 -5.87724,22.4034 -19.74556,7.9495 -28.17774,-60.2326 -25.11612,-64.3964 z"
       id="path5066-6"
       inkscape:connector-curvature="0"
       sodipodi:nodetypes="cccccccc" />
    <path
       style="color:#000000;display:inline;overflow:visible;visibility:visible;fill:#ffffff;fill-opacity:1;fill-rule:nonzero;stroke:none;stroke-width:1.71778px;marker:none;enable-background:accumulate"
       d="m 1876.7755,2268.1362 c 11.7561,76.7939 -80.6656,46.5565 -111.8121,31.507 63.0292,40.8155 94.4663,69.9248 -22.5914,68.0358 115.6097,58.0789 20.6766,60.3091 0.7095,78.5943 93.9627,11.6338 52.5463,93.5064 34.9161,96.2133 109.5495,0.03 72.5004,2.1424 76.1711,3.8204 9.7338,-0.789 55.2188,-3.1932 56.3665,-0.5235 73.9154,-2.5576 162.1416,-4.2154 166.5562,0.2415 30.4686,-2.2467 98.0865,0.9233 56.3667,-0.5235 74.3184,-3.4891 138.6314,-2.246 203.4819,-1.2719 17.7712,-1.0525 20.6837,-2.6659 76.0465,-2.2956 -7.2048,-1.0397 -12.7199,-66.3049 -7.9448,-76.2806 -6.2698,-14.3738 -7.3916,-29.3556 4.3679,-45.8568 -8.9105,-1.3044 -17.2147,-4.2642 -6.6052,-59.6777 -14.6023,2.9472 -104.9075,10.7526 -20.6806,-87.0778 -63.7337,45.3282 -187.9919,81.096 -170.8929,-22.8262 -35.6174,61.4705 -92.1787,88.3576 -111.5259,11.4433 -37.6563,69.8993 -84.0492,43.9845 -111.404,-4.9652 -21.7717,36.7737 -58.586,89.9323 -111.5255,11.4432 z"
       id="path3549-3-7-5"
       inkscape:connector-curvature="0"
       sodipodi:nodetypes="ccccccccccccccccccc" />
    <path
       style="display:inline;fill:#ffffff;fill-rule:evenodd;stroke:none;stroke-width:1.37482px;stroke-linecap:butt;stroke-linejoin:miter;stroke-opacity:1"
       d="m 1576.0451,2853.0879 c 27.9164,-17.5421 26.1185,-56.2808 -8.0795,-68.6302 74.2009,-6.8043 16.6974,-36.2852 -21.0718,-70.6616 56.4565,20.9428 125.6384,59.1249 96.658,-44.1382 40.0494,29.3266 72.7598,54.8915 97.85,10.9689 12.7344,20.5299 38.855,39.644 67.5255,5.748 10.0554,16.8092 21.5039,10.2693 34.4116,-20.7305 11.7213,38.2507 39.5822,37.7324 68.6536,-3.0234 20.3681,41.8271 42.8209,76.5636 92.3411,19.2446 -7.6123,42.8166 18.0387,40.9106 58.7246,18.7903 -6.1306,18.5992 0.7292,24.7809 48.7076,9.9228 -12.758,17.9945 -30.032,28.8096 16.2265,23.41 -20.5564,16.3572 -43.1118,52.5399 26.9308,43.5697 -54.9519,27.6514 -23.6747,38.7879 -22.4925,54.8278 -39.3233,-9.6423 -57.5268,-5.4783 -18.1377,36.3353 -20.4224,-0.6819 -74.304,-46.4501 -49.7546,13.4668 -31.2539,-33.6181 -66.353,6.8157 -48.5234,8.3712 l -74.2456,11.8883 -116.1133,-11.5149 -82.6619,-0.1188 -69.3703,7.2007 c 11.3484,-26.0708 -12.5858,-17.0264 -31.2485,-13.2285 -5.5211,-7.7029 8.658,-26.1596 -31.9908,-14.6865 2.2216,-18.9066 -17.516,-16.5481 -34.3394,-17.0118 z"
       id="path1058"
       sodipodi:nodetypes="cccccccccccccccccccccccc" />
    <path
       style="display:inline;fill:#ffffff;fill-rule:evenodd;stroke:none;stroke-width:1.91702px;stroke-linecap:butt;stroke-linejoin:miter;stroke-opacity:1"
       d="m 1635.8879,2964.7212 c 70.5626,-0.5825 61.2137,25.1211 35.8023,56.1081 19.5486,-2.5793 65.2688,-31.8994 38.1587,13.1946 59.1945,-17.7526 22.7265,15.8546 17.9163,32.3774 23.8611,-4.1122 38.4683,10.3273 9.4473,66.3481 29.3054,-13.8076 74.0871,-63.8358 70.7501,-1.2467 23.7243,-8.4161 54.8951,-39.1703 58.8511,11.7153 39.5935,-44.3356 75.8342,-49.506 83.6719,29.9854 29.1444,-52.0871 54.5231,-62.3489 74.4557,-12.1101 27.7546,-34.4734 67.3515,-44.3548 102.2421,19.1568 -10.1859,-50.7943 5.2768,-82.9111 119.4197,-43.1701 -0.8278,-44.9451 22.9899,-65.7223 118.1756,-16.5146 -20.2302,-29.367 -69.1414,-75.659 44.7183,-25.8987 -59.8813,-62.0503 5.09,-103.0987 54.9504,-146.6891 -60.7135,31.1181 -67.1444,19.8062 -44.2692,-14.4129 -96.545,42.0069 -86.4194,-17.995 -60.7298,-92.8809 -70.6954,41.2157 -60.554,18.0913 -43.6054,-3.2564 -125.6499,44.738 -73.2454,-22.0051 -61.643,-47.7773 -91.0207,116.8676 -64.2596,45.5195 -54.2119,0.8802 -51.6737,69.5897 -73.4561,70.1223 -63.5957,2.8224 -86.6562,84.2327 -48.2984,6.6372 -76.5897,10.4049 l -354.6407,82.0931 -39.1436,32.4733 c 36.3354,10.0402 34.6728,37.6944 -30.1305,46.3972 z"
       id="path961"
       sodipodi:nodetypes="cccccccccccccccccccccccc" />
    <path
       style="display:inline;fill:#ffffff;fill-rule:evenodd;stroke:none;stroke-width:1px;stroke-linecap:butt;stroke-linejoin:miter;stroke-opacity:1"
       d="m 1487.7373,2719.1203 100.518,94.2706 6.505,-33.2379 70.6075,62.6158 11.5455,-27.2884 -90.5705,-67.709 -8.6863,37.6437 z"
       id="path4667-2"
       inkscape:connector-curvature="0" />
  </g>
  <g
     inkscape:groupmode="layer"
     id="layer1"
     inkscape:label="txt"
     style="display:inline">
    <text
       xml:space="preserve"
       style="font-style:normal;font-variant:normal;font-weight:normal;font-stretch:normal;font-size:45.3333px;line-height:125%;font-family:Lavi;-inkscape-font-specification:Lavi;text-align:center;letter-spacing:0px;word-spacing:0px;text-anchor:middle;fill:#000000;fill-opacity:1;stroke:none"
       x="256.18469"
       y="212.4789"
       id="text4246-70-2-2-2-7-4-9-9-6-1-2-3-9-2-7-9"><tspan
         sodipodi:role="line"
         style="font-size:45.3333px"
         x="256.18469"
         y="212.4789"
         id="tspan1721">Então, </tspan><tspan
         sodipodi:role="line"
         style="font-size:45.3333px"
         x="256.18469"
         y="269.14554"
         id="tspan2304">que tal?</tspan><tspan
         sodipodi:role="line"
         style="font-size:45.3333px"
         x="256.18469"
         y="325.81216"
         id="tspan2268" /></text>
    <text
       xml:space="preserve"
       style="font-style:normal;font-variant:normal;font-weight:normal;font-stretch:normal;font-size:45.3333px;line-height:125%;font-family:Lavi;-inkscape-font-specification:Lavi;text-align:center;letter-spacing:0px;word-spacing:0px;text-anchor:middle;fill:#000000;fill-opacity:1;stroke:none"
       x="965.63519"
       y="266.15771"
       id="text4246-70-2-2-2-7-4-9-9-6-1-2-3-9-2-7-9-3"><tspan
         sodipodi:role="line"
         style="font-size:45.3333px"
         x="965.63519"
         y="266.15771"
         id="tspan1018">Isso não te </tspan><tspan
         sodipodi:role="line"
         style="font-size:45.3333px"
         x="965.63519"
         y="322.82434"
         id="tspan2306">faz chorar?</tspan><tspan
         sodipodi:role="line"
         style="font-size:45.3333px"
         x="965.63519"
         y="379.49097"
         id="tspan2272" /></text>
    <text
       xml:space="preserve"
       style="font-style:normal;font-variant:normal;font-weight:normal;font-stretch:normal;font-size:62.7287px;line-height:125%;font-family:Lavi;-inkscape-font-specification:Lavi;text-align:center;letter-spacing:0px;word-spacing:0px;text-anchor:middle;fill:#000000;fill-opacity:1;stroke:none;stroke-width:0.807928"
       x="1378.2051"
       y="189.3369"
       id="text4246-70-2-2-2-7-4-9-9-6-1-2-3-9-2-7-9-3-7"><tspan
         sodipodi:role="line"
         style="font-style:normal;font-variant:normal;font-weight:bold;font-stretch:normal;font-size:62.7287px;font-family:Lavi;-inkscape-font-specification:'Lavi Bold';stroke-width:0.807928"
         x="1378.2051"
         y="189.3369"
         id="tspan2308">ISSO É </tspan><tspan
         sodipodi:role="line"
         style="font-style:normal;font-variant:normal;font-weight:bold;font-stretch:normal;font-size:62.7287px;font-family:Lavi;-inkscape-font-specification:'Lavi Bold';stroke-width:0.807928"
         x="1378.2051"
         y="267.74777"
         id="tspan2312">SÉRIO?!</tspan><tspan
         sodipodi:role="line"
         style="font-style:normal;font-variant:normal;font-weight:bold;font-stretch:normal;font-size:62.7287px;font-family:Lavi;-inkscape-font-specification:'Lavi Bold';stroke-width:0.807928"
         x="1378.2051"
         y="346.15863"
         id="tspan2276" /></text>
    <text
       xml:space="preserve"
       style="font-style:normal;font-variant:normal;font-weight:normal;font-stretch:normal;font-size:62.2419px;line-height:125%;font-family:Lavi;-inkscape-font-specification:Lavi;text-align:center;letter-spacing:0px;word-spacing:0px;text-anchor:middle;fill:#000000;fill-opacity:1;stroke:none;stroke-width:0.83075"
       x="2192.0156"
       y="622.54309"
       id="text4246-70-2-2-2-7-4-9-9-6-1-2-3-9-2-7-9-3-7-6"><tspan
         sodipodi:role="line"
         style="font-style:normal;font-variant:normal;font-weight:bold;font-stretch:normal;font-size:62.2419px;font-family:Lavi;-inkscape-font-specification:'Lavi Bold';stroke-width:0.83075"
         x="2192.0156"
         y="622.54309"
         id="tspan2314">É O MELHOR </tspan><tspan
         sodipodi:role="line"
         style="font-style:normal;font-variant:normal;font-weight:bold;font-stretch:normal;font-size:62.2419px;font-family:Lavi;-inkscape-font-specification:'Lavi Bold';stroke-width:0.83075"
         x="2192.0156"
         y="700.34546"
         id="tspan2318">QUE VOCÊ </tspan><tspan
         sodipodi:role="line"
         style="font-style:normal;font-variant:normal;font-weight:bold;font-stretch:normal;font-size:62.2419px;font-family:Lavi;-inkscape-font-specification:'Lavi Bold';stroke-width:0.83075"
         x="2192.0156"
         y="778.14783"
         id="tspan2320">PODE FAZER?!</tspan></text>
    <text
       xml:space="preserve"
       style="font-style:normal;font-variant:normal;font-weight:normal;font-stretch:normal;font-size:49.902px;line-height:125%;font-family:Lavi;-inkscape-font-specification:Lavi;text-align:center;letter-spacing:0px;word-spacing:0px;text-anchor:middle;fill:#000000;fill-opacity:1;stroke:none;stroke-width:1.10078"
       x="1559.5663"
       y="964.03656"
       id="text4246-70-2-2-2-7-4-9-9-6-1-2-3-9-2-7-9-3-2"><tspan
         sodipodi:role="line"
         style="font-style:normal;font-variant:normal;font-weight:normal;font-stretch:normal;font-size:49.902px;font-family:Lavi;-inkscape-font-specification:Lavi;stroke-width:1.10078"
         x="1559.5663"
         y="964.03656"
         id="tspan1229">Eles ao menos </tspan><tspan
         sodipodi:role="line"
         style="font-style:normal;font-variant:normal;font-weight:normal;font-stretch:normal;font-size:49.902px;font-family:Lavi;-inkscape-font-specification:Lavi;stroke-width:1.10078"
         x="1559.5663"
         y="1026.4141"
         id="tspan2322">tentaram poesia!</tspan><tspan
         sodipodi:role="line"
         style="font-style:normal;font-variant:normal;font-weight:normal;font-stretch:normal;font-size:49.902px;font-family:Lavi;-inkscape-font-specification:Lavi;stroke-width:1.10078"
         x="1559.5663"
         y="1088.7915"
         id="tspan2285" /></text>
    <text
       xml:space="preserve"
       style="font-style:normal;font-variant:normal;font-weight:normal;font-stretch:normal;font-size:49.902px;line-height:125%;font-family:Lavi;-inkscape-font-specification:Lavi;text-align:center;letter-spacing:0px;word-spacing:0px;text-anchor:middle;fill:#000000;fill-opacity:1;stroke:none;stroke-width:1.10078"
       x="1722.0437"
       y="1101.7063"
       id="text4246-70-2-2-2-7-4-9-9-6-1-2-3-9-2-7-9-3-2-3"><tspan
         sodipodi:role="line"
         style="font-style:normal;font-variant:normal;font-weight:normal;font-stretch:normal;font-size:49.902px;font-family:Lavi;-inkscape-font-specification:Lavi;stroke-width:1.10078"
         x="1722.0437"
         y="1101.7063"
         id="tspan2289">Escrever </tspan><tspan
         sodipodi:role="line"
         style="font-style:normal;font-variant:normal;font-weight:normal;font-stretch:normal;font-size:49.902px;font-family:Lavi;-inkscape-font-specification:Lavi;stroke-width:1.10078"
         x="1722.0437"
         y="1164.0837"
         id="tspan2324">tragédias!</tspan></text>
    <text
       xml:space="preserve"
       style="font-style:normal;font-variant:normal;font-weight:normal;font-stretch:normal;font-size:83.9231px;line-height:125%;font-family:Lavi;-inkscape-font-specification:Lavi;text-align:center;letter-spacing:0px;word-spacing:0px;text-anchor:middle;fill:#000000;fill-opacity:1;stroke:none;stroke-width:1.5433"
       x="1838.3158"
       y="1268.1646"
       id="text4246-70-2-2-2-7-4-9-9-6-1-2-3-9-2-7-9-3-2-3-6-1"><tspan
         sodipodi:role="line"
         style="font-style:normal;font-variant:normal;font-weight:bold;font-stretch:normal;font-size:83.9231px;font-family:Lavi;-inkscape-font-specification:'Lavi Bold';stroke-width:1.5433"
         x="1838.3158"
         y="1268.1646"
         id="tspan37654-7">ARTE!</tspan></text>
    <text
       xml:space="preserve"
       style="font-style:normal;font-variant:normal;font-weight:normal;font-stretch:normal;font-size:85.7143px;line-height:125%;font-family:Lavi;-inkscape-font-specification:Lavi;text-align:center;letter-spacing:0px;word-spacing:0px;text-anchor:middle;fill:#000000;fill-opacity:1;stroke:none;stroke-width:1.57622"
       x="1949.1381"
       y="1391.4756"
       id="text4246-70-2-2-2-7-4-9-9-6-1-2-3-9-2-7-9-3-2-3-6-1-9"><tspan
         sodipodi:role="line"
         style="font-style:normal;font-variant:normal;font-weight:bold;font-stretch:normal;font-size:85.7143px;font-family:Lavi;-inkscape-font-specification:'Lavi Bold';stroke-width:1.57622"
         x="1949.1381"
         y="1391.4756"
         id="tspan37654-7-2">DRAMA!</tspan></text>
    <text
       xml:space="preserve"
       style="font-style:normal;font-variant:normal;font-weight:normal;font-stretch:normal;font-size:63.2403px;line-height:125%;font-family:Lavi;-inkscape-font-specification:Lavi;text-align:center;letter-spacing:0px;word-spacing:0px;text-anchor:middle;fill:#000000;fill-opacity:1;stroke:none;stroke-width:1.39501"
       x="483.78723"
       y="2154.6296"
       id="text4246-70-2-2-2-7-4-9-9-6-1-2-3-9-2-7-9-3-2-3-0-7"><tspan
         sodipodi:role="line"
         style="font-style:normal;font-variant:normal;font-weight:bold;font-stretch:normal;font-size:63.2403px;font-family:Lavi;-inkscape-font-specification:'Lavi Bold';stroke-width:1.39501"
         x="483.78723"
         y="2154.6296"
         id="tspan100735-9">MAS VOCÊ?!</tspan><tspan
         sodipodi:role="line"
         style="font-style:normal;font-variant:normal;font-weight:bold;font-stretch:normal;font-size:63.2403px;font-family:Lavi;-inkscape-font-specification:'Lavi Bold';stroke-width:1.39501"
         x="483.78723"
         y="2233.6799"
         id="tspan2293" /></text>
    <text
       xml:space="preserve"
       style="font-style:normal;font-variant:normal;font-weight:normal;font-stretch:normal;font-size:63.2403px;line-height:125%;font-family:Lavi;-inkscape-font-specification:Lavi;text-align:center;letter-spacing:0px;word-spacing:0px;text-anchor:middle;fill:#000000;fill-opacity:1;stroke:none;stroke-width:1.39501"
       x="2081.9277"
       y="2395.3088"
       id="text4246-70-2-2-2-7-4-9-9-6-1-2-3-9-2-7-9-3-2-3-0"><tspan
         sodipodi:role="line"
         style="font-style:normal;font-variant:normal;font-weight:bold;font-stretch:normal;font-size:63.2403px;font-family:Lavi;-inkscape-font-specification:'Lavi Bold';stroke-width:1.39501"
         x="2081.9277"
         y="2395.3088"
         id="tspan1360">VOCÊ VEM </tspan><tspan
         sodipodi:role="line"
         style="font-style:normal;font-variant:normal;font-weight:bold;font-stretch:normal;font-size:63.2403px;font-family:Lavi;-inkscape-font-specification:'Lavi Bold';stroke-width:1.39501"
         x="2081.9277"
         y="2474.3591"
         id="tspan2326">DESPREPARADA!</tspan></text>
    <text
       xml:space="preserve"
       style="font-style:normal;font-variant:normal;font-weight:normal;font-stretch:normal;font-size:51.0809px;line-height:125%;font-family:Lavi;-inkscape-font-specification:Lavi;text-align:center;letter-spacing:0px;word-spacing:0px;text-anchor:middle;fill:#000000;fill-opacity:1;stroke:none;stroke-width:1.01681"
       x="1853.8928"
       y="2779.1357"
       id="text4246-70-2-2-2-7-4-9-9-6-1-2-3-9-2-7-9-3-2-3-0-2"><tspan
         sodipodi:role="line"
         style="font-style:normal;font-variant:normal;font-weight:bold;font-stretch:normal;font-size:51.0809px;font-family:Lavi;-inkscape-font-specification:'Lavi Bold';stroke-width:1.01681"
         x="1853.8928"
         y="2779.1357"
         id="tspan1430">É ISSO </tspan><tspan
         sodipodi:role="line"
         style="font-style:normal;font-variant:normal;font-weight:bold;font-stretch:normal;font-size:51.0809px;font-family:Lavi;-inkscape-font-specification:'Lavi Bold';stroke-width:1.01681"
         x="1853.8928"
         y="2842.9868"
         id="tspan2328">MESMO, CHISPA!</tspan></text>
    <text
       xml:space="preserve"
       style="font-style:normal;font-variant:normal;font-weight:normal;font-stretch:normal;font-size:49.6865px;line-height:125%;font-family:Lavi;-inkscape-font-specification:Lavi;text-align:center;letter-spacing:0px;word-spacing:0px;text-anchor:middle;fill:#000000;fill-opacity:1;stroke:none;stroke-width:0.946337"
       x="2042.4871"
       y="2936.5046"
       id="text4246-70-2-2-2-7-4-9-9-6-1-2-3-9-2-7-9-3-2-3-0-2-9"><tspan
         sodipodi:role="line"
         style="font-style:normal;font-variant:normal;font-weight:bold;font-stretch:normal;font-size:49.6865px;font-family:Lavi;-inkscape-font-specification:'Lavi Bold';stroke-width:0.946337"
         x="2042.4871"
         y="2936.5046"
         id="tspan1505">VÁ PARA CASA E </tspan><tspan
         sodipodi:role="line"
         style="font-style:normal;font-variant:normal;font-weight:bold;font-stretch:normal;font-size:49.6865px;font-family:Lavi;-inkscape-font-specification:'Lavi Bold';stroke-width:0.946337"
         x="2042.4871"
         y="2998.6128"
         id="tspan2330">VOLTE SOMENTE QUANDO </tspan><tspan
         sodipodi:role="line"
         style="font-style:normal;font-variant:normal;font-weight:bold;font-stretch:normal;font-size:49.6865px;font-family:Lavi;-inkscape-font-specification:'Lavi Bold';stroke-width:0.946337"
         x="2042.4871"
         y="3060.7209"
         id="tspan2332">ESTIVER PRONTA!</tspan></text>
  </g>
</svg>
