<?xml version="1.0" encoding="UTF-8" standalone="no"?>
<svg
   xmlns:dc="http://purl.org/dc/elements/1.1/"
   xmlns:cc="http://creativecommons.org/ns#"
   xmlns:rdf="http://www.w3.org/1999/02/22-rdf-syntax-ns#"
   xmlns:svg="http://www.w3.org/2000/svg"
   xmlns="http://www.w3.org/2000/svg"
   xmlns:xlink="http://www.w3.org/1999/xlink"
   xmlns:sodipodi="http://sodipodi.sourceforge.net/DTD/sodipodi-0.dtd"
   xmlns:inkscape="http://www.inkscape.org/namespaces/inkscape"
   id="svg2"
   version="1.1"
   inkscape:version="0.92.4 5da689c313, 2019-01-14"
   width="2481"
   height="3503"
   sodipodi:docname="E33P07.svg">
  <metadata
     id="metadata8">
    <rdf:RDF>
      <cc:Work
         rdf:about="">
        <dc:format>image/svg+xml</dc:format>
        <dc:type
           rdf:resource="http://purl.org/dc/dcmitype/StillImage" />
        <dc:title />
      </cc:Work>
    </rdf:RDF>
  </metadata>
  <defs
     id="defs6">
    <filter
       x="-0.14"
       width="1.22"
       height="1.38"
       inkscape:label="magic-numbers_orange"
       id="filter4375-4-1-1-1-9-5-8-8-3-3-3-6-1-6"
       style="color-interpolation-filters:sRGB">
      <feFlood
         radius="5.0999999999999996"
         result="flood"
         flood-color="rgb(216,88,33)"
         flood-opacity="1"
         id="feFlood4377-7-9-0-8-1-7-3-1-6-61-6-2-0-2" />
      <feComposite
         baseFrequency="0.053999999999999999 0.053999999999999999"
         result="composite1"
         operator="in"
         in="flood"
         in2="SourceGraphic"
         id="feComposite4379-3-8-8-2-77-4-1-0-7-2-7-6-6-6" />
      <feMorphology
         result="result3"
         radius="0.96959439099754563"
         operator="dilate"
         id="feMorphology4393-1-0-49-8-9-3-0-1-5-9-5-1-3-1" />
      <feComposite
         numOctaves="4"
         result="fbSourceGraphic"
         operator="over"
         in="SourceGraphic"
         in2="result3"
         id="feComposite4385-9-5-7-0-8-8-7-5-3-3-3-8-2-8" />
      <feColorMatrix
         id="feColorMatrix4544-9-5-1-5-7-0-7"
         values="0 0 0 -1 0 0 0 0 -1 0 0 0 0 -1 0 0 0 0 1 0"
         in="fbSourceGraphic"
         result="fbSourceGraphicAlpha" />
      <feTurbulence
         result="turbulence"
         baseFrequency="0.062 0.054054054054054057"
         seed="172"
         numOctaves="4.4123222748815163"
         type="fractalNoise"
         id="feTurbulence4546-3-6-9-6-9-6-9" />
      <feDisplacementMap
         result="fbSourceGraphic"
         xChannelSelector="R"
         yChannelSelector="G"
         scale="11.642079"
         in="fbSourceGraphic"
         in2="turbulence"
         id="feDisplacementMap4548-8-2-4-2-2-1-20" />
      <feColorMatrix
         scale="10.800000000000001"
         id="feColorMatrix4670-7-9-7-9-0-5-2"
         values="0 0 0 -1 0 0 0 0 -1 0 0 0 0 -1 0 0 0 0 1 0"
         in="fbSourceGraphic"
         result="fbSourceGraphicAlpha" />
      <feComposite
         result="composite1"
         operator="in"
         in="flood"
         in2="fbSourceGraphic"
         id="feComposite4674-8-2-4-1-2-5-3" />
      <feGaussianBlur
         result="blur"
         stdDeviation="0.01"
         in="composite1"
         id="feGaussianBlur4676-3-7-50-2-3-4-7" />
      <feOffset
         result="offset"
         dy="5.2374444725016502"
         dx="-0.42771311737301687"
         id="feOffset4678-6-0-3-7-7-7-5" />
      <feComposite
         result="composite2"
         operator="over"
         in="fbSourceGraphic"
         in2="offset"
         id="feComposite4680-4-9-6-0-5-6-9" />
      <feGaussianBlur
         stdDeviation="0.01"
         id="feGaussianBlur58-9-9-5-2" />
      <feOffset
         dx="0"
         dy="0"
         id="feOffset60-3-2-6-2" />
    </filter>
    <filter
       style="color-interpolation-filters:sRGB"
       id="filter4375-4-1-1-1-9-5-8-8-3-3-7-4-1"
       inkscape:label="magic-numbers_cyan"
       height="1.38"
       width="1.22"
       x="-0.14">
      <feFlood
         id="feFlood4377-7-9-0-8-1-7-3-1-6-61-3-5-4"
         flood-opacity="1"
         flood-color="rgb(15,126,119)"
         result="flood"
         radius="5.0999999999999996" />
      <feComposite
         id="feComposite4379-3-8-8-2-77-4-1-0-7-2-6-2-9"
         in2="SourceGraphic"
         in="flood"
         operator="in"
         result="composite1"
         baseFrequency="0.053999999999999999 0.053999999999999999" />
      <feMorphology
         id="feMorphology4393-1-0-49-8-9-3-0-1-5-9-1-5-2"
         operator="dilate"
         radius="0.96959439099754563"
         result="result3" />
      <feComposite
         id="feComposite4385-9-5-7-0-8-8-7-5-3-3-2-4-0"
         in2="result3"
         in="SourceGraphic"
         operator="over"
         result="fbSourceGraphic"
         numOctaves="4" />
      <feColorMatrix
         result="fbSourceGraphicAlpha"
         in="fbSourceGraphic"
         values="0 0 0 -1 0 0 0 0 -1 0 0 0 0 -1 0 0 0 0 1 0"
         id="feColorMatrix4544-9-5-1-9-7-6" />
      <feTurbulence
         id="feTurbulence4546-3-6-9-3-4-8"
         type="fractalNoise"
         numOctaves="4.4123222748815163"
         seed="172"
         baseFrequency="0.062 0.054054054054054057"
         result="turbulence" />
      <feDisplacementMap
         id="feDisplacementMap4548-8-2-4-1-4-9"
         in2="turbulence"
         in="fbSourceGraphic"
         scale="11.642079"
         yChannelSelector="G"
         xChannelSelector="R"
         result="fbSourceGraphic" />
      <feColorMatrix
         result="fbSourceGraphicAlpha"
         in="fbSourceGraphic"
         values="0 0 0 -1 0 0 0 0 -1 0 0 0 0 -1 0 0 0 0 1 0"
         id="feColorMatrix4670-7-9-7-9-3-2"
         scale="10.800000000000001" />
      <feComposite
         id="feComposite4674-8-2-4-4-0-6"
         in2="fbSourceGraphic"
         in="flood"
         operator="in"
         result="composite1" />
      <feGaussianBlur
         id="feGaussianBlur4676-3-7-50-7-7-6"
         in="composite1"
         stdDeviation="1.5865199271065846"
         result="blur" />
      <feOffset
         id="feOffset4678-6-0-3-8-8-4"
         dx="-0.42771311737301687"
         dy="5.2374444725016502"
         result="offset" />
      <feComposite
         id="feComposite4680-4-9-6-4-6-9"
         in2="offset"
         in="fbSourceGraphic"
         operator="over"
         result="composite2" />
      <feGaussianBlur
         id="feGaussianBlur58-5-8-5"
         stdDeviation="0.01" />
      <feOffset
         id="feOffset60-0-8-0"
         dy="0"
         dx="0" />
    </filter>
  </defs>
  <sodipodi:namedview
     pagecolor="#ffffff"
     bordercolor="#666666"
     borderopacity="1"
     objecttolerance="10"
     gridtolerance="10"
     guidetolerance="10"
     inkscape:pageopacity="0"
     inkscape:pageshadow="2"
     inkscape:window-width="2560"
     inkscape:window-height="1382"
     id="namedview4"
     showgrid="false"
     inkscape:zoom="0.21899701"
     inkscape:cx="1739.2044"
     inkscape:cy="907.70174"
     inkscape:window-x="0"
     inkscape:window-y="32"
     inkscape:window-maximized="1"
     inkscape:current-layer="layer3"
     inkscape:document-rotation="0"
     inkscape:snap-global="false" />
  <g
     inkscape:groupmode="layer"
     id="layer2"
     inkscape:label="artwork"
     sodipodi:insensitive="true">
    <image
       sodipodi:absref="/home/tirifto/Développement/Pepper &amp; Carrot/webcomics/ep33_Spell-of-War/lang/eo/../gfx_Pepper-and-Carrot_by-David-Revoy_E33P07.png"
       xlink:href="../gfx_Pepper-and-Carrot_by-David-Revoy_E33P07.png"
       width="2481"
       height="3503"
       id="image10"
       x="0"
       y="0" />
  </g>
  <g
     inkscape:groupmode="layer"
     id="layer3"
     inkscape:label="speechbubbles">
    <path
       sodipodi:nodetypes="ccsssssscccccccccc"
       inkscape:connector-curvature="0"
       id="path3278-1"
       d="m 961.80859,1373.3808 c -54.98669,-0.6099 -110.07922,-4.0282 -164.34646,-13.2126 -22.04424,-4.4271 -44.05923,-12.9908 -60.38698,-28.9222 -16.90775,-16.1414 -27.26129,-38.2122 -31.62221,-60.9835 -7.99821,-33.5144 -9.25661,-69.2787 0.71628,-102.5237 11.7436,-40.564 35.18534,-83.5159 70.42339,-107.1212 23.21151,-14.7649 49.21867,-24.2143 77.68179,-27.5316 26.6332,-3.1041 52.82996,-6.1736 79.48768,-7.024 29.57164,-1.2313 59.27293,-1.931 88.76332,1.1237 31.6498,2.9134 63.117,7.4749 94.7131,10.8793 24.3649,3.1151 49.1998,7.2505 71.2192,18.7101 25.4234,13.5071 44.8921,36.5378 56.9491,62.4232 11.5583,23.9302 19.9146,49.6333 22.4288,76.1778 2.4452,24.392 1.9407,49.1127 -1.7362,73.3547 -3.1798,19.114 -10.4848,38.0462 -23.7683,52.4495 -20.3257,22.8082 -49.8719,36.6447 -80.1844,39.2067 -41.607,5.7929 -83.4896,9.6006 -125.4486,11.592 -24.9472,1.0857 -49.92008,1.4663 -74.88951,1.4018 z"
       style="opacity:1;fill:#ffffff;stroke:none;stroke-width:0.98787397" />
    <path
       sodipodi:nodetypes="cccsscc"
       inkscape:connector-curvature="0"
       id="path3970-36-4-2-3"
       d="m 1846.7073,2629.2442 c -25.8307,1.2348 -51.6072,3.536 -77.3427,6.0025 -43.0616,4.5105 -86.5766,8.7029 -128.0972,21.2176 -18.2846,5.3139 -34.8638,15.665 -48.0909,28.8658 -12.4021,12.6172 -21.94,28.5612 -23.8076,46.0853 -3.8997,30.2844 9.7424,62.1502 35.0862,80.5762 28.6747,23.2908 65.6232,33.8173 101.7413,40.8397 43.8336,8.5675 88.4812,12.683 133.1076,14.8348 51.694,1.4663 104.3724,-1.8042 153.6694,-17.8996 26.9285,-9.3396 53.0574,-25.049 67.6177,-49.4915 17.1641,-28.7562 16.6964,-66.9161 -2.8516,-94.5081 -17.3729,-25.9617 -45.7488,-43.1983 -75.4235,-53.5497 -32.8903,-11.5431 -67.6321,-17.1206 -102.2457,-21.2887 -11.0832,-1.0989 -22.2189,-1.7321 -33.363,-1.6843 z"
       style="color:#000000;display:inline;overflow:visible;visibility:visible;fill:#ffffff;fill-opacity:1;fill-rule:nonzero;stroke:none;stroke-width:1.23742998px;marker:none;enable-background:accumulate" />
    <path
       sodipodi:nodetypes="ccscc"
       inkscape:connector-curvature="0"
       id="path4440-3"
       d="m 1628.7471,2767.6346 c -108.6283,-52.869 -136.7629,50.9509 -219.7865,3.3934 64.8225,28.9401 124.6197,-90.8503 208.5357,-36.2563 33.5739,21.8425 26.7527,-34.846 26.7527,-34.846 z"
       style="color:#000000;display:inline;overflow:visible;visibility:visible;fill:#ffffff;fill-opacity:1;fill-rule:nonzero;stroke:none;stroke-width:1px;marker:none;enable-background:accumulate" />
    <path
       inkscape:connector-curvature="0"
       id="path1355"
       d="m 1814.4771,1704.6495 c 0.4448,-11.7403 5.7803,-33.2638 13.7838,-37.1773 8.0034,-3.9133 30.2352,-3.9133 34.6816,-1.9563 4.4462,1.9563 11.5605,16.3054 13.3391,22.1757 1.7786,5.87 6.6694,26.741 -1.334,35.2202 -8.0034,8.4791 -16.0069,15.0013 -24.4549,14.349 -8.4482,-0.6523 -25.3444,-5.2181 -29.346,-13.0443 -4.0019,-7.8268 -6.6696,-19.567 -6.6696,-19.567 z"
       style="fill:#ffffff;fill-rule:evenodd;stroke:none;stroke-width:1px;stroke-linecap:butt;stroke-linejoin:miter;stroke-opacity:1" />
    <path
       sodipodi:nodetypes="zssssz"
       inkscape:connector-curvature="0"
       id="path4040-4-5-3-6"
       d="m 196.77794,1891.0092 c 21.83883,-13.457 177.60883,-26.3446 221.82336,8.2519 36.90526,28.8772 34.53726,85.4493 0.73733,106.7119 -34.43464,21.6607 -165.66009,14.0102 -216.37918,3.6371 -47.76138,-9.7679 -46.89722,-33.3786 -45.59448,-74.5334 0.5317,-16.7961 17.57425,-30.6115 39.41297,-44.0675 z"
       style="color:#000000;display:inline;overflow:visible;visibility:visible;fill:#ffffff;fill-opacity:1;fill-rule:nonzero;stroke:none;stroke-width:1.05546px;marker:none;enable-background:accumulate" />
    <path
       sodipodi:nodetypes="ccscc"
       inkscape:connector-curvature="0"
       id="path4248"
       d="m 2188.3092,1563.8723 c 34.6776,75.0182 -2.1391,152.7694 -20.7926,179.1784 15.7673,-13.367 86.6043,-98.9813 59.3653,-176.0012 -19.1833,-54.242 -28.9658,-19.1371 -28.9658,-19.1371 z"
       style="fill:#ffffff;fill-rule:evenodd;stroke:none;stroke-width:0.999999px;stroke-linecap:butt;stroke-linejoin:miter;stroke-opacity:1" />
    <path
       sodipodi:nodetypes="zssssz"
       inkscape:connector-curvature="0"
       id="path4040-4-5-3"
       d="m 456.80078,1991.75 c -42.41514,0.4303 -85.2813,2.1946 -126.53711,12.8906 -16.00036,4.5215 -28.76661,15.66 -42.41538,24.5932 -8.87296,5.7349 -17.75486,11.8474 -24.30775,20.275 -5.16519,6.2581 -8.21981,13.9137 -10.12675,21.7282 -4.71156,18.4744 -2.75976,39.2745 8.12013,55.2849 10.08081,14.9844 26.30166,25.0269 43.55109,29.6966 25.53882,7.93 52.34259,10.0195 78.75768,13.1926 55.34978,5.5491 111.3713,7.2396 166.6953,0.4919 16.69847,-2.422 33.88978,-5.8712 48.18078,-15.3349 16.68173,-11.7606 26.58376,-31.3797 29.16501,-51.3429 2.94028,-21.1035 -2.97982,-43.4524 -16.77145,-59.8128 -13.93712,-17.4575 -33.70521,-29.463 -54.6416,-36.6949 -14.85647,-5.2355 -30.24642,-8.8851 -45.75417,-11.5706 -17.82216,-2.7773 -35.89782,-3.5695 -53.91578,-3.3969 z"
       style="color:#000000;display:inline;overflow:visible;visibility:visible;fill:#ffffff;fill-opacity:1;fill-rule:nonzero;stroke:none;stroke-width:1px;marker:none;enable-background:accumulate" />
    <path
       sodipodi:nodetypes="ccszc"
       inkscape:connector-curvature="0"
       id="path4064-3"
       d="m 350.69972,1902.0737 c 41.26622,-10.6222 105.42769,-33.765 58.36397,-103.5756 17.39224,9.6109 81.79336,86.4471 -32.06947,127.1196 -33.03955,11.8021 -26.40006,-1.4387 -31.37798,-6.8202 -4.97793,-5.3817 5.08348,-16.7238 5.08348,-16.7238 z"
       style="color:#000000;display:inline;overflow:visible;visibility:visible;opacity:1;fill:#ffffff;fill-opacity:1;fill-rule:nonzero;stroke:none;stroke-width:0.999997px;marker:none;enable-background:accumulate" />
    <path
       sodipodi:nodetypes="ccccccsscc"
       inkscape:connector-curvature="0"
       id="path1081"
       d="m 974.50752,1309.2692 c -35.82187,19.2298 -42.44405,25.0497 -51.67218,35.2517 -9.22809,10.2021 -10.71719,34.223 0.007,47.9588 10.72379,13.7357 7.97474,36.1368 -5.93755,41.9385 -13.91228,5.8017 -68.6801,26.3291 -30.10548,69.6789 -31.80797,-48.4001 27.22562,-50.2412 37.26612,-53.8355 20.96554,-7.326 32.38767,-21.6624 25.23114,-50.6365 -7.15657,-28.9741 -13.26827,-47.0437 37.16901,-61.4862 50.43712,-14.4425 -11.9577,-28.8697 -11.9577,-28.8697 z"
       style="fill:#ffffff;fill-rule:evenodd;stroke:none;stroke-width:0.999996px;stroke-linecap:butt;stroke-linejoin:miter;stroke-opacity:1" />
    <path
       sodipodi:nodetypes="ccscscc"
       inkscape:connector-curvature="0"
       id="path3992-0"
       d="m 1951.4193,988.71484 c -42.4354,0.16425 -85.2059,-1.04479 -127.1845,7.003 -17.1891,2.92448 -34.4252,9.77276 -47.269,23.08076 -41.3811,40.135 -57.0713,108.9558 -37.9137,165.8495 7.0415,21.3976 20.8559,39.9616 38.5256,51.7971 22.9872,15.9559 49.3188,25.1359 75.8757,30.6841 27.1995,5.416 54.9425,4.7985 82.4609,5.7408 42.4804,0.7702 84.9648,-0.2104 127.4473,-0.026 27.0043,-0.025 54.0332,-0.024 80.9895,-2.031 34.344,-2.3428 68.597,-6.0254 102.9036,-8.9099 17.2721,-1.8195 34.3099,-8.53 47.8926,-20.5763 14.5849,-12.8513 25.1424,-30.5224 32.4351,-49.2868 12.2936,-32.4538 15.464,-69.123 8.516,-103.4753 -2.8172,-13.4556 -7.0143,-26.6838 -13.3286,-38.655 -10.2571,-18.7251 -26.587,-33.3436 -45.4447,-40.3211 -17.7437,-7.1378 -36.7924,-8.3889 -55.4852,-9.4844 -64.3949,-5.07115 -128.8132,-11.22012 -193.4248,-11.13654 -25.6643,-0.3097 -51.3305,-0.24463 -76.9958,-0.25332 z"
       style="color:#000000;display:inline;overflow:visible;visibility:visible;opacity:1;vector-effect:none;fill:#ffffff;fill-opacity:1;fill-rule:nonzero;stroke:none;stroke-width:1.13520002;stroke-linecap:butt;stroke-linejoin:miter;stroke-miterlimit:4;stroke-dasharray:none;stroke-dashoffset:0;stroke-opacity:1;marker:none;paint-order:stroke fill markers;enable-background:accumulate" />
    <path
       sodipodi:nodetypes="csssc"
       inkscape:connector-curvature="0"
       id="path3280-8-0-3"
       d="M 2147.1719 1218.2012 C 2050.9451 1221.6694 1954.804 1227.6649 1858.9063 1236.3325 C 1835.8353 1240.3601 1815.8798 1255.9582 1803.8329 1275.7024 C 1788.4617 1301.2861 1783.0203 1332.7633 1789.2265 1361.9809 C 1793.4558 1381.1555 1803.2888 1398.9675 1817.0131 1412.9837 C 1840.1592 1437.5391 1871.1063 1453.7993 1903.5332 1462.3301 C 1933.9107 1470.2374 1965.4081 1471.984 1996.6124 1473.7977 C 2028.2202 1475.2991 2059.9157 1475.4121 2091.5132 1473.6576 C 2126.4193 1470.2516 2160.0518 1459.2951 2194.8571 1455.2585 C 2221.0679 1453.3632 2247.417 1459.875 2273.5039 1455.2168 C 2293.5793 1451.59 2312.4635 1440.8738 2325.1504 1424.7929 C 2342.7919 1404.4039 2351.4266 1377.6639 2353.8852 1351.1482 C 2356.1832 1324.4676 2349.2773 1296.4699 2332.3033 1275.4343 C 2321.3687 1262.1443 2307.2165 1251.7816 2292.1114 1243.6947 C 2264.7267 1229.2255 2233.8888 1222.7163 2203.2535 1219.9414 C 2184.9817 1218.3445 2166.6151 1217.8593 2148.2811 1218.1675 C 2147.9114 1218.1787 2147.5416 1218.19 2147.1719 1218.2012 z "
       style="fill:#ffffff;stroke:none;stroke-width:1.02124" />
    <path
       sodipodi:nodetypes="csssc"
       inkscape:connector-curvature="0"
       id="path3280-8-3"
       d="m 2085.336,1507.0507 c -1.0173,-18.2238 17.2221,-63.845 106.1935,-60.4134 88.9714,3.4316 116.818,23.4764 119.4253,55.8693 4.1246,51.2441 -42.6833,64.9381 -109.8949,68.7339 -69.288,3.9126 -116.7992,-31.2628 -115.7239,-64.1898 z"
       style="display:inline;fill:#ffffff;stroke:none;stroke-width:1" />
    <path
       sodipodi:nodetypes="zssssz"
       inkscape:connector-curvature="0"
       id="path4040-4-5-3-6-9"
       d="m 662.33223,2528.0933 c -34.32285,-0.9431 -69.15282,-1.5109 -102.4693,-10.3341 -25.14262,-7.1679 -45.93254,-25.3367 -57.99146,-47.3319 -6.7173,-11.9579 -7.7166,-25.8654 -7.37127,-39.1769 0.58353,-13.7749 1.18072,-27.823 6.07925,-40.9385 4.96677,-14.2715 15.117,-26.8064 28.42538,-34.8673 11.89098,-7.4581 25.65759,-11.6091 39.53117,-14.1637 15.24392,-3.2772 30.58438,-6.2219 46.11831,-7.9352 20.44376,-2.2578 41.00853,-3.5869 61.58385,-3.9787 32.30935,-0.4141 65.42196,2.6635 95.30819,15.1439 19.72942,8.2595 38.26593,20.4276 50.79903,37.4043 9.54786,13.3898 14.24019,30.0129 12.16805,46.1595 -1.74353,18.6675 -9.11982,36.5982 -19.6157,52.3222 -14.73849,20.1644 -38.24951,33.7923 -63.38619,38.4851 -26.72871,6.207 -54.27484,8.6849 -81.73019,9.2211 -2.48296,0.033 -4.96607,-0.01 -7.44912,-0.01 z"
       style="color:#000000;display:inline;overflow:visible;visibility:visible;fill:#ffffff;fill-opacity:1;fill-rule:nonzero;stroke:none;stroke-width:0.99999899px;marker:none;enable-background:accumulate" />
    <path
       inkscape:transform-center-y="-44.934884"
       inkscape:transform-center-x="2.8585098"
       inkscape:connector-curvature="0"
       id="path4496-9"
       d="m 703.25853,2604.1619 c 5.74791,-18.2394 15.11069,-23.7603 -2.63313,-35.0414 -23.03586,-18.9893 -49.6494,-13.1342 -53.36056,-71.625 3.60381,-16.905 6.37301,-34.8451 22.50989,-40.1615 10.4995,-2.3974 21.75171,4.8293 22.24702,16.1202 0.34778,5.946 -3.23944,11.606 -7.58281,15.6001 -6.82528,8.7682 -8.75807,20.6527 -5.8829,30.4945 7.45665,22.1143 23.5538,29.0237 41.10442,37.1506 9.41557,9.8401 11.78207,17.5562 5.80293,30.6148 -26.3563,44.5568 16.67184,58.2897 35.27406,70.5123 -19.70092,-4.8478 -67.11382,-28.0517 -57.47892,-53.6646 z"
       style="color:#000000;display:inline;overflow:visible;visibility:visible;fill:#ffffff;fill-opacity:1;fill-rule:nonzero;stroke:none;stroke-width:1px;marker:none;enable-background:accumulate"
       sodipodi:nodetypes="ccccccccccc" />
    <path
       sodipodi:nodetypes="cccsscc"
       inkscape:connector-curvature="0"
       id="path3970-36-4"
       d="m 1467.3143,2511.2556 c -89.9775,-1.4482 -127.9776,-18.5233 -150.1688,-44.0236 -22.1912,-25.5011 -3.7596,-66.671 35.2278,-81.2488 38.9873,-14.578 91.7359,-16.0552 152.7936,-14.1261 110.3277,3.4884 186.7447,14.4781 195.3832,54.0223 8.5776,39.2626 1.6924,60.0931 -79.4071,78.7911 -76.3455,10.7602 -153.8287,6.5851 -153.8287,6.5851 z"
       style="color:#000000;display:inline;overflow:visible;visibility:visible;fill:#ffffff;fill-opacity:1;fill-rule:nonzero;stroke:none;stroke-width:1.23742998px;marker:none;enable-background:accumulate" />
    <path
       style="color:#000000;display:inline;overflow:visible;visibility:visible;fill:#ffffff;fill-opacity:1;fill-rule:nonzero;stroke:none;stroke-width:1.23742998px;marker:none;enable-background:accumulate"
       d="m 1656.7823,2482.8694 c -22.0081,1.1705 -44.0203,2.3885 -66.0035,4.3406 -18.3013,1.5964 -36.5614,4.0038 -54.8294,6.2222 -10.5608,1.1847 -20.9754,4.7437 -30.8483,10.2165 -9.4069,5.3706 -18.3858,12.7386 -25.7836,22.7171 -10.5276,15.2593 -14.6013,38.9335 -10.4178,59.4934 2.2915,10.4989 6.4663,20.0549 11.5725,28.2168 7.9213,12.5325 18.4016,21.2745 29.4991,26.7279 18.061,9.5519 36.9968,14.9248 55.6636,21.3948 21.6692,6.6793 43.9493,8.0703 66.0503,7.1697 17.7495,-0.4522 35.5008,-1.5455 53.1882,-3.747 21.1163,-2.9898 42.2311,-8.0778 62.3263,-18.0658 13.3765,-6.8676 26.4156,-16.379 36.6644,-30.7086 7.7553,-11.9129 10.876,-28.5749 11.0765,-44.5392 0.1404,-14.5806 -3.1218,-29.4648 -9.9978,-40.406 -8.7891,-14.5502 -21.1338,-23.586 -33.689,-29.6489 -18.7337,-8.8882 -38.4967,-11.4675 -57.9434,-15.2959 -12.1123,-2.2658 -24.2921,-4.3076 -36.5281,-4.0876 z"
       id="path3970-36-4-2"
       inkscape:connector-curvature="0"
       sodipodi:nodetypes="cccsscc" />
    <path
       inkscape:connector-curvature="0"
       id="path3072-5-5"
       d="m 1869.3292,1763.0277 c -14.8181,-0.6595 -18.7264,-9.2129 -18.2181,-35.4706 0.5083,-26.2571 -6.2661,-24.362 -6.2661,-24.362 l -6.9729,16.6564 c 0,0 1.6221,55.3263 31.4571,43.1762 z"
       style="color:#000000;display:inline;overflow:visible;visibility:visible;fill:#ffffff;fill-opacity:1;fill-rule:nonzero;stroke:none;stroke-width:1px;marker:none;enable-background:accumulate"
       sodipodi:nodetypes="csccc" />
    <path
       sodipodi:nodetypes="cscsc"
       inkscape:connector-curvature="0"
       id="path912"
       d="m 908.19707,140.73428 c -23.27565,0.55056 -46.99555,0.87351 -69.41715,7.88874 -23.4538,7.34338 -44.8221,22.73166 -57.32193,44.11788 -13.00868,23.28208 -9.52548,54.15162 7.28144,74.63258 14.5161,17.54579 35.34829,29.06129 57.2524,34.58214 22.01365,5.74466 44.6452,9.69907 67.45675,9.61655 13.92648,0.043 27.83179,-1.54052 41.43298,-4.50964 17.72195,-3.50772 35.43285,-7.30564 52.68184,-12.72464 16.3677,-5.48131 32.4562,-13.56643 44.1239,-26.59384 11.079,-12.60043 16.2795,-30.23087 13.3196,-46.7977 -1.8137,-12.38081 -7.702,-24.45207 -17.5791,-32.36276 -25.7954,-23.48509 -58.75009,-38.45485 -92.95511,-44.58852 -15.25272,-2.7632 -30.8032,-3.399 -46.27562,-3.26079 z"
       style="fill:#ffffff;fill-rule:evenodd;stroke:none;stroke-width:0.977214px;stroke-linecap:butt;stroke-linejoin:miter;stroke-opacity:1" />
    <path
       d="m 796.38806,253.26629 c 0.0845,2.25192 3.22337,4.74593 5.59632,5.05268 0,0 2.54222,0.45596 4.60197,-0.0294 0.37769,0.0596 6.63382,-1.0982 6.49266,-8.21406 l -1.65193,-8.61638 c 0.8799,-0.15078 3.72125,-1.41287 4.59537,-1.88482 2.3984,-1.29588 3.40148,-3.09481 4.30471,-4.43007 0.99554,-1.99533 1.57431,-3.35461 1.49404,-5.49299 -0.20284,-5.40684 -5.56053,-9.6374 -11.96606,-9.44893 -0.92327,0.027 -1.81711,0.14337 -2.67218,0.34364 l -1.40556,-6.91288 c 4.18255,-4.19405 8.3894,-9.32211 9.69316,-13.94593 1.21966,-6.09324 0.37438,-10.16016 -3.52844,-11.79857 -3.5483,-0.58638 -7.67202,3.59985 -9.96921,9.539 -1.51792,3.17978 0.78995,9.10039 1.81806,11.52923 -6.68582,5.78015 -13.39541,9.98158 -13.74544,19.66914 0.28405,7.56986 7.78449,13.49206 16.75142,13.22833 0.85685,-0.0249 2.27271,-0.0503 3.87625,-0.27383 l 1.08192,8.62187 c 0,0 0.52789,6.31387 -5.14256,7.33829 -2.25047,0.4063 -4.41852,0.8642 -3.83799,-0.41876 1.73468,-0.82673 3.74257,-2.12294 3.66654,-4.15005 -0.0947,-2.52304 -2.4222,-4.50235 -5.1974,-4.42088 -2.7763,0.0816 -4.95043,2.1931 -4.85567,4.71688 z m 8.74333,-38.9876 1.31155,6.45899 c -4.6851,1.37342 -7.98364,5.19713 -7.81852,9.59637 0.1868,4.97811 7.3278,7.09238 7.09231,5.9165 -2.7876,-0.92016 -3.84883,-2.01554 -3.94967,-4.70289 -0.11403,-3.03841 2.25091,-5.66275 5.55369,-6.48738 l 3.11976,15.37696 c -0.56636,0.14694 -1.17858,0.27596 -1.84324,0.38361 -9.67167,0.12035 -14.37777,-4.08648 -14.66181,-11.65558 -0.15887,-4.2402 5.57542,-9.30577 11.19542,-14.88578 z m 6.04423,25.9464 -3.11013,-15.31735 c 0.3857,-0.0614 0.7833,-0.1022 1.18863,-0.11285 4.26961,-0.12605 7.84143,2.69482 7.97671,6.29862 0.0233,2.90225 0.0216,7.22552 -6.05512,9.13233 z m -6.60186,-32.24768 c -1.92855,-4.90906 -0.4462,-7.42733 0.50502,-9.35807 2.24834,-4.55803 4.3132,-6.25199 6.42367,-7.77212 2.8504,0.84884 1.829,7.52972 1.40618,7.54153 -1.1787,3.9583 -5.81842,7.21394 -8.33494,9.58867 z"
       inkscape:connector-curvature="0"
       style="clip-rule:evenodd;display:inline;fill:#000000;fill-rule:evenodd;stroke:none;stroke-width:0.138542"
       id="path11-7" />
    <path
       d="m 867.44282,251.78696 -1.0588,-0.0939 -2.7066,30.53809 c -0.6054,-0.3952 -1.6456,-0.70076 -2.6197,-0.78713 -3.4733,-0.30785 -7.57906,2.18835 -7.84556,5.19554 -0.1838,2.07546 1.71276,3.31074 3.66126,3.48342 4.0237,0.35663 7.9989,-2.10847 8.3891,-6.51344 l 1.8846,-21.26227 c 4.3186,1.36458 7.3192,5.55784 6.8838,10.47105 -0.3003,3.3884 -2.3527,6.79216 -3.4567,8.6581 l 1.1012,0.0975 c 2.3222,-3.08121 4.1586,-6.46151 4.4738,-10.01936 0.3529,-3.98136 -2.2343,-7.54033 -4.6193,-10.01419 -2.3846,-2.47374 -4.4475,-5.68748 -4.0872,-9.75356 z"
       style="font-style:normal;font-variant:normal;font-weight:normal;font-stretch:normal;font-size:45px;line-height:1.2;font-family:Lavi;-inkscape-font-specification:Lavi;text-align:center;letter-spacing:0px;word-spacing:0px;text-anchor:middle;fill:#000000;fill-opacity:1;stroke:#000000;stroke-width:0.5;stroke-miterlimit:4;stroke-dasharray:none;stroke-opacity:1"
       id="path44-7-5-6" />
    <path
       id="path46-3-5"
       style="font-style:normal;font-variant:normal;font-weight:normal;font-stretch:normal;font-size:45px;line-height:1.2;font-family:Lavi;-inkscape-font-specification:Lavi;text-align:center;letter-spacing:0px;word-spacing:0px;text-anchor:middle;fill:#000000;fill-opacity:1;stroke:#000000;stroke-width:0.5;stroke-miterlimit:4;stroke-dasharray:none;stroke-opacity:1"
       d="m 944.83322,290.08712 1.43255,-25.29947 -20.61273,2.21295 -1.36752,24.14772 c -0.50308,-0.39137 -1.36039,-0.71262 -2.15949,-0.8255 -2.84902,-0.40241 -6.16135,1.81205 -6.32103,4.63193 -0.11014,1.94614 1.46659,3.16967 3.06469,3.3954 3.30066,0.46622 6.50653,-1.72324 6.74039,-5.85377 l 1.12471,-19.85835 17.79266,-1.89059 -1.01879,17.9916 c -0.50316,-0.39133 -1.36039,-0.71261 -2.15964,-0.82546 -2.84887,-0.40241 -6.16129,1.81204 -6.32089,4.63191 -0.11014,1.94611 1.46643,3.16969 3.06463,3.39544 3.30058,0.46619 6.50642,-1.72325 6.74046,-5.85381 z" />
    <path
       d="m 863.25007,180.81942 1.43255,-25.29947 -20.61273,2.21295 -1.36752,24.14772 c -0.50308,-0.39137 -1.36039,-0.71262 -2.15949,-0.8255 -2.84902,-0.40241 -6.16135,1.81205 -6.32103,4.63193 -0.11014,1.94614 1.46659,3.16967 3.06469,3.3954 3.30066,0.46622 6.50653,-1.72324 6.74039,-5.85377 l 1.12471,-19.85835 17.79266,-1.89059 -1.01879,17.9916 c -0.50316,-0.39133 -1.36039,-0.71261 -2.15964,-0.82546 -2.84887,-0.40241 -6.16129,1.81204 -6.32089,4.63191 -0.11014,1.94611 1.46643,3.16969 3.06463,3.39544 3.30058,0.46619 6.50642,-1.72325 6.74046,-5.85381 z"
       style="font-style:normal;font-variant:normal;font-weight:normal;font-stretch:normal;font-size:45px;line-height:1.2;font-family:Lavi;-inkscape-font-specification:Lavi;text-align:center;letter-spacing:0px;word-spacing:0px;text-anchor:middle;fill:#000000;fill-opacity:1;stroke:#000000;stroke-width:0.5;stroke-miterlimit:4;stroke-dasharray:none;stroke-opacity:1"
       id="path46-3" />
    <path
       id="path44-7-5"
       style="font-style:normal;font-variant:normal;font-weight:normal;font-stretch:normal;font-size:45px;line-height:1.2;font-family:Lavi;-inkscape-font-specification:Lavi;text-align:center;letter-spacing:0px;word-spacing:0px;text-anchor:middle;fill:#000000;fill-opacity:1;stroke:#000000;stroke-width:0.5;stroke-miterlimit:4;stroke-dasharray:none;stroke-opacity:1"
       d="m 977.69881,154.87962 -1.0588,-0.0939 -2.7066,30.53809 c -0.6054,-0.3952 -1.6456,-0.70076 -2.6197,-0.78713 -3.4733,-0.30785 -7.5791,2.18835 -7.8456,5.19554 -0.1838,2.07546 1.7128,3.31074 3.6613,3.48342 4.0237,0.35663 7.9989,-2.10847 8.3891,-6.51344 l 1.8846,-21.26227 c 4.3186,1.36458 7.3192,5.55784 6.8838,10.47105 -0.3003,3.3884 -2.3527,6.79216 -3.4567,8.6581 l 1.1012,0.0975 c 2.3222,-3.08121 4.1586,-6.46151 4.4738,-10.01936 0.3529,-3.98136 -2.2343,-7.54033 -4.6193,-10.01419 -2.3846,-2.47374 -4.4475,-5.68748 -4.0872,-9.75356 z" />
    <path
       id="path46"
       style="font-style:normal;font-variant:normal;font-weight:normal;font-stretch:normal;font-size:45px;line-height:1.2;font-family:Lavi;-inkscape-font-specification:Lavi;text-align:center;letter-spacing:0px;word-spacing:0px;text-anchor:middle;fill:#000000;fill-opacity:1;stroke:#000000;stroke-width:0.5;stroke-miterlimit:4;stroke-dasharray:none;stroke-opacity:1"
       d="m 1043.226,240.93061 6.7692,-26.06469 -21.9412,-1.99287 -6.4611,24.87807 c -0.4426,-0.51273 -1.269,-1.02631 -2.0782,-1.31058 -2.8849,-1.0135 -6.7984,0.60328 -7.5529,3.50845 -0.5207,2.00499 0.8673,3.60883 2.4855,4.17736 3.3423,1.17417 7.1395,-0.43876 8.2447,-4.69422 l 5.3135,-20.45896 18.9353,1.74064 -4.8139,18.53579 c -0.4427,-0.51274 -1.269,-1.0263 -2.0783,-1.31058 -2.8847,-1.01349 -6.7983,0.60328 -7.5527,3.50845 -0.5207,2.00499 0.867,3.60883 2.4854,4.17738 3.3421,1.17415 7.1394,-0.43878 8.2447,-4.69424 z" />
    <path
       id="path44"
       style="font-style:normal;font-variant:normal;font-weight:normal;font-stretch:normal;font-size:45px;line-height:1.2;font-family:Lavi;-inkscape-font-specification:Lavi;text-align:center;letter-spacing:0px;word-spacing:0px;text-anchor:middle;fill:#000000;fill-opacity:1;stroke:#000000;stroke-width:0.5;stroke-miterlimit:4;stroke-dasharray:none;stroke-opacity:1"
       d="m 913.37793,149.3325 -1.12498,0.006 0.18516,32.44447 c -0.67705,-0.35614 -1.80332,-0.57472 -2.83829,-0.56881 -3.68994,0.0211 -7.76768,3.05937 -7.74944,6.25432 0.0126,2.20497 2.13396,3.31788 4.20394,3.30606 4.27493,-0.0244 8.21791,-3.01694 8.1912,-7.69687 l -0.12891,-22.5892 c 4.68583,1.00828 8.2644,5.12792 8.29419,10.34784 0.0205,3.59994 -1.80286,7.39041 -2.78103,9.46603 l 1.16998,-0.007 c 2.14019,-3.47727 3.73886,-7.22145 3.71728,-11.00139 -0.0241,-4.22992 -3.10412,-7.72241 -5.86268,-10.09171 -2.75858,-2.36929 -5.25176,-5.55012 -5.27642,-9.87005 z" />
    <path
       sodipodi:nodetypes="cscsscsccc"
       inkscape:connector-curvature="0"
       id="path4394-0"
       d="m 1113.2744,299.96481 c 0,0 3.063,-27.90595 -7.6203,-31.63419 -10.683,-3.7287 -32.8407,17.06726 -32.8407,17.06726 0,0 -4.2328,-35.76702 -33.0758,-39.94975 -28.8426,-4.18265 -50.06515,23.26878 -30.3165,23.73344 19.7488,0.46469 56.2297,-14.41714 53.5208,44.24271 30.2691,-35.37 30.9702,-30.37823 35.0639,-28.35596 4.0941,2.02189 7.6203,31.63418 8.1122,40.77952 20.8668,-26.16134 35.3887,-43.19442 63.4331,2.60979 -8.928,-28.53739 -32.8004,-52.752 -56.2767,-28.49282 z"
       style="display:inline;fill:#ffffff;fill-rule:evenodd;stroke:none;stroke-width:0.999994px;stroke-linecap:butt;stroke-linejoin:miter;stroke-opacity:1" />
  </g>
  <g
     inkscape:groupmode="layer"
     id="layer1"
     inkscape:label="txt">
    <text
       inkscape:label="pepperA"
       id="text4246-3-5-0"
       y="238.8701"
       x="909.37677"
       style="font-style:normal;font-variant:normal;font-weight:normal;font-stretch:normal;line-height:0%;font-family:Lavi;-inkscape-font-specification:Lavi;text-align:center;letter-spacing:0px;word-spacing:0px;text-anchor:middle;fill:#000000;fill-opacity:1;stroke:none"
       xml:space="preserve"><tspan
         id="tspan854"
         y="238.8701"
         x="916.40802"
         style="font-size:45px;line-height:1.20000005"
         sodipodi:role="line"> Tadaaa ! </tspan></text>
    <text
       inkscape:label="pepperB"
       xml:space="preserve"
       style="font-style:normal;font-variant:normal;font-weight:normal;font-stretch:normal;font-size:18.21629906px;line-height:0%;font-family:Lavi;-inkscape-font-specification:Lavi;text-align:center;letter-spacing:0px;word-spacing:0px;text-anchor:middle;fill:#000000;fill-opacity:1;stroke:none;stroke-width:1"
       x="299.1268"
       y="1969.3291"
       id="text4178-1"><tspan
         id="tspan4239-3"
         sodipodi:role="line"
         style="font-size:61.74840164px;line-height:1.25;stroke-width:1"
         x="299.1268"
         y="1969.3291">« Ĉi tio »</tspan></text>
    <text
       inkscape:label="pepperC"
       xml:space="preserve"
       style="font-style:normal;font-variant:normal;font-weight:normal;font-stretch:normal;font-size:47.49520111px;line-height:0%;font-family:Lavi;-inkscape-font-specification:Lavi;text-align:center;letter-spacing:0px;word-spacing:0px;text-anchor:middle;fill:#000000;fill-opacity:1;stroke:none;stroke-width:1"
       x="441.29425"
       y="2068.4534"
       id="text4178"><tspan
         sodipodi:role="line"
         style="font-size:47.49520111px;line-height:1.25;stroke-width:1"
         x="441.29425"
         y="2068.4534"
         id="tspan155">... estas mia</tspan><tspan
         sodipodi:role="line"
         style="font-size:47.49520111px;line-height:1.25;stroke-width:1"
         x="441.29425"
         y="2127.8223"
         id="tspan109">ĉefverko !</tspan></text>
    <text
       inkscape:label="pepperD"
       id="text4246-3-2"
       y="1102.634"
       x="985.08282"
       style="font-style:normal;font-variant:normal;font-weight:normal;font-stretch:normal;line-height:0%;font-family:Lavi;-inkscape-font-specification:Lavi;text-align:center;letter-spacing:0px;word-spacing:0px;text-anchor:middle;fill:#000000;fill-opacity:1;stroke:none"
       xml:space="preserve"><tspan
         y="1102.634"
         x="992.11407"
         style="font-size:45px;line-height:1.25"
         sodipodi:role="line"
         id="tspan125">	Ĝi estas malsimpla </tspan><tspan
         y="1158.884"
         x="992.11407"
         style="font-size:45px;line-height:1.25"
         sodipodi:role="line"
         id="tspan141">sorĉo, kiu modifas </tspan><tspan
         y="1215.134"
         x="985.08282"
         style="font-size:45px;line-height:1.25"
         sodipodi:role="line"
         id="tspan137">la realon por montri</tspan><tspan
         y="1271.384"
         x="985.08282"
         style="font-size:45px;line-height:1.25"
         sodipodi:role="line"
         id="tspan162">la restantajn vivpoentojn</tspan><tspan
         y="1327.634"
         x="985.08282"
         style="font-size:45px;line-height:1.25"
         sodipodi:role="line"
         id="tspan176">de via kontraŭulo.</tspan></text>
    <text
       inkscape:label="scoreA"
       xml:space="preserve"
       style="font-style:normal;font-variant:normal;font-weight:normal;font-stretch:normal;line-height:0%;font-family:Lavi;-inkscape-font-specification:Lavi;letter-spacing:3.03024px;word-spacing:0px;opacity:0.801401;fill:#fff4b7;fill-opacity:1;stroke:#aa7640;stroke-width:0.647169;stroke-miterlimit:4;stroke-dasharray:none;stroke-opacity:1;filter:url(#filter4375-4-1-1-1-9-5-8-8-3-3-3-6-1-6)"
       x="787.65729"
       y="1584.5073"
       id="text4580-6-0-0-3-3-8"
       transform="matrix(2.0001217,0.03992834,-0.03002348,1.9644063,-221.92656,-1785.196)"><tspan
         sodipodi:role="line"
         id="tspan4582-1-1-0-6-9-9"
         x="787.65729"
         y="1584.5073"
         style="font-style:normal;font-variant:normal;font-weight:bold;font-stretch:normal;font-size:64.9472px;line-height:1.25;font-family:Drukah;-inkscape-font-specification:'Drukah Bold';fill:#fff4b7;fill-opacity:1;stroke:#aa7640;stroke-width:0.647169;stroke-miterlimit:4;stroke-dasharray:none;stroke-opacity:1">33</tspan></text>
    <text
       inkscape:label="pepperE"
       xml:space="preserve"
       style="font-style:normal;font-variant:normal;font-weight:normal;font-stretch:normal;line-height:0%;font-family:Lavi;-inkscape-font-specification:Lavi;text-align:center;letter-spacing:0px;word-spacing:0px;text-anchor:middle;fill:#000000;fill-opacity:1;stroke:none"
       x="2040.4858"
       y="1070.1573"
       id="text4246-3-2-2"><tspan
         sodipodi:role="line"
         style="font-size:45px;line-height:1.25"
         x="2040.4858"
         y="1070.1573"
         id="tspan338">Kiam vi ne plu havas</tspan><tspan
         sodipodi:role="line"
         style="font-size:45px;line-height:1.25"
         x="2040.4858"
         y="1126.4073"
         id="tspan187">vivpoentojn, vi foriras</tspan><tspan
         sodipodi:role="line"
         style="font-size:45px;line-height:1.25"
         x="2047.5171"
         y="1182.6573"
         id="tspan189">de la batalejo ĝis la fino </tspan><tspan
         sodipodi:role="line"
         style="font-size:45px;line-height:1.25"
         x="2040.4858"
         y="1238.9073"
         id="tspan191">de la batalo.</tspan></text>
    <text
       inkscape:label="pepperF"
       id="text4246-3-2-2-9"
       y="1312.8668"
       x="2076.2854"
       style="font-style:normal;font-variant:normal;font-weight:normal;font-stretch:normal;line-height:0%;font-family:Lavi;-inkscape-font-specification:Lavi;text-align:center;letter-spacing:0px;word-spacing:0px;text-anchor:middle;fill:#000000;fill-opacity:1;stroke:none"
       xml:space="preserve"><tspan
         y="1312.8668"
         x="2076.2854"
         style="font-size:45px;line-height:1.25"
         sodipodi:role="line"
         id="tspan200">La unua armeo, kiu</tspan><tspan
         y="1369.1168"
         x="2076.2854"
         style="font-size:45px;line-height:1.25"
         sodipodi:role="line"
         id="tspan4622">forigos ĉiujn siajn</tspan><tspan
         y="1425.3668"
         x="2076.2854"
         style="font-size:45px;line-height:1.25"
         sodipodi:role="line"
         id="tspan4618">kontraŭulojn, gajnos !</tspan></text>
    <text
       inkscape:label="pepperG"
       xml:space="preserve"
       style="font-style:normal;font-variant:normal;font-weight:normal;font-stretch:normal;line-height:0%;font-family:Lavi;-inkscape-font-specification:Lavi;text-align:center;letter-spacing:0px;word-spacing:0px;text-anchor:middle;fill:#000000;fill-opacity:1;stroke:none"
       x="2205.7058"
       y="1525.3315"
       id="text4246-3-2-2-9-6"><tspan
         id="tspan371-1"
         sodipodi:role="line"
         style="font-size:45px;line-height:1.25"
         x="2205.7058"
         y="1525.3315">Facile.</tspan></text>
    <text
       inkscape:label="scoreB"
       xml:space="preserve"
       style="font-style:normal;font-variant:normal;font-weight:normal;font-stretch:normal;line-height:0%;font-family:Lavi;-inkscape-font-specification:Lavi;letter-spacing:2.67495px;word-spacing:0px;fill:#b5ffe1;fill-opacity:1;stroke:#316983;stroke-width:1.28309;stroke-miterlimit:4;stroke-dasharray:none;stroke-opacity:1;filter:url(#filter4375-4-1-1-1-9-5-8-8-3-3-7-4-1)"
       x="787.65729"
       y="1584.5073"
       id="text4580-6-0-0-3-36-4-4"
       transform="matrix(0.95527462,-0.04371269,-0.01433947,1.0473354,1179.3925,26.934268)"><tspan
         sodipodi:role="line"
         id="tspan4582-1-1-0-6-1-3-8"
         x="787.65729"
         y="1584.5073"
         style="font-style:normal;font-variant:normal;font-weight:bold;font-stretch:normal;font-size:69.5991px;line-height:1.25;font-family:Lavi;-inkscape-font-specification:'Lavi Bold';fill:#b5ffe1;fill-opacity:1;stroke:#316983;stroke-width:1.28309;stroke-miterlimit:4;stroke-dasharray:none;stroke-opacity:1">0</tspan></text>
    <text
       inkscape:label="warrior"
       id="text4246-3-7-7-6-7-2-9-6-1-4"
       y="1747.6428"
       x="1813.559"
       style="font-style:normal;font-variant:normal;font-weight:normal;font-stretch:normal;font-size:11.2438px;line-height:0%;font-family:Lavi;-inkscape-font-specification:Lavi;text-align:center;letter-spacing:0px;word-spacing:0px;text-anchor:middle;fill:#000000;fill-opacity:1;stroke:none;stroke-width:0.999999"
       xml:space="preserve"
       transform="scale(1.0185461,0.98179161)"><tspan
         id="tspan1183-0"
         y="1747.6428"
         x="1813.559"
         style="font-style:normal;font-variant:normal;font-weight:normal;font-stretch:normal;font-size:42.1643px;line-height:1.2;font-family:Lavi;-inkscape-font-specification:Lavi;stroke-width:0.999999"
         sodipodi:role="line">?</tspan></text>
    <text
       inkscape:label="pepperH"
       id="text4178-1-8"
       y="2418.4695"
       x="667.75519"
       style="font-style:normal;font-variant:normal;font-weight:normal;font-stretch:normal;font-size:53.33330154px;line-height:0%;font-family:Lavi;-inkscape-font-specification:Lavi;text-align:center;letter-spacing:0px;word-spacing:0px;text-anchor:middle;fill:#000000;fill-opacity:1;stroke:none;stroke-width:1"
       xml:space="preserve"><tspan
         y="2418.4695"
         x="667.75519"
         style="font-size:53.33330154px;line-height:1.25;stroke-width:1"
         sodipodi:role="line"
         id="tspan450">Ĉu ne estas</tspan><tspan
         y="2485.1362"
         x="667.75519"
         style="font-size:53.33330154px;line-height:1.25;stroke-width:1"
         sodipodi:role="line"
         id="tspan208">bonege ?</tspan></text>
    <text
       inkscape:label="pepperI"
       id="text4246-7-6-1-7-6-3-5-6-4"
       y="2452.9026"
       x="1503.0603"
       style="font-style:normal;font-variant:normal;font-weight:normal;font-stretch:normal;line-height:0%;font-family:Lavi;-inkscape-font-specification:Lavi;text-align:center;letter-spacing:0px;word-spacing:0px;text-anchor:middle;display:inline;fill:#000000;fill-opacity:1;stroke:none"
       xml:space="preserve"><tspan
         id="tspan990"
         y="2452.9026"
         x="1503.0603"
         style="font-size:45px;line-height:1.25"
         sodipodi:role="line">Neniu mortos !</tspan></text>
    <text
       inkscape:label="pepperJ"
       xml:space="preserve"
       style="font-style:normal;font-variant:normal;font-weight:normal;font-stretch:normal;line-height:0%;font-family:Lavi;-inkscape-font-specification:Lavi;text-align:center;letter-spacing:0px;word-spacing:0px;text-anchor:middle;display:inline;fill:#000000;fill-opacity:1;stroke:none"
       x="1636.9469"
       y="2566.5688"
       id="text4246-7-6-1-7-6-3-5-6-4-2"><tspan
         sodipodi:role="line"
         style="font-size:45px;line-height:1.25"
         x="1636.9469"
         y="2566.5688"
         id="tspan4634">Neniu estos</tspan><tspan
         sodipodi:role="line"
         style="font-size:45px;line-height:1.25"
         x="1636.9469"
         y="2622.8188"
         id="tspan4621">vundita !</tspan></text>
    <text
       inkscape:label="pepperK"
       id="text4246-7-6-1-7-6-3-5-6-4-2-7"
       y="2715.7639"
       x="1826.6064"
       style="font-style:normal;font-variant:normal;font-weight:normal;font-stretch:normal;line-height:0%;font-family:Lavi;-inkscape-font-specification:Lavi;text-align:center;letter-spacing:0px;word-spacing:0px;text-anchor:middle;display:inline;fill:#000000;fill-opacity:1;stroke:none"
       xml:space="preserve"><tspan
         id="tspan946"
         y="2715.7639"
         x="1833.6377"
         style="font-style:normal;font-variant:normal;font-weight:normal;font-stretch:normal;font-size:45px;line-height:1.25;font-family:Lavi;-inkscape-font-specification:Lavi"
         sodipodi:role="line">Ĝi revolucios </tspan><tspan
         y="2772.0139"
         x="1833.6377"
         style="font-style:normal;font-variant:normal;font-weight:normal;font-stretch:normal;font-size:45px;line-height:1.25;font-family:Lavi;-inkscape-font-specification:Lavi"
         sodipodi:role="line"
         id="tspan219">nian manieron konduki </tspan><tspan
         y="2828.2639"
         x="1826.6064"
         style="font-style:normal;font-variant:normal;font-weight:normal;font-stretch:normal;font-size:45px;line-height:1.25;font-family:Lavi;-inkscape-font-specification:Lavi"
         sodipodi:role="line"
         id="tspan225">militojn !</tspan></text>
  </g>
</svg>
