<?xml version="1.0" encoding="UTF-8" standalone="no"?>
<!-- Created with Inkscape (http://www.inkscape.org/) -->

<svg
   xmlns:dc="http://purl.org/dc/elements/1.1/"
   xmlns:cc="http://creativecommons.org/ns#"
   xmlns:rdf="http://www.w3.org/1999/02/22-rdf-syntax-ns#"
   xmlns:svg="http://www.w3.org/2000/svg"
   xmlns="http://www.w3.org/2000/svg"
   xmlns:xlink="http://www.w3.org/1999/xlink"
   xmlns:sodipodi="http://sodipodi.sourceforge.net/DTD/sodipodi-0.dtd"
   xmlns:inkscape="http://www.inkscape.org/namespaces/inkscape"
   id="svg2"
   version="1.1"
   inkscape:version="0.92.3 (2405546, 2018-03-11)"
   width="2481"
   height="2479"
   sodipodi:docname="E05P05.svg">
  <metadata
     id="metadata8">
    <rdf:RDF>
      <cc:Work
         rdf:about="">
        <dc:format>image/svg+xml</dc:format>
        <dc:type
           rdf:resource="http://purl.org/dc/dcmitype/StillImage" />
        <dc:title />
      </cc:Work>
    </rdf:RDF>
  </metadata>
  <defs
     id="defs6" />
  <sodipodi:namedview
     pagecolor="#ffffff"
     bordercolor="#666666"
     borderopacity="1"
     objecttolerance="10"
     gridtolerance="10"
     guidetolerance="10"
     inkscape:pageopacity="0"
     inkscape:pageshadow="2"
     inkscape:window-width="1366"
     inkscape:window-height="715"
     id="namedview4"
     showgrid="false"
     inkscape:zoom="0.30757703"
     inkscape:cx="1270.5837"
     inkscape:cy="587.4793"
     inkscape:window-x="-8"
     inkscape:window-y="-8"
     inkscape:window-maximized="1"
     inkscape:current-layer="layer2"
     inkscape:object-nodes="true" />
  <g
     inkscape:groupmode="layer"
     id="layer1"
     inkscape:label="artwork"
     style="display:inline"
     sodipodi:insensitive="true">
    <image
       sodipodi:absref="G:\Aslan's Works &amp; Design Projects\2. Personal Projects\3. Translation Projects\1. Pepper &amp; Carrot Translation Project\Episode 5\lang\fa\../gfx_Pepper-and-Carrot_by-David-Revoy_E05P05.png"
       xlink:href="../gfx_Pepper-and-Carrot_by-David-Revoy_E05P05.png"
       y="0"
       x="0"
       id="image10"
       height="2479"
       width="2481" />
  </g>
  <g
     inkscape:groupmode="layer"
     id="layer3"
     inkscape:label="speechbubbles"
     style="display:inline">
    <path
       style="fill:#ffffff;stroke:none"
       d="m -2021.8885,646.19917 c 1.0628,-51.0158 26.5707,-103.09442 170.0526,-112.65988 143.4819,-9.56546 203.0004,48.89014 207.2517,90.34047 4.2513,41.45033 -82.9007,96.71744 -162.6129,97.78027 -79.7121,1.06282 -214.6914,-11.69112 -214.6914,-75.46086 z"
       id="path4279"
       inkscape:connector-curvature="0" />
    <path
       style="fill:#ffffff;stroke:none"
       d="m -1788.0661,898.08964 c 70.1467,-44.63882 88.2148,-124.35099 45.7016,-190.24639 -42.5132,-65.8954 -82.9007,-54.20428 -82.9007,-54.20428 l 35.0734,41.45033 c 0,0 97.7803,97.78027 2.1257,203.00034 z"
       id="path4281"
       inkscape:connector-curvature="0"
       sodipodi:nodetypes="csccc" />
  </g>
  <g
     inkscape:groupmode="layer"
     id="layer2"
     inkscape:label="text"
     style="display:inline">
    <flowRoot
       xml:space="preserve"
       id="flowRoot3027"
       style="font-style:normal;font-variant:normal;font-weight:normal;font-stretch:normal;line-height:0.01%;font-family:Arial;-inkscape-font-specification:Arial;text-align:center;letter-spacing:0px;word-spacing:0px;text-anchor:middle;fill:#000000;fill-opacity:1;stroke:none"
       transform="matrix(1.2334095,0,0,1.2851851,-449.14577,-145.56864)"><flowRegion
         id="flowRegion3029"><rect
           id="rect3031"
           width="2475.8752"
           height="241.27675"
           x="135.21135"
           y="219.33444"
           style="text-align:center;text-anchor:middle" /></flowRegion><flowPara
         id="flowPara3033"
         style="font-size:12px;line-height:1.25"> </flowPara><flowPara
         style="font-style:normal;font-variant:normal;font-weight:normal;font-stretch:normal;font-size:63.54092026px;line-height:1.25;font-family:Midan;-inkscape-font-specification:Midan;text-align:center;direction:rtl;text-anchor:middle"
         id="flowPara4198">فلفل و هویج کاملا رایگان و به صورت متن باز می باشد. این قسمت از کمیک با کمک 170 حامی تهیه شدہ است:</flowPara></flowRoot>    <flowRoot
       xml:space="preserve"
       id="flowRoot3027-8-8"
       style="font-style:normal;font-variant:normal;font-weight:normal;font-stretch:normal;line-height:0.01%;font-family:Arial;-inkscape-font-specification:Arial;text-align:center;letter-spacing:0px;word-spacing:0px;text-anchor:middle;fill:#a72f14;fill-opacity:1;stroke:none"
       transform="matrix(1.2234224,0,0,1.2506407,-276.36797,1508.1828)"><flowRegion
         id="flowRegion3029-9-3"><rect
           id="rect3031-9-1"
           width="2230.314"
           height="376.21677"
           x="135.21135"
           y="219.33444"
           style="text-align:center;text-anchor:middle;fill:#a72f14;fill-opacity:1" /></flowRegion><flowPara
         id="flowPara3033-3-0"
         style="font-size:12px;line-height:1.25"> </flowPara><flowPara
         style="font-style:normal;font-variant:normal;font-weight:normal;font-stretch:normal;font-size:101.05446625px;line-height:1.25;font-family:Midan;-inkscape-font-specification:Midan;text-align:center;text-anchor:middle;fill:#a72f14;fill-opacity:1"
         id="flowPara3067-4">https://www.patreon.com/davidrevoy</flowPara></flowRoot>    <flowRoot
       xml:space="preserve"
       id="flowRoot3027-8-8-2-8"
       style="font-style:normal;font-variant:normal;font-weight:normal;font-stretch:normal;line-height:0.01%;font-family:Arial;-inkscape-font-specification:Arial;text-align:center;letter-spacing:0px;word-spacing:0px;text-anchor:middle;fill:#000000;fill-opacity:1;stroke:none"
       transform="matrix(0.78840156,0,0,0.74225951,261.21518,1979.6051)"><flowRegion
         id="flowRegion3029-9-3-5-1"><rect
           id="rect3031-9-1-6-8"
           width="2230.314"
           height="376.21677"
           x="135.21135"
           y="219.33444"
           style="text-align:center;text-anchor:middle" /></flowRegion><flowPara
         style="font-style:normal;font-variant:normal;font-weight:normal;font-stretch:normal;font-size:78.43314362px;line-height:100%;font-family:Midan;-inkscape-font-specification:Midan;text-align:center;direction:rtl;text-anchor:middle"
         id="flowPara3279">ابزار: این قسمت با استفادہ از ابزارهای طراحی کاملا رایگان و متن باز مانند Krita, Gmic, Blender, </flowPara><flowPara
         style="font-style:normal;font-variant:normal;font-weight:normal;font-stretch:normal;font-size:78.43314362px;line-height:100%;font-family:Midan;-inkscape-font-specification:Midan;text-align:center;direction:rtl;text-anchor:middle"
         id="flowPara4230">Gimp on Ubunto (Gnu / Linux) تهیه شدہ است. </flowPara><flowPara
         style="font-style:normal;font-variant:normal;font-weight:normal;font-stretch:normal;font-size:78.43314362px;line-height:100%;font-family:Midan;-inkscape-font-specification:Midan;text-align:center;direction:rtl;text-anchor:middle"
         id="flowPara4228"> </flowPara><flowPara
         style="font-style:normal;font-variant:normal;font-weight:normal;font-stretch:normal;font-size:78.43314362px;line-height:1.25;font-family:Lavi;-inkscape-font-specification:Lavi;text-align:center;direction:rtl;text-anchor:middle"
         id="flowPara3233-6"> </flowPara></flowRoot>    <flowRoot
       xml:space="preserve"
       id="flowRoot3027-8-8-2-8-6"
       style="font-style:normal;font-variant:normal;font-weight:normal;font-stretch:normal;line-height:0.01%;font-family:Arial;-inkscape-font-specification:Arial;text-align:center;letter-spacing:0px;word-spacing:0px;text-anchor:middle;display:inline;fill:#000000;fill-opacity:1;stroke:none"
       transform="matrix(0.78840156,0,0,0.75010368,194.99658,1898.1383)"><flowRegion
         id="flowRegion3029-9-3-5-1-2"><rect
           id="rect3031-9-1-6-8-7"
           width="2230.314"
           height="376.21677"
           x="135.21135"
           y="219.33444"
           style="text-align:center;text-anchor:middle" /></flowRegion><flowPara
         id="flowPara3033-3-0-2-4-3"
         style="font-size:12px;line-height:1.25;direction:rtl"> </flowPara><flowPara
         style="font-style:normal;font-variant:normal;font-weight:normal;font-stretch:normal;font-size:78.02196503px;line-height:100%;font-family:Midan;-inkscape-font-specification:Midan;text-align:center;text-anchor:middle;direction:rtl"
         id="flowPara3278">متن باز: فایل های اصلی لایه ای با کیفیت بالا برای پرینت و همچنین فونت ها برای دانلود در دسترس هستن.</flowPara><flowPara
         style="font-style:normal;font-variant:normal;font-weight:normal;font-stretch:normal;font-size:78.02196503px;line-height:1.25;font-family:Lavi;-inkscape-font-specification:Lavi;text-align:center;text-anchor:middle;direction:rtl"
         id="flowPara3233-6-14"> </flowPara></flowRoot>    <flowRoot
       xml:space="preserve"
       id="flowRoot3027-8-8-2-8-6-3"
       style="font-style:normal;font-variant:normal;font-weight:normal;font-stretch:normal;line-height:0.01%;font-family:Arial;-inkscape-font-specification:Arial;text-align:center;letter-spacing:0px;word-spacing:0px;text-anchor:middle;display:inline;fill:#000000;fill-opacity:1;stroke:none"
       transform="matrix(0.78840156,0,0,0.77665473,260.20422,1762.8709)"><flowRegion
         id="flowRegion3029-9-3-5-1-2-8"><rect
           id="rect3031-9-1-6-8-7-4"
           width="2230.314"
           height="376.21677"
           x="135.21135"
           y="219.33444"
           style="text-align:center;text-anchor:middle" /></flowRegion><flowPara
         id="flowPara3033-3-0-2-4-3-2"
         style="font-size:12px;line-height:1.25;direction:rtl"> </flowPara><flowPara
         style="font-style:normal;font-variant:normal;font-weight:normal;font-stretch:normal;font-size:76.67671967px;line-height:100%;font-family:Midan;-inkscape-font-specification:Midan;text-align:center;direction:rtl;text-anchor:middle"
         id="flowPara3318">مجوز: 4.0 Creative Commons با ارجاع دادن به David Revoy</flowPara><flowPara
         style="font-style:normal;font-variant:normal;font-weight:normal;font-stretch:normal;font-size:76.67671967px;line-height:100%;font-family:Midan;-inkscape-font-specification:Midan;text-align:center;direction:rtl;text-anchor:middle"
         id="flowPara4220">شما می توانید در این کامیک تغییراتی ایجاد کنید، مطالب و طراحی ها را اخذ کنید، بفروشید و ... </flowPara><flowPara
         style="font-style:normal;font-variant:normal;font-weight:normal;font-stretch:normal;font-size:76.67671967px;line-height:1.25;font-family:Lavi;-inkscape-font-specification:Lavi;text-align:center;direction:rtl;text-anchor:middle"
         id="flowPara3233-6-14-6"> </flowPara></flowRoot>    <flowRoot
       xml:space="preserve"
       id="flowRoot2987"
       style="font-style:normal;font-variant:normal;font-weight:normal;font-stretch:normal;line-height:0.01%;font-family:Arial;-inkscape-font-specification:Arial;letter-spacing:0px;word-spacing:0px;display:inline;fill:#000000;fill-opacity:1;stroke:none"
       transform="matrix(0.79948741,0,0,0.86106098,239.30369,50.57978)"><flowRegion
         id="flowRegion2989"><rect
           id="rect2991"
           width="2786.8591"
           height="1869.5419"
           x="-141.0901"
           y="266.68515" /></flowRegion><flowPara
         style="font-style:normal;font-variant:normal;font-weight:normal;font-stretch:normal;font-size:72.3150177px;line-height:100%;font-family:Midan;-inkscape-font-specification:Midan;text-align:center;writing-mode:lr-tb;text-anchor:middle"
         id="flowPara3238">Addison Lewis - Adrian Lord - Alan Hardman - Albert Westra - Alejandro Flores Prieto - Aleš Tome<flowSpan
   style="font-size:54.23625946px"
   id="flowSpan4232">č</flowSpan>ek - Alexander Bülow Tomassen - Alexander Sopicki - Alex Lusco - Alex Silver - Alex Vandiver - Alfredo - Ali Poulton (Aunty Pol) - Allan Zieser  Andreas Rieger - Andrej Kwadrin - Andrew - Andrew Godfrey - Andrey Alekseenko - Angela K - Anna Orlova - anonymous   Antan Karmola - Ardash Crowfoot - Arne Brix - Aslak Kjølås-Sæverud - Axel Bordelon - Axel Philipsenburg - barbix - Ben Evans      - Bernd - Boonsak Watanavisit - Boudewijn Rempt - Brett Smith - Brian Behnke - carlos levischi - Charlotte Lacombe-bar   Chris Radcliff - Chris Sakkas - Christophe Carré - Christopher Bates - Clara Dexter - Colby Driedger - Conway Scott Smith  Cyrille Largillier - Cyril Paciullo - Damien - Daniel - Daniel Björkman - david - Dmitry - Donald Hayward - Eitan Goldshtrom  Enrico Billich - -epsilon- - Eric Schulz - Frederico - Garret Patterson - GreenAngel5 - Guillaume - Gustav Strömbom  </flowPara><flowPara
         style="font-style:normal;font-variant:normal;font-weight:normal;font-stretch:normal;font-size:72.3150177px;line-height:100%;font-family:Midan;-inkscape-font-specification:Midan;text-align:center;writing-mode:lr-tb;text-anchor:middle"
         id="flowPara3223">Guy Davis - Happy Mimic - Helmar Suschka - Ilyas Akhmedov - Inga Huang - Irene C. - Ivan Korotkov - James Frazier - Jared Tritsch - JDB - Jean-Baptiste Hebbrecht - Jeffrey Schneider - Jessey Wright - John - John - Jónatan Nilsson - Jonathan Leroy   Jon Brake - Joseph Bowman - Jurgo van den Elzen - Justin Diehl - Kai-Ting (Danil) Ko - Kasper Hansen - Kathryn Wuerstl </flowPara><flowPara
         style="font-style:normal;font-variant:normal;font-weight:normal;font-stretch:normal;font-size:72.3150177px;line-height:100%;font-family:Midan;-inkscape-font-specification:Midan;text-align:center;writing-mode:lr-tb;text-anchor:middle"
         id="flowPara3225">Ken Mingyuan Xia - Liselle - Lorentz Grip - MacCoy - Magnus Kronnäs - Mandy Streisel - marcus - Martin Owens </flowPara><flowPara
         style="font-style:normal;font-variant:normal;font-weight:normal;font-stretch:normal;font-size:72.3150177px;line-height:100%;font-family:Midan;-inkscape-font-specification:Midan;text-align:center;writing-mode:lr-tb;text-anchor:middle"
         id="flowPara3227"> Mary Brownlee - Masked Admirer - Mathias Stærk - mattscribbles - Maurice-Marie Stromer - mefflin ross bullis-bates </flowPara><flowPara
         style="font-style:normal;font-variant:normal;font-weight:normal;font-stretch:normal;font-size:72.3150177px;line-height:100%;font-family:Midan;-inkscape-font-specification:Midan;text-align:center;writing-mode:lr-tb;text-anchor:middle"
         id="flowPara3229"> Michael Gill - Michelle Pereira Garcia - Mike Mosher - Morten Hellesø Johansen - Muzyka Dmytro - Nazhif - Nicholas DeLateur  Nick Allott - Nicki Aya - Nicola Angel - Nicolae Berbece - Nicole Heersema - Noble Hays - Nora Czaykowski - Nyx </flowPara><flowPara
         style="font-style:normal;font-variant:normal;font-weight:normal;font-stretch:normal;font-size:72.3150177px;line-height:100%;font-family:Midan;-inkscape-font-specification:Midan;text-align:center;writing-mode:lr-tb;text-anchor:middle"
         id="flowPara3231">Olivier Amrein - Olivier Brun - Omar Willey - Oscar Moreno - Öykü Su Gürler - Ozone S. - Paul - Paul - Pavel Semenov</flowPara><flowPara
         style="font-style:normal;font-variant:normal;font-weight:normal;font-stretch:normal;font-size:72.3150177px;line-height:100%;font-family:Midan;-inkscape-font-specification:Midan;text-align:center;writing-mode:lr-tb;text-anchor:middle"
         id="flowPara3235"> Peter - Peter Moonen - Petr Vlašic - Pierre Geier - Pierre Vuillemin - Pranab Shenoy - Rajul Gupta - Ret Samys - rictic </flowPara><flowPara
         style="font-style:normal;font-variant:normal;font-weight:normal;font-stretch:normal;font-size:72.3150177px;line-height:100%;font-family:Midan;-inkscape-font-specification:Midan;text-align:center;writing-mode:lr-tb;text-anchor:middle"
         id="flowPara3237">RJ van der Weide - Roberto Zaghis - Roman - Rumiko Hoshino - Rustin Simons - Sally Bridgewater - Sami T - Samuel Mitson Scott Russ - Sean Adams   Shadefalcon - Shane Lopez - Shawn Meyer - Sigmundur Þórir Jónsson - Simon Forster </flowPara><flowPara
         style="font-style:normal;font-variant:normal;font-weight:normal;font-stretch:normal;font-size:72.3150177px;line-height:100%;font-family:Midan;-inkscape-font-specification:Midan;text-align:center;writing-mode:lr-tb;text-anchor:middle"
         id="flowPara3239">Simon Isenberg - Sonny W. - Stanislav Vodetskyi - Stephen Bates - Steven Bennett - Stuart Dickson - surt - Tadamichi Ohkubo tar8156 - TheFaico - Thomas Schwery - Tracey Reuben - Travis Humble - tree - Vespertinus - Victoria - Vlad Tomash </flowPara><flowPara
         style="font-style:normal;font-variant:normal;font-weight:normal;font-stretch:normal;font-size:72.3150177px;line-height:100%;font-family:Midan;-inkscape-font-specification:Midan;text-align:center;writing-mode:lr-tb;text-anchor:middle"
         id="flowPara3241"> Westen Curry - Xavier Claude - Yalyn Vinkindo - <flowSpan
   style="font-size:54.23625946px"
   id="flowSpan4202"> Алексей - Глеб Бузало - 獨孤欣 &amp; 獨弧悦</flowSpan></flowPara><flowPara
         style="font-style:normal;font-variant:normal;font-weight:normal;font-stretch:normal;font-size:72.3150177px;line-height:150%;font-family:Midan;-inkscape-font-specification:Midan;text-align:center;writing-mode:lr-tb;text-anchor:middle"
         id="flowPara3230"> </flowPara><flowPara
         style="font-style:normal;font-variant:normal;font-weight:normal;font-stretch:normal;font-size:72.3150177px;line-height:150%;font-family:Midan;-inkscape-font-specification:Midan;text-align:center;writing-mode:lr-tb;text-anchor:middle"
         id="flowPara3232"> </flowPara><flowPara
         style="font-style:normal;font-variant:normal;font-weight:normal;font-stretch:normal;font-size:72.3150177px;line-height:150%;font-family:Midan;-inkscape-font-specification:Midan;text-align:center;writing-mode:lr-tb;text-anchor:middle"
         id="flowPara3234"> </flowPara><flowPara
         style="font-style:normal;font-variant:normal;font-weight:normal;font-stretch:normal;font-size:72.3150177px;line-height:150%;font-family:Midan;-inkscape-font-specification:Midan;text-align:center;writing-mode:lr-tb;text-anchor:middle"
         id="flowPara3236"> </flowPara></flowRoot>    <flowRoot
       xml:space="preserve"
       id="flowRoot3027-8-8-2"
       style="font-style:normal;font-variant:normal;font-weight:normal;font-stretch:normal;line-height:0.01%;font-family:Arial;-inkscape-font-specification:Arial;text-align:center;letter-spacing:0px;word-spacing:0px;text-anchor:middle;display:inline;fill:#000000;fill-opacity:1;stroke:none"
       transform="matrix(0.91226779,0,0,0.94129239,139.32989,1466.5094)"><flowRegion
         id="flowRegion3029-9-3-5"><rect
           id="rect3031-9-1-6"
           width="2230.314"
           height="376.21677"
           x="135.21135"
           y="219.33444"
           style="text-align:center;text-anchor:middle" /></flowRegion><flowPara
         style="font-style:normal;font-variant:normal;font-weight:normal;font-stretch:normal;font-size:75.53958893px;line-height:100%;font-family:Midan;-inkscape-font-specification:Midan;text-align:center;direction:rtl;text-anchor:middle"
         id="flowPara3340">از این پروژہ حمایت کنید!</flowPara><flowPara
         style="font-style:normal;font-variant:normal;font-weight:normal;font-stretch:normal;font-size:75.53958893px;line-height:100%;font-family:Midan;-inkscape-font-specification:Midan;text-align:center;direction:rtl;text-anchor:middle"
         id="flowPara4210">حتی یک دلار هم برای هر قسمت خیلی با ارزشه!</flowPara></flowRoot>  </g>
</svg>
