<?xml version="1.0" encoding="UTF-8" standalone="no"?>
<svg
   xmlns:dc="http://purl.org/dc/elements/1.1/"
   xmlns:cc="http://creativecommons.org/ns#"
   xmlns:rdf="http://www.w3.org/1999/02/22-rdf-syntax-ns#"
   xmlns:svg="http://www.w3.org/2000/svg"
   xmlns="http://www.w3.org/2000/svg"
   xmlns:xlink="http://www.w3.org/1999/xlink"
   xmlns:sodipodi="http://sodipodi.sourceforge.net/DTD/sodipodi-0.dtd"
   xmlns:inkscape="http://www.inkscape.org/namespaces/inkscape"
   id="svg2"
   version="1.1"
   inkscape:version="0.92.4 (5da689c313, 2019-01-14)"
   width="2481"
   height="3503"
   sodipodi:docname="E34P05.svg">
  <metadata
     id="metadata8">
    <rdf:RDF>
      <cc:Work
         rdf:about="">
        <dc:format>image/svg+xml</dc:format>
        <dc:type
           rdf:resource="http://purl.org/dc/dcmitype/StillImage" />
        <dc:title />
      </cc:Work>
    </rdf:RDF>
  </metadata>
  <defs
     id="defs6">
    <filter
       style="color-interpolation-filters:sRGB"
       id="filter4375-4-1-1-1-9-5-8-8-5-5-3-3"
       inkscape:label="soundFX1">
      <feFlood
         id="feFlood4377-7-9-0-8-1-7-3-1-2-7-6-6"
         flood-opacity="1"
         flood-color="rgb(52,52,52)"
         result="flood" />
      <feComposite
         id="feComposite4379-3-8-8-2-77-4-1-0-6-4-7-7"
         in2="SourceGraphic"
         in="flood"
         operator="in"
         result="composite1"
         baseFrequency="0.053999999999999999 0.053999999999999999" />
      <feMorphology
         id="feMorphology4393-1-0-49-8-9-3-0-1-9-9-5-5"
         operator="dilate"
         radius="4.0330969769021738"
         result="result3" />
      <feComposite
         id="feComposite4385-9-5-7-0-8-8-7-5-4-9-3-3"
         in2="result3"
         in="SourceGraphic"
         operator="over"
         result="fbSourceGraphic" />
      <feColorMatrix
         result="fbSourceGraphicAlpha"
         in="fbSourceGraphic"
         values="0 0 0 -1 0 0 0 0 -1 0 0 0 0 -1 0 0 0 0 1 0"
         id="feColorMatrix4544-9-4-4-5-5" />
      <feTurbulence
         id="feTurbulence4546-3-6-5-6-6"
         type="fractalNoise"
         numOctaves="4"
         seed="147"
         baseFrequency="0.053999999999999999 0.054054054054054057"
         result="turbulence" />
      <feDisplacementMap
         id="feDisplacementMap4548-8-0-9-2-2"
         in2="turbulence"
         in="fbSourceGraphic"
         scale="10.561763"
         yChannelSelector="G"
         xChannelSelector="R"
         result="fbSourceGraphic" />
      <feColorMatrix
         result="fbSourceGraphicAlpha"
         in="fbSourceGraphic"
         values="0 0 0 -1 0 0 0 0 -1 0 0 0 0 -1 0 0 0 0 1 0"
         id="feColorMatrix4670-7-7-3-9-9" />
      <feFlood
         id="feFlood4672-4-4-5-1-1"
         flood-opacity="1"
         flood-color="rgb(28,28,28)"
         result="flood"
         in="fbSourceGraphic" />
      <feComposite
         id="feComposite4674-8-3-7-2-2"
         in2="fbSourceGraphic"
         in="flood"
         operator="in"
         result="composite1" />
      <feGaussianBlur
         id="feGaussianBlur4676-3-7-08-7-7"
         in="composite1"
         stdDeviation="0"
         result="blur" />
      <feOffset
         id="feOffset4678-6-9-1-0-0"
         dx="-10.48377497279229"
         dy="0.39217365321829334"
         result="offset" />
      <feComposite
         id="feComposite4680-4-0-9-9-9"
         in2="offset"
         in="fbSourceGraphic"
         operator="over"
         result="composite2" />
    </filter>
    <filter
       inkscape:collect="always"
       style="color-interpolation-filters:sRGB"
       id="filter1624"
       x="-0.066465521"
       width="1.132931"
       y="-0.12921093"
       height="1.2584219">
      <feGaussianBlur
         inkscape:collect="always"
         stdDeviation="4.7367523"
         id="feGaussianBlur1626" />
    </filter>
    <filter
       inkscape:collect="always"
       style="color-interpolation-filters:sRGB"
       id="filter1624-1"
       x="-0.066465519"
       width="1.132931"
       y="-0.12921093"
       height="1.2584219">
      <feGaussianBlur
         inkscape:collect="always"
         stdDeviation="4.7367523"
         id="feGaussianBlur1626-9" />
    </filter>
    <filter
       inkscape:collect="always"
       style="color-interpolation-filters:sRGB"
       id="filter1624-1-7"
       x="-0.066465519"
       width="1.132931"
       y="-0.12921093"
       height="1.2584219">
      <feGaussianBlur
         inkscape:collect="always"
         stdDeviation="4.7367523"
         id="feGaussianBlur1626-9-8" />
    </filter>
  </defs>
  <sodipodi:namedview
     pagecolor="#ffffff"
     bordercolor="#666666"
     borderopacity="1"
     objecttolerance="10"
     gridtolerance="10"
     guidetolerance="10"
     inkscape:pageopacity="0"
     inkscape:pageshadow="2"
     inkscape:window-width="1858"
     inkscape:window-height="1057"
     id="namedview4"
     showgrid="false"
     inkscape:zoom="0.3740595"
     inkscape:cx="941.72841"
     inkscape:cy="1687.5211"
     inkscape:window-x="54"
     inkscape:window-y="-8"
     inkscape:window-maximized="1"
     inkscape:current-layer="layer1"
     inkscape:document-rotation="0"
     inkscape:snap-global="false"
     borderlayer="true" />
  <g
     inkscape:groupmode="layer"
     id="layer2"
     inkscape:label="artwork"
     sodipodi:insensitive="true">
    <image
       sodipodi:absref="D:\Documents\code\webcomics\new-ep34_The-Knighting-of-Shichimi\lang\id\../gfx_Pepper-and-Carrot_by-David-Revoy_E34P05.png"
       xlink:href="../gfx_Pepper-and-Carrot_by-David-Revoy_E34P05.png"
       width="2481"
       height="3503"
       id="image10"
       x="0"
       y="0" />
  </g>
  <g
     inkscape:groupmode="layer"
     id="layer3"
     inkscape:label="speechbubbles"
     style="display:inline">
    <path
       style="display:inline;fill:#ffffff;fill-rule:evenodd;stroke:none;stroke-width:1.15361px;stroke-linecap:butt;stroke-linejoin:miter;stroke-opacity:1"
       d="m 2151.0717,845.63173 c -28.3337,0.0437 -56.6365,1.71396 -84.823,4.37725 -15.0032,1.12217 -29.4755,5.41603 -43.7344,9.73518 -13.3358,4.27526 -26.6512,8.88101 -39.0476,15.25976 -16.0523,8.51113 -30.4331,21.03894 -37.6825,37.32747 -6.0888,13.05538 -9.6692,27.02366 -12.4608,41.00167 -4.1793,27.08009 2.7926,56.11584 21.2414,77.48714 21.0653,24.9308 54.3711,39.6244 87.9324,40.2364 70.7979,6.2304 142.4983,8.6769 213.1066,-0.8354 23.6549,-3.2627 47.4905,-10.1908 66.4668,-24.4259 20.7839,-15.8171 31.9255,-41.301 31.7617,-66.29475 0.1017,-23.70521 -10.1202,-46.73696 -25.8984,-64.87963 -18.7816,-22.12941 -44.7428,-37.88058 -72.3128,-48.45815 -26.7721,-10.67283 -55.1388,-18.38972 -84.2451,-20.01511 -6.7572,-0.43467 -13.5325,-0.58715 -20.3043,-0.51593 z"
       id="path1076"
       inkscape:connector-curvature="0" />
    <path
       style="color:#000000;display:inline;overflow:visible;visibility:visible;fill:#ffffff;fill-opacity:1;fill-rule:nonzero;stroke:none;stroke-width:1.49520981px;marker:none;enable-background:accumulate"
       d="m 1433.6821,65.121094 c -18.2905,0.94471 -35.5301,10.307178 -54.1215,7.649004 -14.2276,-1.422244 -30.0402,-1.398485 -42.0625,7.07994 -10.6745,7.978366 -16.2154,20.618452 -19.0964,32.945422 -2.8921,13.84732 -2.9253,28.03876 -3.9115,42.08084 -2.4249,55.54655 3.7943,110.95053 6.1059,166.39888 1.1736,23.01609 2.2985,46.35834 9.0546,68.61349 2.7834,6.52657 8.8564,11.15937 14.6564,15.21485 10.4527,6.6292 22.2164,11.01946 33.6016,15.93027 35.1931,13.68553 73.2832,18.12597 110.8069,21.73091 49.9229,3.78263 99.622,-4.08359 149.2302,-8.21824 28.503,-2.81944 57.8752,-6.22937 83.5764,-19.19955 24.6389,-13.37707 41.4613,-36.58487 52.9847,-60.77352 16.5676,-34.20193 23.5131,-73.59149 14.4311,-110.63677 -7.5299,-33.31869 -20.111,-66.71764 -43.8545,-92.75681 -15.6277,-16.90829 -36.5784,-28.87362 -59.0817,-35.40537 -23.5785,-7.72704 -47.6142,-14.20525 -70.7779,-23.061005 -26.6603,-9.34918 -54.3143,-16.536521 -82.6642,-19.03885 -23.9249,-2.522919 -47.926,-4.378581 -71.8076,-7.268335 -8.996,-0.825789 -18.0287,-1.372254 -27.07,-1.285156 z"
       id="path4546-6-5-5"
       inkscape:connector-curvature="0"
       sodipodi:nodetypes="cssssccccccccccccc" />
    <path
       style="color:#000000;display:inline;overflow:visible;visibility:visible;fill:#ffffff;fill-opacity:1;fill-rule:nonzero;stroke:none;stroke-width:0.600991px;marker:none;enable-background:accumulate"
       d="m 670.35742,769.71094 c -12.2973,0.9647 -24.88043,3.61674 -35.31645,10.49777 -8.26937,6.01073 -15.67977,13.16759 -22.32417,20.92215 -6.62645,7.92618 -12.45435,16.68654 -16.1348,26.37998 -3.14551,10.49958 -1.35181,21.73717 1.78536,32.01289 2.82779,8.96948 7.68064,17.87175 15.78303,23.07197 6.94429,4.14841 15.32919,4.36127 23.18225,3.9754 9.46419,-0.29273 19.23433,0.27025 28.00976,4.15103 9.04638,3.43181 18.21763,7.73729 28.11679,7.43852 13.77277,-0.35998 26.75813,-6.06737 38.3739,-13.09874 14.74173,-9.08988 26.7992,-23.24144 31.53588,-40.07628 2.84106,-10.03042 2.47383,-20.87049 -0.8408,-30.74109 -3.01302,-9.29937 -7.98249,-18.10356 -15.00292,-24.96219 -5.74301,-5.42623 -13.1915,-8.71524 -20.86833,-10.30244 -10.75987,-2.41067 -21.91535,-2.58388 -32.57378,-5.52158 -7.80876,-1.66324 -15.63484,-4.45051 -23.72572,-3.74739 z"
       id="path4040-41"
       inkscape:connector-curvature="0"
       sodipodi:nodetypes="zssssz" />
    <path
       style="color:#000000;display:inline;overflow:visible;visibility:visible;fill:#ffffff;fill-opacity:1;fill-rule:nonzero;stroke:none;stroke-width:0.93885547px;marker:none;enable-background:accumulate"
       d="m 563.57688,294.92188 c -30.48519,0.52894 -61.28343,1.20542 -91.1219,10.07138 -8.77447,2.5029 -17.34379,7.05158 -24.18682,14.64504 -6.52156,6.92199 -11.81236,16.57887 -12.56916,27.62133 -0.83997,10.00446 0.47822,20.03515 1.75539,29.88295 1.72246,10.72435 5.54338,21.50126 12.63961,28.10742 8.78697,8.67822 19.55357,12.92409 29.8383,17.75407 20.98038,8.97683 43.31362,10.74304 65.28578,10.72165 34.35665,0.24417 68.7677,-2.07645 102.80998,-8.12962 15.57353,-3.52183 30.22629,-15.03886 38.81885,-32.15893 5.20903,-10.8684 7.17672,-24.51234 4.25658,-36.83872 -5.11685,-25.29193 -22.12076,-45.27497 -41.70807,-51.78308 -12.87169,-4.49459 -26.23579,-5.75471 -39.44497,-7.66458 -15.41538,-1.76751 -30.90133,-2.30343 -46.37357,-2.22891 z"
       id="path4040-4-5-3-6"
       inkscape:connector-curvature="0"
       sodipodi:nodetypes="zssssz" />
    <path
       style="fill:#ffffff;fill-rule:evenodd;stroke:none;stroke-width:1.1023px;stroke-linecap:butt;stroke-linejoin:miter;stroke-opacity:1"
       d="m 568.76547,115.87537 c -29.86453,0.06 -59.6381,2.8147 -89.48806,3.42681 -28.11069,0.84502 -56.36434,1.35134 -84.17809,5.90823 -20.27576,3.13687 -40.07102,10.8338 -56.33568,23.47331 -8.06434,6.22774 -14.72308,14.01096 -21.38995,21.65588 -6.61083,7.95388 -12.86017,16.45959 -16.69221,26.13538 -5.92574,15.90957 -5.96133,33.60907 -1.93555,49.97304 3.58891,13.49569 11.88812,25.61939 23.11648,33.91414 12.72798,9.66713 28.00787,15.32538 43.38897,19.16744 23.3238,5.43648 47.40663,5.41581 71.19862,6.60693 73.59379,2.79181 147.25409,0.29158 220.79661,-2.76757 33.7158,-2.1954 67.74775,-4.74322 100.38208,-14.0351 15.28967,-6.93639 27.35567,-19.50206 36.3449,-33.44455 7.85894,-14.08632 9.16284,-30.81679 7.53352,-46.59384 -1.73949,-20.68371 -11.57169,-40.82827 -27.7519,-54.019 -21.09061,-18.88432 -48.56476,-29.66935 -76.47729,-33.0504 -20.06466,-2.8886 -40.26571,-5.09385 -60.53892,-5.66153 -19.75879,-0.0157 -39.51224,-0.50445 -59.26908,-0.68357 -2.90145,-0.0229 -5.80296,-0.007 -8.70445,-0.006 z"
       id="path1299"
       inkscape:connector-curvature="0" />
    <path
       style="color:#000000;display:inline;overflow:visible;visibility:visible;fill:#ffffff;fill-opacity:1;fill-rule:nonzero;stroke:none;stroke-width:1px;marker:none;enable-background:accumulate"
       d="m 601.64274,401.13421 c -14.17455,40.88456 44.77094,72.82978 100.67006,54.05497 -23.16137,8.79652 -79.7912,49.66875 -144.52484,-46.85819 -30.03766,-44.79037 28.99451,-4.6799 28.99451,-4.6799 z"
       id="path4035-4"
       inkscape:connector-curvature="0"
       sodipodi:nodetypes="ccscc" />
    <path
       style="color:#000000;display:inline;overflow:visible;visibility:visible;fill:#ffffff;fill-opacity:1;fill-rule:nonzero;stroke:none;stroke-width:0.65663px;marker:none;enable-background:accumulate"
       d="m 611.41244,701.29174 c 17.11413,0.19349 18.72502,1.92575 19.18724,12.28702 0.46185,10.36191 -1.67076,26.02679 10.09463,35.89667 11.76506,9.87056 19.1963,13.36617 25.49665,11.79439 -5.19491,13.1306 -2.83584,31.62853 -10.75775,36.51466 -7.9219,4.88611 26.05967,-2.07377 26.05967,-2.07377 0,0 9.21399,-27.86213 6.82755,-44.34007 -2.3864,-16.4779 -28.23087,-11.38908 -37.42309,-16.46871 -9.19219,-5.07958 -7.20814,-26.722 -13.49221,-32.72081 -6.28377,-5.99953 -17.59228,-2.98484 -25.99269,-0.88938 z"
       id="path4538-7"
       inkscape:connector-curvature="0"
       sodipodi:nodetypes="ccscccsscc" />
    <path
       style="color:#000000;display:inline;overflow:visible;visibility:visible;fill:#ffffff;fill-opacity:1;fill-rule:nonzero;stroke:none;stroke-width:1.01366px;marker:none;enable-background:accumulate"
       d="m 1598.5835,596.86203 c 14.1467,-11.40413 29.0076,-23.09483 38.4486,-39.96949 2.5984,-4.85383 4.9981,-10.05752 6.0756,-15.49957 0.016,-5.8546 -3.8969,-10.34151 -8.4908,-12.17778 -6.4361,-3.18874 -14.5628,-3.42982 -19.4026,-9.63069 -3.4195,-4.61758 -1.8272,-11.14779 -0.9156,-16.72114 2.5699,-14.17326 6.8395,-28.1699 7.4104,-42.5769 1.5793,-16.24635 2.1988,-33.38893 -3.7408,-48.10801 -2.4394,-5.7727 -5.7341,-11.37091 -10.8601,-14.41865 -12.7918,-8.51566 -30.6307,-8.53627 -43.8564,1.70558 -7.9407,7.39354 -10.3193,22.05002 -3.5557,30.23691 3.5085,4.38614 9.2515,5.18736 14.4155,4.19228 9.6748,0.1491 18.2991,6.65319 22.6959,15.89335 3.7428,7.54995 5.2552,16.51182 4.6927,25.40135 2.0644,12.09608 -3.5504,23.92983 -6.6517,35.52848 -1.3509,5.3164 -2.467,11.0518 -1.4466,16.34944 3.0779,7.03972 10.5313,8.927 17.0498,9.68941 6.6944,0.98385 14.6099,1.26357 18.9566,7.63463 3.5752,3.9219 -0.1424,9.62907 -1.3852,14.17636 -5.6681,14.18394 -15.0865,26.49538 -26.0468,36.02362 -1.0987,0.82439 -2.2436,1.54861 -3.3927,2.27078 z"
       id="path4496-9"
       inkscape:connector-curvature="0"
       inkscape:transform-center-x="21.004464"
       inkscape:transform-center-y="-25.902749" />
    <path
       style="color:#000000;display:inline;overflow:visible;visibility:visible;fill:#ffffff;fill-opacity:1;fill-rule:nonzero;stroke:none;stroke-width:1.03729px;marker:none;enable-background:accumulate"
       d="m 2109.2559,751.99134 c -20.4103,6.10083 -40.0468,16.85113 -53.8,33.41265 -10.7709,14.46078 -16.5835,31.98514 -19.9326,49.53175 -1.4068,8.93082 -2.2092,18.35818 0.5,27.10829 3.2554,6.18918 11.8987,8.09797 17.7559,4.53442 7.5966,-3.5917 11.8306,-12.98928 9.3278,-21.03888 -1.6093,-16.53808 1.3652,-33.26989 6.7533,-48.89003 5.7833,-15.14652 16.5635,-28.06938 29.7192,-37.41611 3.7487,-2.79439 7.6932,-5.31046 11.6413,-7.81045 -0.655,0.18946 -1.3099,0.37891 -1.9649,0.56836 z"
       id="path5010-4"
       inkscape:connector-curvature="0"
       sodipodi:nodetypes="ccsc" />
    <path
       style="fill:#ffffff;stroke:none;stroke-width:1.08478582"
       d="m 1704.9569,1472.3525 c -52.2268,1.9207 -103.7612,23.5759 -134.9761,59.5519 -11.9536,14.1662 -17.3006,31.5853 -18.5415,48.8011 -3.0716,26.1893 -2.6063,52.5488 -3.1106,78.8283 0.979,18.42 8.4362,37.3301 24.4915,50.2307 20.0118,17.5119 47.969,26.7038 75.8587,30.6406 43.949,7.059 88.9002,5.6894 133.3569,4.3047 34.9533,-1.6408 70.8831,-8.243 99.9086,-25.6654 23.9688,-14.2178 41.5308,-36.832 44.7656,-61.7555 3.5641,-23.3392 -0.9516,-46.7948 -4.5021,-69.9242 -4.2714,-23.9268 -11.698,-48.3988 -29.2782,-67.9404 -21.8587,-24.1142 -56.0638,-38.5823 -91.1087,-42.8707 -32.001,-4.3314 -64.55,-4.3212 -96.8641,-4.2011 z"
       id="path3280-10"
       inkscape:connector-curvature="0"
       sodipodi:nodetypes="csssc" />
    <path
       style="color:#000000;display:inline;overflow:visible;visibility:visible;fill:#ffffff;fill-opacity:1;fill-rule:nonzero;stroke:none;stroke-width:0.730994px;marker:none;enable-background:accumulate"
       d="m 1701.3359,1182.3633 c -23.6044,0.4972 -47.5014,8.2194 -65.537,23.7485 -16.8972,15.2472 -21.3862,42.7399 -9.3936,62.2553 7.3737,12.546 20.5403,20.6735 34.317,24.5048 22.0738,8.2236 45.7993,10.6274 69.1919,11.348 21.8322,0.47 44.2156,-1.001 64.7362,-9.0519 13.7438,-5.6802 26.0669,-16.1754 31.5122,-30.2834 6.1857,-15.1026 4.6669,-33.4624 -5.1548,-46.703 -9.4277,-13.4338 -24.3106,-21.9676 -39.6896,-26.8896 -23.7701,-7.8332 -49.0614,-8.7336 -73.8752,-8.9512 -2.0358,-7e-4 -4.0715,-0.013 -6.1071,0.023 z"
       id="path4546-6-89"
       inkscape:connector-curvature="0"
       sodipodi:nodetypes="cssssc" />
    <path
       style="fill:#ffffff;fill-rule:evenodd;stroke:none;stroke-width:0.479277px;stroke-linecap:butt;stroke-linejoin:miter;stroke-opacity:1"
       d="m 893.13501,1534.7305 c 27.51836,-11.7764 54.23289,-20.9661 71.61477,-23.4902 -3.55561,10.1642 -5.56972,16.3128 -14.89804,25.0191 24.30441,1.9047 70.63976,-18.9809 95.44776,-31.1705 -33.9587,5.7956 -60.1404,12.1497 -70.78238,13.5607 4.97656,-8.3585 6.96879,-14.5328 9.86224,-23.8449 -15.1281,3.6171 -70.65358,12.0504 -83.85269,9.4593 -13.19922,-2.5913 -7.39166,30.4665 -7.39166,30.4665 z"
       id="path1305"
       inkscape:connector-curvature="0"
       sodipodi:nodetypes="ccccccsc" />
    <path
       style="fill:#ffffff;fill-opacity:1;fill-rule:evenodd;stroke:none;stroke-width:1.1446141px;stroke-linecap:butt;stroke-linejoin:miter;stroke-opacity:1"
       d="m 466.56053,1553.8125 c 34.25934,-10.065 28.86185,27.8246 8.40785,83.8895 23.53665,-40.8733 69.55946,-52.2051 29.30539,25.5204 63.28392,-58.0593 108.42044,-82.0264 98.49629,-2.5547 83.921,-76.0995 88.58556,-40.6444 82.66833,9.7048 33.32658,-72.3431 64.76365,-80.2686 93.91009,-10.1009 -8.22553,-74.6919 36.73144,-72.6788 132.55048,2.6926 -42.80924,-78.8502 10.22788,-50.756 63.78853,-22.0775 -45.02614,-67.4931 16.94108,-30.0577 41.24501,-29.5586 -90.62061,-104.2106 -13.3233,-64.8006 35.4692,-49.7707 -46.8322,-29.4136 -69.58867,-56.4985 11.7259,-65.7658 -72.09394,-11.5284 -41.8042,-36.4412 28.7679,-65.2547 -38.5116,4.877 -112.29544,-14.6792 14.4935,-43.4316 -49.322,5.1682 -97.7029,-12.299 -41.4827,-32.8036 -18.5224,4.5189 -120.4681,-3.4144 -37.4164,-29.1971 -51.37552,5.3189 -69.96746,2.8843 45.239,-31.1943 -178.83871,29.6337 -48.9513,-15.9296 -17.6341,-37.4839 -73.87284,17.4076 -198.71511,73.3662 -93.05079,-45.0201 -147.26868,118.0736 -129.97564,47.3317 -121.72882,-13.0309 -50.75201,94.6933 -68.44963,81.8282 -72.80512,25.5483 -23.70093,36.2775 -26.79977,10.1371 -29.39476,-17.5296 -23.64643,52.1467 -46.61735,80.2921 -66.43272,-3.6779 -10.89702,97.0485 -49.37618,78.1752 -93.92563,33.7899 8.03453,34.3105 -17.12997,18.3122 -53.5339,-14.718 30.02139,87.5931 -28.05681,66.8882 -48.26769,43.2099 16.01896,33.5594 23.05372,54.8106 -2.90417,30.8624 15.75654,46.3673 17.43386,74.8734 -9.63853,66.9069 31.8248,37.6389 21.57853,33.7896 9.44731,28.0813 11.94651,17.9863 9.15905,37.7794 -12.47225,47.9657 11.28897,16.5357 33.07957,30.4879 4.60973,56.8044 24.63363,-3.3614 26.83138,2.5315 1.33568,19.8473 35.02337,-20.2069 20.07233,6.3143 -0.77261,38.3465 z"
       id="path1798"
       sodipodi:nodetypes="cccccccccccccccccccccccccccccccc"
       inkscape:connector-curvature="0" />
    <path
       style="fill:#ffffff;fill-rule:evenodd;stroke:none;stroke-width:0.960637px;stroke-linecap:butt;stroke-linejoin:miter;stroke-opacity:1"
       d="m 1778.0933,1289.0282 c 0,0 -3.9407,28.9212 8.0996,38.6226 12.0408,9.7023 15.4867,13.5023 36.0798,21.9048 -30.1647,-5.7228 -44.5902,-13.4046 -52.5226,-23.226 -7.9325,-9.8214 -20.0355,-30.3233 -22.8091,-36.2438 -2.7736,-5.9205 31.1523,-1.0576 31.1523,-1.0576 z"
       id="path1359"
       inkscape:connector-curvature="0" />
    <path
       style="fill:#ffffff;fill-rule:evenodd;stroke:none;stroke-width:1.51642001px;stroke-linecap:butt;stroke-linejoin:miter;stroke-opacity:1"
       d="m 1887.594,1602.3699 c 0,0 29.1528,33.6868 52.9454,28.1474 23.7942,-5.5388 31.7815,-6.1077 63.0487,-23.7148 -38.2213,32.3304 -62.191,42.8809 -81.8135,43.1241 -19.6227,0.2433 -55.9116,-4.864 -65.6341,-7.2483 -9.7228,-2.3842 31.4535,-40.3084 31.4535,-40.3084 z"
       id="path1359-6"
       inkscape:connector-curvature="0" />
    <path
       style="fill:#ffffff;fill-rule:evenodd;stroke:none;stroke-width:1.04628003px;stroke-linecap:butt;stroke-linejoin:miter;stroke-opacity:1;filter:url(#filter1624-1-7)"
       d="m 304.54727,1936.8855 c 5.39109,-32.111 32.34599,-42.814 51.75368,-46.025 19.40768,-3.211 83.0216,-3.211 100.27283,9.633 17.25112,12.844 22.6421,36.392 16.17294,43.884 -6.46926,7.493 -15.09476,29.97 -38.81515,31.04 -23.7206,1.071 -74.39599,5.352 -94.88185,-6.422 -20.48586,-11.774 -36.6588,-14.985 -34.50245,-32.11 z"
       id="path1285-4-4"
       inkscape:connector-curvature="0"
       transform="matrix(1.2993318,0,0,1.0525462,59.480785,-21.353232)" />
    <path
       style="fill:#ffffff;fill-rule:evenodd;stroke:none;stroke-width:1.04628003px;stroke-linecap:butt;stroke-linejoin:miter;stroke-opacity:1;filter:url(#filter1624-1)"
       d="m 304.54727,1936.8855 c 5.39109,-32.111 32.34599,-42.814 51.75368,-46.025 19.40768,-3.211 83.0216,-3.211 100.27283,9.633 17.25112,12.844 22.6421,36.392 16.17294,43.884 -6.46926,7.493 -15.09476,29.97 -38.81515,31.04 -23.7206,1.071 -74.39599,5.352 -94.88185,-6.422 -20.48586,-11.774 -36.6588,-14.985 -34.50245,-32.11 z"
       id="path1285-4"
       inkscape:connector-curvature="0"
       transform="matrix(1.5643083,0,0,0.94339031,-212.52688,113.41673)" />
    <path
       style="fill:#ffffff;fill-rule:evenodd;stroke:none;stroke-width:1.04628003px;stroke-linecap:butt;stroke-linejoin:miter;stroke-opacity:1;filter:url(#filter1624)"
       d="m 115.7959,1883.6103 c 5.39109,-32.111 32.34599,-42.814 51.75368,-46.025 19.40768,-3.211 83.0216,-3.211 100.27283,9.633 17.25112,12.844 22.6421,36.392 16.17294,43.884 -6.46926,7.493 -15.09476,29.97 -38.81515,31.04 -23.7206,1.071 -74.39599,5.352 -94.88185,-6.422 -20.48586,-11.774 -36.6588,-14.985 -34.50245,-32.11 z"
       id="path1285"
       inkscape:connector-curvature="0"
       transform="matrix(1.5647599,0,0,0.9432659,-75.734783,103.97496)" />
    <path
       style="color:#000000;display:inline;overflow:visible;visibility:visible;fill:#ffffff;fill-opacity:1;fill-rule:nonzero;stroke:none;stroke-width:0.921112px;marker:none;enable-background:accumulate"
       d="m 1241.0664,2352.3233 c -36.2286,-32.2998 -77.602,-59.113 -107.8532,-97.7871 l 6.9677,43.9112 c -17.7743,-7.7018 -29.1706,-25.5756 -42.7328,-39.995 l -0.057,27.888 c -41.735,-18.7232 -69.4761,-51.7603 -103.98103,-77.8792 l 3.66035,48.6148 c 37.88508,22.0665 78.75808,37.3542 113.28208,67.0437 l 2.7503,-27.2332 c 13.303,8.4793 26.3021,17.5344 37.9439,29.1641 l 0.5073,-34.5085 z"
       id="path4032-8"
       inkscape:connector-curvature="0"
       sodipodi:nodetypes="cccccccccccc" />
    <path
       style="opacity:1;fill:#ffffff;fill-rule:evenodd;stroke:none;stroke-width:1.0434px;stroke-linecap:butt;stroke-linejoin:miter;stroke-opacity:1"
       d="m 654.35692,2153.9416 c 58.75546,-3.71 58.93977,-22.4352 17.98812,-51.7058 29.67774,0.1363 19.587,-18.1251 -1.42914,-41.4407 78.40021,28.7105 92.10169,-20.5013 69.95898,-77.5544 63.12499,67.1697 63.87012,28.4005 86.86865,-53.0521 13.12316,29.9734 30.48835,122.8095 104.08337,42.4068 -12.68932,66.9216 27.08594,20.6134 58.87117,-2.719 5.70058,9.6409 -51.54682,65.2732 31.79223,-3.6887 -60.14507,91.4191 32.7607,16.1788 61.5631,-9.148 -29.9323,43.2369 -95.65406,108.039 -7.5152,83.1286 -64.0952,50.0208 -7.4255,31.1958 21.1188,28.9061 -36.2016,20.7975 -37.6304,41.3996 -0.7248,33.0705 -53.8054,38.9217 -11.9257,42.1844 13.9993,43.3438 -20.163,2.9798 -69.8172,20.0724 -5.759,23.576 -44.27,12.4278 -31.2704,45.5628 -24.9359,59.1169 -48.9698,-4.7181 -14.2117,40.6656 4.0329,69.9104 -33.814,-12.5236 -86.53643,-44.8665 -49.2651,12.2481 -82.91478,-34.1395 -50.22703,0.6718 -31.7479,42.03 -60.85869,-34.6571 -70.19272,-51.5284 -88.8576,-22.8562 -20.58022,-24.1043 -24.23786,-2.9812 -30.56964,22.5971 -12.68254,-51.6999 -34.24748,-20.2628 -57.16184,11.0334 -11.87335,-53.8683 -35.26901,-31.2483 -57.18718,-16.6774 0.0876,-61.8923 -29.47285,-46.8638 -89.21765,-0.897 46.91643,-43.2544 72.60415,-86.0991 -5.21276,-60.8009 24.99531,-12.5883 48.31613,-50.4679 15.0138,-36.7051 14.86771,-9.5615 28.85321,-31.2999 -15.28328,-25.1166 41.09288,-13.261 36.16457,-23.9727 -8.47396,-32.4844 76.85045,-11.8787 42.48856,-24.677 -11.94947,-36.5214 z"
       id="path523"
       sodipodi:nodetypes="cccccccccccccccccccccccccccc" />
  </g>
  <g
     inkscape:groupmode="layer"
     id="layer1"
     inkscape:label="txt">
    <text
       xml:space="preserve"
       style="font-style:normal;font-variant:normal;font-weight:normal;font-stretch:normal;font-size:45px;line-height:1.25;font-family:Lavi;-inkscape-font-specification:Lavi;text-align:center;letter-spacing:0px;word-spacing:0px;text-anchor:middle;fill:#000000;fill-opacity:1;stroke:none"
       x="548.5365"
       y="197.91747"
       id="text4246-3-2-2-6-3-7-9-3"><tspan
         style="font-size:45px"
         sodipodi:role="line"
         x="548.5365"
         y="197.91747"
         id="tspan27">Maaf Pepper,</tspan><tspan
         style="font-size:45px"
         sodipodi:role="line"
         x="548.5365"
         y="254.16747"
         id="tspan919">tapi kamu harus pergi.</tspan></text>
    <text
       xml:space="preserve"
       style="font-style:normal;font-variant:normal;font-weight:normal;font-stretch:normal;font-size:45px;line-height:1.25;font-family:Lavi;-inkscape-font-specification:Lavi;text-align:center;letter-spacing:0px;word-spacing:0px;text-anchor:middle;fill:#000000;fill-opacity:1;stroke:none"
       x="568.95776"
       y="378.66003"
       id="text4246-3-2-2-6-3-7-9-3-3"><tspan
         style="font-size:45px"
         sodipodi:role="line"
         x="568.95776"
         y="378.66003"
         id="tspan27-7">Sekarang.</tspan></text>
    <text
       xml:space="preserve"
       style="font-style:normal;font-variant:normal;font-weight:normal;font-stretch:normal;font-size:45px;line-height:1.25;font-family:Lavi;-inkscape-font-specification:Lavi;text-align:center;letter-spacing:0px;word-spacing:0px;text-anchor:middle;fill:#000000;fill-opacity:1;stroke:none"
       x="676.57495"
       y="846.57025"
       id="text4246-3-2-2-6-3-7-9-3-3-5"><tspan
         style="font-size:45px"
         sodipodi:role="line"
         x="676.57495"
         y="846.57025"
         id="tspan27-7-3">Hah?</tspan></text>
    <text
       xml:space="preserve"
       style="font-style:normal;font-variant:normal;font-weight:normal;font-stretch:normal;font-size:45px;line-height:1.25;font-family:Lavi;-inkscape-font-specification:Lavi;text-align:center;letter-spacing:0px;word-spacing:0px;text-anchor:middle;fill:#000000;fill-opacity:1;stroke:none"
       x="1552.2219"
       y="199.04332"
       id="text4246-3-2-2-6-3-7-9-3-3-56"><tspan
         style="font-size:45px"
         sodipodi:role="line"
         x="1559.385"
         y="199.04332"
         id="tspan109">Hei hei hei, </tspan><tspan
         style="font-size:45px"
         sodipodi:role="line"
         x="1559.385"
         y="255.29332"
         id="tspan923">tunggu sebentar! </tspan><tspan
         style="font-size:45px"
         sodipodi:role="line"
         x="1552.2219"
         y="311.54333"
         id="tspan942">Ini pasti ada</tspan><tspan
         style="font-size:45px"
         sodipodi:role="line"
         x="1552.2219"
         y="367.79333"
         id="tspan94">kesalahpahaman.</tspan></text>
    <text
       xml:space="preserve"
       style="font-style:normal;font-variant:normal;font-weight:normal;font-stretch:normal;font-size:45px;line-height:1.25;font-family:Lavi;-inkscape-font-specification:Lavi;text-align:center;letter-spacing:0px;word-spacing:0px;text-anchor:middle;fill:#000000;fill-opacity:1;stroke:none"
       x="2148.061"
       y="927.79041"
       id="text4246-3-2-2-6-3-7-9-3-3-56-9"><tspan
         style="font-size:45px"
         sodipodi:role="line"
         x="2155.2241"
         y="927.79041"
         id="tspan119-9">Tolong Pepper, </tspan><tspan
         style="font-size:45px"
         sodipodi:role="line"
         x="2148.061"
         y="984.04041"
         id="tspan946">jangan buat ini</tspan><tspan
         style="font-size:45px"
         sodipodi:role="line"
         x="2148.061"
         y="1040.2904"
         id="tspan98">jadi sulit.</tspan></text>
    <text
       xml:space="preserve"
       style="font-style:normal;font-variant:normal;font-weight:normal;font-stretch:normal;font-size:45px;line-height:1.25;font-family:Lavi;-inkscape-font-specification:Lavi;text-align:center;letter-spacing:0px;word-spacing:0px;text-anchor:middle;fill:#000000;fill-opacity:1;stroke:none"
       x="742.98822"
       y="1343.6748"
       id="text4246-3-2-2-6-3-7-9-3-3-56-9-3"><tspan
         style="font-size:45px"
         sodipodi:role="line"
         x="742.98822"
         y="1343.6748"
         id="tspan962">Hei! Kau yang di</tspan><tspan
         style="font-size:45px"
         sodipodi:role="line"
         x="742.98822"
         y="1399.9248"
         id="tspan102">takhta. Kalau kamu</tspan><tspan
         style="font-size:45px"
         sodipodi:role="line"
         x="750.15131"
         y="1456.1748"
         id="tspan964">ada masalah denganku, </tspan><tspan
         style="font-size:45px"
         sodipodi:role="line"
         x="742.98822"
         y="1512.4248"
         id="tspan976">turunlah dan bilanglah</tspan><tspan
         style="font-size:45px"
         sodipodi:role="line"
         x="742.98822"
         y="1568.6748"
         id="tspan980">sendiri!</tspan></text>
    <text
       xml:space="preserve"
       style="font-style:normal;font-variant:normal;font-weight:normal;font-stretch:normal;font-size:52.7307px;line-height:1.25;font-family:Lavi;-inkscape-font-specification:Lavi;text-align:center;letter-spacing:0px;word-spacing:0px;text-anchor:middle;fill:#000000;fill-opacity:1;stroke:none;stroke-width:1.17179"
       x="1726.7211"
       y="1258.5393"
       id="text4246-3-2-2-6-3-7-9-3-3-56-9-3-2"><tspan
         style="font-size:52.7307px;stroke-width:1.17179"
         sodipodi:role="line"
         x="1726.7211"
         y="1258.5393"
         id="tspan222-9">Tsss...</tspan></text>
    <text
       xml:space="preserve"
       style="font-style:normal;font-variant:normal;font-weight:normal;font-stretch:normal;font-size:45px;line-height:1.25;font-family:Lavi;-inkscape-font-specification:Lavi;text-align:center;letter-spacing:0px;word-spacing:0px;text-anchor:middle;fill:#000000;fill-opacity:1;stroke:none"
       x="1732.0173"
       y="1569.9558"
       id="text4246-3-2-2-6-3-7-9-3-3-56-9-3-20"><tspan
         style="font-size:45px"
         sodipodi:role="line"
         x="1739.1804"
         y="1569.9558"
         id="tspan222-92">Shichimi, </tspan><tspan
         style="font-size:45px"
         sodipodi:role="line"
         x="1732.0173"
         y="1626.2058"
         id="tspan334">kamu punya</tspan><tspan
         style="font-size:45px"
         sodipodi:role="line"
         x="1732.0173"
         y="1682.4558"
         id="tspan118">sepuluh detik...</tspan></text>
    <text
       xml:space="preserve"
       style="font-style:normal;font-variant:normal;font-weight:normal;font-stretch:normal;font-size:45px;line-height:1.25;font-family:Lavi;-inkscape-font-specification:Lavi;text-align:center;letter-spacing:0px;word-spacing:0px;text-anchor:middle;fill:#000000;fill-opacity:1;stroke:none"
       x="237.12886"
       y="1889.5347"
       id="text4246-3-2-2-6-3-7-9-3-3-56-9-3-20-2"><tspan
         style="font-size:45px"
         sodipodi:role="line"
         x="237.12886"
         y="1889.5347"
         id="tspan334-7">sembilan...</tspan></text>
    <text
       xml:space="preserve"
       style="font-style:normal;font-variant:normal;font-weight:normal;font-stretch:normal;font-size:45px;line-height:1.25;font-family:Lavi;-inkscape-font-specification:Lavi;text-align:center;letter-spacing:0px;word-spacing:0px;text-anchor:middle;fill:#000000;fill-opacity:1;stroke:none"
       x="399.80328"
       y="1950.1644"
       id="text4246-3-2-2-6-3-7-9-3-3-56-9-3-20-2-3"><tspan
         style="font-size:45px"
         sodipodi:role="line"
         x="399.80328"
         y="1950.1644"
         id="tspan334-7-6">delapan...</tspan></text>
    <text
       xml:space="preserve"
       style="font-style:normal;font-variant:normal;font-weight:normal;font-stretch:normal;font-size:45px;line-height:1.25;font-family:Lavi;-inkscape-font-specification:Lavi;text-align:center;letter-spacing:0px;word-spacing:0px;text-anchor:middle;fill:#000000;fill-opacity:1;stroke:none"
       x="564.68182"
       y="2025.6428"
       id="text4246-3-2-2-6-3-7-9-3-3-56-9-3-20-2-3-1"><tspan
         style="font-size:45px"
         sodipodi:role="line"
         x="564.68182"
         y="2025.6428"
         id="tspan334-7-6-2">tujuh...</tspan></text>
    <text
       xml:space="preserve"
       style="font-style:normal;font-variant:normal;font-weight:normal;font-stretch:normal;font-size:55.95299911px;line-height:1.25;font-family:Lavi;-inkscape-font-specification:Lavi;text-align:center;letter-spacing:0px;word-spacing:0px;text-anchor:middle;fill:#000000;fill-opacity:1;stroke:none;stroke-width:0.90246803"
       x="1073.8251"
       y="2109.1938"
       id="text4246-3-2-2-6-3-7-9-3-3-56-9-3-20-2-3-1-9"
       transform="skewX(-4.8400228)"><tspan
         style="font-style:normal;font-variant:normal;font-weight:bold;font-stretch:normal;font-size:55.95299911px;font-family:Lavi;-inkscape-font-specification:'Lavi Bold';stroke-width:0.90246803"
         sodipodi:role="line"
         x="1083.5513"
         y="2109.1938"
         id="tspan451">CUKUP, </tspan><tspan
         style="font-style:normal;font-variant:normal;font-weight:bold;font-stretch:normal;font-size:55.95299911px;font-family:Lavi;-inkscape-font-specification:'Lavi Bold';stroke-width:0.90246803"
         sodipodi:role="line"
         x="1073.8251"
         y="2179.135"
         id="tspan457">PEPPER!</tspan><tspan
         style="font-style:normal;font-variant:normal;font-weight:bold;font-stretch:normal;font-size:55.95299911px;font-family:Lavi;-inkscape-font-specification:'Lavi Bold';stroke-width:0.90246803"
         sodipodi:role="line"
         x="1073.8251"
         y="2249.0764"
         id="tspan918">PERGI!!!</tspan></text>
    <text
       xml:space="preserve"
       style="font-style:normal;font-variant:normal;font-weight:normal;font-stretch:normal;font-size:180px;line-height:1.25;font-family:Lavi;-inkscape-font-specification:Lavi;letter-spacing:0px;word-spacing:0px;fill:#ffffff;fill-opacity:1;stroke:#ffffff;stroke-width:0.74524;stroke-miterlimit:4;stroke-dasharray:none;stroke-opacity:1;filter:url(#filter4375-4-1-1-1-9-5-8-8-5-5-3-3)"
       id="text4580-6-0-0-0-9-3-3"
       transform="matrix(0.88341196,-0.53750677,0,1.1213027,-74.551071,722.92786)"
       x="418.61386"
       y="279.76691"><textPath
         xlink:href="#path974"
         id="textPath2837"
         style="font-size:180px;stroke-width:0.74524"><tspan
   style="font-size:180px;fill:#ffffff;fill-opacity:1;stroke:#ffffff;stroke-width:0.74524;stroke-miterlimit:4;stroke-dasharray:none;stroke-opacity:1"
   id="tspan876-6-6"
   rotate="325 325 325 325 325 325 325 325 325 0">SHRRIiii!</tspan></textPath></text>
    <path
       style="fill:none;fill-rule:evenodd;stroke:none;stroke-width:1.13654px;stroke-linecap:butt;stroke-linejoin:miter;stroke-opacity:1"
       d="m 2062.1793,2191.5476 c 235.3161,220.1206 417.0174,422.7368 620.7004,632.5297"
       id="path974"
       sodipodi:nodetypes="cc" />
  </g>
</svg>
