<?xml version="1.0" encoding="UTF-8" standalone="no"?>
<svg
   xmlns:dc="http://purl.org/dc/elements/1.1/"
   xmlns:cc="http://creativecommons.org/ns#"
   xmlns:rdf="http://www.w3.org/1999/02/22-rdf-syntax-ns#"
   xmlns:svg="http://www.w3.org/2000/svg"
   xmlns="http://www.w3.org/2000/svg"
   xmlns:xlink="http://www.w3.org/1999/xlink"
   xmlns:sodipodi="http://sodipodi.sourceforge.net/DTD/sodipodi-0.dtd"
   xmlns:inkscape="http://www.inkscape.org/namespaces/inkscape"
   sodipodi:docname="E33P08.svg"
   height="3503"
   width="2481"
   inkscape:version="1.0 (4035a4fb49, 2020-05-01)"
   version="1.1"
   id="svg2">
  <metadata
     id="metadata8">
    <rdf:RDF>
      <cc:Work
         rdf:about="">
        <dc:format>image/svg+xml</dc:format>
        <dc:type
           rdf:resource="http://purl.org/dc/dcmitype/StillImage" />
        <dc:title />
      </cc:Work>
    </rdf:RDF>
  </metadata>
  <defs
     id="defs6">
    <filter
       x="-0.14"
       width="1.22"
       height="1.38"
       inkscape:label="magic-numbers_orange"
       id="filter4375-4-1-1-1-9-5-8-8-3-3-3-6-1-6"
       style="color-interpolation-filters:sRGB">
      <feFlood
         radius="5.0999999999999996"
         result="flood"
         flood-color="rgb(216,88,33)"
         flood-opacity="1"
         id="feFlood4377-7-9-0-8-1-7-3-1-6-61-6-2-0-2" />
      <feComposite
         baseFrequency="0.053999999999999999 0.053999999999999999"
         result="composite1"
         operator="in"
         in="flood"
         in2="SourceGraphic"
         id="feComposite4379-3-8-8-2-77-4-1-0-7-2-7-6-6-6" />
      <feMorphology
         result="result3"
         radius="0.96959439099754563"
         operator="dilate"
         id="feMorphology4393-1-0-49-8-9-3-0-1-5-9-5-1-3-1" />
      <feComposite
         numOctaves="4"
         result="fbSourceGraphic"
         operator="over"
         in="SourceGraphic"
         in2="result3"
         id="feComposite4385-9-5-7-0-8-8-7-5-3-3-3-8-2-8" />
      <feColorMatrix
         id="feColorMatrix4544-9-5-1-5-7-0-7"
         values="0 0 0 -1 0 0 0 0 -1 0 0 0 0 -1 0 0 0 0 1 0"
         in="fbSourceGraphic"
         result="fbSourceGraphicAlpha" />
      <feTurbulence
         result="turbulence"
         baseFrequency="0.062 0.054054054054054057"
         seed="172"
         numOctaves="4.4123222748815163"
         type="fractalNoise"
         id="feTurbulence4546-3-6-9-6-9-6-9" />
      <feDisplacementMap
         result="fbSourceGraphic"
         xChannelSelector="R"
         yChannelSelector="G"
         scale="11.642079"
         in="fbSourceGraphic"
         in2="turbulence"
         id="feDisplacementMap4548-8-2-4-2-2-1-20" />
      <feColorMatrix
         scale="10.800000000000001"
         id="feColorMatrix4670-7-9-7-9-0-5-2"
         values="0 0 0 -1 0 0 0 0 -1 0 0 0 0 -1 0 0 0 0 1 0"
         in="fbSourceGraphic"
         result="fbSourceGraphicAlpha" />
      <feComposite
         result="composite1"
         operator="in"
         in="flood"
         in2="fbSourceGraphic"
         id="feComposite4674-8-2-4-1-2-5-3" />
      <feGaussianBlur
         result="blur"
         stdDeviation="0.01"
         in="composite1"
         id="feGaussianBlur4676-3-7-50-2-3-4-7" />
      <feOffset
         result="offset"
         dy="5.2374444725016502"
         dx="-0.42771311737301687"
         id="feOffset4678-6-0-3-7-7-7-5" />
      <feComposite
         result="composite2"
         operator="over"
         in="fbSourceGraphic"
         in2="offset"
         id="feComposite4680-4-9-6-0-5-6-9" />
      <feGaussianBlur
         stdDeviation="0.01"
         id="feGaussianBlur58-9-9-5-2" />
      <feOffset
         dx="0"
         dy="0"
         id="feOffset60-3-2-6-2" />
    </filter>
    <filter
       style="color-interpolation-filters:sRGB"
       id="filter4375-4-1-1-1-9-5-8-8-3-3-7-4-1"
       inkscape:label="magic-numbers_cyan"
       height="1.38"
       width="1.22"
       x="-0.14">
      <feFlood
         id="feFlood4377-7-9-0-8-1-7-3-1-6-61-3-5-4"
         flood-opacity="1"
         flood-color="rgb(15,126,119)"
         result="flood"
         radius="5.0999999999999996" />
      <feComposite
         id="feComposite4379-3-8-8-2-77-4-1-0-7-2-6-2-9"
         in2="SourceGraphic"
         in="flood"
         operator="in"
         result="composite1"
         baseFrequency="0.053999999999999999 0.053999999999999999" />
      <feMorphology
         id="feMorphology4393-1-0-49-8-9-3-0-1-5-9-1-5-2"
         operator="dilate"
         radius="0.96959439099754563"
         result="result3" />
      <feComposite
         id="feComposite4385-9-5-7-0-8-8-7-5-3-3-2-4-0"
         in2="result3"
         in="SourceGraphic"
         operator="over"
         result="fbSourceGraphic"
         numOctaves="4" />
      <feColorMatrix
         result="fbSourceGraphicAlpha"
         in="fbSourceGraphic"
         values="0 0 0 -1 0 0 0 0 -1 0 0 0 0 -1 0 0 0 0 1 0"
         id="feColorMatrix4544-9-5-1-9-7-6" />
      <feTurbulence
         id="feTurbulence4546-3-6-9-3-4-8"
         type="fractalNoise"
         numOctaves="4.4123222748815163"
         seed="172"
         baseFrequency="0.062 0.054054054054054057"
         result="turbulence" />
      <feDisplacementMap
         id="feDisplacementMap4548-8-2-4-1-4-9"
         in2="turbulence"
         in="fbSourceGraphic"
         scale="11.642079"
         yChannelSelector="G"
         xChannelSelector="R"
         result="fbSourceGraphic" />
      <feColorMatrix
         result="fbSourceGraphicAlpha"
         in="fbSourceGraphic"
         values="0 0 0 -1 0 0 0 0 -1 0 0 0 0 -1 0 0 0 0 1 0"
         id="feColorMatrix4670-7-9-7-9-3-2"
         scale="10.800000000000001" />
      <feComposite
         id="feComposite4674-8-2-4-4-0-6"
         in2="fbSourceGraphic"
         in="flood"
         operator="in"
         result="composite1" />
      <feGaussianBlur
         id="feGaussianBlur4676-3-7-50-7-7-6"
         in="composite1"
         stdDeviation="1.5865199271065846"
         result="blur" />
      <feOffset
         id="feOffset4678-6-0-3-8-8-4"
         dx="-0.42771311737301687"
         dy="5.2374444725016502"
         result="offset" />
      <feComposite
         id="feComposite4680-4-9-6-4-6-9"
         in2="offset"
         in="fbSourceGraphic"
         operator="over"
         result="composite2" />
      <feGaussianBlur
         id="feGaussianBlur58-5-8-5"
         stdDeviation="0.01" />
      <feOffset
         id="feOffset60-0-8-0"
         dy="0"
         dx="0" />
    </filter>
    <filter
       width="1.0004815"
       style="color-interpolation-filters:sRGB"
       id="filter4375-4-1-1-1-9-5-8-6-4"
       inkscape:label="soundFX-background"
       x="-0.00024075457"
       y="-0.00074229879"
       height="1.0014846">
      <feFlood
         id="feFlood4377-7-9-0-8-1-7-3-7-8"
         flood-opacity="1"
         flood-color="rgb(46,52,54)"
         result="flood" />
      <feComposite
         id="feComposite4379-3-8-8-2-77-4-1-5-1"
         in2="SourceGraphic"
         in="flood"
         operator="in"
         result="composite1" />
      <feMorphology
         id="feMorphology4393-1-0-49-8-9-3-0-3-2"
         operator="dilate"
         radius="6.2000000000000002"
         result="result3" />
      <feComposite
         id="feComposite4385-9-5-7-0-8-8-7-56-9"
         in2="result3"
         in="SourceGraphic"
         operator="over"
         result="fbSourceGraphic" />
      <feColorMatrix
         result="fbSourceGraphicAlpha"
         in="fbSourceGraphic"
         values="0 0 0 -1 0 0 0 0 -1 0 0 0 0 -1 0 0 0 0 1 0"
         id="feColorMatrix4544-2-3" />
      <feTurbulence
         id="feTurbulence4546-9-9"
         type="fractalNoise"
         numOctaves="3"
         seed="37"
         baseFrequency="0.129 0.0050000000000000001"
         result="turbulence" />
      <feDisplacementMap
         id="feDisplacementMap4548-1-0"
         in2="turbulence"
         in="fbSourceGraphic"
         scale="10"
         yChannelSelector="A"
         xChannelSelector="B"
         result="fbSourceGraphic" />
      <feColorMatrix
         result="fbSourceGraphicAlpha"
         in="fbSourceGraphic"
         values="0 0 0 -1 0 0 0 0 -1 0 0 0 0 -1 0 0 0 0 1 0"
         id="feColorMatrix4670-2-8" />
      <feFlood
         id="feFlood4672-7-8"
         flood-opacity="1"
         flood-color="rgb(17,52,65)"
         result="flood"
         in="fbSourceGraphic" />
      <feComposite
         id="feComposite4674-0-5"
         in2="fbSourceGraphic"
         in="flood"
         operator="in"
         result="composite1" />
      <feComposite
         id="feComposite4680-6-0"
         in2="composite1"
         in="fbSourceGraphic"
         operator="over"
         result="composite2" />
      <feGaussianBlur
         stdDeviation="0.027533236"
         id="feGaussianBlur1513" />
    </filter>
  </defs>
  <sodipodi:namedview
     inkscape:snap-global="false"
     inkscape:document-rotation="0"
     inkscape:current-layer="layer1"
     inkscape:window-maximized="1"
     inkscape:window-y="44"
     inkscape:window-x="0"
     inkscape:cy="3108.6955"
     inkscape:cx="1363.9264"
     inkscape:zoom="0.529"
     showgrid="false"
     id="namedview4"
     inkscape:window-height="1004"
     inkscape:window-width="1920"
     inkscape:pageshadow="2"
     inkscape:pageopacity="0"
     guidetolerance="10"
     gridtolerance="10"
     objecttolerance="10"
     borderopacity="1"
     bordercolor="#666666"
     pagecolor="#ffffff" />
  <g
     sodipodi:insensitive="true"
     inkscape:label="artwork"
     id="layer2"
     inkscape:groupmode="layer">
    <image
       sodipodi:absref="/home/cherry/peppercarrot/webcomics/ep33_Spell-of-War/lang/gfx_Pepper-and-Carrot_by-David-Revoy_E33P08.png"
       xlink:href="../gfx_Pepper-and-Carrot_by-David-Revoy_E33P08.png"
       width="2481"
       height="3503"
       id="image10"
       x="0"
       y="0" />
  </g>
  <g
     inkscape:label="speechbubbles"
     id="layer3"
     inkscape:groupmode="layer">
    <path
       style="display:inline;fill:#ffffff;stroke:none;stroke-width:0.999996"
       d="m 2086.916,2126.7461 c -39.8666,1.3827 -79.7129,3.2847 -119.5701,4.9029 -17.2796,0.837 -35.0168,2.9903 -50.6241,10.9561 -15.843,8.2398 -28.6453,21.4304 -38.4932,36.1681 -7.9052,11.9506 -14.5978,24.9526 -17.6185,39.053 -3.021,13.2594 -2.8925,27.2216 0.5624,40.386 7.7333,30.8511 31.8388,57.347 62.3141,66.9097 44.6754,15.803 92.3315,21.9641 139.585,21.5737 42.9254,-0.558 85.8574,-6.5147 127.0939,-18.5367 13.1265,-4.3549 26.2685,-10.6286 35.2676,-21.4748 12.8229,-15.5492 21.7545,-34.8957 22.7244,-55.2087 0.056,-13.859 -1.2463,-27.8223 -4.8995,-41.2251 -6.1185,-22.8458 -21.098,-42.7023 -40.0213,-56.6108 -16.2793,-12.1301 -35.8563,-19.5781 -55.9803,-21.9669 -19.7774,-3.0186 -39.7837,-4.2358 -59.7607,-4.9271 -0.1932,2e-4 -0.3864,4e-4 -0.5797,6e-4 z"
       id="path3278-12"
       inkscape:connector-curvature="0" />
    <path
       style="color:#000000;display:inline;overflow:visible;visibility:visible;fill:#ffffff;fill-opacity:1;fill-rule:nonzero;stroke:none;stroke-width:1.11254716px;marker:none;enable-background:accumulate"
       d="m 1849.983,1962.412 c 15.0802,59.1235 -54.8088,29.4296 -74.9761,22.1728 37.1179,24.3827 36.356,40.2134 -12.861,44.0752 70.7722,17.5091 43.9784,37.1399 3.3984,50.4478 61.8154,4.9031 67.4198,25.3001 26.0663,54.3051 75.3944,-17.8626 58.5197,-0.5174 30.6542,24.136 55.2047,-17.5317 80.8917,-25.2718 60.142,3.8604 -0.1027,-7.5143 49.2761,-52.439 124.1673,6.0095 -2.7565,-31.1206 22.0014,-38.2434 47.0775,4.1425 -9.4076,-46.388 75.1003,-35.3027 120.1004,-21.9477 -23.4038,-27.596 23.3278,-32.4894 61.3484,-27.9465 -70.0204,-27.1986 -20.1326,-37.1947 23.7585,-40.991 -38.6409,-8.2565 -46.0149,-17.7023 24.8479,-30.1205 -54.2063,0.5453 -107.1461,-18.2964 -42.3609,-37.293 -43.3293,2.6942 -77.1352,-4.7901 -47.0344,-56.482 -33.4051,28.6608 -106.6646,45.2831 -117.2262,-11.6861 -31.2095,42.5189 -57.9884,44.9985 -75.5256,9.285 -5.3964,15.5921 -29.6277,22.0925 -50.3332,23.3881 -8.211,-5.8974 -16.7431,-13.9831 -25.7179,-24.6395 -13.3702,23.2975 -33.9693,39.3614 -75.5256,9.2839 z"
       id="path3549-3-7-9-6"
       inkscape:connector-curvature="0"
       sodipodi:nodetypes="cccccccccccccccccccc" />
    <path
       style="fill:#ffffff;fill-rule:evenodd;stroke:none;stroke-width:1px;stroke-linecap:butt;stroke-linejoin:miter;stroke-opacity:1"
       d="m 1898.8813,2451.7612 c 42.1845,-19.5414 70.0418,-49.0032 96.7552,-81.9101 -13.1979,1.1047 -25.5175,2.2354 -38.607,4.1405 43.281,-46.672 75.3438,-81.9823 86.1468,-97.7689 20.0156,-39.712 -8.5318,-31.4429 -30.6261,0.5558 -15.3856,23.3313 -64.2407,81.9966 -95.3964,117.5241 l 38.8332,-3.5957 c -11.3666,17.29 -37.7387,44.1736 -57.1057,61.0543 z"
       id="path1111-3"
       inkscape:connector-curvature="0"
       sodipodi:nodetypes="cccccccc" />
    <path
       style="color:#000000;display:inline;overflow:visible;visibility:visible;fill:#ffffff;fill-opacity:1;fill-rule:nonzero;stroke:none;stroke-width:0.999998px;marker:none;enable-background:accumulate"
       d="m 799.91121,1322.9095 c 12.09998,40.2931 0.7359,97.4999 -82.41882,127.139 67.88362,-35.9777 55.50716,-89.1882 53.98696,-117.9025 C 758.78158,1092.3042 423.05815,974.65211 346.8056,1011.7822 l 4.83646,-35.57511 c 346.83972,1.96835 465.22644,318.36431 448.26915,346.70241 z"
       id="path4440-3"
       inkscape:connector-curvature="0"
       sodipodi:nodetypes="ccsccc" />
    <path
       style="display:inline;fill:#ffffff;fill-opacity:1;stroke:none;stroke-width:0.91128129"
       d="m 364.17874,883.75493 c -46.14619,0.18168 -93.24044,4.66276 -134.16924,16.90443 -44.86791,14.16051 -72.44592,42.64335 -71.48972,71.00242 -1.42755,26.46693 -5.76522,53.27822 3.64318,79.46872 6.82932,18.6431 19.05743,37.2941 42.04501,51.7819 19.01479,10.6018 46.05574,15.4067 72.4079,16.8253 42.48009,3.4282 85.04304,6.8061 127.90335,8.3775 57.68979,1.38 115.28322,-1.688 172.8259,-3.4805 31.6344,-1.4499 63.76396,-3.483 93.44617,-10.0495 28.14621,-7.3817 48.00856,-22.2618 57.3275,-38.412 13.09086,-20.8401 11.75842,-43.2327 10.83759,-64.9664 -0.72043,-19.08264 -2.98193,-38.68474 -16.83395,-56.43634 -14.62326,-19.81673 -41.85016,-36.66291 -75.85669,-46.92237 -20.76998,-6.63319 -44.39431,-9.6039 -67.567,-12.49219 -64.59407,-8.5102 -131.20048,-11.21205 -197.44796,-11.57773 -5.69046,-0.0302 -11.38136,-0.0293 -17.07204,-0.0233 z"
       id="path3238-0"
       inkscape:connector-curvature="0"
       sodipodi:nodetypes="cssssc" />
    <path
       style="color:#000000;display:inline;overflow:visible;visibility:visible;fill:#ffffff;fill-opacity:1;fill-rule:nonzero;stroke:none;stroke-width:0.96550924px;marker:none;enable-background:accumulate"
       d="m 729.64793,1217.2051 c -30.1799,0.6817 -60.51289,14.2381 -80.05527,38.6658 -10.89638,15.1407 -12.72263,35.7027 -8.15308,53.6491 4.81718,20.6712 20.25376,38.1618 39.54202,44.8788 23.53745,9.5741 48.69341,13.4343 73.56073,17.1229 41.03961,4.9944 83.81694,-1.1398 120.89363,-20.7028 13.70219,-7.8231 23.43378,-22.2684 26.76591,-38.1343 6.19938,-24.3081 -1.43714,-52.2818 -20.05464,-68.4983 -12.87576,-10.7159 -29.10996,-15.4084 -44.86201,-19.2247 -28.94494,-6.5168 -58.68529,-7.0741 -88.16798,-7.6652 -6.48933,-0.092 -12.97948,-0.099 -19.46931,-0.092 z"
       id="path3365-74"
       inkscape:connector-curvature="0"
       sodipodi:nodetypes="csssssc" />
  </g>
  <g
     inkscape:groupmode="layer"
     inkscape:label="txt"
     id="layer1">
    <text
       inkscape:label="pepperA"
       xml:space="preserve"
       style="font-style:normal;font-variant:normal;font-weight:normal;font-stretch:normal;line-height:0%;font-family:Lavi;-inkscape-font-specification:Lavi;text-align:center;letter-spacing:0px;word-spacing:0px;text-anchor:middle;fill:#000000;fill-opacity:1;stroke:none"
       x="-236.69489"
       y="964.68097"
       id="text4246-3-2-2" />
    <text
       inkscape:label="pepperB"
       xml:space="preserve"
       style="font-style:normal;font-variant:normal;font-weight:normal;font-stretch:normal;line-height:0%;font-family:Lavi;-inkscape-font-specification:Lavi;text-align:center;letter-spacing:0px;word-spacing:0px;text-anchor:middle;fill:#000000;fill-opacity:1;stroke:none"
       x="434.85455"
       y="968.37909"
       id="text4246-3-2-9-6"><tspan
         id="tspan73"
         sodipodi:role="line"
         style="font-size:45px;line-height:1.25"
         x="434.85455"
         y="968.37909">Și acum că știți regulile,</tspan><tspan
         id="tspan118"
         sodipodi:role="line"
         style="font-size:45px;line-height:1.25"
         x="441.8858"
         y="1024.8147">hai să resetez scorul, și </tspan><tspan
         sodipodi:role="line"
         style="font-size:45px;line-height:1.25"
         x="434.85455"
         y="1081.2502"
         id="tspan972">o luați de la capăt!</tspan></text>
    <text
       inkscape:label="pepperC"
       xml:space="preserve"
       style="font-style:normal;font-variant:normal;font-weight:normal;font-stretch:normal;font-size:10.9475px;line-height:0%;font-family:Lavi;-inkscape-font-specification:Lavi;text-align:center;letter-spacing:0px;word-spacing:0px;text-anchor:middle;fill:#000000;fill-opacity:1;stroke:none;stroke-width:0.999998"
       x="779.69745"
       y="1277.8757"
       id="text4246-3-2-9"><tspan
         id="tspan65"
         sodipodi:role="line"
         style="font-size:41.0531px;line-height:1.25;stroke-width:0.999998"
         x="779.69745"
         y="1277.8757">Așa e</tspan><tspan
         id="tspan133"
         sodipodi:role="line"
         style="font-size:41.0531px;line-height:1.25;stroke-width:0.999998"
         x="779.69745"
         y="1329.3615">mai corect.</tspan></text>
    <text
       inkscape:label="scoreP1"
       transform="matrix(0.58085508,0.0196807,-0.00871911,0.96825701,795.76505,769.46879)"
       id="text4580-6-0-0-3-3-8-1"
       y="1584.5073"
       x="787.65729"
       style="font-style:normal;font-variant:normal;font-weight:normal;font-stretch:normal;line-height:0%;font-family:Lavi;-inkscape-font-specification:Lavi;letter-spacing:3.03024px;word-spacing:0px;opacity:0.414404;fill:#fff4b7;fill-opacity:1;stroke:#aa7640;stroke-width:1.71056;stroke-miterlimit:4;stroke-dasharray:none;stroke-opacity:1;filter:url(#filter4375-4-1-1-1-9-5-8-8-3-3-3-6-1-6)"
       xml:space="preserve"><tspan
         style="font-style:normal;font-variant:normal;font-weight:bold;font-stretch:normal;font-size:64.9472px;line-height:1.25;font-family:Drukah;-inkscape-font-specification:'Drukah Bold';fill:#fff4b7;fill-opacity:1;stroke:#aa7640;stroke-width:1.71056;stroke-miterlimit:4;stroke-dasharray:none;stroke-opacity:1"
         y="1584.5073"
         x="787.65729"
         id="tspan4582-1-1-0-6-9-9-4"
         sodipodi:role="line">64</tspan></text>
    <text
       inkscape:label="scoreP2"
       transform="matrix(0.64289671,-0.04761937,-0.00965042,1.1409372,796.71425,531.51997)"
       id="text4580-6-0-0-3-36-7"
       y="1584.5073"
       x="787.65729"
       style="font-style:normal;font-variant:normal;font-weight:normal;font-stretch:normal;line-height:0%;font-family:Lavi;-inkscape-font-specification:Lavi;letter-spacing:1.14398px;word-spacing:0px;opacity:0.526676;fill:#b5ffe1;fill-opacity:1;stroke:#316983;stroke-width:1.49852;stroke-miterlimit:4;stroke-dasharray:none;stroke-opacity:1;filter:url(#filter4375-4-1-1-1-9-5-8-8-3-3-7-4-1)"
       xml:space="preserve"><tspan
         style="font-style:normal;font-variant:normal;font-weight:bold;font-stretch:normal;font-size:69.5991px;line-height:1.25;font-family:Drukah;-inkscape-font-specification:'Drukah Bold';fill:#b5ffe1;fill-opacity:1;stroke:#316983;stroke-width:1.49852;stroke-miterlimit:4;stroke-dasharray:none;stroke-opacity:1"
         y="1584.5073"
         x="787.65729"
         id="tspan4582-1-1-0-6-1-4"
         sodipodi:role="line">45</tspan></text>
    <text
       inkscape:label="scoreP3"
       xml:space="preserve"
       style="font-style:normal;font-variant:normal;font-weight:normal;font-stretch:normal;line-height:0%;font-family:Lavi;-inkscape-font-specification:Lavi;letter-spacing:3.03024px;word-spacing:0px;opacity:0.504709;fill:#fff4b7;fill-opacity:1;stroke:#aa7640;stroke-width:1.32415;stroke-miterlimit:4;stroke-dasharray:none;stroke-opacity:1;filter:url(#filter4375-4-1-1-1-9-5-8-8-3-3-3-6-1-6)"
       x="787.65729"
       y="1584.5073"
       id="text4580-6-0-0-3-3-8"
       transform="matrix(0.76490014,0.02494015,-0.01148179,1.2270126,757.96076,313.10087)"><tspan
         sodipodi:role="line"
         id="tspan4582-1-1-0-6-9-9"
         x="787.65729"
         y="1584.5073"
         style="font-style:normal;font-variant:normal;font-weight:bold;font-stretch:normal;font-size:64.9472px;line-height:1.25;font-family:Drukah;-inkscape-font-specification:'Drukah Bold';fill:#fff4b7;fill-opacity:1;stroke:#aa7640;stroke-width:1.32415;stroke-miterlimit:4;stroke-dasharray:none;stroke-opacity:1">6</tspan></text>
    <text
       inkscape:label="scoreP4"
       xml:space="preserve"
       style="font-style:normal;font-variant:normal;font-weight:normal;font-stretch:normal;line-height:0%;font-family:Lavi;-inkscape-font-specification:Lavi;letter-spacing:2.67495px;word-spacing:0px;opacity:0.615798;fill:#b5ffe1;fill-opacity:1;stroke:#316983;stroke-width:1.33932;stroke-miterlimit:4;stroke-dasharray:none;stroke-opacity:1;filter:url(#filter4375-4-1-1-1-9-5-8-8-3-3-7-4-1)"
       x="787.65729"
       y="1584.5073"
       id="text4580-6-0-0-3-36"
       transform="matrix(0.79148797,-0.04842097,-0.01188089,1.1601433,778.60793,463.05385)"><tspan
         sodipodi:role="line"
         id="tspan4582-1-1-0-6-1"
         x="787.65729"
         y="1584.5073"
         style="font-style:normal;font-variant:normal;font-weight:bold;font-stretch:normal;font-size:69.5991px;line-height:1.25;font-family:Drukah;-inkscape-font-specification:'Drukah Bold';fill:#b5ffe1;fill-opacity:1;stroke:#316983;stroke-width:1.33932;stroke-miterlimit:4;stroke-dasharray:none;stroke-opacity:1">2</tspan></text>
    <text
       inkscape:label="scoreP5"
       xml:space="preserve"
       style="font-style:normal;font-variant:normal;font-weight:normal;font-stretch:normal;line-height:0%;font-family:Lavi;-inkscape-font-specification:Lavi;letter-spacing:3.03024px;word-spacing:0px;opacity:0.67509;fill:#fff4b7;fill-opacity:1;stroke:#aa7640;stroke-width:1.47551;stroke-miterlimit:4;stroke-dasharray:none;stroke-opacity:1;filter:url(#filter4375-4-1-1-1-9-5-8-8-3-3-3-6-1-6)"
       x="787.65729"
       y="1584.5073"
       id="text4580-6-0-0-3-3-8-3-1"
       transform="matrix(0.72200038,0.02127932,-0.01083782,1.0469063,876.7455,580.14461)"><tspan
         sodipodi:role="line"
         id="tspan4582-1-1-0-6-9-9-7-0"
         x="787.65729"
         y="1584.5073"
         style="font-style:normal;font-variant:normal;font-weight:bold;font-stretch:normal;font-size:64.9472px;line-height:1.25;font-family:Lavi;-inkscape-font-specification:'Lavi Bold';fill:#fff4b7;fill-opacity:1;stroke:#aa7640;stroke-width:1.47551;stroke-miterlimit:4;stroke-dasharray:none;stroke-opacity:1">0</tspan></text>
    <text
       inkscape:label="scoreP6"
       xml:space="preserve"
       style="font-style:normal;font-variant:normal;font-weight:normal;font-stretch:normal;line-height:0%;font-family:Lavi;-inkscape-font-specification:Lavi;letter-spacing:2.67495px;word-spacing:0px;fill:#b5ffe1;fill-opacity:1;stroke:#316983;stroke-width:1.39562;stroke-miterlimit:4;stroke-dasharray:none;stroke-opacity:1;filter:url(#filter4375-4-1-1-1-9-5-8-8-3-3-7-4-1)"
       x="787.65729"
       y="1584.5073"
       id="text4580-6-0-0-3-36-4-4"
       transform="matrix(0.74585099,-0.04732194,-0.01119584,1.1338115,921.63161,494.98929)"><tspan
         sodipodi:role="line"
         id="tspan4582-1-1-0-6-1-3-8"
         x="787.65729"
         y="1584.5073"
         style="font-style:normal;font-variant:normal;font-weight:bold;font-stretch:normal;font-size:69.5991px;line-height:1.25;font-family:Lavi;-inkscape-font-specification:'Lavi Bold';fill:#b5ffe1;fill-opacity:1;stroke:#316983;stroke-width:1.39562;stroke-miterlimit:4;stroke-dasharray:none;stroke-opacity:1">0</tspan></text>
    <text
       inkscape:label="scoreP7"
       transform="matrix(1.1433172,0.03174263,-0.01716214,1.5616829,712.82242,-239.84599)"
       id="text4580-6-0-0-3-3-8-3"
       y="1584.5073"
       x="787.65729"
       style="font-style:normal;font-variant:normal;font-weight:normal;font-stretch:normal;line-height:0%;font-family:Lavi;-inkscape-font-specification:Lavi;letter-spacing:3.03024px;word-spacing:0px;fill:#fff4b7;fill-opacity:1;stroke:#aa7640;stroke-width:0.960021;stroke-miterlimit:4;stroke-dasharray:none;stroke-opacity:1;filter:url(#filter4375-4-1-1-1-9-5-8-8-3-3-3-6-1-6)"
       xml:space="preserve"><tspan
         style="font-style:normal;font-variant:normal;font-weight:bold;font-stretch:normal;font-size:64.9472px;line-height:1.25;font-family:Lavi;-inkscape-font-specification:'Lavi Bold';fill:#fff4b7;fill-opacity:1;stroke:#aa7640;stroke-width:0.960021;stroke-miterlimit:4;stroke-dasharray:none;stroke-opacity:1"
         y="1584.5073"
         x="787.65729"
         id="tspan4582-1-1-0-6-9-9-7"
         sodipodi:role="line">0</tspan></text>
    <text
       inkscape:label="scoreP8"
       transform="matrix(1.3732529,-0.07679437,-0.02061366,1.8399568,668.51631,-563.0911)"
       id="text4580-6-0-0-3-36-4-4-6"
       y="1584.5073"
       x="787.65729"
       style="font-style:normal;font-variant:normal;font-weight:normal;font-stretch:normal;line-height:0%;font-family:Lavi;-inkscape-font-specification:Lavi;letter-spacing:2.67495px;word-spacing:0px;fill:#b5ffe1;fill-opacity:1;stroke:#316983;stroke-width:0.807391;stroke-miterlimit:4;stroke-dasharray:none;stroke-opacity:1;filter:url(#filter4375-4-1-1-1-9-5-8-8-3-3-7-4-1)"
       xml:space="preserve"><tspan
         style="font-style:normal;font-variant:normal;font-weight:bold;font-stretch:normal;font-size:69.5991px;line-height:1.25;font-family:Lavi;-inkscape-font-specification:'Lavi Bold';fill:#b5ffe1;fill-opacity:1;stroke:#316983;stroke-width:0.807391;stroke-miterlimit:4;stroke-dasharray:none;stroke-opacity:1"
         y="1584.5073"
         x="787.65729"
         id="tspan4582-1-1-0-6-1-3-8-2"
         sodipodi:role="line">0</tspan></text>
    <text
       inkscape:label="scoreC1"
       transform="matrix(0.7183239,0.04312147,-0.01078263,0.98679735,571.61175,959.64749)"
       id="text4580-6-0-0-3-3-8-8"
       y="1584.5073"
       x="787.65729"
       style="font-style:normal;font-variant:normal;font-weight:normal;font-stretch:normal;line-height:0%;font-family:Lavi;-inkscape-font-specification:Lavi;letter-spacing:3.03024px;word-spacing:0px;opacity:0.39945;fill:#fff4b7;fill-opacity:1;stroke:#aa7640;stroke-width:1.5234;stroke-miterlimit:4;stroke-dasharray:none;stroke-opacity:1;filter:url(#filter4375-4-1-1-1-9-5-8-8-3-3-3-6-1-6)"
       xml:space="preserve"><tspan
         style="font-style:normal;font-variant:normal;font-weight:bold;font-stretch:normal;font-size:64.9472px;line-height:1.25;font-family:Drukah;-inkscape-font-specification:'Drukah Bold';fill:#fff4b7;fill-opacity:1;stroke:#aa7640;stroke-width:1.5234;stroke-miterlimit:4;stroke-dasharray:none;stroke-opacity:1"
         y="1584.5073"
         x="787.65729"
         id="tspan4582-1-1-0-6-9-9-1"
         sodipodi:role="line">9</tspan></text>
    <text
       inkscape:label="scoreC2"
       transform="matrix(0.66279197,-0.29884292,-0.00994906,0.95956644,654.27727,1292.5405)"
       id="text4580-6-0-0-3-36-1"
       y="1584.5073"
       x="787.65729"
       style="font-style:normal;font-variant:normal;font-weight:normal;font-stretch:normal;line-height:0%;font-family:Lavi;-inkscape-font-specification:Lavi;letter-spacing:2.67495px;word-spacing:0px;opacity:0.600398;fill:#b5ffe1;fill-opacity:1;stroke:#316983;stroke-width:1.61255;stroke-miterlimit:4;stroke-dasharray:none;stroke-opacity:1;filter:url(#filter4375-4-1-1-1-9-5-8-8-3-3-7-4-1)"
       xml:space="preserve"><tspan
         style="font-style:normal;font-variant:normal;font-weight:bold;font-stretch:normal;font-size:69.5991px;line-height:1.25;font-family:Drukah;-inkscape-font-specification:'Drukah Bold';fill:#b5ffe1;fill-opacity:1;stroke:#316983;stroke-width:1.61255;stroke-miterlimit:4;stroke-dasharray:none;stroke-opacity:1"
         y="1584.5073"
         x="787.65729"
         id="tspan4582-1-1-0-6-1-9"
         sodipodi:role="line">5</tspan></text>
    <text
       inkscape:label="scoreC3"
       transform="matrix(0.63993057,0.10211521,-0.00960589,1.0634303,721.841,832.98518)"
       id="text4580-6-0-0-3-3-8-3-1-3"
       y="1584.5073"
       x="787.65729"
       style="font-style:normal;font-variant:normal;font-weight:normal;font-stretch:normal;line-height:0%;font-family:Lavi;-inkscape-font-specification:Lavi;letter-spacing:3.03024px;word-spacing:0px;fill:#fff4b7;fill-opacity:1;stroke:#aa7640;stroke-width:1.55416;stroke-miterlimit:4;stroke-dasharray:none;stroke-opacity:1;filter:url(#filter4375-4-1-1-1-9-5-8-8-3-3-3-6-1-6)"
       xml:space="preserve"><tspan
         style="font-style:normal;font-variant:normal;font-weight:bold;font-stretch:normal;font-size:64.9472px;line-height:1.25;font-family:Lavi;-inkscape-font-specification:'Lavi Bold';fill:#fff4b7;fill-opacity:1;stroke:#aa7640;stroke-width:1.55416;stroke-miterlimit:4;stroke-dasharray:none;stroke-opacity:1"
         y="1584.5073"
         x="787.65729"
         id="tspan4582-1-1-0-6-9-9-7-0-9"
         sodipodi:role="line">0</tspan></text>
    <text
       inkscape:label="scoreC4"
       transform="matrix(0.62043393,0.0078806,-0.00931322,1.1023271,815.30942,907.10667)"
       id="text4580-6-0-0-3-36-4-4-3"
       y="1584.5073"
       x="787.65729"
       style="font-style:normal;font-variant:normal;font-weight:normal;font-stretch:normal;line-height:0%;font-family:Lavi;-inkscape-font-specification:Lavi;letter-spacing:2.67495px;word-spacing:0px;fill:#b5ffe1;fill-opacity:1;stroke:#316983;stroke-width:1.55131;stroke-miterlimit:4;stroke-dasharray:none;stroke-opacity:1;filter:url(#filter4375-4-1-1-1-9-5-8-8-3-3-7-4-1)"
       xml:space="preserve"><tspan
         style="font-style:normal;font-variant:normal;font-weight:bold;font-stretch:normal;font-size:69.5991px;line-height:1.25;font-family:Lavi;-inkscape-font-specification:'Lavi Bold';fill:#b5ffe1;fill-opacity:1;stroke:#316983;stroke-width:1.55131;stroke-miterlimit:4;stroke-dasharray:none;stroke-opacity:1"
         y="1584.5073"
         x="787.65729"
         id="tspan4582-1-1-0-6-1-3-8-1"
         sodipodi:role="line">0</tspan></text>
    <text
       inkscape:label="scoreC5"
       xml:space="preserve"
       style="font-style:normal;font-variant:normal;font-weight:normal;font-stretch:normal;line-height:0%;font-family:Lavi;-inkscape-font-specification:Lavi;letter-spacing:3.03024px;word-spacing:0px;fill:#fff4b7;fill-opacity:1;stroke:#aa7640;stroke-width:0.980281;stroke-miterlimit:4;stroke-dasharray:none;stroke-opacity:1;filter:url(#filter4375-4-1-1-1-9-5-8-8-3-3-3-6-1-6)"
       x="787.65729"
       y="1584.5073"
       id="text4580-6-0-0-3-3-8-3-10"
       transform="matrix(0.99320406,0.12366577,-0.01490882,1.7228446,613.7137,-57.733034)"><tspan
         sodipodi:role="line"
         id="tspan4582-1-1-0-6-9-9-7-3"
         x="787.65729"
         y="1584.5073"
         style="font-style:normal;font-variant:normal;font-weight:bold;font-stretch:normal;font-size:64.9472px;line-height:1.25;font-family:Lavi;-inkscape-font-specification:'Lavi Bold';fill:#fff4b7;fill-opacity:1;stroke:#aa7640;stroke-width:0.980281;stroke-miterlimit:4;stroke-dasharray:none;stroke-opacity:1">0</tspan></text>
    <text
       inkscape:label="weaponFXA"
       xml:space="preserve"
       style="font-style:normal;font-variant:normal;font-weight:normal;font-stretch:normal;line-height:0%;font-family:Lavi;-inkscape-font-specification:Lavi;letter-spacing:0px;word-spacing:0px;opacity:1;mix-blend-mode:normal;fill:#ffffff;fill-opacity:1;stroke:#98b9ca;stroke-width:1.27857;stroke-miterlimit:4;stroke-dasharray:none;stroke-opacity:1;filter:url(#filter4375-4-1-1-1-9-5-8-6-4)"
       x="787.65729"
       y="1584.5073"
       id="text4580-6-0-06-9-3-7"
       transform="matrix(0.51552495,0.09969835,-0.36461778,0.72279881,2190.7581,1253.6202)"><tspan
         sodipodi:role="line"
         id="tspan4582-1-1-2-63-0-5"
         x="787.65729"
         y="1584.5073"
         style="font-size:70px;line-height:1.25;fill:#ffffff;fill-opacity:1;stroke:#98b9ca;stroke-width:1.27857;stroke-opacity:1"><tspan
           style="font-size:93.1495px;fill:#ffffff;fill-opacity:1;stroke:#98b9ca;stroke-width:1.27857;stroke-opacity:1"
           id="tspan4315-8-6-8-9-4">Șsing!</tspan></tspan></text>
    <text
       inkscape:label="weaponFXB"
       transform="matrix(0.4023734,0.40258973,-0.70109371,0.37963743,2672.7552,1828.2703)"
       id="text4580-6-0-06-9-3-7-4"
       y="1584.5073"
       x="787.65729"
       style="font-style:normal;font-variant:normal;font-weight:normal;font-stretch:normal;line-height:0%;font-family:Lavi;-inkscape-font-specification:Lavi;letter-spacing:0px;word-spacing:0px;opacity:1;mix-blend-mode:normal;fill:#ffffff;fill-opacity:1;stroke:#98b9ca;stroke-width:1.23972;stroke-miterlimit:4;stroke-dasharray:none;stroke-opacity:1;filter:url(#filter4375-4-1-1-1-9-5-8-6-4)"
       xml:space="preserve"><tspan
         style="font-size:70px;line-height:1.25;fill:#ffffff;fill-opacity:1;stroke:#98b9ca;stroke-width:1.23972;stroke-opacity:1"
         y="1584.5073"
         x="787.65729"
         id="tspan4582-1-1-2-63-0-5-8"
         sodipodi:role="line"><tspan
           id="tspan4315-8-6-8-9-4-7"
           style="font-size:93.1495px;fill:#ffffff;fill-opacity:1;stroke:#98b9ca;stroke-width:1.23972;stroke-opacity:1">Zuuu!</tspan></tspan></text>
    <text
       inkscape:label="weaponFXC"
       xml:space="preserve"
       style="font-style:normal;font-variant:normal;font-weight:normal;font-stretch:normal;line-height:0%;font-family:Lavi;-inkscape-font-specification:Lavi;letter-spacing:0px;word-spacing:0px;opacity:1;mix-blend-mode:normal;fill:#ffffff;fill-opacity:1;stroke:#98b9ca;stroke-width:1.53096;stroke-miterlimit:4;stroke-dasharray:none;stroke-opacity:1;filter:url(#filter4375-4-1-1-1-9-5-8-6-4)"
       x="787.65729"
       y="1584.5073"
       id="text4580-6-0-06-9-3-7-4-4"
       transform="matrix(0.3827755,-0.26874723,0.21370456,0.59515549,1555.9951,2398.5686)"><tspan
         sodipodi:role="line"
         id="tspan4582-1-1-2-63-0-5-8-9"
         x="787.65729"
         y="1584.5073"
         style="font-size:70px;line-height:1.25;fill:#ffffff;fill-opacity:1;stroke:#98b9ca;stroke-width:1.53096;stroke-opacity:1"><tspan
           style="font-size:93.1495px;fill:#ffffff;fill-opacity:1;stroke:#98b9ca;stroke-width:1.53096;stroke-opacity:1"
           id="tspan4315-8-6-8-9-4-7-0">ciac!</tspan></tspan></text>
    <text
       inkscape:label="weaponFXD"
       transform="matrix(0.39417058,-0.24452937,0.22006646,0.54152369,989.12821,2486.0635)"
       id="text4580-6-0-06-9-3-7-4-4-6"
       y="1584.5073"
       x="787.65729"
       style="font-style:normal;font-variant:normal;font-weight:normal;font-stretch:normal;line-height:0%;font-family:Lavi;-inkscape-font-specification:Lavi;letter-spacing:0px;word-spacing:0px;opacity:1;mix-blend-mode:normal;fill:#ffffff;fill-opacity:1;stroke:#98b9ca;stroke-width:1.58161;stroke-miterlimit:4;stroke-dasharray:none;stroke-opacity:1;filter:url(#filter4375-4-1-1-1-9-5-8-6-4)"
       xml:space="preserve"><tspan
         style="font-size:70px;line-height:1.25;fill:#ffffff;fill-opacity:1;stroke:#98b9ca;stroke-width:1.58161;stroke-opacity:1"
         y="1584.5073"
         x="787.65729"
         id="tspan4582-1-1-2-63-0-5-8-9-5"
         sodipodi:role="line"><tspan
           id="tspan4315-8-6-8-9-4-7-0-6"
           style="font-size:93.1495px;fill:#ffffff;fill-opacity:1;stroke:#98b9ca;stroke-width:1.58161;stroke-opacity:1">poc!</tspan></tspan></text>
    <text
       inkscape:label="pepperE"
       xml:space="preserve"
       style="font-style:normal;font-variant:normal;font-weight:normal;font-stretch:normal;font-size:13.6968px;line-height:0%;font-family:Lavi;-inkscape-font-specification:Lavi;text-align:center;letter-spacing:0px;word-spacing:0px;text-anchor:middle;fill:#000000;fill-opacity:1;stroke:none;stroke-width:1"
       x="2020.1263"
       y="2047.2339"
       id="text4246-3-2-9-6-6-0"><tspan
         sodipodi:role="line"
         style="font-style:normal;font-variant:normal;font-weight:bold;font-stretch:normal;font-size:51.3627px;line-height:1.25;font-family:Lavi;-inkscape-font-specification:'Lavi Bold';stroke-width:1"
         x="2020.1263"
         y="2047.2339"
         id="tspan4378-7">Fugi mai repede,</tspan><tspan
         id="tspan114"
         sodipodi:role="line"
         style="font-style:normal;font-variant:normal;font-weight:bold;font-stretch:normal;font-size:51.3627px;line-height:1.25;font-family:Lavi;-inkscape-font-specification:'Lavi Bold';stroke-width:1"
         x="2020.1263"
         y="2111.4373">Carrot!</tspan></text>
    <text
       inkscape:label="pepperF"
       xml:space="preserve"
       style="font-style:normal;font-variant:normal;font-weight:normal;font-stretch:normal;line-height:0%;font-family:Lavi;-inkscape-font-specification:Lavi;text-align:center;letter-spacing:0px;word-spacing:0px;text-anchor:middle;fill:#000000;fill-opacity:1;stroke:none"
       x="2048.5525"
       y="2187.1824"
       id="text4246-3-2-9-6-6-0-3"><tspan
         id="tspan141"
         sodipodi:role="line"
         style="font-size:45px;line-height:1.25"
         x="2048.5525"
         y="2187.1824">Vraja nu</tspan><tspan
         id="tspan140"
         sodipodi:role="line"
         style="font-size:45px;line-height:1.25"
         x="2048.5525"
         y="2243.4324">o să mai țină</tspan><tspan
         id="tspan142"
         sodipodi:role="line"
         style="font-size:45px;line-height:1.25"
         x="2048.5525"
         y="2299.8679">prea mult!</tspan></text>
    <text
       inkscape:label="fin"
       xml:space="preserve"
       style="font-style:normal;font-variant:normal;font-weight:normal;font-stretch:normal;font-size:10.7631px;line-height:0%;font-family:Lavi;-inkscape-font-specification:Lavi;text-align:center;letter-spacing:0px;word-spacing:0px;text-anchor:middle;display:inline;opacity:1;fill:#241c1c;fill-opacity:1;stroke:#000000;stroke-width:0;stroke-miterlimit:4;stroke-dasharray:none;stroke-opacity:1"
       x="2454.97"
       y="2985.2324"
       id="text4213-7"
       transform="matrix(0.85852879,0,-0.29243083,1.1647833,0,0)"><tspan
         sodipodi:role="line"
         id="tspan3562-5"
         x="2454.97"
         y="2985.2324"
         style="font-style:normal;font-variant:normal;font-weight:bold;font-stretch:normal;font-size:64.7408px;line-height:1.25;font-family:Lavi;-inkscape-font-specification:'Lavi Bold';fill:#000000;fill-opacity:1;stroke:none;stroke-width:0;stroke-miterlimit:4;stroke-dasharray:none">- SFÂRȘIT -</tspan></text>
  </g>
</svg>
