{
   "id": 14,
   "original-language": "fr",
   "supporters": 671,
   "published": "2016-01-29",
   "pluxmlID": 350,
   "background-color": "#FFFFFF",
   "credits": {
      "art":[
         "David Revoy <https://framagit.org/Deevad>"
      ],
      "scenario":[
         "David Revoy <https://framagit.org/Deevad>"
      ]
   },
   "software":[
      {
         "name": "Krita",
         "version": "2.9.10"
      },
      {
         "name": "Inkscape",
         "version": "0.91"
      },
      {
         "name": "Linux Mint",
         "version": "17"
      }
   ]
}
