<?xml version="1.0" encoding="UTF-8" standalone="no"?>
<svg
   id="svg2"
   version="1.1"
   inkscape:version="1.1 (c68e22c387, 2021-05-23)"
   width="2481"
   height="3503"
   sodipodi:docname="E09P05.svg"
   xmlns:inkscape="http://www.inkscape.org/namespaces/inkscape"
   xmlns:sodipodi="http://sodipodi.sourceforge.net/DTD/sodipodi-0.dtd"
   xmlns:xlink="http://www.w3.org/1999/xlink"
   xmlns="http://www.w3.org/2000/svg"
   xmlns:svg="http://www.w3.org/2000/svg"
   xmlns:rdf="http://www.w3.org/1999/02/22-rdf-syntax-ns#"
   xmlns:cc="http://creativecommons.org/ns#"
   xmlns:dc="http://purl.org/dc/elements/1.1/">
  <sodipodi:namedview
     pagecolor="#ffffff"
     bordercolor="#666666"
     inkscape:pageopacity="0"
     inkscape:pageshadow="2"
     inkscape:window-width="1920"
     inkscape:window-height="1057"
     id="namedview70"
     showgrid="false"
     inkscape:zoom="0.28284271"
     inkscape:cx="1106.6221"
     inkscape:cy="1603.3646"
     inkscape:current-layer="layer1"
     inkscape:document-rotation="0"
     inkscape:window-x="1358"
     inkscape:window-y="-8"
     inkscape:window-maximized="1"
     borderopacity="1.0"
     inkscape:pagecheckerboard="0" />
  <metadata
     id="metadata8">
    <rdf:RDF>
      <cc:Work
         rdf:about="">
        <dc:format>image/svg+xml</dc:format>
        <dc:type
           rdf:resource="http://purl.org/dc/dcmitype/StillImage" />
        <dc:title />
      </cc:Work>
    </rdf:RDF>
  </metadata>
  <defs
     id="defs6">
    <filter
       style="color-interpolation-filters:sRGB"
       id="filter4375-4-1-1-1"
       inkscape:label="deevad outline effect">
      <feFlood
         id="feFlood4377-7-9-0-8"
         flood-opacity="1"
         flood-color="rgb(0,0,0)"
         result="flood" />
      <feComposite
         id="feComposite4379-3-8-8-2"
         in2="SourceGraphic"
         in="flood"
         operator="in"
         result="composite1" />
      <feMorphology
         id="feMorphology4393-1-0-49-8"
         operator="dilate"
         radius="4"
         result="result3" />
      <feComposite
         id="feComposite4385-9-5-7-0"
         in2="result3"
         in="SourceGraphic"
         operator="over"
         result="composite2" />
    </filter>
    <filter
       style="color-interpolation-filters:sRGB"
       id="filter4375-4-1-1-1-3"
       inkscape:label="deevad outline effect">
      <feFlood
         id="feFlood4377-7-9-0-8-3"
         flood-opacity="1"
         flood-color="rgb(0,0,0)"
         result="flood" />
      <feComposite
         id="feComposite4379-3-8-8-2-7"
         in2="SourceGraphic"
         in="flood"
         operator="in"
         result="composite1" />
      <feMorphology
         id="feMorphology4393-1-0-49-8-2"
         operator="dilate"
         radius="4"
         result="result3" />
      <feComposite
         id="feComposite4385-9-5-7-0-5"
         in2="result3"
         in="SourceGraphic"
         operator="over"
         result="composite2" />
    </filter>
    <filter
       style="color-interpolation-filters:sRGB"
       id="filter4375-4-1-1-1-8"
       inkscape:label="deevad outline effect">
      <feFlood
         id="feFlood4377-7-9-0-8-1"
         flood-opacity="1"
         flood-color="rgb(0,0,0)"
         result="flood" />
      <feComposite
         id="feComposite4379-3-8-8-2-1"
         in2="SourceGraphic"
         in="flood"
         operator="in"
         result="composite1" />
      <feMorphology
         id="feMorphology4393-1-0-49-8-4"
         operator="dilate"
         radius="4"
         result="result3" />
      <feComposite
         id="feComposite4385-9-5-7-0-6"
         in2="result3"
         in="SourceGraphic"
         operator="over"
         result="composite2" />
    </filter>
    <filter
       style="color-interpolation-filters:sRGB"
       id="filter4375-4-1-1-1-9"
       inkscape:label="deevad outline effect">
      <feFlood
         id="feFlood4377-7-9-0-8-5"
         flood-opacity="1"
         flood-color="rgb(0,0,0)"
         result="flood" />
      <feComposite
         id="feComposite4379-3-8-8-2-74"
         in2="SourceGraphic"
         in="flood"
         operator="in"
         result="composite1" />
      <feMorphology
         id="feMorphology4393-1-0-49-8-3"
         operator="dilate"
         radius="4"
         result="result3" />
      <feComposite
         id="feComposite4385-9-5-7-0-8"
         in2="result3"
         in="SourceGraphic"
         operator="over"
         result="composite2" />
    </filter>
  </defs>
  <sodipodi:namedview
     pagecolor="#ffffff"
     bordercolor="#666666"
     borderopacity="1"
     objecttolerance="10"
     gridtolerance="10"
     guidetolerance="10"
     inkscape:pageopacity="0"
     inkscape:pageshadow="2"
     inkscape:window-width="1920"
     inkscape:window-height="1025"
     id="namedview4"
     showgrid="false"
     inkscape:zoom="0.6956522"
     inkscape:cx="956.75173"
     inkscape:cy="786.33455"
     inkscape:window-x="0"
     inkscape:window-y="26"
     inkscape:window-maximized="1"
     inkscape:current-layer="layer1" />
  <g
     inkscape:groupmode="layer"
     id="layer2"
     inkscape:label="artwork"
     sodipodi:insensitive="true">
    <image
       xlink:href="../gfx_Pepper-and-Carrot_by-David-Revoy_E09P05.png"
       y="0"
       x="0"
       id="image10"
       height="3503"
       width="2481" />
  </g>
  <g
     inkscape:groupmode="layer"
     id="layer3"
     inkscape:label="speechbubbles" />
  <g
     inkscape:groupmode="layer"
     id="layer1"
     inkscape:label="txt">
    <path
       style="color:#000000;display:inline;overflow:visible;visibility:visible;fill:#ffffff;fill-opacity:1;fill-rule:nonzero;stroke:none;stroke-width:0.880972px;marker:none;enable-background:accumulate"
       d="m 1276.6666,2668.4656 c 34.8631,17.9366 70.4164,35.6747 8.4191,81.4808 58.8706,-11.8136 22.8532,13.5287 8.4191,30.4195 92.3867,-3.8326 -16.2994,71.4844 -42.1014,104.1917 23.4276,-13.0351 107.9665,-84.2802 100.2694,-49.871 7.4484,-2.3383 16.2128,-9.0348 19.8996,1.0864 9.4904,-6.9891 12.1895,-9.7183 16.3132,-5.2801 9.3275,-12.719 20.7942,-17.9369 16.758,-3.5746 16.0713,-18.889 14.4353,-4.5355 16.6777,0.1634 15.1345,-22.4959 20.7868,-16.1498 26.788,-10.8641 8.569,-13.5068 18.5967,-10.4476 29.8494,6.5184 11.5131,-22.9716 23.8848,-21.574 36.7377,-6.5184 3.7749,-5.659 21.7916,-16.0711 27.4683,4.9231 6.3711,-8.7424 22.8905,-27.9269 39.4099,-0.8075 13.2602,-20.747 44.9958,-22.5977 63.2344,3.4892 5.1798,-14.6166 24.1914,-28.4869 48.2182,-15.2096 2.246,-13.5579 15.1288,-19.0629 37.503,-17.3827 -22.9487,-16.3621 -24.1294,-25.677 29.0841,-17.3826 -37.09,-13.3991 -71.2702,-26.7981 -13.7766,-40.1972 -13.4657,-5.3195 -57.4791,7.1942 -9.1846,-56.4934 -34.2938,14.0563 -65.4261,17.7084 -75.006,-39.1108 -18.501,14.9425 -38.9855,22.3447 -55.1065,-11.9506 -14.6834,16.0691 -35.2279,12.2112 -45.9221,4.3456 -2.8936,17.5989 -24.7439,44.5895 -54.3413,-4.3456 6.4939,27.8138 1.5787,72.1151 -32.9108,-1.0864 -0.684,12.7338 13.5186,81.9829 -82.6598,-1.0865 11.9975,55.7329 -19.936,23.3035 -45.1569,4.3456 12.5067,34.9432 -6.3153,37.6454 -47.4527,17.3826 31.7347,33.179 -0.8959,24.0185 -21.4304,22.8148 z"
       id="path3549"
       inkscape:connector-curvature="0"
       sodipodi:nodetypes="ccccccccccccccccccccccccccccc" />
    <flowRoot
       xml:space="preserve"
       id="flowRoot3063-8"
       style="color:#000000;font-style:normal;font-variant:normal;font-weight:normal;font-stretch:normal;line-height:0.01%;font-family:Arial;-inkscape-font-specification:Arial;letter-spacing:0px;word-spacing:0px;display:inline;overflow:visible;visibility:visible;fill:#ffd42a;fill-opacity:1;fill-rule:nonzero;stroke:#ffd42a;stroke-width:4.38198;stroke-opacity:1;marker:none;enable-background:accumulate;font-size:77.18677797px"
       transform="matrix(0.94497198,-0.30283318,0.33037145,1.0309034,866.21843,878.47873)"><flowRegion
         id="flowRegion3065-8"
         style="stroke-width:4.38198;font-size:77.18677797px"><rect
           id="rect3067-6"
           width="248.66193"
           height="90.046997"
           x="92.642677"
           y="425.30325"
           style="color:#000000;display:inline;overflow:visible;visibility:visible;fill:#ffd42a;fill-opacity:1;fill-rule:nonzero;stroke:#ffd42a;stroke-width:4.3819828;stroke-opacity:1;marker:none;enable-background:accumulate;font-size:77.18677797px" /></flowRegion><flowPara
         style="color:#000000;font-style:normal;font-variant:normal;font-weight:normal;font-stretch:normal;line-height:1.25;font-family:'linja sike';text-align:center;text-anchor:middle;display:inline;overflow:visible;visibility:visible;fill:#ffd42a;fill-opacity:1;fill-rule:nonzero;stroke:#ffd42a;stroke-width:3.45423;stroke-miterlimit:4;stroke-dasharray:none;stroke-opacity:1;marker:none;enable-background:accumulate;font-size:77.18677797px"
         id="flowPara3188">mu+ike</flowPara></flowRoot>
    <flowRoot
       xml:space="preserve"
       id="flowRoot3063-8-0"
       style="color:#000000;font-style:normal;font-variant:normal;font-weight:normal;font-stretch:normal;line-height:0.01%;font-family:Arial;-inkscape-font-specification:Arial;letter-spacing:0px;word-spacing:0px;display:inline;overflow:visible;visibility:visible;fill:#ffd42a;fill-opacity:1;fill-rule:nonzero;stroke:#ffd42a;stroke-width:4.38198;stroke-opacity:1;marker:none;enable-background:accumulate;font-size:77.21190893px"
       transform="matrix(0.7449843,-0.21593102,0.2604538,0.73507145,1009.8852,1048.4176)"><flowRegion
         id="flowRegion3065-8-3"
         style="stroke-width:4.38198;font-size:77.21190893px"><rect
           id="rect3067-6-9"
           width="248.66193"
           height="90.046997"
           x="92.642677"
           y="425.30325"
           style="color:#000000;display:inline;overflow:visible;visibility:visible;fill:#ffd42a;fill-opacity:1;fill-rule:nonzero;stroke:#ffd42a;stroke-width:4.3819828;stroke-opacity:1;marker:none;enable-background:accumulate;font-size:77.21190893px" /></flowRegion><flowPara
         style="color:#000000;font-style:normal;font-variant:normal;font-weight:normal;font-stretch:normal;line-height:1.25;font-family:'linja sike';text-align:center;text-anchor:middle;display:inline;overflow:visible;visibility:visible;fill:#ffd42a;fill-opacity:1;fill-rule:nonzero;stroke:#ffd42a;stroke-width:3.45423;stroke-miterlimit:4;stroke-dasharray:none;stroke-opacity:1;marker:none;enable-background:accumulate;font-size:77.21190893px"
         id="flowPara3188-4">mu</flowPara></flowRoot>
    <flowRoot
       xml:space="preserve"
       id="flowRoot3063-8-03"
       style="color:#000000;font-style:normal;font-variant:normal;font-weight:normal;font-stretch:normal;line-height:0.01%;font-family:Arial;-inkscape-font-specification:Arial;letter-spacing:0px;word-spacing:0px;display:inline;overflow:visible;visibility:visible;fill:#ffc022;fill-opacity:1;fill-rule:nonzero;stroke:#ffc022;stroke-width:4.38198;stroke-opacity:1;marker:none;enable-background:accumulate;font-size:77.18677886px"
       transform="matrix(0.69985809,-0.7034761,0.76744698,0.76349997,-251.97938,298.69889)"><flowRegion
         id="flowRegion3065-8-1"
         style="stroke-width:4.38198;font-size:77.18677886px"><rect
           id="rect3067-6-8"
           width="423.32761"
           height="143.73161"
           x="92.642677"
           y="425.30325"
           style="color:#000000;display:inline;overflow:visible;visibility:visible;fill:#ffc022;fill-opacity:1;fill-rule:nonzero;stroke:#ffc022;stroke-width:4.38198;stroke-opacity:1;marker:none;enable-background:accumulate;font-size:77.18677886px" /></flowRegion><flowPara
         style="color:#000000;font-style:normal;font-variant:normal;font-weight:normal;font-stretch:normal;line-height:1.25;font-family:'linja sike';text-align:center;text-anchor:middle;display:inline;overflow:visible;visibility:visible;fill:#ffc022;fill-opacity:1;fill-rule:nonzero;stroke:#ffc022;stroke-width:3.45423;stroke-miterlimit:4;stroke-dasharray:none;stroke-opacity:1;marker:none;enable-background:accumulate;font-size:77.18677886px"
         id="flowPara3188-8">mu+ike mu+ike  mu+ikemu+ike  mu+ike</flowPara></flowRoot>
    <flowRoot
       xml:space="preserve"
       id="flowRoot3063-8-03-1"
       style="color:#000000;font-style:normal;font-variant:normal;font-weight:normal;font-stretch:normal;font-size:77.1868px;line-height:0.01%;font-family:Arial;-inkscape-font-specification:Arial;letter-spacing:0px;word-spacing:0px;display:inline;overflow:visible;visibility:visible;fill:#ffccaa;fill-opacity:1;fill-rule:nonzero;stroke:#ffccaa;stroke-width:4.38198;stroke-opacity:1;marker:none;enable-background:accumulate"
       transform="matrix(0.90934859,-0.39719657,0.43331581,0.99204057,317.39674,1086.6169)"><flowRegion
         id="flowRegion3065-8-1-9"
         style="font-size:77.1868px;stroke-width:4.38198"><rect
           id="rect3067-6-8-6"
           width="352.97433"
           height="120.68928"
           x="92.642677"
           y="425.30325"
           style="color:#000000;display:inline;overflow:visible;visibility:visible;fill:#ffccaa;fill-opacity:1;fill-rule:nonzero;stroke:#ffccaa;stroke-width:4.3819828;stroke-opacity:1;marker:none;enable-background:accumulate;font-size:77.18677858px" /></flowRegion><flowPara
         style="color:#000000;font-style:normal;font-variant:normal;font-weight:normal;font-stretch:normal;font-size:77.1868px;line-height:1.25;font-family:'linja sike';text-align:center;text-anchor:middle;display:inline;overflow:visible;visibility:visible;fill:#ffccaa;fill-opacity:1;fill-rule:nonzero;stroke:#ffccaa;stroke-width:3.45423;stroke-miterlimit:4;stroke-dasharray:none;stroke-opacity:1;marker:none;enable-background:accumulate"
         id="flowPara3188-8-3">mu+ike mu+ike</flowPara></flowRoot>
    <flowRoot
       xml:space="preserve"
       id="flowRoot3063-8-03-1-0"
       style="color:#000000;font-style:normal;font-variant:normal;font-weight:normal;font-stretch:normal;line-height:0.01%;font-family:Arial;-inkscape-font-specification:Arial;letter-spacing:0px;word-spacing:0px;display:inline;overflow:visible;visibility:visible;fill:#ffccaa;fill-opacity:1;fill-rule:nonzero;stroke:#ffccaa;stroke-width:4.38198;stroke-opacity:1;marker:none;enable-background:accumulate;font-size:72.23521908px"
       transform="matrix(0.77642497,-0.31599775,0.33354997,0.75284562,462.6793,1234.6959)"><flowRegion
         id="flowRegion3065-8-1-9-3"
         style="stroke-width:4.38198;font-size:72.23521908px"><rect
           id="rect3067-6-8-6-1"
           width="352.97433"
           height="120.68928"
           x="92.642677"
           y="425.30325"
           style="color:#000000;display:inline;overflow:visible;visibility:visible;fill:#ffccaa;fill-opacity:1;fill-rule:nonzero;stroke:#ffccaa;stroke-width:4.3819828;stroke-opacity:1;marker:none;enable-background:accumulate;font-size:72.23521908px" /></flowRegion><flowPara
         style="color:#000000;font-style:normal;font-variant:normal;font-weight:normal;font-stretch:normal;line-height:1.25;font-family:'linja sike';text-align:center;text-anchor:middle;display:inline;overflow:visible;visibility:visible;fill:#ffccaa;fill-opacity:1;fill-rule:nonzero;stroke:#ffccaa;stroke-width:3.45423;stroke-miterlimit:4;stroke-dasharray:none;stroke-opacity:1;marker:none;enable-background:accumulate;font-size:72.23521908px"
         id="flowPara3188-8-3-5">mumu+ike</flowPara></flowRoot>
    <flowRoot
       xml:space="preserve"
       id="flowRoot3063-8-9"
       style="color:#000000;font-style:normal;font-variant:normal;font-weight:normal;font-stretch:normal;line-height:0.01%;font-family:Arial;-inkscape-font-specification:Arial;letter-spacing:0px;word-spacing:0px;display:inline;overflow:visible;visibility:visible;fill:#6c6753;fill-opacity:1;fill-rule:nonzero;stroke:#6c6753;stroke-width:4.38198;stroke-opacity:1;marker:none;enable-background:accumulate;font-size:77.18677797px"
       transform="matrix(0.94497198,-0.30283318,0.33037145,1.0309034,1001.1473,1741.5055)"><flowRegion
         id="flowRegion3065-8-34"
         style="stroke-width:4.38198;font-size:77.18677797px"><rect
           id="rect3067-6-0"
           width="248.66193"
           height="90.046997"
           x="92.642677"
           y="425.30325"
           style="color:#000000;display:inline;overflow:visible;visibility:visible;fill:#6c6753;fill-opacity:1;fill-rule:nonzero;stroke:#6c6753;stroke-width:4.3819828;stroke-opacity:1;marker:none;enable-background:accumulate;font-size:77.18677797px" /></flowRegion><flowPara
         style="color:#000000;font-style:normal;font-variant:normal;font-weight:normal;font-stretch:normal;line-height:1.25;font-family:'linja sike';text-align:center;text-anchor:middle;display:inline;overflow:visible;visibility:visible;fill:#6c6753;fill-opacity:1;fill-rule:nonzero;stroke:#6c6753;stroke-width:3.45423;stroke-miterlimit:4;stroke-dasharray:none;stroke-opacity:1;marker:none;enable-background:accumulate;font-size:77.18677797px"
         id="flowPara3188-0">mu+ike</flowPara></flowRoot>
    <flowRoot
       xml:space="preserve"
       id="flowRoot3063-8-9-1"
       style="color:#000000;font-style:normal;font-variant:normal;font-weight:normal;font-stretch:normal;line-height:0.01%;font-family:Arial;-inkscape-font-specification:Arial;letter-spacing:0px;word-spacing:0px;display:inline;overflow:visible;visibility:visible;fill:#6c6753;fill-opacity:1;fill-rule:nonzero;stroke:#6c6753;stroke-width:4.38198;stroke-opacity:1;marker:none;enable-background:accumulate;font-size:77.03152205px"
       transform="matrix(0.78901976,-0.0275263,0.03366822,0.76773924,1211.2058,1869.8971)"><flowRegion
         id="flowRegion3065-8-34-7"
         style="stroke-width:4.38198;font-size:77.03152205px"><rect
           id="rect3067-6-0-3"
           width="248.66193"
           height="90.046997"
           x="92.642677"
           y="425.30325"
           style="color:#000000;display:inline;overflow:visible;visibility:visible;fill:#6c6753;fill-opacity:1;fill-rule:nonzero;stroke:#6c6753;stroke-width:4.3819828;stroke-opacity:1;marker:none;enable-background:accumulate;font-size:77.03152205px" /></flowRegion><flowPara
         style="color:#000000;font-style:normal;font-variant:normal;font-weight:normal;font-stretch:normal;line-height:1.25;font-family:'linja sike';text-align:center;text-anchor:middle;display:inline;overflow:visible;visibility:visible;fill:#6c6753;fill-opacity:1;fill-rule:nonzero;stroke:#6c6753;stroke-width:3.45423;stroke-miterlimit:4;stroke-dasharray:none;stroke-opacity:1;marker:none;enable-background:accumulate;font-size:77.03152205px"
         id="flowPara3188-0-2">mu</flowPara></flowRoot>
    <flowRoot
       xml:space="preserve"
       id="flowRoot2987-4-9-3"
       style="font-style:normal;font-variant:normal;font-weight:normal;font-stretch:normal;line-height:0.01%;font-family:'linja sike';text-align:center;letter-spacing:0px;word-spacing:0px;text-anchor:middle;fill:#000000;fill-opacity:1;stroke:none"
       transform="translate(1003.106,2425.6741)"><flowRegion
         id="flowRegion2989-5-4-5"><rect
           id="rect2991-7-9-6"
           width="807.40167"
           height="138.23993"
           x="120.55251"
           y="265.53046"
           style="font-style:normal;font-variant:normal;font-weight:normal;font-stretch:normal;font-family:'linja sike';-inkscape-font-specification:'linja sike;text-align:center;text-anchor:middle" /></flowRegion><flowPara
         style="font-size:66.6667px;line-height:1.25;text-align:center;text-anchor:middle"
         id="flowPara4222">o tawa&gt;__tomo __sona __teloa.</flowPara><flowPara
         style="font-size:66.6667px;line-height:1.25;text-align:center;text-anchor:middle"
         id="flowPara3487">ken la ni li ijo molia</flowPara></flowRoot>
    <path
       style="color:#000000;display:inline;overflow:visible;visibility:visible;fill:#ffffff;fill-opacity:1;fill-rule:nonzero;stroke:none;stroke-width:1.12386px;marker:none;enable-background:accumulate"
       d="m 916.4667,2848.2429 c 3.62341,-14.401 29.22032,-79.1758 159.3218,9.6387 -98.21228,-88.9784 -77.90991,-91.5724 -43.2304,-90.1023 -15.1281,-10.2271 -19.852,-35.0817 10.3247,-45.218 -14.9411,-9.7431 -13.9124,-22.681 1.3657,-38.4698 -33.24,7.4939 -45.11979,2.8436 -3.6242,-32.1531 -38.0654,19.8653 -74.40644,37.5475 -56.41109,-13.5538 -14.36577,6.9417 -25.43393,47.4025 -73.24782,-26.685 -3.45585,34.0852 -17.52511,59.6144 -91.39842,33.0327 6.96842,22.7622 3.71129,42.5313 -47.00564,34.2441 10.58336,20.5674 -21.77447,40.6323 -37.55335,43.9815 43.54778,5.4882 54.1966,17.9599 22.01289,38.5935 90.36081,3.3292 38.77133,23.8053 38.0556,37.7052 56.23916,-12.7208 50.52597,13.246 56.81833,32.5075 51.9048,-27.8984 44.20443,-1.2965 64.5719,16.4788 z"
       id="path3549-3"
       inkscape:connector-curvature="0"
       sodipodi:nodetypes="ccccccccccccccc" />
    <flowRoot
       xml:space="preserve"
       id="flowRoot2987-4-9-3-0"
       style="font-style:normal;font-variant:normal;font-weight:normal;font-stretch:normal;line-height:0.01%;font-family:'linja sike';text-align:center;letter-spacing:0px;word-spacing:0px;text-anchor:middle;fill:#000000;fill-opacity:1;stroke:none"
       transform="matrix(1.2398641,0,0,1.2398641,381.33314,2353.9303)"><flowRegion
         id="flowRegion2989-5-4-5-1"><rect
           id="rect2991-7-9-6-4"
           width="602.40173"
           height="310.73996"
           x="120.55251"
           y="265.53046"
           style="font-style:normal;font-variant:normal;font-weight:normal;font-stretch:normal;font-family:'linja sike';-inkscape-font-specification:'linja sike;text-align:center;text-anchor:middle" /></flowRegion><flowPara
         style="font-size:66.6667px;line-height:1.25;text-align:center;letter-spacing:1.5px;text-anchor:middle;stroke:#000000;stroke-width:1.1;stroke-miterlimit:4;stroke-dasharray:none;stroke-opacity:1"
         id="flowPara3030-8-7">o tawa</flowPara></flowRoot>
    <flowRoot
       xml:space="preserve"
       id="flowRoot3063-8-4"
       style="color:#000000;font-style:normal;font-variant:normal;font-weight:normal;font-stretch:normal;line-height:0.01%;font-family:Arial;-inkscape-font-specification:Arial;letter-spacing:0px;word-spacing:0px;display:inline;overflow:visible;visibility:visible;fill:#ffd42a;fill-opacity:1;fill-rule:nonzero;stroke:#ffd42a;stroke-width:4.38198;stroke-opacity:1;marker:none;enable-background:accumulate;font-size:69.9074759px"
       transform="matrix(0.7887004,-0.76050837,0.82966552,0.86042118,-238.14966,365.78067)"><flowRegion
         id="flowRegion3065-8-5"
         style="stroke-width:4.38198;font-size:69.9074759px"><rect
           id="rect3067-6-3"
           width="248.66193"
           height="90.046997"
           x="92.642677"
           y="425.30325"
           style="color:#000000;display:inline;overflow:visible;visibility:visible;fill:#ffd42a;fill-opacity:1;fill-rule:nonzero;stroke:#ffd42a;stroke-width:4.38198;stroke-opacity:1;marker:none;enable-background:accumulate;font-size:69.9074759px" /></flowRegion><flowPara
         style="color:#000000;font-style:normal;font-variant:normal;font-weight:normal;font-stretch:normal;line-height:1.25;font-family:'linja sike';text-align:center;text-anchor:middle;display:inline;overflow:visible;visibility:visible;fill:#ffd42a;fill-opacity:1;fill-rule:nonzero;stroke:#ffd42a;stroke-width:3.45423;stroke-miterlimit:4;stroke-dasharray:none;stroke-opacity:1;marker:none;enable-background:accumulate;font-size:69.9074759px"
         id="flowPara3188-9">mu+ike</flowPara></flowRoot>
    <flowRoot
       xml:space="preserve"
       id="flowRoot3063-8-0-2"
       style="color:#000000;font-style:normal;font-variant:normal;font-weight:normal;font-stretch:normal;line-height:0.01%;font-family:Arial;-inkscape-font-specification:Arial;letter-spacing:0px;word-spacing:0px;display:inline;overflow:visible;visibility:visible;fill:#ffd42a;fill-opacity:1;fill-rule:nonzero;stroke:#ffd42a;stroke-width:4.38198;stroke-opacity:1;marker:none;enable-background:accumulate;font-size:77.21190896px"
       transform="matrix(0.59099277,-0.50234983,0.53889606,0.56369962,52.383887,352.37512)"><flowRegion
         id="flowRegion3065-8-3-4"
         style="stroke-width:4.38198;font-size:77.21190896px"><rect
           id="rect3067-6-9-9"
           width="248.66193"
           height="90.046997"
           x="92.642677"
           y="425.30325"
           style="color:#000000;display:inline;overflow:visible;visibility:visible;fill:#ffd42a;fill-opacity:1;fill-rule:nonzero;stroke:#ffd42a;stroke-width:4.3819828;stroke-opacity:1;marker:none;enable-background:accumulate;font-size:77.21190896px" /></flowRegion><flowPara
         style="color:#000000;font-style:normal;font-variant:normal;font-weight:normal;font-stretch:normal;line-height:1.25;font-family:'linja sike';text-align:center;text-anchor:middle;display:inline;overflow:visible;visibility:visible;fill:#ffd42a;fill-opacity:1;fill-rule:nonzero;stroke:#ffd42a;stroke-width:3.45423;stroke-miterlimit:4;stroke-dasharray:none;stroke-opacity:1;marker:none;enable-background:accumulate;font-size:77.21190896px"
         id="flowPara3188-4-0">mu</flowPara></flowRoot>
    <flowRoot
       xml:space="preserve"
       id="flowRoot3063-8-03-4"
       style="color:#000000;font-style:normal;font-variant:normal;font-weight:normal;font-stretch:normal;line-height:0.01%;font-family:Arial;-inkscape-font-specification:Arial;letter-spacing:0px;word-spacing:0px;display:inline;overflow:visible;visibility:visible;fill:#ffc022;fill-opacity:1;fill-rule:nonzero;stroke:#ffc022;stroke-width:4.38198;stroke-opacity:1;marker:none;enable-background:accumulate;font-size:77.18677851px"
       transform="matrix(0.98240648,-0.13984811,0.15256526,1.071742,1583.9812,1224.0391)"><flowRegion
         id="flowRegion3065-8-1-0"
         style="stroke-width:4.38198;font-size:77.18677851px"><rect
           id="rect3067-6-8-8"
           width="352.97433"
           height="120.68928"
           x="92.642677"
           y="425.30325"
           style="color:#000000;display:inline;overflow:visible;visibility:visible;fill:#ffc022;fill-opacity:1;fill-rule:nonzero;stroke:#ffc022;stroke-width:4.3819828;stroke-opacity:1;marker:none;enable-background:accumulate;font-size:77.18677851px" /></flowRegion><flowPara
         style="color:#000000;font-style:normal;font-variant:normal;font-weight:normal;font-stretch:normal;line-height:1.25;font-family:'linja sike';text-align:center;text-anchor:middle;display:inline;overflow:visible;visibility:visible;fill:#ffc022;fill-opacity:1;fill-rule:nonzero;stroke:#ffc022;stroke-width:3.45423;stroke-miterlimit:4;stroke-dasharray:none;stroke-opacity:1;marker:none;enable-background:accumulate;font-size:77.18677851px"
         id="flowPara3188-8-31">mu+ike mu mu+ike</flowPara></flowRoot>
    <flowRoot
       xml:space="preserve"
       id="flowRoot3063-8-03-1-0-2"
       style="color:#000000;font-style:normal;font-variant:normal;font-weight:normal;font-stretch:normal;line-height:0.01%;font-family:Arial;-inkscape-font-specification:Arial;letter-spacing:0px;word-spacing:0px;display:inline;overflow:visible;visibility:visible;fill:#ffccaa;fill-opacity:1;fill-rule:nonzero;stroke:#ffccaa;stroke-width:4.38198;stroke-opacity:1;marker:none;enable-background:accumulate"
       transform="matrix(1.0286168,-0.76308527,0.78008336,0.98704604,-252.8807,428.79751)"><flowRegion
         id="flowRegion3065-8-1-9-3-6"
         style="stroke-width:4.38198"><rect
           id="rect3067-6-8-6-1-9"
           width="352.97433"
           height="120.68928"
           x="92.642677"
           y="425.30325"
           style="color:#000000;font-size:72px;display:inline;overflow:visible;visibility:visible;fill:#ffccaa;fill-opacity:1;fill-rule:nonzero;stroke:#ffccaa;stroke-width:4.38198;stroke-opacity:1;marker:none;enable-background:accumulate" /></flowRegion><flowPara
         style="color:#000000;font-style:normal;font-variant:normal;font-weight:normal;font-stretch:normal;font-size:64px;line-height:1.25;font-family:'linja sike';text-align:center;text-anchor:middle;display:inline;overflow:visible;visibility:visible;fill:#ffccaa;fill-opacity:1;fill-rule:nonzero;stroke:#ffccaa;stroke-width:3.45423;stroke-miterlimit:4;stroke-dasharray:none;stroke-opacity:1;marker:none;enable-background:accumulate"
         id="flowPara3188-8-3-5-4">mu+ike<flowSpan
   style="font-size:52.5315px"
   id="flowSpan17755">mu+ike</flowSpan>mu+ike</flowPara></flowRoot>
    <flowRoot
       xml:space="preserve"
       id="flowRoot3063-8-03-1-05"
       style="color:#000000;font-style:normal;font-variant:normal;font-weight:normal;font-stretch:normal;line-height:0.01%;font-family:Arial;-inkscape-font-specification:Arial;letter-spacing:0px;word-spacing:0px;display:inline;overflow:visible;visibility:visible;fill:#ffccaa;fill-opacity:1;fill-rule:nonzero;stroke:#ffccaa;stroke-width:4.38198;stroke-opacity:1;marker:none;enable-background:accumulate"
       transform="matrix(0.77195084,-0.62351574,0.6802154,0.8421485,-34.960884,383.55763)"><flowRegion
         id="flowRegion3065-8-1-9-9"
         style="stroke-width:4.38198"><rect
           id="rect3067-6-8-6-15"
           width="352.97433"
           height="120.68928"
           x="92.642677"
           y="425.30325"
           style="color:#000000;font-size:72px;display:inline;overflow:visible;visibility:visible;fill:#ffccaa;fill-opacity:1;fill-rule:nonzero;stroke:#ffccaa;stroke-width:4.3819828;stroke-opacity:1;marker:none;enable-background:accumulate" /></flowRegion><flowPara
         style="color:#000000;font-style:normal;font-variant:normal;font-weight:normal;font-stretch:normal;font-size:64px;line-height:1.25;font-family:'linja sike';text-align:center;text-anchor:middle;display:inline;overflow:visible;visibility:visible;fill:#ffccaa;fill-opacity:1;fill-rule:nonzero;stroke:#ffccaa;stroke-width:3.45423;stroke-miterlimit:4;stroke-dasharray:none;stroke-opacity:1;marker:none;enable-background:accumulate"
         id="flowPara3188-8-3-0"> </flowPara></flowRoot>
    <flowRoot
       xml:space="preserve"
       id="flowRoot3063-8-9-4"
       style="color:#000000;font-style:normal;font-variant:normal;font-weight:normal;font-stretch:normal;line-height:0.01%;font-family:Arial;-inkscape-font-specification:Arial;letter-spacing:0px;word-spacing:0px;display:inline;overflow:visible;visibility:visible;fill:#483e37;fill-opacity:1;fill-rule:nonzero;stroke:#483e37;stroke-width:4.38198;stroke-opacity:1;marker:none;enable-background:accumulate;font-size:72.94464969px"
       transform="matrix(0.94974412,-0.62604982,0.68297993,1.0361095,-86.856923,433.45781)"><flowRegion
         id="flowRegion3065-8-34-1"
         style="stroke-width:4.38198;font-size:72.94464969px"><rect
           id="rect3067-6-0-6"
           width="248.66193"
           height="90.046997"
           x="92.642677"
           y="425.30325"
           style="color:#000000;display:inline;overflow:visible;visibility:visible;fill:#483e37;fill-opacity:1;fill-rule:nonzero;stroke:#483e37;stroke-width:4.3819828;stroke-opacity:1;marker:none;enable-background:accumulate;font-size:72.94464969px" /></flowRegion><flowPara
         style="color:#000000;font-style:normal;font-variant:normal;font-weight:normal;font-stretch:normal;line-height:1.25;font-family:'linja sike';text-align:center;text-anchor:middle;display:inline;overflow:visible;visibility:visible;fill:#483e37;fill-opacity:1;fill-rule:nonzero;stroke:#483e37;stroke-width:3.45423;stroke-miterlimit:4;stroke-dasharray:none;stroke-opacity:1;marker:none;enable-background:accumulate;font-size:72.94464969px"
         id="flowPara3188-0-3">mu+ike</flowPara></flowRoot>
    <flowRoot
       xml:space="preserve"
       id="flowRoot3063-8-9-4-4"
       style="color:#000000;font-style:normal;font-variant:normal;font-weight:normal;font-stretch:normal;line-height:0.01%;font-family:Arial;-inkscape-font-specification:Arial;letter-spacing:0px;word-spacing:0px;display:inline;overflow:visible;visibility:visible;fill:#483e37;fill-opacity:1;fill-rule:nonzero;stroke:#483e37;stroke-width:4.38198;stroke-opacity:1;marker:none;enable-background:accumulate;font-size:77.13893179px"
       transform="matrix(0.68487433,-0.4571937,0.49486606,0.76023252,159.33923,467.03243)"
       inkscape:transform-center-x="-43.097021"
       inkscape:transform-center-y="50.987355"><flowRegion
         id="flowRegion3065-8-34-1-4"
         style="stroke-width:4.38198;font-size:77.13893179px"><rect
           id="rect3067-6-0-6-9"
           width="368.55289"
           height="92.35009"
           x="92.642677"
           y="425.30325"
           style="color:#000000;font-size:77.1389px;display:inline;overflow:visible;visibility:visible;fill:#483e37;fill-opacity:1;fill-rule:nonzero;stroke:#483e37;stroke-width:4.38198;stroke-opacity:1;marker:none;enable-background:accumulate" /></flowRegion><flowPara
         style="color:#000000;font-style:normal;font-variant:normal;font-weight:normal;font-stretch:normal;line-height:1.25;font-family:'linja sike';text-align:center;text-anchor:middle;display:inline;overflow:visible;visibility:visible;fill:#483e37;fill-opacity:1;fill-rule:nonzero;stroke:#483e37;stroke-width:3.45423;stroke-miterlimit:4;stroke-dasharray:none;stroke-opacity:1;marker:none;enable-background:accumulate;font-size:77.13893179px"
         id="flowPara3188-0-3-3">mu</flowPara></flowRoot>
    <flowRoot
       xml:space="preserve"
       id="flowRoot3063-8-03-1-05-8"
       style="color:#000000;font-style:normal;font-variant:normal;font-weight:normal;font-stretch:normal;line-height:0.01%;font-family:Arial;-inkscape-font-specification:Arial;letter-spacing:0px;word-spacing:0px;display:inline;overflow:visible;visibility:visible;fill:#ffccaa;fill-opacity:1;fill-rule:nonzero;stroke:#ffccaa;stroke-width:4.38198;stroke-opacity:1;marker:none;enable-background:accumulate"
       transform="matrix(0.56474589,-0.45615334,0.49763383,0.61610128,194.20975,381.8921)"><flowRegion
         id="flowRegion3065-8-1-9-9-6"
         style="stroke-width:4.38198"><rect
           id="rect3067-6-8-6-15-7"
           width="262.5029"
           height="154.03389"
           x="176.77422"
           y="422.26297"
           style="color:#000000;font-size:72px;display:inline;overflow:visible;visibility:visible;fill:#ffccaa;fill-opacity:1;fill-rule:nonzero;stroke:#ffccaa;stroke-width:4.38198;stroke-opacity:1;marker:none;enable-background:accumulate" /></flowRegion><flowPara
         style="color:#000000;font-style:normal;font-variant:normal;font-weight:normal;font-stretch:normal;font-size:64px;line-height:1.25;font-family:'linja sike';text-align:center;text-anchor:middle;display:inline;overflow:visible;visibility:visible;fill:#ffccaa;fill-opacity:1;fill-rule:nonzero;stroke:#ffccaa;stroke-width:3.45423;stroke-miterlimit:4;stroke-dasharray:none;stroke-opacity:1;marker:none;enable-background:accumulate"
         id="flowPara3188-8-3-0-9"><flowSpan
   style="font-size:87.92213678px"
   id="flowSpan23995">mu+ike</flowSpan>mu+ike<flowSpan
   style="font-size:87.92213678px"
   id="flowSpan24917">mu+ike</flowSpan></flowPara></flowRoot>
    <flowRoot
       xml:space="preserve"
       id="flowRoot3063-8-9-4-4-9"
       style="color:#000000;font-style:normal;font-variant:normal;font-weight:normal;font-stretch:normal;line-height:0.01%;font-family:Arial;-inkscape-font-specification:Arial;letter-spacing:0px;word-spacing:0px;display:inline;overflow:visible;visibility:visible;fill:#483e37;fill-opacity:1;fill-rule:nonzero;stroke:#483e37;stroke-width:4.38198;stroke-opacity:1;marker:none;enable-background:accumulate;font-size:84.44250834px"
       transform="matrix(0.56307455,-0.37588521,0.40685782,0.62503084,323.95837,455.54213)"
       inkscape:transform-center-x="-35.428547"
       inkscape:transform-center-y="41.91695"><flowRegion
         id="flowRegion3065-8-34-1-4-1"
         style="stroke-width:4.38198;font-size:84.44250834px"><rect
           id="rect3067-6-0-6-9-0"
           width="476.13931"
           height="101.35505"
           x="92.642677"
           y="425.30325"
           style="color:#000000;font-size:84.4425px;display:inline;overflow:visible;visibility:visible;fill:#483e37;fill-opacity:1;fill-rule:nonzero;stroke:#483e37;stroke-width:4.38198;stroke-opacity:1;marker:none;enable-background:accumulate" /></flowRegion><flowPara
         style="color:#000000;font-style:normal;font-variant:normal;font-weight:normal;font-stretch:normal;line-height:1.25;font-family:'linja sike';text-align:center;text-anchor:middle;display:inline;overflow:visible;visibility:visible;fill:#483e37;fill-opacity:1;fill-rule:nonzero;stroke:#483e37;stroke-width:3.45423;stroke-miterlimit:4;stroke-dasharray:none;stroke-opacity:1;marker:none;enable-background:accumulate;font-size:84.44250834px"
         id="flowPara3188-0-3-3-1">mu+ike</flowPara></flowRoot>
    <flowRoot
       xml:space="preserve"
       id="flowRoot3063-8-0-2-7"
       style="color:#000000;font-style:normal;font-variant:normal;font-weight:normal;font-stretch:normal;line-height:0.01%;font-family:Arial;-inkscape-font-specification:Arial;letter-spacing:0px;word-spacing:0px;display:inline;overflow:visible;visibility:visible;fill:#ffd42a;fill-opacity:1;fill-rule:nonzero;stroke:#ffd42a;stroke-width:4.38198;stroke-opacity:1;marker:none;enable-background:accumulate;font-size:90.96958296px"
       transform="matrix(0.5016147,-0.42637756,0.45739677,0.4784492,212.14382,296.1275)"><flowRegion
         id="flowRegion3065-8-3-4-2"
         style="stroke-width:4.38198;font-size:90.96958296px"><rect
           id="rect3067-6-9-9-9"
           width="256.20126"
           height="125.50447"
           x="92.642677"
           y="425.30325"
           style="color:#000000;font-size:90.9696px;display:inline;overflow:visible;visibility:visible;fill:#ffd42a;fill-opacity:1;fill-rule:nonzero;stroke:#ffd42a;stroke-width:4.38198;stroke-opacity:1;marker:none;enable-background:accumulate" /></flowRegion><flowPara
         style="color:#000000;font-style:normal;font-variant:normal;font-weight:normal;font-stretch:normal;line-height:1.25;font-family:'linja sike';text-align:center;text-anchor:middle;display:inline;overflow:visible;visibility:visible;fill:#ffd42a;fill-opacity:1;fill-rule:nonzero;stroke:#ffd42a;stroke-width:3.45423;stroke-miterlimit:4;stroke-dasharray:none;stroke-opacity:1;marker:none;enable-background:accumulate;font-size:90.96958296px"
         id="flowPara3188-4-0-3">mu+ike</flowPara></flowRoot>
  </g>
</svg>
