<?xml version="1.0" encoding="UTF-8" standalone="no"?>
<!-- Created with Inkscape (http://www.inkscape.org/) -->

<svg
   xmlns:dc="http://purl.org/dc/elements/1.1/"
   xmlns:cc="http://creativecommons.org/ns#"
   xmlns:rdf="http://www.w3.org/1999/02/22-rdf-syntax-ns#"
   xmlns:svg="http://www.w3.org/2000/svg"
   xmlns="http://www.w3.org/2000/svg"
   xmlns:xlink="http://www.w3.org/1999/xlink"
   xmlns:sodipodi="http://sodipodi.sourceforge.net/DTD/sodipodi-0.dtd"
   xmlns:inkscape="http://www.inkscape.org/namespaces/inkscape"
   id="svg2"
   version="1.1"
   inkscape:version="0.92.4 (5da689c313, 2019-01-14)"
   width="2481"
   height="3503"
   sodipodi:docname="E28P06.svg">
  <metadata
     id="metadata8">
    <rdf:RDF>
      <cc:Work
         rdf:about="">
        <dc:format>image/svg+xml</dc:format>
        <dc:type
           rdf:resource="http://purl.org/dc/dcmitype/StillImage" />
        <dc:title />
      </cc:Work>
    </rdf:RDF>
  </metadata>
  <defs
     id="defs6" />
  <sodipodi:namedview
     pagecolor="#ffffff"
     bordercolor="#666666"
     borderopacity="1"
     objecttolerance="10"
     gridtolerance="10"
     guidetolerance="10"
     inkscape:pageopacity="0"
     inkscape:pageshadow="2"
     inkscape:window-width="1871"
     inkscape:window-height="1056"
     id="namedview4"
     showgrid="false"
     inkscape:zoom="0.52900001"
     inkscape:cx="1182.0302"
     inkscape:cy="1137.3805"
     inkscape:window-x="49"
     inkscape:window-y="24"
     inkscape:window-maximized="1"
     inkscape:current-layer="layer3" />
  <g
     inkscape:groupmode="layer"
     id="layer2"
     inkscape:label="artwork"
     sodipodi:insensitive="true">
    <image
       sodipodi:absref="/felles/omsetting/pepper-carrot/webcomics/ep28_The-Festivities/lang/nn/../gfx_Pepper-and-Carrot_by-David-Revoy_E28P06.png"
       xlink:href="../gfx_Pepper-and-Carrot_by-David-Revoy_E28P06.png"
       width="2481"
       height="3503"
       id="image10"
       x="0"
       y="0" />
  </g>
  <g
     inkscape:groupmode="layer"
     id="layer3"
     inkscape:label="speechbubbles">
    <path
       style="fill:#ffffff;fill-rule:evenodd;stroke:none;stroke-width:1px;stroke-linecap:butt;stroke-linejoin:miter;stroke-opacity:1"
       d="m 192.21505,1834.4118 c 0,-45.5432 39.90796,-54.8854 56.53628,-57.221 16.62831,-2.3355 103.09555,-4.6711 120.83242,0 17.73687,4.6712 45.45072,21.02 45.45072,46.711 0,25.691 -7.75987,52.5499 -44.34217,63.0598 -36.58229,10.51 -116.3982,2.3355 -139.67785,-3.5033 -23.27963,-5.8389 -37.69084,-24.5233 -38.7994,-49.0465 z"
       id="path845"
       inkscape:connector-curvature="0" />
    <path
       style="fill:#ffffff;fill-rule:evenodd;stroke:none;stroke-width:0.99999994px;stroke-linecap:butt;stroke-linejoin:miter;stroke-opacity:1"
       d="m 352.8238,1860.5331 c 1.94468,22.7539 17.89104,36.1625 31.89273,36.5688 14.00168,0.4063 23.72508,-0.4063 22.94721,14.6275 -0.77787,15.0338 4.66723,30.474 21.7804,24.7855 17.11317,-5.6885 24.55788,-5.5709 29.61405,-0.2887 5.05616,5.2821 -1.50347,14.7385 14.67146,21.4164 -8.61418,-6.0374 -6.00236,-11.8397 -6.3913,-15.4966 -0.38894,-3.6568 -0.55638,-19.446 -20.78104,-16.6017 -20.22466,2.8442 -27.2255,0 -25.66975,-14.6275 1.55573,-14.6276 -2.33362,-23.9729 -19.83573,-30.474 -17.5021,-6.5011 -26.44763,-12.5959 -28.78124,-26.8171 -2.33362,-14.2212 -18.27998,-19.9097 -18.27998,-19.9097 z"
       id="path849"
       inkscape:connector-curvature="0"
       sodipodi:nodetypes="cssscccccsscc" />
    <path
       style="fill:#ffffff;fill-rule:evenodd;stroke:none;stroke-width:1.07090056px;stroke-linecap:butt;stroke-linejoin:miter;stroke-opacity:1"
       d="m 1312.0785,1867.1116 c 11.6691,-102.832 130.2074,-83.1378 213.406,-83.7797 105.2619,4.9987 183.2491,-20.1424 220.2256,30.6258 12.6861,19.5258 31.1383,52.0692 19.6056,78.1038 -11.5327,26.0346 -27.4174,73.6105 -219.0666,66.0941 -106.0418,-4.1588 -153.4415,0.077 -188.0395,-18.364 -34.5984,-18.4411 -44.9778,-53.1539 -46.1311,-72.68 z"
       id="path851"
       inkscape:connector-curvature="0"
       sodipodi:nodetypes="cccsscc" />
    <path
       style="fill:#ffffff;fill-rule:evenodd;stroke:none;stroke-width:1px;stroke-linecap:butt;stroke-linejoin:miter;stroke-opacity:1"
       d="m 1475.2162,2033.0397 c -52.2036,-22.3729 -69.6048,-103.1642 -44.7459,-169.0401 -1.243,-90.7348 -57.1753,-16.1582 -57.1753,-16.1582 0,0 13.6723,3.7288 13.6723,39.7741 0,36.0453 13.6724,124.2942 88.2489,145.4242 z"
       id="path853"
       inkscape:connector-curvature="0"
       sodipodi:nodetypes="cccsc" />
  </g>
  <g
     inkscape:groupmode="layer"
     id="layer1"
     inkscape:label="txt">
    <text
       xml:space="preserve"
       style="font-style:normal;font-variant:normal;font-weight:normal;font-stretch:normal;line-height:0%;font-family:Lavi;-inkscape-font-specification:Lavi;text-align:center;letter-spacing:0px;word-spacing:0px;text-anchor:middle;fill:#000000;fill-opacity:1;stroke:none"
       x="303.5918"
       y="1846.3762"
       id="text4246"><tspan
         sodipodi:role="line"
         style="font-size:45px;line-height:1.20000005"
         x="303.5918"
         y="1846.3762"
         id="tspan4252">Pepar?</tspan></text>
    <text
       xml:space="preserve"
       style="font-style:normal;font-variant:normal;font-weight:normal;font-stretch:normal;line-height:0%;font-family:Lavi;-inkscape-font-specification:Lavi;text-align:center;letter-spacing:0px;word-spacing:0px;text-anchor:middle;fill:#000000;fill-opacity:1;stroke:none"
       x="1541.0876"
       y="1853.3174"
       id="text4246-3"><tspan
         sodipodi:role="line"
         style="font-size:45px;line-height:1.20000005"
         x="1541.0876"
         y="1853.3174"
         id="tspan7147">Eg sneik med meg</tspan><tspan
         sodipodi:role="line"
         style="font-size:45px;line-height:1.20000005"
         x="1541.0876"
         y="1907.3174"
         id="tspan833">litt mat. Lyst på?</tspan></text>
  </g>
</svg>
