<?xml version="1.0" encoding="UTF-8" standalone="no"?>
<!-- Created with Inkscape (http://www.inkscape.org/) -->

<svg
   xmlns:dc="http://purl.org/dc/elements/1.1/"
   xmlns:cc="http://creativecommons.org/ns#"
   xmlns:rdf="http://www.w3.org/1999/02/22-rdf-syntax-ns#"
   xmlns:svg="http://www.w3.org/2000/svg"
   xmlns="http://www.w3.org/2000/svg"
   xmlns:xlink="http://www.w3.org/1999/xlink"
   xmlns:sodipodi="http://sodipodi.sourceforge.net/DTD/sodipodi-0.dtd"
   xmlns:inkscape="http://www.inkscape.org/namespaces/inkscape"
   id="svg2"
   version="1.1"
   inkscape:version="0.92.2 2405546, 2018-03-11"
   width="2481"
   height="3503"
   sodipodi:docname="E26P03.svg">
  <metadata
     id="metadata8">
    <rdf:RDF>
      <cc:Work
         rdf:about="">
        <dc:format>image/svg+xml</dc:format>
        <dc:type
           rdf:resource="http://purl.org/dc/dcmitype/StillImage" />
        <dc:title />
      </cc:Work>
    </rdf:RDF>
  </metadata>
  <defs
     id="defs6" />
  <sodipodi:namedview
     pagecolor="#ffffff"
     bordercolor="#666666"
     borderopacity="1"
     objecttolerance="10"
     gridtolerance="10"
     guidetolerance="10"
     inkscape:pageopacity="0"
     inkscape:pageshadow="2"
     inkscape:window-width="1920"
     inkscape:window-height="1033"
     id="namedview4"
     showgrid="false"
     inkscape:zoom="0.56852482"
     inkscape:cx="1259.6092"
     inkscape:cy="1991.071"
     inkscape:window-x="0"
     inkscape:window-y="47"
     inkscape:window-maximized="0"
     inkscape:current-layer="layer3" />
  <g
     inkscape:groupmode="layer"
     id="layer2"
     inkscape:label="artwork"
     sodipodi:insensitive="true">
    <image
       sodipodi:absref="/home/midgard/git/peppercarrot/comics/ep26_Books-Are-Great/lang/id/../gfx_Pepper-and-Carrot_by-David-Revoy_E26P03.png"
       xlink:href="../gfx_Pepper-and-Carrot_by-David-Revoy_E26P03.png"
       y="0"
       x="0"
       id="image10"
       height="3503"
       width="2481" />
  </g>
  <g
     inkscape:groupmode="layer"
     id="layer3"
     inkscape:label="speechbubbles"
     style="opacity:1">
    <path
       style="color:#000000;display:inline;overflow:visible;visibility:visible;fill:#ffffff;fill-opacity:1;fill-rule:nonzero;stroke:none;stroke-width:0.94309884px;marker:none;enable-background:accumulate"
       d="m 256.65846,623.49642 c 20.98345,-26.98761 279.83311,-46.20731 339.63027,14.82975 41.67263,42.5367 25.59663,124.10935 -10.12221,145.34442 -35.71877,21.23515 -208.16671,27.21564 -257.17939,16.40149 -44.07486,-9.7247 -90.33786,-30.6561 -92.77691,-86.36645 -0.99546,-22.73759 -0.53527,-63.22153 20.44824,-90.20921 z"
       id="path4040"
       inkscape:connector-curvature="0"
       sodipodi:nodetypes="zssssz" />
    <path
       style="fill:#ffffff;stroke:none;stroke-width:0.99999994"
       d="m 628.34471,847.51507 c -38.61917,12.80883 -55.09288,-0.0828 -66.95346,-14.05699 -11.86058,-13.97408 -28.36174,-20.89656 -39.29055,-22.32443 -10.92881,-1.42786 -28.67404,2.49427 -37.73175,7.41599 -9.05781,4.92182 -23.30007,-9.35873 -32.51481,-17.85685 -12.1752,-11.22835 -10.17368,-21.3089 -10.17368,-21.3089 0,0 -63.56569,-10.64656 -52.32882,1.21103 11.23688,11.85757 53.851,43.51663 59.4257,47.15218 5.57479,3.63555 23.61454,12.58563 34.54483,10.2648 10.93033,-2.32073 19.07986,-12.5098 32.07626,-12.9737 13.38845,-0.4779 22.37583,3.75223 33.30162,12.67727 10.92577,8.92503 37.52895,25.44728 54.48293,19.70573 16.95397,-5.74156 25.16173,-9.90613 25.16173,-9.90613 z"
       id="path3023"
       inkscape:connector-curvature="0"
       sodipodi:nodetypes="csssscssssssc" />
    <path
       style="color:#000000;display:inline;overflow:visible;visibility:visible;fill:#ffffff;fill-opacity:1;fill-rule:nonzero;stroke:none;stroke-width:1px;marker:none;enable-background:accumulate"
       d="m 232.67034,1785.6735 c 0,-43.8666 20.91072,-100.9773 120.5528,-98.2199 99.64209,2.7575 113.46929,61.1522 114.07553,82.2405 -5.68176,55.1645 -33.69039,84.8101 -102.21045,81.6887 -24.61125,-2.2981 -57.55035,8.9837 -95.49777,-15.6682 -30.1609,-19.5937 -36.92011,-45.5402 -36.92011,-50.0411 z"
       id="path3365"
       inkscape:connector-curvature="0"
       sodipodi:nodetypes="sssccs" />
    <path
       style="color:#000000;display:inline;overflow:visible;visibility:visible;fill:#ffffff;fill-opacity:1;fill-rule:nonzero;stroke:none;stroke-width:1.0326736px;marker:none;enable-background:accumulate"
       d="m 1092.3115,2241.2157 c -4.5332,-22.6409 -13.4817,-152.7426 187.1703,-144.1031 175.959,7.5765 201.906,112.7177 202.6929,143.1992 0.7868,30.4818 -12.9952,61.4454 -44.2411,79.3458 -33.4922,17.162 -92.6217,26.9738 -136.082,23.2982 -43.46,-3.6759 -101.7266,-0.5731 -146.4887,-18.141 -30.7902,-12.0842 -58.0987,-51.9424 -63.0514,-83.5991 z"
       id="path3365-5"
       inkscape:connector-curvature="0"
       sodipodi:nodetypes="cssccsc" />
    <path
       style="color:#000000;display:inline;overflow:visible;visibility:visible;fill:#ffffff;fill-opacity:1;fill-rule:nonzero;stroke:none;stroke-width:1px;marker:none;enable-background:accumulate"
       d="m 377.75121,1797.7955 c 0.14136,37.7496 7.44343,98.937 94.82871,86.7057 -14.99489,10.61 -114.59779,34.3786 -127.13109,-74.0559 -3.63685,-31.4647 8.70865,-21.0527 15.81183,-23.0996 7.10319,-2.047 16.49055,10.4498 16.49055,10.4498 z"
       id="path4064"
       inkscape:connector-curvature="0"
       sodipodi:nodetypes="ccszc" />
    <path
       style="color:#000000;display:inline;overflow:visible;visibility:visible;fill:#ffffff;fill-opacity:1;fill-rule:nonzero;stroke:none;stroke-width:1px;marker:none;enable-background:accumulate"
       d="m 1237.4731,2165.1562 c 16.4769,-33.9641 36.832,-92.1267 -47.0265,-119.5779 18.1333,-2.9332 118.0386,19.5304 81.6003,122.4254 -10.5733,29.8573 -17.0809,15.0765 -24.3604,13.7904 -7.2795,-1.2859 -10.2134,-16.6379 -10.2134,-16.6379 z"
       id="path4064-3"
       inkscape:connector-curvature="0"
       sodipodi:nodetypes="ccszc" />
    <path
       style="fill:#ffffff;stroke:none;stroke-width:1.11055505"
       d="M 54.205533,2694.5432 C 16.287505,2498.2678 135.02104,2519.2007 440.2918,2519.2215 c 383.76708,0.026 381.63814,60.4967 388.2253,126.9449 9.06615,91.4551 -109.6262,220.7706 -488.47205,222.3378 -338.4680899,1.4001 -323.061225,-64.9349 -285.839517,-173.961 z"
       id="path3280-8"
       inkscape:connector-curvature="0"
       sodipodi:nodetypes="csssc" />
    <path
       style="color:#000000;display:inline;overflow:visible;visibility:visible;fill:#ffffff;fill-opacity:1;fill-rule:nonzero;stroke:none;stroke-width:1.09098148px;marker:none;enable-background:accumulate"
       d="m 541.6664,2826.0288 c 14.75467,36.3891 56.10784,84.8029 132.56738,64.1383 -52.93998,24.1174 -112.04254,21.8254 -162.9129,-49.9788 -68.01242,-96.0004 -45.71056,-118.3536 -45.71056,-118.3536 z"
       id="path4064-6"
       inkscape:connector-curvature="0"
       sodipodi:nodetypes="ccscc" />
    <path
       style="color:#000000;display:inline;overflow:visible;visibility:visible;fill:#ffffff;fill-opacity:1;fill-rule:nonzero;stroke:none;stroke-width:0.90514278px;marker:none;enable-background:accumulate"
       d="m 1893.1078,2967.1271 c -1.8945,-17.8749 27.4195,-97.3439 142.9909,-85.4272 115.5714,11.9166 132.0091,54.5174 133.161,94.0272 -1.997,40.7155 -25.168,70.4216 -42.2195,76.3799 -17.0515,5.9583 -42.6818,14.2286 -89.9942,15.4915 -54.6595,0.057 -86.8813,-2.4468 -121.4925,-34.9007 -33.0149,-28.7858 -20.551,-60.8041 -22.4457,-65.5707 z"
       id="path3365-7"
       inkscape:connector-curvature="0"
       sodipodi:nodetypes="cscsccc" />
    <path
       style="color:#000000;display:inline;overflow:visible;visibility:visible;fill:#ffffff;fill-opacity:1;fill-rule:nonzero;stroke:none;stroke-width:1px;marker:none;enable-background:accumulate"
       d="m 1963.5548,2926.8144 c -22.0372,-41.7339 -131.901,-116.3258 -202.9973,-80.3598 84.8906,-21.0574 174.3494,70.9697 177.3562,85.6217 3.0068,14.6521 25.6411,-5.2619 25.6411,-5.2619 z"
       id="path3978"
       inkscape:connector-curvature="0"
       sodipodi:nodetypes="cccc" />
    <path
       style="color:#000000;display:inline;overflow:visible;visibility:visible;fill:#ffffff;fill-opacity:1;fill-rule:nonzero;stroke:none;stroke-width:0.58296984px;marker:none;enable-background:accumulate"
       d="m 234.7553,526.58536 c 15.11182,-14.31867 181.53977,-24.51596 224.60435,7.86814 30.0117,22.56846 28.429,63.39355 2.7051,74.66012 -25.72387,11.26661 -149.91701,14.43965 -185.21484,8.70205 -31.74173,-5.15958 -65.05931,-16.26504 -66.81585,-45.82297 -0.71691,-12.06376 9.60938,-31.08864 24.72124,-45.40734 z"
       id="path4040-3"
       inkscape:connector-curvature="0"
       sodipodi:nodetypes="zssssz" />
  </g>
  <g
     inkscape:groupmode="layer"
     id="layer1"
     inkscape:label="txt">
    <text
       xml:space="preserve"
       style="font-style:normal;font-variant:normal;font-weight:normal;font-stretch:normal;font-size:10.5905962px;line-height:0%;font-family:Lavi;-inkscape-font-specification:Lavi;text-align:center;letter-spacing:0px;word-spacing:0px;text-anchor:middle;fill:#000000;fill-opacity:1;stroke:none;stroke-width:0.8825497"
       x="428.30801"
       y="631.82751"
       id="text4246-5"><tspan
         sodipodi:role="line"
         style="font-size:39.71473694px;line-height:1.25;stroke-width:0.8825497"
         x="428.30801"
         y="634.91418"
         id="tspan491" /><tspan
         sodipodi:role="line"
         style="font-size:39.71473694px;line-height:1.25;stroke-width:0.8825497"
         x="428.30801"
         y="668.22424"
         id="tspan439">Aku tahu betapa</tspan><tspan
         sodipodi:role="line"
         style="font-size:39.71473694px;line-height:1.25;stroke-width:0.8825497"
         x="428.30801"
         y="717.86768"
         id="tspan76">kucing tidak suka</tspan><tspan
         sodipodi:role="line"
         style="font-size:39.71473694px;line-height:1.25;stroke-width:0.8825497"
         x="428.30801"
         y="767.51111"
         id="tspan78">menjadi basah.</tspan></text>
    <text
       xml:space="preserve"
       style="font-style:normal;font-variant:normal;font-weight:normal;font-stretch:normal;line-height:0%;font-family:Lavi;-inkscape-font-specification:Lavi;text-align:center;letter-spacing:0px;word-spacing:0px;text-anchor:middle;fill:#000000;fill-opacity:1;stroke:none"
       x="351.44214"
       y="1757.9678"
       id="text4246-1"><tspan
         sodipodi:role="line"
         style="font-style:normal;font-variant:normal;font-weight:bold;font-stretch:normal;font-size:45px;line-height:1.25;font-family:Lavi;-inkscape-font-specification:'Lavi Bold'"
         x="351.44214"
         y="1757.9678"
         id="tspan887">Jangan</tspan><tspan
         sodipodi:role="line"
         style="font-style:normal;font-variant:normal;font-weight:bold;font-stretch:normal;font-size:45px;line-height:1.25;font-family:Lavi;-inkscape-font-specification:'Lavi Bold'"
         x="351.44214"
         y="1814.2178"
         id="tspan103">kuatir!</tspan></text>
    <text
       xml:space="preserve"
       style="font-style:normal;font-variant:normal;font-weight:normal;font-stretch:normal;font-size:13.49506664px;line-height:0%;font-family:Lavi;-inkscape-font-specification:Lavi;text-align:center;letter-spacing:0px;word-spacing:0px;text-anchor:middle;fill:#000000;fill-opacity:1;stroke:none;stroke-width:0.99999994"
       x="1288.4023"
       y="2174.0071"
       id="text4246-1-3"
       transform="scale(0.99789912,1.0021053)"><tspan
         sodipodi:role="line"
         style="font-style:normal;font-variant:normal;font-weight:bold;font-stretch:normal;font-size:50.60649872px;line-height:1.25;font-family:Lavi;-inkscape-font-specification:'Lavi Bold';stroke-width:0.99999994"
         x="1288.4023"
         y="2174.0071"
         id="tspan914">Buku juga</tspan><tspan
         sodipodi:role="line"
         style="font-style:normal;font-variant:normal;font-weight:bold;font-stretch:normal;font-size:50.60649872px;line-height:1.25;font-family:Lavi;-inkscape-font-specification:'Lavi Bold';stroke-width:0.99999994"
         x="1288.4023"
         y="2237.2651"
         id="tspan134">berguna untuk</tspan><tspan
         sodipodi:role="line"
         style="font-style:normal;font-variant:normal;font-weight:bold;font-stretch:normal;font-size:50.60649872px;line-height:1.25;font-family:Lavi;-inkscape-font-specification:'Lavi Bold';stroke-width:0.99999994"
         x="1288.4023"
         y="2300.5234"
         id="tspan136">hal itu!</tspan></text>
    <text
       xml:space="preserve"
       style="font-style:normal;font-variant:normal;font-weight:normal;font-stretch:normal;font-size:11.40636063px;line-height:0%;font-family:Lavi;-inkscape-font-specification:Lavi;text-align:center;letter-spacing:0px;word-spacing:0px;text-anchor:middle;fill:#000000;fill-opacity:1;stroke:none;stroke-width:0.95053005"
       x="121.25092"
       y="2608.8384"
       id="text4246-5-5"><tspan
         sodipodi:role="line"
         style="font-size:42.7738533px;line-height:1.25;text-align:start;text-anchor:start;stroke-width:0.95053005"
         x="121.25092"
         y="2608.8384"
         id="tspan851">Dan kurang dari sepuluh menit</tspan><tspan
         sodipodi:role="line"
         style="font-size:42.7738533px;line-height:1.25;text-align:start;text-anchor:start;stroke-width:0.95053005"
         x="121.25092"
         y="2662.3057"
         id="tspan191">sejak memasuki ruang bawah tanah,</tspan><tspan
         sodipodi:role="line"
         style="font-size:42.7738533px;line-height:1.25;text-align:start;text-anchor:start;stroke-width:0.95053005"
         x="121.25092"
         y="2715.7729"
         id="tspan193">aku duduk di ruang harta karun</tspan><tspan
         sodipodi:role="line"
         style="font-size:42.7738533px;line-height:1.25;text-align:start;text-anchor:start;stroke-width:0.95053005"
         x="121.25092"
         y="2769.2402"
         id="tspan195">memetiki daun-daun dari</tspan><tspan
         sodipodi:role="line"
         style="font-size:42.7738533px;line-height:1.25;text-align:start;text-anchor:start;stroke-width:0.95053005"
         x="121.25092"
         y="2822.7078"
         id="tspan197">Pohon-Air yang langka.</tspan></text>
    <text
       xml:space="preserve"
       style="font-style:normal;font-variant:normal;font-weight:normal;font-stretch:normal;font-size:13.49506664px;line-height:0%;font-family:Lavi;-inkscape-font-specification:Lavi;text-align:center;letter-spacing:0px;word-spacing:0px;text-anchor:middle;fill:#000000;fill-opacity:1;stroke:none;stroke-width:0.99999994"
       x="2037.9746"
       y="2955.3962"
       id="text4246-1-3-2"
       transform="scale(0.99789912,1.0021053)"><tspan
         sodipodi:role="line"
         style="font-style:normal;font-variant:normal;font-weight:bold;font-stretch:normal;font-size:50.60649872px;line-height:1.25;font-family:Lavi;-inkscape-font-specification:'Lavi Bold';stroke-width:0.99999994"
         x="2037.9746"
         y="2955.3962"
         id="tspan914-2">Buku itu</tspan><tspan
         sodipodi:role="line"
         style="font-style:normal;font-variant:normal;font-weight:bold;font-stretch:normal;font-size:50.60649872px;line-height:1.25;font-family:Lavi;-inkscape-font-specification:'Lavi Bold';stroke-width:0.99999994"
         x="2037.9746"
         y="3018.6543"
         id="tspan222">ajaib!</tspan></text>
    <text
       xml:space="preserve"
       style="font-style:normal;font-variant:normal;font-weight:normal;font-stretch:normal;font-size:10.5905962px;line-height:0%;font-family:Lavi;-inkscape-font-specification:Lavi;text-align:center;letter-spacing:0px;word-spacing:0px;text-anchor:middle;fill:#000000;fill-opacity:1;stroke:none;stroke-width:0.8825497"
       x="343.39139"
       y="579.64038"
       id="text4246-5-6"><tspan
         sodipodi:role="line"
         style="font-size:39.71473694px;line-height:1.25;stroke-width:0.8825497"
         x="343.39139"
         y="579.64038"
         id="tspan439-5">Oh, Carrot;</tspan></text>
  </g>
</svg>
