<?xml version="1.0" encoding="UTF-8" standalone="no"?>
<!-- Created with Inkscape (http://www.inkscape.org/) -->

<svg
   xmlns:dc="http://purl.org/dc/elements/1.1/"
   xmlns:cc="http://creativecommons.org/ns#"
   xmlns:rdf="http://www.w3.org/1999/02/22-rdf-syntax-ns#"
   xmlns:svg="http://www.w3.org/2000/svg"
   xmlns="http://www.w3.org/2000/svg"
   xmlns:xlink="http://www.w3.org/1999/xlink"
   xmlns:sodipodi="http://sodipodi.sourceforge.net/DTD/sodipodi-0.dtd"
   xmlns:inkscape="http://www.inkscape.org/namespaces/inkscape"
   id="svg2"
   version="1.1"
   inkscape:version="0.92.3 (2405546, 2018-03-11)"
   width="2481"
   height="3503"
   sodipodi:docname="E29P04.svg"
   inkscape:export-filename="C:\Users\ruden\Desktop\E29P04.png"
   inkscape:export-xdpi="96"
   inkscape:export-ydpi="96">
  <metadata
     id="metadata8">
    <rdf:RDF>
      <cc:Work
         rdf:about="">
        <dc:format>image/svg+xml</dc:format>
        <dc:type
           rdf:resource="http://purl.org/dc/dcmitype/StillImage" />
        <dc:title />
      </cc:Work>
    </rdf:RDF>
  </metadata>
  <defs
     id="defs6">
    <filter
       style="color-interpolation-filters:sRGB"
       id="filter4375-4-1-1-1-9"
       inkscape:label="deevad outline effect">
      <feFlood
         id="feFlood4377-7-9-0-8-1"
         flood-opacity="1"
         flood-color="rgb(0,0,0)"
         result="flood" />
      <feComposite
         id="feComposite4379-3-8-8-2-77"
         in2="SourceGraphic"
         in="flood"
         operator="in"
         result="composite1" />
      <feMorphology
         id="feMorphology4393-1-0-49-8-9"
         operator="dilate"
         radius="3.5"
         result="result3" />
      <feComposite
         id="feComposite4385-9-5-7-0-8"
         in2="result3"
         in="SourceGraphic"
         operator="over"
         result="composite2" />
    </filter>
  </defs>
  <sodipodi:namedview
     pagecolor="#ffffff"
     bordercolor="#666666"
     borderopacity="1"
     objecttolerance="10"
     gridtolerance="10"
     guidetolerance="10"
     inkscape:pageopacity="0"
     inkscape:pageshadow="2"
     inkscape:window-width="1920"
     inkscape:window-height="1017"
     id="namedview4"
     showgrid="false"
     inkscape:zoom="0.47935747"
     inkscape:cx="842.883"
     inkscape:cy="492.8612"
     inkscape:window-x="-8"
     inkscape:window-y="-8"
     inkscape:window-maximized="1"
     inkscape:current-layer="layer1"
     inkscape:snap-global="false" />
  <g
     inkscape:groupmode="layer"
     id="layer2"
     inkscape:label="artwork"
     sodipodi:insensitive="true">
    <image
       sodipodi:absref="C:\Users\ruden\Desktop\lang\ru\../gfx_Pepper-and-Carrot_by-David-Revoy_E29P04.png"
       xlink:href="../gfx_Pepper-and-Carrot_by-David-Revoy_E29P04.png"
       y="0"
       x="0"
       id="image10"
       height="3503"
       width="2481" />
  </g>
  <g
     inkscape:groupmode="layer"
     id="layer3"
     inkscape:label="speechbubbles">
    <path
       style="color:#000000;display:inline;overflow:visible;visibility:visible;fill:#ffffff;fill-opacity:1;fill-rule:nonzero;stroke:none;stroke-width:0.86945868px;marker:none;enable-background:accumulate"
       d="m 1834.9936,129.9164 c 25.5511,-18.8721 358.4346,-30.509914 404.6124,10.2865 29.303,25.88785 17.8373,123.78943 -19.5779,142.54889 -44.0339,22.0779 -290.1432,16.09462 -352.0398,3.78839 -58.8883,-11.70814 -61.0636,-51.8108 -64.0336,-90.76835 -1.212,-15.90016 5.4876,-46.98327 31.0389,-65.85543 z"
       id="path4040-4-0"
       inkscape:connector-curvature="0"
       sodipodi:nodetypes="zssssz" />
    <path
       style="fill:#ffffff;stroke:none"
       d="m 2131.7915,445.1527 c 52.0797,-62.97217 40.5599,-106.89763 -10.3849,-161.57773 -30.8676,-33.13074 -53.0957,-49.56362 -53.0957,-49.56362 l 44.4365,-11.17106 49.9606,31.26438 c 0,0 89.2487,110.10775 -30.9165,191.04803 z"
       id="path3063"
       inkscape:connector-curvature="0"
       sodipodi:nodetypes="cscccc" />
    <path
       style="color:#000000;display:inline;overflow:visible;visibility:visible;fill:#ffffff;fill-opacity:1;fill-rule:nonzero;stroke:none;stroke-width:0.70176321px;marker:none;enable-background:accumulate"
       d="m 1727.3505,915.17431 c 1.2775,-16.86872 -3.5176,-36.77079 30.5124,-62.97225 24.2277,-18.65421 51.9713,-18.71204 153.8482,-19.98933 93.9883,-2.66356 175.6355,33.1262 149.2147,94.09287 -2.8988,49.39272 -119.9415,44.722 -144.3999,46.74974 -24.4585,2.0279 -141.7344,1.43734 -164.9122,-14.49978 -14.5088,-9.97613 -24.1369,-22.75834 -24.2632,-43.38125 z"
       id="path4546-6"
       inkscape:connector-curvature="0"
       sodipodi:nodetypes="csccssc" />
    <path
       style="color:#000000;display:inline;overflow:visible;visibility:visible;fill:#ffffff;fill-opacity:1;fill-rule:nonzero;stroke:none;stroke-width:1px;marker:none;enable-background:accumulate"
       d="m 2058.949,780.54364 c 9.1284,42.15323 9.9229,57.84514 -32.0252,91.28724 -41.9482,33.44204 -30.1382,47.46229 -30.1382,47.46229 l 35.2785,-4.99268 c 0,0 84.878,-77.03313 26.8849,-133.75685 z"
       id="path3072"
       inkscape:connector-curvature="0" />
    <path
       style="color:#000000;display:inline;overflow:visible;visibility:visible;fill:#ffffff;fill-opacity:1;fill-rule:nonzero;stroke:none;stroke-width:0.90716004px;marker:none;enable-background:accumulate"
       d="m 754.58677,188.62092 c 21.13937,-33.17591 199.57989,-69.18636 262.29533,-0.81776 62.7154,68.36862 24.6749,150.41102 -11.3094,176.51533 -35.98425,26.10443 -141.88076,54.69493 -190.20241,32.31974 -48.32174,-22.37518 -85.96129,-55.82175 -88.41847,-124.30658 -1.00285,-27.9514 6.49547,-50.5347 27.63495,-83.71073 z"
       id="path4040"
       inkscape:connector-curvature="0"
       sodipodi:nodetypes="zssssz" />
    <path
       style="color:#000000;display:inline;overflow:visible;visibility:visible;fill:#ffffff;fill-opacity:1;fill-rule:nonzero;stroke:none;stroke-width:1px;marker:none;enable-background:accumulate"
       d="m 927.43282,520.21555 c 19.56717,-37.91334 24.33095,-91.92051 -16.62461,-116.94423 -32.00795,-36.20829 -9.67863,-17.32971 -9.67863,-17.32971 l 32.39871,9.54307 c 0,0 63.63839,61.67926 -6.09547,124.73087 z"
       id="path3072-1"
       inkscape:connector-curvature="0"
       sodipodi:nodetypes="ccccc" />
    <path
       style="fill:#ffffff;fill-opacity:1;fill-rule:evenodd;stroke:none;stroke-width:0.92211092px;stroke-linecap:butt;stroke-linejoin:miter;stroke-opacity:1"
       d="m 473.51594,422.28106 c -11.78237,2.94083 -26.01828,-0.63685 -34.57607,-6.9321 -7.08075,-5.68604 -17.01074,-11.35058 -17.7254,-18.6962 -0.78596,-8.43441 5.94499,-17.66279 -3.71288,-25.53194 -13.46238,-7.25663 -21.51604,-11.83517 -21.93366,-23.33962 -0.49458,-9.80521 5.57886,-19.27956 13.3064,-26.2867 6.46417,-4.84108 3.23184,-11.70244 -2.09911,-16.9424 -5.60383,-8.38947 -9.69639,-19.44494 0.75239,-26.09351 6.77543,-3.16762 14.18016,-4.26295 14.81032,-10.89375 1.74931,-9.22785 -6.17753,-17.67252 -7.49577,-26.81108 -6.3628,-9.11516 -2.8158,-33.85659 3.97176,-41.28093 5.04743,-5.15311 9.4892,-11.72227 21.16176,-11.85292 19.78178,-3.62252 47.13873,-1.89951 58.0381,-12.36903 7.12631,-5.94933 11.66176,-14.47891 25.03867,-16.03089 15.57743,-2.10739 30.87547,8.86312 45.07772,12.91317 13.85078,-8.8094 38.82264,-7.49242 46.36526,1.34306 4.18125,4.98549 23.50859,26.85283 24.60387,32.40355 4.07654,11.07037 -8.46305,29.91051 3.00617,39.53398 12.21903,6.97082 7.02444,23.73835 4.47032,32.68551 -3.66397,7.09192 2.16895,14.46658 3.53145,21.80833 2.3945,7.82696 -5.21523,16.32715 -3.36057,24.15075 5.23226,11.72358 11.10413,22.24797 6.10877,34.37731 -1.94079,10.596 -3.38695,14.94249 -16.19914,20.75758 -4.18961,2.60337 -6.5178,7.49583 -7.63289,11.52031 -3.89219,9.88519 -7.1651,14.72513 -17.10219,23.21623 -8.57523,6.2908 -24.28097,7.74459 -37.41406,4.46481 -10.18808,-1.54947 -21.37158,-6.88826 -31.26965,-4.8266 -12.7847,4.48559 -16.21615,19.12915 -32.82987,17.81019 -8.87349,-0.73637 -15.42343,-5.42955 -24.05201,-6.77783 -4.21484,-0.95216 -8.51324,-1.70814 -12.83953,-2.31893 z"
       id="path4367"
       inkscape:connector-curvature="0"
       sodipodi:nodetypes="ccccccccccccccccccccccccccccccc" />
    <path
       style="fill:#ffffff;stroke:none;stroke-width:1"
       d="m 481.33413,569.27983 c -26.16799,-11.86997 -29.23382,-39.59074 -20.73941,-48.80022 8.49436,-9.2095 12.7305,-19.1347 12.40759,-27.59531 -0.32293,-8.46061 -5.50646,-17.21425 -10.12026,-24.21281 -4.61385,-6.99861 0.88784,-16.71803 5.41776,-24.19003 4.52995,-7.47208 25.74725,-46.21168 25.74725,-46.21168 0,0 -33.81232,12.14437 -40.8764,20.86652 -7.0641,8.72215 -8.88284,16.10827 -10.78771,20.43039 -1.90487,4.32223 -5.43175,20.28888 -2.44001,28.74234 2.99167,8.45347 10.76629,15.12526 14.36709,20.98686 3.60084,5.86151 2.03948,12.29665 -2.9751,20.77153 -5.01458,8.47491 -9.53561,29.71668 2.24235,44.7525 6.98238,8.91376 16.67122,13.76389 27.75685,14.45991 z"
       id="path3023"
       inkscape:connector-curvature="0"
       sodipodi:nodetypes="csssscssssssc"
       inkscape:transform-center-x="-13.368944"
       inkscape:transform-center-y="102.37524" />
    <path
       style="fill:#ffffff;fill-opacity:1;fill-rule:evenodd;stroke:none;stroke-width:1.07113957px;stroke-linecap:butt;stroke-linejoin:miter;stroke-opacity:1"
       d="m 115.81387,254.89791 c -6.64546,-8.3218 1.60494,-18.7638 8.18296,-22.4599 7.37455,-6.8744 16.84943,-6.8194 25.70458,-6.3027 8.80889,1.352 15.26655,-5.27 20.98647,-12.1154 9.05326,-8.8817 22.19862,-11.9296 32.88195,-5.4527 7.93992,4.415 17.12149,9.8428 25.82443,4.778 10.37864,-5.1258 23.58937,-9.611 33.6073,-1.1515 7.12642,9.8244 18.95822,5.6471 27.67634,1.7701 11.19783,-4.5481 23.45326,-7.3093 35.01933,-2.8986 7.66881,2.5816 17.17947,3.8416 20.96283,13.568 4.56652,10.6522 9.47924,23.368 20.1739,26.5604 7.57,2.7568 18.4595,4.4272 20.36522,15.516 -0.22183,9.8954 -4.22995,19.6529 -7.87522,28.2714 -10.77745,11.1665 -27.30785,2.5793 -40.99475,5.6713 -8.94927,1.9912 -16.29031,13.88684 -31.24957,15.42663 -20.71446,2.57938 -24.92788,-7.09909 -37.5016,-2.35549 -14.82816,4.4331 -18.87966,-0.91191 -32.9291,7.06989 -15.99825,7.417 -34.82029,5.0132 -48.85799,-6.9075 -6.02481,-5.9244 -20.12657,2.19307 -27.79831,3.32597 -10.24757,0.3998 -15.50505,2.3025 -23.0743,-7.8758 -6.0678,-7.2593 -4.43554,-4.964 -8.47735,-13.0375 -4.2256,-7.9711 -14.0399,-9.7059 -16.98998,-19.1363 -2.25972,-7.794 5.57661,-14.1129 4.36286,-22.2643 z"
       id="path4367-3"
       inkscape:connector-curvature="0"
       sodipodi:nodetypes="ccccccccccccccccccccccc" />
    <path
       style="opacity:1;fill:#ffffff;fill-rule:evenodd;stroke:none;stroke-width:0.99999994px;stroke-linecap:butt;stroke-linejoin:miter;stroke-opacity:1"
       d="m 309.34922,457.71798 c -15.64979,-24.8542 8.77501,-47.91607 8.58626,-62.92677 -0.19481,-15.49635 -40.69805,-21.31418 -41.62679,-35.6781 -0.92874,-14.36402 24.25197,-42.90833 22.3945,-65.352 -1.85748,-22.44378 -33.11728,-22.62637 -30.33094,3.4084 2.78634,26.03475 -20.58525,41.20496 -15.67743,61.79602 8.18516,34.34048 37.35935,31.20382 47.00302,40.86297 6.38476,6.395 -4.2802,22.87728 -1.49386,38.139 2.78634,15.26172 11.14524,19.75048 11.14524,19.75048 z"
       id="path4272"
       inkscape:connector-curvature="0"
       sodipodi:nodetypes="csssssssc" />
    <path
       style="color:#000000;display:inline;overflow:visible;visibility:visible;fill:#ffffff;fill-opacity:1;fill-rule:nonzero;stroke:none;stroke-width:0.88817739px;marker:none;enable-background:accumulate"
       d="m 2018.4597,965.19114 c -1.0017,-18.80345 14.2603,-47.02789 43.0923,-58.71595 42.8277,-17.36165 64.0861,-10.31295 100.3129,-9.5142 33.6523,0.74199 87.5111,6.67161 115.7857,27.58665 21.874,16.18044 35.3297,41.47394 30.3202,61.227 -5.0092,19.75296 -18.9628,46.33236 -56.4465,51.78146 -40.2015,5.8441 -107.222,0.8958 -145.5419,1.9552 -34.2725,0.9476 -55.1031,-5.8097 -73.1367,-19.753 -18.2825,-14.1357 -13.384,-35.76379 -14.386,-54.56716 z"
       id="path3373"
       inkscape:connector-curvature="0"
       sodipodi:nodetypes="zsssssssz" />
    <path
       style="fill:#ffffff;fill-rule:evenodd;stroke:none;stroke-width:0.93780845px;stroke-linecap:butt;stroke-linejoin:miter;stroke-opacity:1"
       d="m 918.72379,1242.6257 c 32.54441,3.3444 80.20015,-12.4734 53.88939,-62.8254 51.91332,25.2099 94.44422,43.8863 176.01382,-26.5701 -6.9033,78.0508 30.2259,70.7586 63.6986,55.7738 -32.1245,26.2647 25.5403,41.3151 56.5587,42.7905 -65.6166,56.8086 -30.2653,64.5204 -0.8294,73.4909 -59.1141,-3.4043 -53.3655,30.742 -41.3728,49.9155 -55.3188,-41.0959 -133.1479,-16.8453 -124.6455,12.0542 -24.6797,-16.6427 -44.2209,-61.6718 -105.49944,4.3631 22.53364,-57.0071 -7.00294,-51.0234 -54.8231,-22.9218 7.49445,-19.4175 52.03743,-48.9444 -22.99027,-45.844 46.86366,-18.4592 56.69121,-43.4645 0,-80.2267 z"
       id="path4584"
       inkscape:connector-curvature="0"
       sodipodi:nodetypes="cccccccccccc" />
    <path
       style="color:#000000;display:inline;overflow:visible;visibility:visible;fill:#ffffff;fill-opacity:1;fill-rule:nonzero;stroke:none;stroke-width:1px;marker:none;enable-background:accumulate"
       d="m 1284.4552,1484.7539 c -74.0623,-16.7815 -162.4554,-85.4407 -173.3256,-102.2336 5.7646,-4.0191 72.5018,-4.3109 72.5018,-4.3109 -25.8476,-20.7242 -129.727,-70.2911 -122.0213,-64.8466 -4.5243,-14.4638 68.3453,-13.6441 68.3453,-13.6441 0,0 96.3576,81.9196 112.2383,92.2829 -16.3671,10.5299 -65.2194,8.0221 -73.0419,9.9521 2.0894,11.1694 89.3696,76.2156 115.3034,82.8002 z"
       id="path4456"
       inkscape:connector-curvature="0"
       sodipodi:nodetypes="cccccccc" />
  </g>
  <g
     inkscape:groupmode="layer"
     id="layer1"
     inkscape:label="txt">
    <text
       xml:space="preserve"
       style="font-style:normal;font-variant:normal;font-weight:normal;font-stretch:normal;line-height:0%;font-family:Lavi;-inkscape-font-specification:Lavi;text-align:center;letter-spacing:0px;word-spacing:0px;text-anchor:middle;fill:#000000;fill-opacity:1;stroke:none"
       x="240.95441"
       y="278.97723"
       id="text4246"><tspan
         sodipodi:role="line"
         style="font-size:37.33333206px;line-height:1.20000005"
         x="240.95441"
         y="278.97723"
         id="tspan4252">Фу, гадость!</tspan></text>
    <text
       xml:space="preserve"
       style="font-style:normal;font-variant:normal;font-weight:normal;font-stretch:normal;line-height:0%;font-family:Lavi;-inkscape-font-specification:Lavi;text-align:center;letter-spacing:0px;word-spacing:0px;text-anchor:middle;fill:#000000;fill-opacity:1;stroke:none"
       x="521.44348"
       y="213.69147"
       id="text4246-3"><tspan
         sodipodi:role="line"
         style="font-size:37.33333206px;line-height:1.20000005"
         x="521.44348"
         y="213.69147"
         id="tspan886">Бее!</tspan><tspan
         sodipodi:role="line"
         style="font-size:37.33333206px;line-height:1.20000005"
         x="521.44348"
         y="258.49146"
         id="tspan82"> Эта штука</tspan><tspan
         sodipodi:role="line"
         style="font-size:37.33333206px;line-height:1.20000005"
         x="521.44348"
         y="303.29147"
         id="tspan84"> была у</tspan><tspan
         sodipodi:role="line"
         style="font-size:37.33333206px;line-height:1.20000005"
         x="521.44348"
         y="348.09146"
         id="tspan86"> кого-то</tspan><tspan
         sodipodi:role="line"
         style="font-size:37.33333206px;line-height:1.20000005"
         x="521.44348"
         y="392.89148"
         id="tspan88"> во рту!</tspan></text>
    <text
       xml:space="preserve"
       style="font-style:normal;font-variant:normal;font-weight:normal;font-stretch:normal;line-height:0%;font-family:Lavi;-inkscape-font-specification:Lavi;text-align:center;letter-spacing:0px;word-spacing:0px;text-anchor:middle;fill:#000000;fill-opacity:1;stroke:none"
       x="886.47461"
       y="202.70126"
       id="text4246-9"><tspan
         sodipodi:role="line"
         style="font-size:45px;line-height:1.20000005"
         x="886.47461"
         y="202.70126"
         id="tspan922">Ха ха!</tspan><tspan
         sodipodi:role="line"
         style="font-size:45px;line-height:1.20000005"
         x="886.47461"
         y="220.08325"
         id="tspan99" /><tspan
         sodipodi:role="line"
         style="font-size:45px;line-height:1.20000005"
         x="886.47461"
         y="256.70126"
         id="tspan101">Как всегда</tspan><tspan
         sodipodi:role="line"
         style="font-size:45px;line-height:1.20000005"
         x="886.47461"
         y="310.70126"
         id="tspan103">впечатляюще,</tspan><tspan
         sodipodi:role="line"
         style="font-size:45px;line-height:1.20000005"
         x="886.47461"
         y="364.70126"
         id="tspan105">Перчинка!</tspan></text>
    <text
       xml:space="preserve"
       style="font-style:normal;font-variant:normal;font-weight:normal;font-stretch:normal;line-height:0%;font-family:Lavi;-inkscape-font-specification:Lavi;text-align:center;letter-spacing:0px;word-spacing:0px;text-anchor:middle;fill:#000000;fill-opacity:1;stroke:none"
       x="2031.8931"
       y="168.97861"
       id="text4246-9-2"><tspan
         sodipodi:role="line"
         style="font-size:45px;line-height:1.20000005"
         x="2031.8931"
         y="168.97861"
         id="tspan135">Ладно, Перчинка,</tspan><tspan
         sodipodi:role="line"
         style="font-size:45px;line-height:1.20000005"
         x="2031.8931"
         y="222.97861"
         id="tspan146">спасибо за это...</tspan><tspan
         sodipodi:role="line"
         style="font-size:45px;line-height:1.20000005"
         x="2031.8931"
         y="276.97861"
         id="tspan148">&quot;объяснение&quot;.</tspan></text>
    <text
       xml:space="preserve"
       style="font-style:normal;font-variant:normal;font-weight:normal;font-stretch:normal;line-height:0%;font-family:Lavi;-inkscape-font-specification:Lavi;text-align:center;letter-spacing:0px;word-spacing:0px;text-anchor:middle;fill:#000000;fill-opacity:1;stroke:none"
       x="1885.3817"
       y="893.83844"
       id="text4246-9-2-6"><tspan
         sodipodi:role="line"
         style="font-size:45px;line-height:1.20000005"
         x="1885.3817"
         y="893.83844"
         id="tspan913">А не пора ли</tspan><tspan
         sodipodi:role="line"
         style="font-size:45px;line-height:1.20000005"
         x="1885.3817"
         y="947.83844"
         id="tspan169">идти спать?</tspan></text>
    <text
       xml:space="preserve"
       style="font-style:normal;font-variant:normal;font-weight:normal;font-stretch:normal;font-size:10.59237862px;line-height:0%;font-family:Lavi;-inkscape-font-specification:Lavi;text-align:center;letter-spacing:0px;word-spacing:0px;text-anchor:middle;fill:#000000;fill-opacity:1;stroke:none;stroke-width:0.99999994"
       x="2154.5215"
       y="939.08771"
       id="text4246-3-2"><tspan
         sodipodi:role="line"
         style="font-size:37.33333206px;line-height:1.20000005;stroke-width:0.99999994"
         x="2154.5215"
         y="939.08771"
         id="tspan176">А кое кому</tspan><tspan
         sodipodi:role="line"
         style="font-size:37.33333206px;line-height:1.20000005;stroke-width:0.99999994"
         x="2154.5215"
         y="983.8877"
         id="tspan76">ещё и руки</tspan><tspan
         sodipodi:role="line"
         style="font-size:37.33333206px;line-height:1.20000005;stroke-width:0.99999994"
         x="2154.5215"
         y="1028.6877"
         id="tspan78">помыть</tspan></text>
    <text
       xml:space="preserve"
       style="font-style:normal;font-variant:normal;font-weight:normal;font-stretch:normal;line-height:0%;font-family:Lavi;-inkscape-font-specification:Lavi;text-align:center;letter-spacing:0px;word-spacing:0px;text-anchor:middle;fill:#000000;fill-opacity:1;stroke:none"
       x="1098.8546"
       y="1264.035"
       id="text4246-9-2-6-2"><tspan
         sodipodi:role="line"
         style="font-size:45px;line-height:1.20000005"
         x="1098.8546"
         y="1264.035"
         id="tspan957">Эй!</tspan><tspan
         sodipodi:role="line"
         style="font-size:45px;line-height:1.20000005"
         x="1098.8546"
         y="1318.035"
         id="tspan180">Погодите!</tspan></text>
    <text
       xml:space="preserve"
       style="font-style:normal;font-variant:normal;font-weight:normal;font-stretch:normal;font-size:14.62346077px;line-height:0%;font-family:Lavi;-inkscape-font-specification:Lavi;text-align:center;letter-spacing:0px;word-spacing:0px;text-anchor:middle;fill:#ffffff;fill-opacity:0.78431373;stroke:none;stroke-width:0.99999994"
       x="1387.7701"
       y="2189.5938"
       id="text4246-7"
       transform="matrix(0.79017753,-0.5292546,0.38466968,1.0078897,0,0)"><tspan
         sodipodi:role="line"
         style="font-style:normal;font-variant:normal;font-weight:bold;font-stretch:normal;font-size:58.49384308px;line-height:1.20000005;font-family:Lavi;-inkscape-font-specification:'Lavi Bold';fill:#ffffff;fill-opacity:0.78431373;stroke-width:0.82059908"
         x="1387.7701"
         y="2189.5938"
         id="tspan4252-5">Щёлк!</tspan></text>
    <text
       xml:space="preserve"
       style="font-style:normal;font-variant:normal;font-weight:normal;font-stretch:normal;font-size:11.79470253px;line-height:0%;font-family:Lavi;-inkscape-font-specification:Lavi;text-align:center;letter-spacing:0px;word-spacing:0px;text-anchor:middle;fill:#ffffff;fill-opacity:0.78431373;stroke:none;stroke-width:0.99999994"
       x="-536.53265"
       y="2434.625"
       id="text4246-7-9"
       transform="matrix(0.80236382,-0.52121629,0.39060214,0.99258189,0,0)"><tspan
         sodipodi:role="line"
         style="font-style:normal;font-variant:normal;font-weight:bold;font-stretch:normal;font-size:47.17881012px;line-height:1.20000005;font-family:Lavi;-inkscape-font-specification:'Lavi Bold';fill:#ffffff;fill-opacity:0.78431373;stroke-width:0.82059908"
         x="-536.53265"
         y="2434.625"
         id="tspan4252-5-2">Хлоп!</tspan></text>
    <text
       xml:space="preserve"
       style="font-style:normal;font-variant:normal;font-weight:normal;font-stretch:normal;font-size:11.79470253px;line-height:0%;font-family:Lavi;-inkscape-font-specification:Lavi;text-align:center;letter-spacing:0px;word-spacing:0px;text-anchor:middle;fill:#ffffff;fill-opacity:0.78431373;stroke:none;stroke-width:0.99999994"
       x="-363.09036"
       y="2526.7615"
       id="text4246-7-9-2"
       transform="matrix(0.80236382,-0.52121629,0.39060214,0.99258189,0,0)"><tspan
         sodipodi:role="line"
         style="font-style:normal;font-variant:normal;font-weight:bold;font-stretch:normal;font-size:47.17881012px;line-height:1.20000005;font-family:Lavi;-inkscape-font-specification:'Lavi Bold';fill:#ffffff;fill-opacity:0.78431373;stroke-width:0.82059908"
         x="-363.09036"
         y="2526.7615"
         id="tspan4252-5-2-8">Хлоп!</tspan></text>
    <text
       xml:space="preserve"
       style="font-style:normal;font-variant:normal;font-weight:normal;font-stretch:normal;line-height:0%;font-family:Lavi;-inkscape-font-specification:Lavi;letter-spacing:0px;word-spacing:0px;fill:#000000;fill-opacity:1;stroke:none;stroke-width:0;stroke-miterlimit:4;stroke-dasharray:none;stroke-opacity:1;filter:url(#filter4375-4-1-1-1-9)"
       x="787.65729"
       y="1584.5073"
       id="text4580"
       transform="matrix(1.0562812,-1.0457132,0.34852463,1.662996,-176.82337,824.6776)"><tspan
         sodipodi:role="line"
         id="tspan4582"
         x="787.65729"
         y="1584.5073"
         style="font-size:70px;line-height:1.25;fill:#ffffff;stroke:none;stroke-width:0;stroke-miterlimit:4;stroke-dasharray:none">Бум!</tspan></text>
    <text
       xml:space="preserve"
       style="font-style:normal;font-variant:normal;font-weight:normal;font-stretch:normal;font-size:15.75232887px;line-height:0%;font-family:Lavi;-inkscape-font-specification:Lavi;text-align:center;letter-spacing:0px;word-spacing:0px;text-anchor:middle;opacity:1;fill:#ffffff;fill-opacity:0.84180789;stroke:none;stroke-width:0.99999994"
       x="1881.7031"
       y="2489.1436"
       id="text4246-7-9-2-3"
       transform="matrix(0.98943475,-0.09116349,0.01957156,1.0088748,0,0)"><tspan
         sodipodi:role="line"
         style="font-style:normal;font-variant:normal;font-weight:bold;font-stretch:normal;font-size:63.00931549px;line-height:1.20000005;font-family:Lavi;-inkscape-font-specification:'Lavi Bold';fill:#ffffff;fill-opacity:0.84180789;stroke-width:0.82059902"
         x="1881.7031"
         y="2489.1436"
         id="tspan4252-5-2-8-6">?</tspan></text>
    <text
       xml:space="preserve"
       style="font-style:normal;font-weight:normal;font-size:40px;line-height:1.25;font-family:sans-serif;letter-spacing:0px;word-spacing:0px;fill:#000000;fill-opacity:1;stroke:none"
       x="2050.6616"
       y="240.29919"
       id="text123"><tspan
         sodipodi:role="line"
         id="tspan121"
         x="2050.6616"
         y="275.68982" /><tspan
         sodipodi:role="line"
         x="2050.6616"
         y="325.68982"
         id="tspan125" /><tspan
         sodipodi:role="line"
         x="2050.6616"
         y="375.68982"
         id="tspan127" /></text>
    <text
       xml:space="preserve"
       style="font-style:normal;font-weight:normal;font-size:40px;line-height:1.25;font-family:sans-serif;letter-spacing:0px;word-spacing:0px;fill:#000000;fill-opacity:1;stroke:none"
       x="2044.4033"
       y="234.04082"
       id="text131"><tspan
         sodipodi:role="line"
         id="tspan129"
         x="2044.4033"
         y="269.43146" /><tspan
         sodipodi:role="line"
         x="2044.4033"
         y="319.43146"
         id="tspan133" /></text>
    <text
       xml:space="preserve"
       style="font-style:normal;font-weight:normal;font-size:40px;line-height:1.25;font-family:sans-serif;letter-spacing:0px;word-spacing:0px;fill:#000000;fill-opacity:1;stroke:none"
       x="2140.365"
       y="248.64371"
       id="text139"><tspan
         sodipodi:role="line"
         id="tspan137"
         x="2140.365"
         y="284.03433" /></text>
    <text
       xml:space="preserve"
       style="font-style:normal;font-weight:normal;font-size:40px;line-height:1.25;font-family:sans-serif;letter-spacing:0px;word-spacing:0px;fill:#000000;fill-opacity:1;stroke:none"
       x="525.70374"
       y="2693.5833"
       id="text82"><tspan
         sodipodi:role="line"
         id="tspan80"
         x="525.70374"
         y="2728.9739"></tspan></text>
  </g>
</svg>
