<?xml version="1.0" encoding="UTF-8" standalone="no"?>
<!-- Created with Inkscape (http://www.inkscape.org/) -->

<svg
   xmlns:dc="http://purl.org/dc/elements/1.1/"
   xmlns:cc="http://creativecommons.org/ns#"
   xmlns:rdf="http://www.w3.org/1999/02/22-rdf-syntax-ns#"
   xmlns:svg="http://www.w3.org/2000/svg"
   xmlns="http://www.w3.org/2000/svg"
   xmlns:xlink="http://www.w3.org/1999/xlink"
   xmlns:sodipodi="http://sodipodi.sourceforge.net/DTD/sodipodi-0.dtd"
   xmlns:inkscape="http://www.inkscape.org/namespaces/inkscape"
   id="svg2"
   version="1.1"
   inkscape:version="0.92.3 (2405546, 2018-03-11)"
   width="2481"
   height="3503"
   sodipodi:docname="E23P03.svg">
  <metadata
     id="metadata8">
    <rdf:RDF>
      <cc:Work
         rdf:about="">
        <dc:format>image/svg+xml</dc:format>
        <dc:type
           rdf:resource="http://purl.org/dc/dcmitype/StillImage" />
        <dc:title />
      </cc:Work>
    </rdf:RDF>
  </metadata>
  <defs
     id="defs6">
    <filter
       style="color-interpolation-filters:sRGB"
       id="filter4375-4-1-1-1-9"
       inkscape:label="deevad outline effect">
      <feFlood
         id="feFlood4377-7-9-0-8-1"
         flood-opacity="1"
         flood-color="rgb(0,0,0)"
         result="flood" />
      <feComposite
         id="feComposite4379-3-8-8-2-77"
         in2="SourceGraphic"
         in="flood"
         operator="in"
         result="composite1" />
      <feMorphology
         id="feMorphology4393-1-0-49-8-9"
         operator="dilate"
         radius="3"
         result="result3" />
      <feComposite
         id="feComposite4385-9-5-7-0-8"
         in2="result3"
         in="SourceGraphic"
         operator="over"
         result="composite2" />
    </filter>
    <filter
       style="color-interpolation-filters:sRGB"
       id="filter4375-4-1-1-1-9-3"
       inkscape:label="deevad outline effect">
      <feFlood
         id="feFlood4377-7-9-0-8-1-6"
         flood-opacity="1"
         flood-color="rgb(0,0,0)"
         result="flood" />
      <feComposite
         id="feComposite4379-3-8-8-2-77-7"
         in2="SourceGraphic"
         in="flood"
         operator="in"
         result="composite1" />
      <feMorphology
         id="feMorphology4393-1-0-49-8-9-5"
         operator="dilate"
         radius="3"
         result="result3" />
      <feComposite
         id="feComposite4385-9-5-7-0-8-3"
         in2="result3"
         in="SourceGraphic"
         operator="over"
         result="composite2" />
    </filter>
  </defs>
  <sodipodi:namedview
     pagecolor="#ffffff"
     bordercolor="#666666"
     borderopacity="1"
     objecttolerance="10"
     gridtolerance="10"
     guidetolerance="10"
     inkscape:pageopacity="0"
     inkscape:pageshadow="2"
     inkscape:window-width="1856"
     inkscape:window-height="1151"
     id="namedview4"
     showgrid="false"
     inkscape:zoom="0.49190039"
     inkscape:cx="1277.6168"
     inkscape:cy="1037.9332"
     inkscape:window-x="64"
     inkscape:window-y="0"
     inkscape:window-maximized="1"
     inkscape:current-layer="layer3"
     inkscape:document-rotation="0" />
  <g
     inkscape:groupmode="layer"
     id="layer2"
     inkscape:label="artwork"
     sodipodi:insensitive="true">
    <image
       sodipodi:absref="/home/fici/Desktop/P&amp;C/all/sl/../gfx_Pepper-and-Carrot_by-David-Revoy_E23P03.png"
       xlink:href="../gfx_Pepper-and-Carrot_by-David-Revoy_E23P03.png"
       width="2481"
       height="3503"
       id="image10"
       x="0"
       y="0" />
  </g>
  <g
     inkscape:groupmode="layer"
     id="layer3"
     inkscape:label="speechbubbles">
    <path
       style="fill:#ffffff;stroke:none;stroke-width:0.81683898"
       d="m 179.67841,2923.7113 c -0.32717,-95.2547 186.69634,-107.0318 256.21507,-106.8234 94.04639,0.2819 275.58253,-3.1374 321.90508,32.9542 70.37057,54.8284 55.38804,119.185 30.88918,141.4475 -32.80241,29.8084 -85.77674,25.6048 -156.35662,37.3006 -87.63899,14.5226 -300.98232,3.9296 -356.18608,-3.0449 -43.73736,-5.5257 -96.13946,-6.5793 -96.46663,-101.834 z"
       id="path3100"
       inkscape:connector-curvature="0"
       sodipodi:nodetypes="zsssssz" />
    <path
       style="color:#000000;display:inline;overflow:visible;visibility:visible;fill:#ffffff;fill-opacity:1;fill-rule:nonzero;stroke:none;stroke-width:1px;marker:none;enable-background:accumulate"
       d="m 801.90081,2958.6717 c 57.3052,17.7871 114.43744,34.6742 149.48328,-5.5841 -24.12635,56.7783 -126.22584,48.3612 -173.00855,34.6012 -39.73498,-11.6871 23.52527,-29.0171 23.52527,-29.0171 z"
       id="path4480"
       inkscape:connector-curvature="0"
       sodipodi:nodetypes="ccsc" />
    <path
       style="fill:#ffffff;stroke:none;stroke-width:0.94539094"
       d="m 627.32852,2767.5609 c -3.68066,57.4889 -72.83632,74.6845 -122.27011,75.9298 -83.97904,6.3058 -169.31988,1.1556 -251.70954,-15.2943 -53.28681,-14.6277 -80.56426,-87.8339 -37.40665,-126.0814 44.45709,-30.0415 102.38828,-28.9286 154.27212,-35.7384 73.48569,-4.6842 149.77571,-1.1465 219.2047,24.0536 30.9853,13.8733 42.29239,46.0918 37.90948,77.1307 z"
       id="path3100-2"
       inkscape:connector-curvature="0" />
    <path
       style="fill:#ffffff;stroke:none;stroke-width:1.292925"
       d="m 128.862,2636.314 c -1.11187,-16.6724 34.77109,-62.7981 188.56632,-57.4914 153.79521,5.3069 201.25594,24.2986 204.6145,53.9536 5.31314,46.9133 -76.14977,58.2803 -192.55842,60.1068 -120.00472,1.8829 -194.05946,-14.3988 -200.6224,-56.569 z"
       id="path3280"
       inkscape:connector-curvature="0"
       sodipodi:nodetypes="csssc" />
    <text
       xml:space="preserve"
       style="font-style:normal;font-variant:normal;font-weight:normal;font-stretch:normal;line-height:0%;font-family:Lavi;-inkscape-font-specification:Lavi;text-align:center;letter-spacing:0px;word-spacing:0px;text-anchor:middle;fill:#000000;fill-opacity:1;stroke:#000000;stroke-width:0.5;stroke-miterlimit:4;stroke-dasharray:none;stroke-opacity:1"
       x="325.94156"
       y="2651.4136"
       id="text4246-3"><tspan
         sodipodi:role="line"
         style="font-size:49.67481232px;line-height:1.25;stroke:#000000;stroke-width:0.5;stroke-miterlimit:4;stroke-dasharray:none;stroke-opacity:1"
         x="333.70325"
         y="2651.4136"
         id="tspan4167-3">Pozdravljeni! </tspan></text>
    <text
       xml:space="preserve"
       style="font-style:normal;font-variant:normal;font-weight:normal;font-stretch:normal;line-height:0%;font-family:Lavi;-inkscape-font-specification:Lavi;text-align:center;letter-spacing:0px;word-spacing:0px;text-anchor:middle;fill:#000000;fill-opacity:1;stroke:none"
       x="411.70587"
       y="2742.3286"
       id="text4246-5"><tspan
         sodipodi:role="line"
         style="font-size:45px;line-height:1.25"
         x="411.70587"
         y="2742.3286"
         id="tspan40">Dovolite mi da se</tspan><tspan
         sodipodi:role="line"
         style="font-size:45px;line-height:1.25"
         x="418.73712"
         y="2798.5786"
         id="tspan45">vam predstavim: </tspan></text>
  </g>
  <g
     inkscape:groupmode="layer"
     id="layer1"
     inkscape:label="txt">
    <text
       xml:space="preserve"
       style="font-style:normal;font-variant:normal;font-weight:normal;font-stretch:normal;line-height:0%;font-family:Lavi;-inkscape-font-specification:Lavi;letter-spacing:0px;word-spacing:0px;fill:#000000;fill-opacity:1;stroke:#ffffff;stroke-width:2.24600291;stroke-miterlimit:4;stroke-dasharray:none;stroke-opacity:1;filter:url(#filter4375-4-1-1-1-9)"
       x="787.65729"
       y="1584.5073"
       id="text4580"
       transform="matrix(0.59080172,-0.79384316,0.23129973,1.313198,478.68923,-967.19282)"><tspan
         sodipodi:role="line"
         id="tspan4582"
         x="787.65729"
         y="1584.5073"
         style="font-size:70px;line-height:100%;letter-spacing:4.88345098px;fill:#ffffff;stroke:#ffffff;stroke-width:2.24600291;stroke-miterlimit:4;stroke-dasharray:none;stroke-opacity:1"><tspan
           style="font-size:55.34964371px;line-height:100%;letter-spacing:4.88345098px;stroke:#ffffff;stroke-width:2.24600291;stroke-miterlimit:4;stroke-dasharray:none;stroke-opacity:1"
           id="tspan4439">B<tspan
   style="font-size:49.24533081px;stroke-width:2.24600291"
   id="tspan4162">ong</tspan></tspan><tspan
           style="font-size:80.40014648px;line-height:100%;letter-spacing:4.88345098px;stroke:#ffffff;stroke-width:2.24600291;stroke-miterlimit:4;stroke-dasharray:none;stroke-opacity:1"
           id="tspan4617">!</tspan></tspan></text>
    <text
       xml:space="preserve"
       style="font-style:normal;font-variant:normal;font-weight:normal;font-stretch:normal;line-height:0%;font-family:Lavi;-inkscape-font-specification:Lavi;text-align:center;letter-spacing:0px;word-spacing:0px;text-anchor:middle;fill:#000000;fill-opacity:1;stroke:none"
       x="489.07965"
       y="2890.3774"
       id="text4246"><tspan
         sodipodi:role="line"
         style="font-size:45px;line-height:1.25"
         x="489.07965"
         y="2890.3774"
         id="tspan4230">Sem duh uspeha,</tspan><tspan
         sodipodi:role="line"
         style="font-size:45px;line-height:1.25"
         x="489.07965"
         y="2946.6274"
         id="tspan459">vam na uslugo 24 ur na dan,</tspan><tspan
         sodipodi:role="line"
         style="font-size:45px;line-height:1.25"
         x="496.1109"
         y="3002.8774"
         id="tspan41">7 dni v tednu!* </tspan></text>
  </g>
</svg>
