<?xml version="1.0" encoding="UTF-8" standalone="no"?>
<svg
   xmlns:dc="http://purl.org/dc/elements/1.1/"
   xmlns:cc="http://creativecommons.org/ns#"
   xmlns:rdf="http://www.w3.org/1999/02/22-rdf-syntax-ns#"
   xmlns:svg="http://www.w3.org/2000/svg"
   xmlns="http://www.w3.org/2000/svg"
   xmlns:xlink="http://www.w3.org/1999/xlink"
   xmlns:sodipodi="http://sodipodi.sourceforge.net/DTD/sodipodi-0.dtd"
   xmlns:inkscape="http://www.inkscape.org/namespaces/inkscape"
   id="svg2"
   version="1.1"
   inkscape:version="1.0.2-2 (e86c870879, 2021-01-15)"
   width="2481"
   height="3503"
   sodipodi:docname="E34P09.svg">
  <metadata
     id="metadata8">
    <rdf:RDF>
      <cc:Work
         rdf:about="">
        <dc:format>image/svg+xml</dc:format>
        <dc:type
           rdf:resource="http://purl.org/dc/dcmitype/StillImage" />
        <dc:title />
      </cc:Work>
    </rdf:RDF>
  </metadata>
  <defs
     id="defs6">
    <filter
       style="color-interpolation-filters:sRGB"
       id="filter4375-4-1-1-1-9-5-8-8-5-5-3-3-3-0"
       inkscape:label="soundFX1">
      <feFlood
         id="feFlood4377-7-9-0-8-1-7-3-1-2-7-6-6-5-96"
         flood-opacity="1"
         flood-color="rgb(52,52,52)"
         result="flood" />
      <feComposite
         id="feComposite4379-3-8-8-2-77-4-1-0-6-4-7-7-6-3"
         in2="SourceGraphic"
         in="flood"
         operator="in"
         result="composite1"
         baseFrequency="0.053999999999999999 0.053999999999999999" />
      <feMorphology
         id="feMorphology4393-1-0-49-8-9-3-0-1-9-9-5-5-2-8"
         operator="dilate"
         radius="2.5856550817276021"
         result="result3" />
      <feComposite
         id="feComposite4385-9-5-7-0-8-8-7-5-4-9-3-3-9-5"
         in2="result3"
         in="SourceGraphic"
         operator="over"
         result="fbSourceGraphic" />
      <feColorMatrix
         result="fbSourceGraphicAlpha"
         in="fbSourceGraphic"
         values="0 0 0 -1 0 0 0 0 -1 0 0 0 0 -1 0 0 0 0 1 0"
         id="feColorMatrix4544-9-4-4-5-5-1-6" />
      <feTurbulence
         id="feTurbulence4546-3-6-5-6-6-2-1"
         type="fractalNoise"
         numOctaves="4"
         seed="147"
         baseFrequency="0.046080819231719368"
         result="turbulence" />
      <feDisplacementMap
         id="feDisplacementMap4548-8-0-9-2-2-7-1"
         in2="turbulence"
         in="fbSourceGraphic"
         scale="13.20326"
         yChannelSelector="G"
         xChannelSelector="R"
         result="fbSourceGraphic" />
      <feColorMatrix
         result="fbSourceGraphicAlpha"
         in="fbSourceGraphic"
         values="0 0 0 -1 0 0 0 0 -1 0 0 0 0 -1 0 0 0 0 1 0"
         id="feColorMatrix4670-7-7-3-9-9-0-5" />
      <feFlood
         id="feFlood4672-4-4-5-1-1-9-9"
         flood-opacity="1"
         flood-color="rgb(28,28,28)"
         result="flood"
         in="fbSourceGraphic" />
      <feComposite
         id="feComposite4674-8-3-7-2-2-3-8"
         in2="fbSourceGraphic"
         in="flood"
         operator="in"
         result="composite1" />
      <feGaussianBlur
         id="feGaussianBlur4676-3-7-08-7-7-6-4"
         in="composite1"
         stdDeviation="0"
         result="blur" />
      <feOffset
         id="feOffset4678-6-9-1-0-0-0-8"
         dx="-8.3919392296330813"
         dy="1.5526614972014983"
         result="offset" />
      <feComposite
         id="feComposite4680-4-0-9-9-9-6-1"
         in2="offset"
         in="fbSourceGraphic"
         operator="over"
         result="composite2" />
    </filter>
    <filter
       style="color-interpolation-filters:sRGB"
       id="filter4375-4-1-1-1-9-5-8-8-5-5-3-3-3-0-6"
       inkscape:label="soundFX1">
      <feFlood
         id="feFlood4377-7-9-0-8-1-7-3-1-2-7-6-6-5-96-3"
         flood-opacity="1"
         flood-color="rgb(52,52,52)"
         result="flood" />
      <feComposite
         id="feComposite4379-3-8-8-2-77-4-1-0-6-4-7-7-6-3-2"
         in2="SourceGraphic"
         in="flood"
         operator="in"
         result="composite1"
         baseFrequency="0.053999999999999999 0.053999999999999999" />
      <feMorphology
         id="feMorphology4393-1-0-49-8-9-3-0-1-9-9-5-5-2-8-0"
         operator="dilate"
         radius="2.5856550817276021"
         result="result3" />
      <feComposite
         id="feComposite4385-9-5-7-0-8-8-7-5-4-9-3-3-9-5-6"
         in2="result3"
         in="SourceGraphic"
         operator="over"
         result="fbSourceGraphic" />
      <feColorMatrix
         result="fbSourceGraphicAlpha"
         in="fbSourceGraphic"
         values="0 0 0 -1 0 0 0 0 -1 0 0 0 0 -1 0 0 0 0 1 0"
         id="feColorMatrix4544-9-4-4-5-5-1-6-1" />
      <feTurbulence
         id="feTurbulence4546-3-6-5-6-6-2-1-5"
         type="fractalNoise"
         numOctaves="4"
         seed="147"
         baseFrequency="0.046080819231719368"
         result="turbulence" />
      <feDisplacementMap
         id="feDisplacementMap4548-8-0-9-2-2-7-1-5"
         in2="turbulence"
         in="fbSourceGraphic"
         scale="13.20326"
         yChannelSelector="G"
         xChannelSelector="R"
         result="fbSourceGraphic" />
      <feColorMatrix
         result="fbSourceGraphicAlpha"
         in="fbSourceGraphic"
         values="0 0 0 -1 0 0 0 0 -1 0 0 0 0 -1 0 0 0 0 1 0"
         id="feColorMatrix4670-7-7-3-9-9-0-5-4" />
      <feFlood
         id="feFlood4672-4-4-5-1-1-9-9-7"
         flood-opacity="1"
         flood-color="rgb(28,28,28)"
         result="flood"
         in="fbSourceGraphic" />
      <feComposite
         id="feComposite4674-8-3-7-2-2-3-8-6"
         in2="fbSourceGraphic"
         in="flood"
         operator="in"
         result="composite1" />
      <feGaussianBlur
         id="feGaussianBlur4676-3-7-08-7-7-6-4-5"
         in="composite1"
         stdDeviation="0"
         result="blur" />
      <feOffset
         id="feOffset4678-6-9-1-0-0-0-8-6"
         dx="-8.3919392296330813"
         dy="1.5526614972014983"
         result="offset" />
      <feComposite
         id="feComposite4680-4-0-9-9-9-6-1-9"
         in2="offset"
         in="fbSourceGraphic"
         operator="over"
         result="composite2" />
    </filter>
  </defs>
  <sodipodi:namedview
     pagecolor="#ffffff"
     bordercolor="#666666"
     borderopacity="1"
     objecttolerance="10"
     gridtolerance="10"
     guidetolerance="10"
     inkscape:pageopacity="0"
     inkscape:pageshadow="2"
     inkscape:window-width="1710"
     inkscape:window-height="1030"
     id="namedview4"
     showgrid="false"
     inkscape:zoom="0.52900002"
     inkscape:cx="1308.2237"
     inkscape:cy="2877.2874"
     inkscape:window-x="145"
     inkscape:window-y="14"
     inkscape:window-maximized="0"
     inkscape:current-layer="layer1"
     inkscape:document-rotation="0"
     inkscape:snap-global="false"
     borderlayer="true" />
  <g
     inkscape:groupmode="layer"
     id="layer2"
     inkscape:label="artwork"
     sodipodi:insensitive="true">
    <image
       sodipodi:absref="/home/peppercarrot/webcomics/"
       xlink:href="../gfx_Pepper-and-Carrot_by-David-Revoy_E34P09.png"
       width="2481"
       height="3503"
       id="image10"
       x="0"
       y="0" />
  </g>
  <g
     inkscape:groupmode="layer"
     id="layer3"
     inkscape:label="speechbubbles"
     style="display:inline">
    <path
       style="color:#000000;display:inline;overflow:visible;visibility:visible;fill:#ffffff;fill-opacity:1;fill-rule:nonzero;stroke:none;stroke-width:1.19532px;marker:none;enable-background:accumulate"
       d="m 1483.8685,2288.6897 c -26.2418,-5.3737 -101.9085,-47.9371 -9.1067,-45.7139 -68.2997,-17.9093 -59.2203,-53.5519 -3.0931,-74.369 -73.6194,4.2548 -125.6608,0.6207 -87.7269,-36.1664 -98.9753,3.5955 -153.4316,10.2673 -137.1843,-28.5578 -50.1636,42.6369 -98.2798,34.6793 -110.6748,-15.1981 -8.6552,35.2294 -102.0762,33.1271 -209.89908,12.6992 10.37486,14.5849 110.54568,54.7735 -38.17045,45.7152 58.78331,26.0011 61.39605,39.3386 -38.63567,50.3382 50.97981,11.6971 83.49042,27.5422 4.03667,52.7159 51.48225,7.9508 132.92931,5.6199 34.02429,53.7673 65.20706,-22.7557 173.97984,-6.3139 127.09724,30.3911 127.7787,-41.2428 152.3546,-30.2458 171.6487,-0.6941 47.5106,-43.2711 116.1718,-38.37 156.1083,-13.2168 -19.4145,-38.3461 82.9008,-31.727 141.5758,-31.7108 z"
       id="path3549-3-78-5"
       inkscape:connector-curvature="0"
       sodipodi:nodetypes="ccccccccccccccc" />
    <path
       style="color:#000000;display:inline;overflow:visible;visibility:visible;fill:#ffffff;fill-opacity:1;fill-rule:nonzero;stroke:none;stroke-width:1.73306px;marker:none;enable-background:accumulate"
       d="m 1119.9275,2415.5957 c -43.9708,-0.1986 -88.9663,7.5341 -126.17216,26.5677 -40.28699,20.8546 -67.71105,54.7659 -80.45742,90.992 -12.44292,35.4038 -10.07294,74.2782 8.80868,108.0147 8.68194,15.1175 22.98734,27.7161 38.06971,39.0839 9.61383,7.6225 20.98427,13.7668 33.31047,18.346 18.35252,6.8324 37.96652,11.292 57.61012,15.1598 33.4188,6.1862 68.1918,7.9244 102.2919,4.642 23.5489,-2.077 47.247,-5.5156 69.0529,-13.0541 27.1965,-9.8408 50.8927,-24.9311 71.2811,-42.0352 13.3646,-11.4326 23.8809,-24.9656 29.9746,-39.7781 14.022,-32.7738 10.8145,-69.1116 -4.1779,-101.3125 -12.7951,-27.8254 -34.9475,-53.129 -64.6069,-71.437 -29.245,-18.3714 -65.033,-30.0737 -102.147,-33.66 -10.8831,-1.1141 -21.8657,-1.586 -32.8381,-1.5292 z"
       id="path3365-3"
       inkscape:connector-curvature="0"
       sodipodi:nodetypes="cssccsc" />
    <path
       style="display:inline;fill:#ffffff;fill-rule:evenodd;stroke:none;stroke-width:1.24411px;stroke-linecap:butt;stroke-linejoin:miter;stroke-opacity:1"
       d="m 90.831419,2166.3684 c 31.043781,30.1007 34.845591,51.1846 7.946164,39.7731 26.177377,19.5388 20.761887,24.1121 1.531497,33.4184 51.52556,47.5356 38.43315,84.8176 23.82096,121.8584 53.19853,-24.2399 56.15838,6.1339 70.12031,24.5483 10.98688,-42.6978 17.45255,-17.3898 22.65686,26.8937 11.01576,-54.6699 19.35334,-60.1529 25.25155,-20.7835 10.82065,-35.1758 25.46811,-50.2846 44.51357,-42.3287 34.9182,-36.575 49.15755,4.0613 70.0805,19.7421 -2.11847,-40.6787 12.63622,-53.7834 48.58167,-19.0444 -0.95368,-24.6438 24.07165,-28.0884 51.06216,2.9503 -37.78293,-63.4889 18.80259,-10.0602 27.23256,-7.3278 -18.36559,-32.8469 -3.82694,-59.4137 67.85932,-22.5489 -22.81036,-5.0809 -38.40055,-44.0957 -7.58192,-63.3767 -34.30578,-9.9505 -33.94433,-27.8671 -15.37079,-49.9693 -39.16939,-22.7403 0.12202,-56.4855 19.83587,-87.4845 -39.80413,19.4366 -71.57852,23.9885 -78.65914,-17.2353 -60.4896,42.3266 -51.44079,22.8492 -45.56237,6.1893 -37.58911,45.5288 -44.29948,10.2749 -44.87375,-0.9235 -52.09091,51.3722 -99.01857,14.278 -120.09422,-9.3195 -8.74387,58.6683 -30.24309,39.9922 -51.79518,20.9972 16.06275,39.414 -3.41497,39.3116 -25.21145,25.5896 9.17148,26.7627 -4.78371,53.5043 -42.08367,19.8352 13.42989,17.5163 -5.47595,30.2003 -49.260501,-1.4535 z"
       id="path4289-9"
       inkscape:connector-curvature="0"
       sodipodi:nodetypes="cccccccccccccccccccccccc" />
    <path
       style="fill:#ffffff;fill-rule:evenodd;stroke:none;stroke-width:1.83564px;stroke-linecap:butt;stroke-linejoin:miter;stroke-opacity:1"
       d="m 845.53598,1281.9721 c 50.09909,91.7805 69.10266,84.7087 76.89078,41.9832 13.68925,15.4323 16.60334,60.6932 55.77341,5.5858 24.18593,40.023 43.69053,34.914 59.35933,-7.1739 42.0146,75.8538 67.6332,32.0394 90.1785,15.1094 56.8919,42.4272 213.364,48.8759 281.8575,-5.8369 14.5072,19.5051 29.9659,34.8489 59.0509,-1.9364 -2.8456,44.5449 35.1072,7.5009 67.3338,-49.2058 -4.1278,33.3537 -25.3201,90.2026 18.6903,57.2753 5.0955,23.8344 1.0698,55.3699 95.2053,4.0248 -27.3795,67.9175 51.8386,-1.2141 128.6004,-67.1871 -48.3764,57.5257 -114.4701,128.2944 -31.8527,105.1684 -46.4479,48.1932 -42.2869,65.8771 89.5755,63.4999 -124.8057,24.8181 -155.4388,57.3228 -80.8354,123.2148 -53.9797,-31.0307 -131.4916,-35.2418 -64.8603,7.5461 -67.1434,-34.2663 -76.8164,-17.672 -52.9213,10.4041 -73.3069,-49.3277 -38.8336,-9.7825 -34.7685,29.1527 -52.7723,-24.5276 -88.1016,-52.6972 -80.3327,10.0835 -54.9217,-48.1752 -64.2877,-30.9006 -70.7442,-9.4462 -97.5137,-72.8026 -84.8988,-29.2975 -103.6383,-18.9061 -28.1955,-26.9338 -27.4818,-4.8298 -22.284,24.8798 -26.9847,-31.4777 -51.4314,-43.6108 -69.3743,-6.1606 -16.9055,-17.3167 -33.4955,-41.8525 -52.7508,-5.4578 -23.2856,-19.8523 -47.8459,-27.744 -77.9166,16.0725 -12.7898,-26.4714 -31.6616,-45.5282 -94.9234,-10.4684 -11.9254,-56.7978 -66.08856,-47.6201 -134.00339,-16.9621 2.08472,-33.3735 -3.27952,-55.2983 -73.66511,22.7077 14.62306,-34.0901 31.27792,-70.0258 -11.34569,-52.1235 26.74613,-65.2228 -10.6914,-47.7521 -89.97571,-34.4229 80.9928,-37.9606 123.03815,-76.2312 44.82782,-75.6147 53.74938,-37.8995 49.5339,-57.7575 25.30619,-56.1043 3.67088,-11.7108 47.43972,-32.981 -13.8742,-32.175 32.38037,-15.9508 80.14631,-11.3665 67.41687,-87.5263 z"
       id="path4656"
       inkscape:connector-curvature="0"
       sodipodi:nodetypes="ccccccccccccccccccccccccccccccccc" />
    <path
       style="fill:#ffffff;fill-rule:evenodd;stroke:none;stroke-width:0.833965px;stroke-linecap:butt;stroke-linejoin:miter;stroke-opacity:1"
       d="m 758.48636,1241.283 c 21.03098,13.5269 74.97237,21.0234 2.14311,61.3674 38.55211,0.9671 59.87973,1.7537 23.57404,19.124 49.33599,0.3154 1.0465,9.9013 -23.34187,19.2955 26.85041,-0.2589 66.63678,-7.2784 6.12083,24.6341 50.05526,-9.2869 36.6994,2.0347 -13.73805,24.1629 48.88745,-18.0895 69.08294,-15.5403 48.35373,-1.2529 20.5071,-4.4671 23.05326,9.3935 -17.49335,23.1786 55.1763,-18.6636 54.00584,-11.588 56.97124,34.6472 13.11507,-81.4311 15.34635,-18.0057 18.48815,21.1079 20.90663,-121.4005 49.1714,-31.7441 55.36847,-18.6724 -5.20087,-94.3594 32.90065,-55.4681 42.86198,-19.5954 -2.568,-23.0122 9.64812,-69.487 46.10936,-13.1188 -8.69359,-20.7496 -2.777,-42.2962 29.9706,9.0732 -9.9312,-34.3451 8.466,-44.1683 65.784,-11.8006 -0.4423,-17.0771 -6.0323,-35.014 54.2298,-4.833 -1.1306,-15.6767 -13.4177,-37.2075 68.579,-9.2545 0.5351,-27.3754 13.7432,-29.1099 36.7552,-16.5125 -3.9312,-23.4934 21.2004,-12.9018 53.0537,2.7953 -20.2875,-32.042 7.3744,-28.6243 47.3496,-18.8217 -3.8817,-15.5655 -9.4312,-31.5384 13.9302,-40.4365 -45.1685,-45.8169 -5.2132,-49.5374 8.5723,-54.4273 -22.625,-1.4095 -39.5379,-17.4541 -10.4014,-30.1681 -33.9245,7.4451 -21.4671,-15.1614 -19.6019,-27.4943 l -54.649,-18.905 -53.5776,-8.3897 -64.2929,-8.3137 -60.0069,-1.3291 -61.0784,0.4324 -53.5775,3.8873 -46.07663,-8.4427 -47.14819,9.1027 -66.43608,-1.2836 -32.14649,30.0425 c 10.82511,28.7919 -23.38369,28.5474 -54.64905,30.2008 z"
       id="path4323"
       inkscape:connector-curvature="0"
       sodipodi:nodetypes="ccccccccccccccccccccccccccccccccccc" />
    <path
       style="color:#000000;display:inline;overflow:visible;visibility:visible;fill:#ffffff;fill-opacity:1;fill-rule:nonzero;stroke:none;stroke-width:1.29506px;marker:none;enable-background:accumulate"
       d="m 1926.575,2196.9193 c -39.1755,1.6625 -78.4763,1.7932 -117.4866,6.2878 -20.1258,2.6696 -40.2637,9.0988 -56.6433,21.9885 -22.4768,16.8362 -37.2517,43.9344 -40.6367,72.5415 -4.9376,30.1077 -8.1894,61.3223 -1.9679,91.5017 6.2612,24.0415 26.3622,42.3572 48.9773,48.7845 47.3776,15.7157 97.3106,20.5974 146.7884,21.6138 31.4418,0.6629 62.894,0.2292 94.3371,-0.023 44.2046,-1.1053 88.2559,-5.5872 132.1886,-10.5872 18.7295,-2.5703 37.7415,-5.7442 55.0874,-13.9192 18.2826,-8.9603 33.6929,-24.6461 41.6187,-44.1947 12.2838,-28.3165 12.1121,-61.2633 3.597,-90.6872 -8.6459,-29.0892 -27.6601,-54.751 -52.8268,-70.1975 -25.7934,-16.6745 -56.1784,-23.9269 -86.212,-25.4174 -53.9612,-4.6915 -108.0894,-7.6161 -162.2405,-7.8805 -1.5269,0.063 -3.0538,0.1256 -4.5807,0.1885 z"
       id="path4546-6-5-5"
       inkscape:connector-curvature="0"
       sodipodi:nodetypes="cssssc" />
    <path
       style="color:#000000;display:inline;overflow:visible;visibility:visible;fill:#ffffff;fill-opacity:1;fill-rule:nonzero;stroke:none;stroke-width:0.710908px;marker:none;enable-background:accumulate"
       d="m 427.36079,1539.322 c -18.49435,2.3317 -20.41009,4.4325 -21.96654,15.8617 -1.55611,11.4299 -0.85275,28.3587 -14.56075,40.6485 -13.70771,12.2903 -23.6764,10.0093 -30.31719,9.0645 4.26773,13.7681 1.4232,41.4005 9.47615,45.7822 8.05295,4.3816 -16.23573,2.0167 -16.23573,2.0167 0,0 -18.78665,-30.5045 -14.52874,-48.8854 4.25786,-18.3808 31.63742,-15.9961 42.0788,-22.7096 10.44133,-6.7135 10.50842,-30.2213 17.90427,-37.5835 7.39563,-7.363 19.29539,-5.4547 28.14973,-4.1951 z"
       id="path4538-7"
       inkscape:connector-curvature="0"
       sodipodi:nodetypes="ccscccsscc" />
    <path
       style="color:#000000;display:inline;overflow:visible;visibility:visible;fill:#ffffff;fill-opacity:1;fill-rule:nonzero;stroke:none;stroke-width:0.576009px;marker:none;enable-background:accumulate"
       d="m 269.38616,1653.529 c 23.98622,-18.7388 72.99975,-31.6297 113.83578,1.6461 32.33893,26.3516 21.53309,64.4595 4.25504,76.2832 -17.27802,11.8238 -72.26174,14.2552 -97.55286,8.4261 -19.52455,-4.5006 -40.92884,-15.7046 -42.10867,-45.5966 -0.48149,-12.2006 -2.41553,-22.02 21.57071,-40.7588 z"
       id="path4040-2-9"
       inkscape:connector-curvature="0"
       sodipodi:nodetypes="zssssz" />
    <path
       style="color:#000000;display:inline;overflow:visible;visibility:visible;fill:#ffffff;fill-opacity:1;fill-rule:nonzero;stroke:none;stroke-width:0.590855px;marker:none;enable-background:accumulate"
       d="m 248.38875,1580.4882 c 25.2386,-18.1575 76.81125,-29.8607 119.77943,4.4047 34.02742,27.1353 22.65738,64.9814 4.47719,76.3864 -18.18014,11.405 -76.0347,12.504 -102.64632,6.062 -20.54397,-4.9737 -43.06584,-16.6964 -44.30727,-46.617 -0.50663,-12.2123 -2.54165,-22.0785 22.69697,-40.2361 z"
       id="path4040-2"
       inkscape:connector-curvature="0"
       sodipodi:nodetypes="zssssz" />
    <path
       style="display:inline;fill:#ffffff;stroke:none;stroke-width:0.974339"
       d="m 1974.7713,1051.2872 c -1.7907,-25.9962 30.3167,-91.07492 186.9353,-86.17975 156.6185,4.89516 205.6377,33.4892 210.2273,79.69755 7.2605,73.1 -75.1364,92.6343 -193.4507,98.0493 -121.9694,5.5813 -205.6047,-44.5966 -203.7119,-91.5671 z"
       id="path3280-8-3-6"
       inkscape:connector-curvature="0"
       sodipodi:nodetypes="csssc" />
    <path
       style="display:inline;fill:#ffffff;stroke:none;stroke-width:1.66814"
       d="m 2049.1605,157.73242 c -60.9514,1.22741 -122.4995,0.65377 -182.4928,11.64271 -39.9582,7.26866 -79.7234,18.24311 -114.4369,37.64919 -26.4392,15.61757 -45.3188,40.37176 -53.2558,67.52394 -10.2932,34.18818 -4.0029,72.58536 19.3369,101.60212 14.5083,18.28386 35.6173,31.94767 58.8656,40.32323 28.8191,11.11943 59.4858,17.69836 89.8651,24.49612 87.6036,18.23843 179.1079,23.55943 268.2776,11.66052 35.9412,-4.66315 71.6927,-11.36172 106.0063,-22.04822 32.4065,-10.79845 63.5801,-26.26921 87.4045,-48.85575 20.524,-21.28933 29.5293,-49.8403 28.981,-77.51336 -0.01,-24.0505 -6.6871,-48.94976 -23.669,-68.15825 -16.8895,-18.42402 -40.4921,-30.59177 -63.959,-41.34071 -35.3295,-15.26532 -74.1839,-22.13652 -112.5431,-28.50582 -35.6945,-5.93596 -72.057,-8.90582 -108.3804,-8.47572 z"
       id="path3280-8-3"
       inkscape:connector-curvature="0"
       sodipodi:nodetypes="csssc" />
    <path
       style="color:#000000;display:inline;overflow:visible;visibility:visible;fill:#ffffff;fill-opacity:1;fill-rule:nonzero;stroke:none;stroke-width:0.608783px;marker:none;enable-background:accumulate"
       d="m 1751.2966,118.06982 c -18.0333,0.18933 -36.0674,0.22455 -54.1008,0.0344 -11.8069,-0.14349 -23.6739,0.0747 -35.3256,1.9339 -21.7025,3.33547 -42.8876,10.36344 -60.9783,21.58126 -5.0414,3.15184 -9.8752,6.71023 -13.2123,11.37103 -12.5007,16.257 -12.9164,39.54684 0.49,55.49229 8.9508,10.35064 22.6898,16.12839 36.063,20.81189 33.1778,11.68115 69.2079,15.30029 104.6925,15.4305 30.6511,0.016 61.6457,3.38414 92.0083,-1.81956 26.5951,-4.66092 52.6534,-14.43113 72.6572,-30.91977 12.1858,-10.71873 18.2326,-27.36074 13.0367,-42.12219 -4.9328,-15.01303 -18.236,-26.96879 -33.7278,-33.98225 -24.2465,-11.69586 -52.0403,-16.28689 -79.4047,-17.27415 -14.0556,-0.58807 -28.1303,-0.61588 -42.1982,-0.53739 z"
       id="path3525-8"
       inkscape:connector-curvature="0"
       sodipodi:nodetypes="cscsc" />
    <path
       style="fill:#ffffff;fill-rule:evenodd;stroke:none;stroke-width:1.06468px;stroke-linecap:butt;stroke-linejoin:miter;stroke-opacity:1"
       d="m 786.34361,430.16165 c 0,0 22.37691,25.375 30.38987,41.353 9.55841,41.6769 -15.08254,52.26548 -11.80509,72.946 4.69971,21.617 12.77263,34.196 42.40829,52.053 -36.46109,-14.098 -60.72938,-25.376 -65.42892,-46.992 -4.6996,-21.617 12.02504,-48.872 9.37974,-58.27 -2.64548,-9.399 -11.01511,-33.835 -33.19349,-51.692 -22.17826,-17.857 28.2496,-9.398 28.2496,-9.398 z"
       id="path1303"
       inkscape:connector-curvature="0"
       sodipodi:nodetypes="cccccccc" />
    <path
       style="color:#000000;display:inline;overflow:visible;visibility:visible;fill:#ffffff;fill-opacity:1;fill-rule:nonzero;stroke:none;stroke-width:1.01383px;marker:none;enable-background:accumulate"
       d="m 1306.1372,933.87003 c -52.2194,0.60259 -104.9875,6.18237 -153.3201,20.55394 -24.3339,6.8158 -44.3213,20.20051 -56.8039,36.26591 -17.6476,20.72842 -24.4581,45.23962 -23.9074,69.18952 -0.3404,21.7572 1.9885,44.0819 13.919,64.4005 9.9877,16.3502 23.5266,32.3696 44.2372,43.0868 15.7737,7.9151 35.2701,10.8229 54.2492,12.0262 46.1856,3.2038 92.89,-3.3074 138.8408,2.4567 33.8402,3.7138 67.7831,9.2669 102.2566,7.7134 20.762,-1.3133 40.5951,-6.2024 61.0882,-8.6256 13.4668,-1.6374 27.6596,-2.7177 39.5377,-7.8656 3.3861,-1.1629 5.397,-3.4509 6.4839,-5.9122 2.7612,-6.2805 1.347,-12.9579 0.7773,-19.3896 -1.7334,-12.7405 -4.2109,-25.749 -0.2252,-38.4116 4.4335,-27.0264 13.0393,-54.101 9.2266,-81.4382 -3.2776,-19.522 -12.1947,-39.13286 -29.9728,-54.58743 -16.0561,-12.5725 -38.627,-19.71581 -61.0372,-24.9568 -34.3483,-7.67817 -70.3296,-10.66881 -106.0392,-13.30256 -13.0714,-0.78675 -26.1889,-1.25367 -39.3107,-1.20338 z"
       id="path4040-40"
       inkscape:connector-curvature="0"
       sodipodi:nodetypes="zsssszccccccccz" />
    <path
       style="display:inline;fill:#ffffff;stroke:none;stroke-width:0.958074"
       d="m 767.55554,81.42033 c -63.07483,2.67032 -133.32365,-2.532677 -167.21775,0.992708 -4.82228,87.829412 -22.70256,155.670332 -16.62123,197.386812 5.292,34.54789 11.23397,69.08694 20.34564,103.16233 6.01709,19.27707 17.38287,38.21047 36.71061,51.5226 21.50919,15.28973 49.34909,23.53084 76.94899,29.58115 66.63741,14.64912 138.80408,15.8856 205.26324,-0.0462 17.97655,-4.17863 35.06036,-10.55254 50.58174,-18.76966 29.23132,-15.26348 53.86302,-35.90923 71.28322,-59.75907 17.2025,-25.11063 22.3745,-53.78722 26.0329,-81.74462 4.3749,-34.09315 2.6538,-69.38237 -12.5203,-101.84404 -11.677,-24.51247 -29.509,-47.57221 -53.9979,-65.57337 C 974.10269,115.03417 935.45251,102.78166 896.60956,94.496412 854.61936,85.582333 811.07374,81.121389 767.55554,81.42033 Z"
       id="path3280-5"
       inkscape:connector-curvature="0"
       sodipodi:nodetypes="ccsscccccccccc" />
    <path
       style="fill:#ffffff;fill-rule:evenodd;stroke:none;stroke-width:1.36569px;stroke-linecap:butt;stroke-linejoin:miter;stroke-opacity:1"
       d="m 1309.5687,939.23352 c 8.7674,-29.78389 -2.55,-70.85724 -21.3421,-92.51878 19.294,12.00335 47.6581,40.90723 49.4868,77.53639 2.8542,57.16677 -26.6522,18.09019 -26.6522,18.09019 z"
       id="path4248"
       inkscape:connector-curvature="0"
       sodipodi:nodetypes="ccscc" />
    <path
       style="color:#000000;display:inline;overflow:visible;visibility:visible;fill:#ffffff;fill-opacity:1;fill-rule:nonzero;stroke:none;stroke-width:1.27845px;marker:none;enable-background:accumulate"
       d="m 2159.8838,536.71889 c 47.5494,-40.109 11.4958,-121.92186 -22.0631,-138.04748 -43.9644,-41.61081 21.7355,-52.5057 21.7355,-52.5057 l 27.3389,46.67174 c -4.9414,6.99806 59.5251,106.49368 -27.0113,143.88144 z"
       id="path3072-56"
       inkscape:connector-curvature="0"
       sodipodi:nodetypes="ccccc" />
    <path
       style="fill:#ffffff;fill-rule:evenodd;stroke:none;stroke-width:1px;stroke-linecap:butt;stroke-linejoin:miter;stroke-opacity:1"
       d="m 2145.9447,911.76156 c 17.8164,6.86787 32.8659,22.27667 36.9127,41.22902 2.4357,13.03639 -1.9004,26.29118 -8.401,37.50329 -6.139,11.51773 -13.902,22.87523 -15.1546,36.21623 -0.038,3.7486 4.352,7.1591 7.7995,4.9374 5.4591,-2.2621 9.1063,-7.2123 13.9986,-10.3572 13.619,-10.9723 25.9848,-24.85172 30.732,-42.05359 4.3293,-16.93725 -3.8025,-35.55082 -17.8163,-45.50969 -14.6218,-11.8782 -32.4276,-19.47815 -50.851,-23.07104 0.9267,0.36853 1.8534,0.73706 2.7801,1.10558 z"
       id="path914"
       inkscape:connector-curvature="0"
       sodipodi:nodetypes="cscc" />
    <path
       style="fill:#ffffff;fill-rule:evenodd;stroke:none;stroke-width:1px;stroke-linecap:butt;stroke-linejoin:miter;stroke-opacity:1"
       d="m 1859.1104,1611.6362 -101.7503,-92.9388 -6.0669,33.3207 -71.4256,-61.6811 -11.1854,27.4382 91.4542,66.5103 8.19,-37.7549 z"
       id="path4667"
       inkscape:connector-curvature="0" />
    <path
       style="color:#000000;display:inline;overflow:visible;visibility:visible;fill:#ffffff;fill-opacity:1;fill-rule:nonzero;stroke:none;stroke-width:1.14715px;marker:none;enable-background:accumulate"
       d="m 284.24765,2318.4867 c -40.4116,58.36 -53.3089,167.707 24.2468,263.215 -108.4132,-99.32 -82.2954,-214.062 -72.6196,-244.978 2.0322,-33.697 48.3728,-18.237 48.3728,-18.237 z"
       id="path4008-0"
       inkscape:connector-curvature="0"
       sodipodi:nodetypes="cccc" />
    <path
       style="color:#000000;display:inline;overflow:visible;visibility:visible;fill:#ffffff;fill-opacity:1;fill-rule:nonzero;stroke:none;stroke-width:1px;marker:none;enable-background:accumulate"
       d="m 2007.8186,2508.6854 c -16.2035,68.7147 -23.8042,123.8365 19.1198,161.3448 -35.9827,-18.9303 -60.1167,-37.3437 -55.228,-133.0047 3.2811,-29.3033 15.4575,-25.6682 36.1082,-28.3401 z"
       id="path4064-5"
       inkscape:connector-curvature="0"
       sodipodi:nodetypes="cccc" />
    <path
       style="fill:#ffffff;fill-rule:evenodd;stroke:none;stroke-width:1.0599px;stroke-linecap:butt;stroke-linejoin:miter;stroke-opacity:1"
       d="m 1312.6704,2517.7831 c 23.7195,-14.0861 43.1327,-10.969 67.1439,-1.3968 -21.0663,-24.318 -50.0172,-29.1023 -87.4659,-14.9118 -44.493,16.8599 17.6099,16.5876 17.6099,16.5876 z"
       id="path4248-5"
       inkscape:connector-curvature="0"
       sodipodi:nodetypes="ccscc" />
    <path
       style="fill:#ffffff;fill-opacity:1;stroke:none;stroke-width:0.666859"
       d="m 2199.8687,2529.7013 c -20.914,-4.5023 -28.9578,-8.6829 -25.204,-11.2559 -35.0224,-21.5129 -5.2319,-41.3861 -1.0725,-43.737 -0.011,-1.592 -11.2615,0.6431 -12.8701,-0.643 -1.6087,-1.2869 11.0415,-12.0255 8.8966,-12.6686 -2.1452,-0.6437 -48.0433,3.9856 -55.0146,1.0911 -6.9715,-2.8945 -3.2177,-10.2913 -5.3626,-10.6129 -2.145,-0.3215 -21.9866,1.6078 -24.6679,1.2862 -2.6811,-0.3215 -7.5074,-9.9691 -10.1887,-10.2907 -2.6814,-0.3215 -15.0153,4.1808 -17.1603,3.8592 -2.145,-0.3216 -1.0725,-8.3614 -3.7538,-8.6829 -2.6814,-0.3216 -14.4789,6.753 -16.0877,6.4315 -1.6088,-0.3216 -7.5076,-16.4013 -10.1889,-17.3659 -2.6814,-0.9647 -19.8414,17.6874 -21.4503,18.0089 -1.6087,0.3222 -11.7976,-21.8681 -13.9427,-22.1897 -2.145,-0.3215 -12.8701,15.1152 -14.4788,14.7936 -1.6088,-0.3216 -11.7977,-9.3267 -13.9426,-9.9698 -2.1451,-0.643 -16.0878,19.9389 -18.2328,19.9389 -2.1451,0 -20.3778,-8.6829 -21.9865,-10.2907 -1.6089,-1.6083 -3.2176,8.3615 -5.3626,8.3615 -2.145,0 -26.8128,-5.7891 -27.3492,-5.4676 -0.5362,0.3216 3.754,6.4322 2.1451,6.4322 -1.6087,0 -26.8127,-8.0398 -27.8854,-6.4322 -1.0724,1.6084 -54.6981,-8.0398 -58.4519,-6.7536 -3.7539,1.2868 24.1316,26.371 21.4503,28.3009 -2.6813,1.9292 -12.334,-0.3215 -12.8703,0.6431 -0.5361,0.9646 5.8989,5.1453 4.2903,6.4315 -1.609,1.2868 -19.8416,6.4321 -21.4504,8.0399 -1.6088,1.6083 8.0438,5.789 5.8989,6.7536 -2.1451,0.9653 -33.7844,7.0753 -34.3205,8.6836 -0.5363,1.6078 16.0877,9.326 13.9426,11.5768 -2.145,2.2515 -8.0438,3.2161 -7.5076,4.8245 0.5363,1.6077 10.7253,3.5376 10.1889,5.1453 -0.5362,1.6077 -5.8987,9.6483 -7.5075,10.9344 -1.6088,1.2862 11.2614,0.6431 11.2614,1.9293 0,1.2868 -0.9472,20.6031 -19.999,32.291 33.3229,-7.7421 47.3481,-3.9901 65.0446,-1.4178 17.6964,2.573 10.725,18.6528 13.4063,19.6174 2.6812,0.9652 22.5228,-5.4669 25.2041,-3.2161 2.6813,2.2515 3.7537,6.4321 5.8989,6.4321 2.1449,0 14.4789,-9.0045 17.1601,-8.6829 2.6813,0.3215 27.8853,14.472 31.6393,14.7935 3.7537,0.3216 18.2326,-5.4675 21.4502,-5.789 3.2176,-0.3216 5.8987,7.7183 8.5801,7.0752 2.6813,-0.6431 19.8415,-6.4321 22.5226,-5.789 2.6814,0.6437 4.8264,3.216 6.9715,2.573 2.1449,-0.6432 11.7976,-3.2161 11.7976,-3.2161 0,0 6.9713,1.9299 10.1888,1.9299 3.2176,0 25.204,-10.6129 27.8854,-11.256 2.6813,-0.6431 30.2083,10.9614 28.5995,12.8907 3.4166,-8.4443 19.926,-13.7539 23.4174,-14.1768 3.7537,-0.9653 15.0152,1.9292 16.0876,0.9646 1.0726,-0.9646 4.29,-6.1106 7.5076,-6.4322 3.2176,-0.3215 10.7252,-1.6077 10.7252,-1.6077 l -1.0725,-1.9298 c 0,0 22.5227,5.1459 25.2041,7.0751 2.6812,1.93 -1.6088,-8.3614 -3.2177,-10.9343 9.6527,2.5729 38.0743,8.0398 40.2192,9.6482 2.1451,1.6077 -3.7536,-5.789 -6.9712,-8.0399 4.29,0.9646 8.0439,1.2862 8.0439,1.2862 l -12.334,-7.7183 3.7539,-0.6431 c 0,0 -8.0438,-3.5376 -8.0438,-5.1453 0,-1.6084 20.9138,-3.5376 20.9138,-3.5376 0,0 -8.58,-2.8945 -6.435,-4.5023 2.1451,-1.6083 7.5077,-2.573 7.5077,-2.573 l 1.0723,-4.1807 z"
       id="path5888-3"
       inkscape:connector-curvature="0"
       sodipodi:nodetypes="cccccsscccccccsccscscsccsccccccsccscscssccsccscscccccccsccccccsccccc" />
  </g>
  <g
     inkscape:groupmode="layer"
     id="layer1"
     inkscape:label="txt">
    <text
       xml:space="preserve"
       style="font-style:normal;font-variant:normal;font-weight:normal;font-stretch:normal;font-size:80px;line-height:1.25;font-family:Lavi;-inkscape-font-specification:'Lavi, Normal';font-variant-ligatures:normal;font-variant-caps:normal;font-variant-numeric:normal;font-variant-east-asian:normal;letter-spacing:0px;word-spacing:0px;fill:#ffffff;fill-opacity:1;stroke:#ffffff;stroke-width:0.668774;stroke-miterlimit:4;stroke-dasharray:none;stroke-opacity:1;filter:url(#filter4375-4-1-1-1-9-5-8-8-5-5-3-3-3-0)"
       id="text4580-6-0-0-0-9-3-3-2-0"
       transform="matrix(1.1484433,-0.31259721,-0.62973044,2.2133476,1615.3614,-1809.1372)"
       x="-607.91235"
       y="1245.0809"><tspan
         sodipodi:role="line"
         id="tspan250"
         x="-607.91235"
         y="1245.0809"><tspan
   style="font-size:71.8115px"
   id="tspan252">ДР</tspan><tspan
   style="font-size:66.5743px"
   id="tspan260">З</tspan><tspan
   style="font-size:61.3371px"
   id="tspan264">О</tspan><tspan
   style="font-size:61.3371px"
   id="tspan268">У</tspan>!!</tspan></text>
    <text
       xml:space="preserve"
       style="font-style:normal;font-variant:normal;font-weight:normal;font-stretch:normal;font-size:45px;line-height:1.25;font-family:Lavi;-inkscape-font-specification:'Lavi, Normal';font-variant-ligatures:normal;font-variant-caps:normal;font-variant-numeric:normal;font-variant-east-asian:normal;text-align:center;letter-spacing:0px;word-spacing:0px;text-anchor:middle;fill:#000000;fill-opacity:1;stroke:none"
       x="827.37799"
       y="201.9373"
       id="text4246-3-2-2-6-3-7-9-3-3-56-9-3-20"><tspan
         sodipodi:role="line"
         id="tspan272"
         x="827.37799"
         y="201.9373">Я вижу. Ты достигла </tspan><tspan
         sodipodi:role="line"
         id="tspan274"
         x="827.37799"
         y="258.18732">уровня своих </tspan><tspan
         sodipodi:role="line"
         id="tspan276"
         x="827.37799"
         y="314.43732">предшественников</tspan><tspan
         sodipodi:role="line"
         id="tspan278"
         x="827.37799"
         y="370.68732">гораздо раньше, чем</tspan><tspan
         sodipodi:role="line"
         id="tspan280"
         x="827.37799"
         y="426.93732">я ожидала...</tspan></text>
    <text
       xml:space="preserve"
       style="font-style:normal;font-variant:normal;font-weight:normal;font-stretch:normal;font-size:45px;line-height:1.25;font-family:Lavi;-inkscape-font-specification:'Lavi, Normal';font-variant-ligatures:normal;font-variant-caps:normal;font-variant-numeric:normal;font-variant-east-asian:normal;text-align:center;letter-spacing:0px;word-spacing:0px;text-anchor:middle;fill:#000000;fill-opacity:1;stroke:none;"
       x="1308.5222"
       y="1008.4576"
       id="text4246-3-2-2-6-3-7-9-3-3-56-9-3-20-3"><tspan
         sodipodi:role="line"
         id="tspan1154">Это опережает</tspan><tspan
         sodipodi:role="line"
         id="tspan1156">мои планы, но это</tspan><tspan
         sodipodi:role="line"
         id="tspan1158">хорошая новость.</tspan></text>
    <text
       xml:space="preserve"
       style="font-style:normal;font-variant:normal;font-weight:normal;font-stretch:normal;font-size:45px;line-height:1.25;font-family:Lavi;-inkscape-font-specification:'Lavi, Normal';text-align:center;letter-spacing:0px;word-spacing:0px;text-anchor:middle;fill:#000000;fill-opacity:1;stroke:none;font-variant-ligatures:normal;font-variant-caps:normal;font-variant-numeric:normal;font-variant-east-asian:normal;"
       x="1743.1007"
       y="193.33838"
       id="text4246-3-2-2-6-3-7-9-3-3-56-9-3-20-3-2"><tspan
         sodipodi:role="line"
         id="tspan288">Ваши планы?</tspan></text>
    <text
       xml:space="preserve"
       style="font-style:normal;font-variant:normal;font-weight:normal;font-stretch:normal;font-size:45px;line-height:1.25;font-family:Lavi;-inkscape-font-specification:'Lavi, Normal';text-align:center;letter-spacing:0px;word-spacing:0px;text-anchor:middle;fill:#000000;fill-opacity:1;stroke:none;font-variant-ligatures:normal;font-variant-caps:normal;font-variant-numeric:normal;font-variant-east-asian:normal;"
       x="2028.2909"
       y="242.40437"
       id="text4246-3-2-2-6-3-7-9-3-3-56-9-3-20-3-2-0"><tspan
         sodipodi:role="line"
         id="tspan290">Значит, вы просто</tspan><tspan
         sodipodi:role="line"
         id="tspan292">проверяли меня, и это не имело</tspan><tspan
         sodipodi:role="line"
         id="tspan294">никакого отношения к</tspan><tspan
         sodipodi:role="line"
         id="tspan296">моему опозданию?</tspan></text>
    <text
       xml:space="preserve"
       style="font-style:normal;font-variant:normal;font-weight:normal;font-stretch:normal;font-size:45px;line-height:1.25;font-family:Lavi;-inkscape-font-specification:'Lavi, Normal';font-variant-ligatures:normal;font-variant-caps:normal;font-variant-numeric:normal;font-variant-east-asian:normal;text-align:center;letter-spacing:0px;word-spacing:0px;text-anchor:middle;fill:#000000;fill-opacity:1;stroke:none"
       x="2179.271"
       y="1053.5718"
       id="text4246-3-2-2-6-3-7-9-3-3-56-9-3-20-3-2-0-3"><tspan
         sodipodi:role="line"
         id="tspan1110"
         x="2179.271"
         y="1053.5718">Вы действительно</tspan><tspan
         sodipodi:role="line"
         id="tspan1112"
         x="2179.271"
         y="1109.8218">странная!</tspan></text>
    <text
       xml:space="preserve"
       style="font-style:normal;font-variant:normal;font-weight:normal;font-stretch:normal;font-size:45px;line-height:1.25;font-family:Lavi;-inkscape-font-specification:Lavi;text-align:center;letter-spacing:0px;word-spacing:0px;text-anchor:middle;fill:#000000;fill-opacity:1;stroke:none"
       x="314.83337"
       y="1631.6757"
       id="text4246-3-2-2-6-3-7-9-3-3-56-9-3-20-3-2-0-3-1"><tspan
         style="font-size:45px"
         sodipodi:role="line"
         x="314.83337"
         y="1631.6757"
         id="tspan1224">хе...</tspan></text>
    <text
       xml:space="preserve"
       style="font-style:normal;font-variant:normal;font-weight:normal;font-stretch:normal;font-size:45px;line-height:1.25;font-family:Lavi;-inkscape-font-specification:Lavi;text-align:center;letter-spacing:0px;word-spacing:0px;text-anchor:middle;fill:#000000;fill-opacity:1;stroke:none"
       x="327.27063"
       y="1708.0287"
       id="text4246-3-2-2-6-3-7-9-3-3-56-9-3-20-3-2-0-3-1-2"><tspan
         style="font-size:45px"
         sodipodi:role="line"
         x="327.27063"
         y="1708.0287"
         id="tspan1224-2">хе.</tspan></text>
    <text
       xml:space="preserve"
       style="font-style:normal;font-variant:normal;font-weight:normal;font-stretch:normal;font-size:51.7551px;line-height:1.25;font-family:Lavi;-inkscape-font-specification:Lavi;text-align:center;letter-spacing:0px;word-spacing:0px;text-anchor:middle;fill:#000000;fill-opacity:1;stroke:none;stroke-width:1.15011"
       x="1233.2277"
       y="1286.2516"
       id="text4246-3-2-2-6-3-7-9-3-3-56-9-3-20-3-3"
       transform="skewX(-7.1285627)"><tspan
         style="font-style:normal;font-variant:normal;font-weight:bold;font-stretch:normal;font-size:51.7551px;font-family:Lavi;-inkscape-font-specification:'Lavi Bold';stroke-width:1.15011"
         sodipodi:role="line"
         x="1233.2277"
         y="1286.2516"
         id="tspan1341">НА ЧТО ВЫ ВСЕ</tspan><tspan
         style="font-style:normal;font-variant:normal;font-weight:bold;font-stretch:normal;font-size:51.7551px;font-family:Lavi;-inkscape-font-specification:'Lavi Bold';stroke-width:1.15011"
         sodipodi:role="line"
         x="1233.2277"
         y="1350.9454"
         id="tspan1116">УСТАВИЛИСЬ?!</tspan></text>
    <text
       xml:space="preserve"
       style="font-style:normal;font-variant:normal;font-weight:normal;font-stretch:normal;font-size:47.4643px;line-height:1.25;font-family:Lavi;-inkscape-font-specification:'Lavi, Normal';font-variant-ligatures:normal;font-variant-caps:normal;font-variant-numeric:normal;font-variant-east-asian:normal;text-align:center;letter-spacing:0px;word-spacing:0px;text-anchor:middle;fill:#000000;fill-opacity:1;stroke:none;stroke-width:1.05476"
       x="1452.0516"
       y="1431.9385"
       id="text4246-3-2-2-6-3-7-9-3-3-56-9-3-20-3-3-2"
       transform="skewX(-7.1285625)"><tspan
         sodipodi:role="line"
         id="tspan1118"
         style="font-style:normal;font-variant:normal;font-weight:bold;font-stretch:normal;font-family:Lavi;-inkscape-font-specification:'Lavi Bold'"
         x="1452.0516"
         y="1431.9385">НА МЕНЯ ТОЛЬКО ЧТО НАПАЛИ, А ВЫ </tspan><tspan
         sodipodi:role="line"
         id="tspan1120"
         style="font-style:normal;font-variant:normal;font-weight:bold;font-stretch:normal;font-family:Lavi;-inkscape-font-specification:'Lavi Bold'"
         x="1452.0516"
         y="1491.2688">СТОИТЕ ТАМ И НИЧЕГО НЕ ДЕЛАЕТЕ?!</tspan><tspan
         sodipodi:role="line"
         id="tspan1122"
         style="font-style:normal;font-variant:normal;font-weight:bold;font-stretch:normal;font-family:Lavi;-inkscape-font-specification:'Lavi Bold'"
         x="1452.0516"
         y="1550.5992">СХВАТИТЕ ЕЁ!!!</tspan></text>
    <text
       xml:space="preserve"
       style="font-style:normal;font-variant:normal;font-weight:normal;font-stretch:normal;font-size:55.0712px;line-height:1.25;font-family:Lavi;-inkscape-font-specification:'Lavi, Normal';font-variant-ligatures:normal;font-variant-caps:normal;font-variant-numeric:normal;font-variant-east-asian:normal;text-align:center;letter-spacing:0px;word-spacing:0px;text-anchor:middle;fill:#000000;fill-opacity:1;stroke:none;stroke-width:1.22379"
       x="614.35553"
       y="2221.3306"
       id="text4246-3-2-2-6-3-7-9-3-3-56-9-3-20-3-3-2-7"
       transform="matrix(0.99725425,0,-0.12471947,1.0027533,0,0)"><tspan
         sodipodi:role="line"
         id="tspan1124"
         style="font-style:normal;font-variant:normal;font-weight:bold;font-stretch:normal;font-family:Lavi;-inkscape-font-specification:'Lavi Bold'"
         x="614.35553"
         y="2221.3306">ОНА НУЖНА </tspan><tspan
         sodipodi:role="line"
         id="tspan1126"
         style="font-style:normal;font-variant:normal;font-weight:bold;font-stretch:normal;font-family:Lavi;-inkscape-font-specification:'Lavi Bold'"
         x="614.35553"
         y="2290.1697">МНЕ ЖИВОЙ!</tspan></text>
    <text
       xml:space="preserve"
       style="font-style:normal;font-variant:normal;font-weight:normal;font-stretch:normal;font-size:70.9781px;line-height:1.25;font-family:Lavi;-inkscape-font-specification:Lavi;text-align:center;letter-spacing:0px;word-spacing:0px;text-anchor:middle;fill:#000000;fill-opacity:1;stroke:none;stroke-width:1.57727"
       x="1546.9048"
       y="2006.6577"
       id="text4246-3-2-2-6-3-7-9-3-3-56-9-3-20-3-3-2-7-2"
       transform="matrix(0.89307378,0,-0.11169036,1.1197283,0,0)"><tspan
         style="font-style:normal;font-variant:normal;font-weight:bold;font-stretch:normal;font-size:70.9781px;font-family:Lavi;-inkscape-font-specification:'Lavi Bold';stroke-width:1.57727"
         sodipodi:role="line"
         x="1546.9048"
         y="2006.6577"
         id="tspan1414-3">СХВАТИТЬ ЕЁ!!!</tspan></text>
    <text
       xml:space="preserve"
       style="font-style:normal;font-variant:normal;font-weight:normal;font-stretch:normal;font-size:45px;line-height:1.25;font-family:Lavi;-inkscape-font-specification:'Lavi, Normal';font-variant-ligatures:normal;font-variant-caps:normal;font-variant-numeric:normal;font-variant-east-asian:normal;text-align:center;letter-spacing:0px;word-spacing:0px;text-anchor:middle;fill:#000000;fill-opacity:1;stroke:none"
       x="1115.851"
       y="2487.1804"
       id="text4246-3-2-2-6-3-7-9-3-3-56-9-3-20-3-2-0-3-19"><tspan
         sodipodi:role="line"
         id="tspan1128"
         x="1115.851"
         y="2487.1804">Ситими,</tspan><tspan
         sodipodi:role="line"
         id="tspan1130"
         x="1115.851"
         y="2543.4304">нам придется</tspan><tspan
         sodipodi:role="line"
         id="tspan1132"
         x="1115.851"
         y="2599.6804">поговорить об этом</tspan><tspan
         sodipodi:role="line"
         id="tspan1134"
         x="1115.851"
         y="2655.9304">позже!</tspan></text>
    <text
       xml:space="preserve"
       style="font-style:normal;font-variant:normal;font-weight:normal;font-stretch:normal;font-size:45px;line-height:1.25;font-family:Lavi;-inkscape-font-specification:'Lavi, Normal';text-align:center;letter-spacing:0px;word-spacing:0px;text-anchor:middle;fill:#000000;fill-opacity:1;stroke:none;font-variant-ligatures:normal;font-variant-caps:normal;font-variant-numeric:normal;font-variant-east-asian:normal;"
       x="1978.2208"
       y="2267.5603"
       id="text4246-3-2-2-6-3-7-9-3-3-56-9-3-20-3-2-0-3-19-8-3"><tspan
         sodipodi:role="line"
         id="tspan1142">Прости, Морквик,</tspan><tspan
         sodipodi:role="line"
         id="tspan1144">но нам снова </tspan><tspan
         sodipodi:role="line"
         id="tspan1146">придется улетать</tspan><tspan
         sodipodi:role="line"
         id="tspan1148">на гиперскорости.</tspan></text>
    <text
       xml:space="preserve"
       style="font-style:normal;font-variant:normal;font-weight:normal;font-stretch:normal;font-size:45px;line-height:1.25;font-family:Lavi;-inkscape-font-specification:'Lavi, Normal';text-align:center;letter-spacing:0px;word-spacing:0px;text-anchor:middle;fill:#000000;fill-opacity:1;stroke:none;font-variant-ligatures:normal;font-variant-caps:normal;font-variant-numeric:normal;font-variant-east-asian:normal;"
       x="1974.8418"
       y="2527.3699"
       id="text4246-3-2-2-6-3-7-9-3-3-56-9-3-20-3-2-0-3-19-8"><tspan
         sodipodi:role="line"
         id="tspan1160">Держись крепче!</tspan></text>
    <text
       xml:space="preserve"
       style="font-style:normal;font-variant:normal;font-weight:normal;font-stretch:normal;font-size:6.99764px;line-height:0%;font-family:Lavi;-inkscape-font-specification:Lavi;letter-spacing:0px;word-spacing:0px;fill:#000000;fill-opacity:1;stroke:#000000;stroke-width:6.65341;stroke-miterlimit:4;stroke-dasharray:none;stroke-opacity:1;paint-order:stroke fill markers"
       x="1234.3364"
       y="2988.7241"
       id="text4580-25"
       transform="matrix(0.70061135,-0.52267462,0.27429036,1.222697,0,0)"><tspan
         sodipodi:role="line"
         id="tspan4582-4"
         x="1234.3364"
         y="2988.7241"
         style="font-size:40.8195px;line-height:100%;letter-spacing:2.84772px;fill:#ffffff;stroke:#000000;stroke-width:6.65341;stroke-miterlimit:4;stroke-dasharray:none;stroke-opacity:1;paint-order:stroke fill markers"><tspan
           style="font-size:46.8842px;line-height:100%;letter-spacing:2.84772px;stroke:#000000;stroke-width:6.65341;stroke-miterlimit:4;stroke-dasharray:none;stroke-opacity:1;paint-order:stroke fill markers"
           id="tspan4617-9">Тап!</tspan></tspan></text>
    <text
       xml:space="preserve"
       style="font-style:normal;font-variant:normal;font-weight:normal;font-stretch:normal;font-size:6.12727px;line-height:0%;font-family:Lavi;-inkscape-font-specification:Lavi;letter-spacing:0px;word-spacing:0px;fill:#000000;fill-opacity:1;stroke:#000000;stroke-width:5.82585;stroke-miterlimit:4;stroke-dasharray:none;stroke-opacity:1;paint-order:stroke fill markers"
       x="1244.6915"
       y="2939.7729"
       id="text4580-25-6"
       transform="matrix(0.70061135,-0.52267462,0.27429036,1.222697,0,0)"><tspan
         sodipodi:role="line"
         id="tspan4582-4-1"
         x="1244.6915"
         y="2939.7729"
         style="font-size:35.7423px;line-height:100%;letter-spacing:2.49352px;fill:#ffffff;stroke:#000000;stroke-width:5.82585;stroke-miterlimit:4;stroke-dasharray:none;stroke-opacity:1;paint-order:stroke fill markers"><tspan
           style="font-size:41.0527px;line-height:100%;letter-spacing:2.49352px;stroke:#000000;stroke-width:5.82585;stroke-miterlimit:4;stroke-dasharray:none;stroke-opacity:1;paint-order:stroke fill markers"
           id="tspan4617-9-0">Тап!</tspan></tspan></text>
    <text
       xml:space="preserve"
       style="font-style:normal;font-variant:normal;font-weight:normal;font-stretch:normal;font-size:80px;line-height:1.25;font-family:Lavi;-inkscape-font-specification:Lavi;letter-spacing:0px;word-spacing:0px;fill:#ffffff;fill-opacity:1;stroke:#ffffff;stroke-width:0.668774;stroke-miterlimit:4;stroke-dasharray:none;stroke-opacity:1;filter:url(#filter4375-4-1-1-1-9-5-8-8-5-5-3-3-3-0-6)"
       id="text4580-6-0-0-0-9-3-3-2-0-3"
       transform="matrix(1.2199315,-0.31719701,-0.66892978,2.2459164,3443.4589,177.24169)"
       x="-607.91235"
       y="1245.0809"><tspan
         id="tspan1534-6-7"
         style="font-size:61.3371px">ВииууУУ!!</tspan></text>
  </g>
</svg>
