<?xml version="1.0" encoding="UTF-8" standalone="no"?>
<svg
   xmlns:dc="http://purl.org/dc/elements/1.1/"
   xmlns:cc="http://creativecommons.org/ns#"
   xmlns:rdf="http://www.w3.org/1999/02/22-rdf-syntax-ns#"
   xmlns:svg="http://www.w3.org/2000/svg"
   xmlns="http://www.w3.org/2000/svg"
   xmlns:xlink="http://www.w3.org/1999/xlink"
   xmlns:sodipodi="http://sodipodi.sourceforge.net/DTD/sodipodi-0.dtd"
   xmlns:inkscape="http://www.inkscape.org/namespaces/inkscape"
   id="svg2"
   version="1.1"
   inkscape:version="1.0.2-2 (e86c870879, 2021-01-15)"
   width="2481"
   height="3503"
   sodipodi:docname="E34P03.svg">
  <metadata
     id="metadata8">
    <rdf:RDF>
      <cc:Work
         rdf:about="">
        <dc:format>image/svg+xml</dc:format>
        <dc:type
           rdf:resource="http://purl.org/dc/dcmitype/StillImage" />
        <dc:title />
      </cc:Work>
    </rdf:RDF>
  </metadata>
  <defs
     id="defs6" />
  <sodipodi:namedview
     pagecolor="#ffffff"
     bordercolor="#666666"
     borderopacity="1"
     objecttolerance="10"
     gridtolerance="10"
     guidetolerance="10"
     inkscape:pageopacity="0"
     inkscape:pageshadow="2"
     inkscape:window-width="1920"
     inkscape:window-height="1001"
     id="namedview4"
     showgrid="false"
     inkscape:zoom="0.40000002"
     inkscape:cx="1771.4662"
     inkscape:cy="1848.4014"
     inkscape:window-x="-9"
     inkscape:window-y="-9"
     inkscape:window-maximized="1"
     inkscape:current-layer="layer1"
     inkscape:document-rotation="0"
     borderlayer="true" />
  <g
     inkscape:groupmode="layer"
     id="layer2"
     inkscape:label="artwork"
     sodipodi:insensitive="true">
    <image
       sodipodi:absref="/home/peppercarrot/webcomics/"
       xlink:href="../gfx_Pepper-and-Carrot_by-David-Revoy_E34P03.png"
       width="2481"
       height="3503"
       id="image10"
       x="0"
       y="0" />
  </g>
  <g
     inkscape:groupmode="layer"
     id="layer3"
     inkscape:label="speechbubbles"
     style="display:inline">
    <path
       style="color:#000000;display:inline;overflow:visible;visibility:visible;fill:#ffffff;fill-opacity:1;fill-rule:nonzero;stroke:none;stroke-width:1.23876px;marker:none;enable-background:accumulate"
       d="m 1187.2676,2139.3379 c -58.1063,2.7009 -115.7252,11.5443 -172.8558,22.133 -22.60259,5.7535 -44.57087,16.659 -60.1916,34.3389 -15.48748,17.9307 -23.47598,41.1654 -26.58745,64.3773 -4.28211,30.5246 3.51144,62.0353 19.27315,88.2998 10.40475,18.8819 25.04789,36.1306 44.38805,46.2308 24.83225,13.8689 52.56625,21.1305 79.87185,28.3633 25.9194,6.3665 52.363,10.3157 78.8242,13.6191 32.7027,3.6393 65.7878,4.4547 98.5548,1.135 24.9371,-2.4578 49.8686,-6.1326 74.0022,-13.0202 29.0953,-8.5032 57.1109,-22.472 79.1899,-43.5168 16.4616,-15.7564 28.8916,-35.7587 35.2393,-57.6766 6.9791,-22.9296 9.3347,-47.3314 6.4638,-71.143 -3.3032,-24.3825 -14.598,-48.1084 -33.3912,-64.3144 -17.5663,-15.3081 -39.6831,-23.9854 -61.7241,-30.6313 -26.0417,-7.8243 -53.1296,-11.342 -80.166,-13.4863 -17.2785,-1.3662 -34.5498,-2.8628 -51.8498,-3.9308 -9.6704,-0.5416 -19.3552,-0.8433 -29.0413,-0.7778 z"
       id="path4546-6-08-2"
       inkscape:connector-curvature="0"
       sodipodi:nodetypes="cssssc" />
    <path
       style="color:#000000;display:inline;overflow:visible;visibility:visible;fill:#ffffff;fill-opacity:1;fill-rule:nonzero;stroke:none;stroke-width:0.586403px;marker:none;enable-background:accumulate"
       d="m 786.34677,2123.5123 c 5.02464,-42.62 47.16918,-72.3401 153.25243,-60.2559 56.824,6.4733 121.4295,11.7571 114.7301,74.2181 -6.6996,62.4603 -99.65607,57.3161 -118.91724,58.0513 -19.26129,0.7346 -119.01807,-9.6322 -135.66614,-31.5981 -10.42127,-13.7499 -14.23657,-27.1885 -13.39915,-40.4154 z"
       id="path4546-6-08"
       inkscape:connector-curvature="0"
       sodipodi:nodetypes="cssssc" />
    <path
       style="fill:#ffffff;fill-rule:evenodd;stroke:none;stroke-width:1.25695px;stroke-linecap:butt;stroke-linejoin:miter;stroke-opacity:1"
       d="m 1471.3459,2456.5997 c -67.1764,-16.6519 -104.4231,-46.199 -116.7263,-96.6707 l -26.7459,22.416 c 34.4783,64.0674 88.4565,69.7439 143.4722,74.2547 z"
       id="path1291"
       inkscape:connector-curvature="0"
       sodipodi:nodetypes="cccc" />
    <path
       style="fill:#ffffff;stroke:none;stroke-width:0.887385"
       d="m 2060.7809,286.67581 c -37.0245,0.77792 -73.9764,3.67606 -110.7594,7.69905 -26.2109,3.08122 -52.933,7.81068 -76.2059,20.32868 -15.9867,8.7934 -28.8734,22.87564 -35.5119,39.34718 -3.0284,7.53593 -4.7591,15.70294 -3.426,23.76627 2.4159,18.23836 15.2143,34.4968 32.2365,42.80876 22.0039,11.62798 47.1699,15.47616 71.5192,20.11977 50.6916,9.08708 102.5017,11.34453 153.9779,9.82248 23.9795,-0.84266 47.9646,-2.41788 71.7453,-5.53012 22.0209,-3.16544 44.2502,-8.32538 63.5181,-19.3539 16.5439,-10.18525 28.0678,-28.16207 28.1189,-47.17291 0.4504,-23.50435 -13.7452,-45.77216 -33.7576,-58.82374 -10.1211,-6.80341 -21.8747,-10.87213 -33.7133,-14.01299 -35.2127,-10.31317 -71.7436,-16.48839 -108.495,-18.65853 -6.4104,-0.29309 -12.8296,-0.39906 -19.2468,-0.34 z"
       id="path3100-2-0"
       inkscape:connector-curvature="0" />
    <path
       style="fill:#ffffff;stroke:none;stroke-width:1.21331"
       d="m 2094.2859,247.4485 c -7.9387,58.07386 -121.0497,73.80425 -201.5291,73.87191 -136.862,4.35437 -275.5514,-2.91346 -409.0556,-21.54286 -86.2106,-16.08413 -128.113,-90.80562 -56.5911,-128.46041 73.3579,-29.32136 167.5842,-26.7993 252.239,-32.43727 119.7324,-2.96731 243.7493,2.45137 355.8674,29.62082 49.9478,14.78235 67.2538,47.65096 59.0694,78.94781 z"
       id="path3100-2"
       inkscape:connector-curvature="0" />
    <path
       style="color:#000000;display:inline;overflow:visible;visibility:visible;fill:#ffffff;fill-opacity:1;fill-rule:nonzero;stroke:none;stroke-width:1.05505px;marker:none;enable-background:accumulate"
       d="m 954.3418,195.82812 c -45.87505,2.03401 -90.50389,15.24857 -132.65874,32.85513 -15.88073,6.22943 -32.79797,11.45143 -45.81804,22.97323 -14.02348,12.65962 -22.59215,30.17634 -28.17223,47.96153 -8.54435,28.65768 -10.7449,58.72572 -11.54367,88.47688 -0.41844,14.64761 -0.22398,29.38485 2.27607,43.86211 2.82333,16.71154 7.67467,33.16764 15.09561,48.42875 11.30881,21.82722 30.71463,38.47622 52.13963,49.97101 21.39559,11.47124 45.2899,17.61326 69.33549,20.16862 23.84715,2.78717 47.88886,3.73359 71.88735,3.54457 32.30255,-0.63034 64.91303,-4.68184 95.38533,-15.83114 26.8709,-10.79549 48.2885,-32.97903 60.4625,-59.01558 13.0838,-26.594 21.7985,-55.34529 25.7259,-84.71932 3.6767,-29.74198 1.7999,-60.624 -8.6815,-88.88171 -8.6775,-22.66449 -24.0909,-42.57121 -43.5152,-57.06671 -22.4585,-17.60082 -47.7099,-31.34722 -73.7901,-42.76461 -15.25658,-6.15258 -31.57975,-10.32098 -48.1284,-9.96276 z"
       id="path4040-40"
       inkscape:connector-curvature="0"
       sodipodi:nodetypes="zssssz" />
    <path
       style="fill:#ffffff;stroke:none;stroke-width:1.36939"
       d="m 892.09961,88.826334 c -28.75402,0.336902 -57.83216,3.363847 -85.19428,13.397696 -16.3116,5.96492 -32.41506,13.84832 -45.4192,26.26982 -9.12602,8.95523 -15.8987,20.99968 -17.81839,34.25248 -2.89051,17.39156 1.5927,35.79962 11.34058,49.90043 13.456,20.82892 35.77762,34.44258 59.16006,36.76059 35.76084,5.3918 71.958,4.07814 107.95733,4.28932 28.05868,-0.11683 56.41595,-0.50982 83.90449,-7.2605 18.7707,-4.74747 37.197,-13.23746 51.5197,-27.44646 10.6108,-10.80905 17.6808,-26.23856 17.2066,-42.17946 -0.2887,-19.07421 -9.2063,-37.26922 -22.3777,-49.721 -14.6982,-14.31521 -33.3654,-22.89254 -52.3065,-28.366649 -27.6725,-7.935641 -56.47609,-8.997119 -84.94555,-9.729496 -7.6746,-0.160188 -15.35121,-0.243815 -23.02714,-0.166771 z"
       id="path3280-1"
       inkscape:connector-curvature="0"
       sodipodi:nodetypes="csssc" />
    <path
       style="color:#000000;display:inline;overflow:visible;visibility:visible;fill:#ffffff;fill-opacity:1;fill-rule:nonzero;stroke:none;stroke-width:0.990091px;marker:none;enable-background:accumulate"
       d="m 488.9942,566.25992 c -18.78498,50.92279 -2.84901,105.08842 13.19711,114.63467 -28.06687,-12.75099 -51.50197,-72.60161 -41.41962,-110.56135 11.40195,-31.85325 28.22251,-4.07332 28.22251,-4.07332 z"
       id="path4480-2"
       inkscape:connector-curvature="0"
       sodipodi:nodetypes="cccc"
       inkscape:transform-center-x="54.91025"
       inkscape:transform-center-y="-145.58616" />
    <path
       style="color:#000000;display:inline;overflow:visible;visibility:visible;fill:#ffffff;fill-opacity:1;fill-rule:nonzero;stroke:none;stroke-width:1.07313px;marker:none;enable-background:accumulate"
       d="m 499.12015,329.71902 c -34.75806,0.97881 -69.99606,2.1751 -103.6234,10.68837 -15.81,3.99904 -30.88088,10.55143 -43.44204,19.96511 -13.58312,9.94884 -23.87541,23.02691 -30.88349,37.23461 -11.10979,22.28854 -14.77177,47.18659 -12.13841,71.32974 2.87055,22.77899 14.53651,44.33627 31.31028,61.7253 7.94472,8.08932 17.7847,14.65775 28.6767,19.3818 20.27201,9.29576 42.04929,15.9592 64.31133,20.44682 29.02003,5.72624 58.76708,8.61365 88.50407,8.74551 18.89629,0.0446 37.88816,-1.25686 56.27341,-5.25774 24.8914,-5.185 49.01774,-13.49648 70.98471,-25.05466 21.68565,-12.26971 39.03154,-31.22457 45.41793,-53.4121 8.63328,-27.02767 9.21565,-56.00566 1.89071,-83.31745 -3.80096,-13.5935 -10.99029,-26.53907 -21.68041,-36.9783 -10.37448,-10.43499 -23.80579,-18.27654 -38.33474,-23.52095 -25.84974,-10.02221 -53.82477,-14.67859 -81.56244,-18.60328 -18.44273,-2.307 -37.0751,-3.45315 -55.70421,-3.37278 z"
       id="path4546-6-5-5"
       inkscape:connector-curvature="0"
       sodipodi:nodetypes="cssssc" />
    <path
       style="color:#000000;display:inline;overflow:visible;visibility:visible;fill:#ffffff;fill-opacity:1;fill-rule:nonzero;stroke:none;stroke-width:0.878626px;marker:none;enable-background:accumulate"
       d="m 280.03711,122.38281 c -33.79477,0.68643 -68.02945,4.60046 -99.77231,16.78803 -17.23206,6.90084 -33.18544,18.89121 -41.6431,35.74547 -9.88288,20.64639 -10.45282,45.06065 -3.60005,66.71181 4.53119,13.43431 13.76714,25.42778 26.2788,32.30259 19.49064,11.5596 41.77723,17.42486 64.07206,20.50986 17.17101,2.38165 34.46105,3.75524 51.7079,5.44806 31.56947,2.56675 63.42574,2.91769 94.90088,-1.01693 28.89544,-3.55299 57.83793,-9.01684 84.94654,-19.92043 14.64667,-5.90857 29.0757,-13.59551 39.64678,-25.60571 14.50656,-16.00103 18.89205,-39.42064 14.04417,-60.13619 -3.60016,-15.96647 -12.91349,-30.7211 -26.39467,-40.14017 -16.42622,-11.79649 -36.42107,-16.96784 -55.99513,-20.73869 -30.1949,-5.68926 -60.95953,-7.12509 -91.57175,-8.89364 -18.85659,-0.90071 -37.74247,-1.35513 -56.62012,-1.05406 z"
       id="path4546-6-5-3"
       inkscape:connector-curvature="0"
       sodipodi:nodetypes="cssssc" />
    <path
       id="path1081"
       style="fill:#ffffff;fill-rule:evenodd;stroke:none;stroke-width:1px;stroke-linecap:butt;stroke-linejoin:miter;stroke-opacity:1"
       d="m 293.67188,278.28125 c -10.34602,0.0639 -20.49884,2.27426 -30.72657,3.55078 -2.69982,4.93778 -4.08222,10.48922 -6.23101,15.68234 -5.67931,15.85263 -11.23804,31.88728 -14.15471,48.50943 -1.55744,12.04107 -0.85288,24.84605 5.20433,35.64519 9.1497,17.95023 22.70579,33.83652 27.94646,53.6304 3.09231,10.90551 5.52274,22.36337 4.35032,33.73572 -2.11881,9.59327 -8.21891,17.62309 -11.87847,26.63366 -6.87167,15.32803 -10.49807,32.77889 -6.43519,49.37594 1.01596,4.68537 2.40213,9.28257 3.95804,13.81467 -2.44284,-26.62563 4.52474,-54.43511 21.1636,-75.60842 5.87927,-7.58781 10.3557,-16.41037 11.5087,-26.03213 2.42129,-15.20105 -1.52987,-30.55332 -7.50308,-44.47184 -6.35087,-15.65438 -14.74681,-30.53834 -19.38839,-46.84497 -2.53518,-14.1623 4.48464,-27.52853 11.07638,-39.5497 6.64471,-12.19187 14.72253,-23.64193 20.19033,-36.44305 2.35665,-5.59735 -3.25033,-12.19349 -9.08074,-11.62802 z" />
    <path
       style="color:#000000;display:inline;overflow:visible;visibility:visible;fill:#ffffff;fill-opacity:1;fill-rule:nonzero;stroke:none;stroke-width:0.747612px;marker:none;enable-background:accumulate"
       d="m 899.59119,531.93304 c -2.31202,46.97432 46.46212,99.91514 106.27011,73.88577 -68.51547,11.60614 -80.86302,-50.88993 -74.49691,-77.22915 6.052,-16.0625 -31.7732,3.34338 -31.7732,3.34338 z"
       id="path3978-4"
       inkscape:connector-curvature="0"
       sodipodi:nodetypes="cccc" />
    <path
       style="fill:#ffffff;fill-rule:evenodd;stroke:none;stroke-width:1.17292px;stroke-linecap:butt;stroke-linejoin:miter;stroke-opacity:1"
       d="m 2105.6372,449.67287 c 46.9908,56.36735 25.0644,96.94489 0.9732,119.18809 57.8143,-39.15954 50.7085,-84.22782 24.8731,-138.46075 -6.4903,-8.77797 -25.8463,19.27266 -25.8463,19.27266 z"
       id="path1359"
       inkscape:connector-curvature="0"
       sodipodi:nodetypes="cccc" />
    <path
       style="color:#000000;display:inline;overflow:visible;visibility:visible;fill:#ffffff;fill-opacity:1;fill-rule:nonzero;stroke:none;stroke-width:0.548604px;marker:none;enable-background:accumulate"
       d="m 744.76298,1784.4258 c -23.02506,0.867 -46.48161,5.9216 -66.15692,18.3531 -13.76056,9.5893 -21.22853,26.9834 -19.51803,43.572 0.55586,13.3373 5.069,27.3028 15.40829,36.2633 11.35879,9.28 26.10401,12.594 40.21935,15.0694 20.44819,3.3542 41.14494,5.3796 61.8703,5.6186 27.626,-0.1737 55.35589,-5.0256 81.04299,-15.3087 10.63803,-4.6176 20.97892,-11.9976 25.494,-23.0724 9.52705,-22.3457 0.0239,-50.8982 -20.95407,-63.133 -15.20341,-9.2197 -33.11596,-12.1995 -50.49797,-14.2998 -22.2016,-2.4933 -44.57871,-3.2792 -66.90794,-3.0625 z"
       id="path4546-6-5-3-5"
       inkscape:connector-curvature="0"
       sodipodi:nodetypes="cssssc" />
    <path
       style="color:#000000;display:inline;overflow:visible;visibility:visible;fill:#ffffff;fill-opacity:1;fill-rule:nonzero;stroke:none;stroke-width:0.710537px;marker:none;enable-background:accumulate"
       d="m 849.98651,1849.2956 c 26.9288,18.2447 60.46856,37.1401 111.40082,-0.4118 -51.33263,27.0778 -81.7058,-0.5873 -98.47579,-20.0818 -9.1535,-13.7188 -12.92502,20.4935 -12.92503,20.4936 z"
       id="path3978-4-3"
       inkscape:connector-curvature="0"
       sodipodi:nodetypes="cccc" />
  </g>
  <g
     inkscape:groupmode="layer"
     id="layer1"
     inkscape:label="txt">
    <text
       xml:space="preserve"
       style="font-style:normal;font-variant:normal;font-weight:normal;font-stretch:normal;font-size:45px;line-height:1.25;font-family:Lavi;-inkscape-font-specification:'Lavi, Normal';text-align:center;letter-spacing:0px;word-spacing:0px;text-anchor:middle;fill:#000000;fill-opacity:1;stroke:none;font-variant-ligatures:normal;font-variant-caps:normal;font-variant-numeric:normal;font-variant-east-asian:normal;"
       x="328.19693"
       y="194.99399"
       id="text4246-3-2-2-6-3-7-9-3"><tspan
         sodipodi:role="line"
         id="tspan298">Она одна из</tspan><tspan
         sodipodi:role="line"
         id="tspan300">твоих гостей?</tspan></text>
    <text
       xml:space="preserve"
       style="font-style:normal;font-variant:normal;font-weight:normal;font-stretch:normal;font-size:45px;line-height:1.25;font-family:Lavi;-inkscape-font-specification:'Lavi, Normal';font-variant-ligatures:normal;font-variant-caps:normal;font-variant-numeric:normal;font-variant-east-asian:normal;text-align:center;letter-spacing:0px;word-spacing:0px;text-anchor:middle;fill:#000000;fill-opacity:1;stroke:none;"
       x="507.9679"
       y="408.2894"
       id="text4246-3-2-2-6-3-7-9-3-3"><tspan
         sodipodi:role="line"
         id="tspan308">Да. Это моя</tspan><tspan
         sodipodi:role="line"
         id="tspan310">подруга Перчинка.</tspan><tspan
         sodipodi:role="line"
         id="tspan312">Все хорошо.</tspan></text>
    <text
       xml:space="preserve"
       style="font-style:normal;font-variant:normal;font-weight:normal;font-stretch:normal;font-size:45px;line-height:1.25;font-family:Lavi;-inkscape-font-specification:'Lavi, Normal';text-align:center;letter-spacing:0px;word-spacing:0px;text-anchor:middle;fill:#000000;fill-opacity:1;stroke:none;font-variant-ligatures:normal;font-variant-caps:normal;font-variant-numeric:normal;font-variant-east-asian:normal;"
       x="909.74799"
       y="162.51166"
       id="text4246-3-2-2-6-3-7-9-3-3-5"><tspan
         sodipodi:role="line"
         id="tspan314">Морквик, ты</tspan><tspan
         sodipodi:role="line"
         id="tspan316">в порядке?</tspan></text>
    <text
       xml:space="preserve"
       style="font-style:normal;font-variant:normal;font-weight:normal;font-stretch:normal;font-size:40px;line-height:1.25;font-family:Lavi;-inkscape-font-specification:'Lavi, Normal';font-variant-ligatures:normal;font-variant-caps:normal;font-variant-numeric:normal;font-variant-east-asian:normal;text-align:center;letter-spacing:0px;word-spacing:0px;text-anchor:middle;fill:#000000;fill-opacity:1;stroke:none"
       x="930.85266"
       y="296.34482"
       id="text4246-3-2-2-6-3-7-9-3-3-5-9"><tspan
         sodipodi:role="line"
         id="tspan318"
         x="930.85266"
         y="296.34482">Прости за</tspan><tspan
         sodipodi:role="line"
         id="tspan320"
         x="930.85266"
         y="346.34482">посадку, я еще не</tspan><tspan
         sodipodi:role="line"
         id="tspan322"
         x="930.85266"
         y="396.34482">освоила ее</tspan><tspan
         sodipodi:role="line"
         id="tspan324"
         x="930.85266"
         y="446.34482">при использовании</tspan><tspan
         sodipodi:role="line"
         id="tspan326"
         x="930.85266"
         y="496.34482">гиперскорости.</tspan></text>
    <text
       xml:space="preserve"
       style="font-style:normal;font-variant:normal;font-weight:normal;font-stretch:normal;font-size:45px;line-height:1.25;font-family:Lavi;-inkscape-font-specification:'Lavi, Normal';text-align:center;letter-spacing:0px;word-spacing:0px;text-anchor:middle;fill:#000000;fill-opacity:1;stroke:none;font-variant-ligatures:normal;font-variant-caps:normal;font-variant-numeric:normal;font-variant-east-asian:normal;"
       x="1744.1462"
       y="221.09926"
       id="text4246-3-2-2-6-3-7-9-3-3-5-9-2"><tspan
         sodipodi:role="line"
         id="tspan332">И снова прошу прощения у всех</tspan><tspan
         sodipodi:role="line"
         id="tspan334">за беспокойство</tspan></text>
    <text
       xml:space="preserve"
       style="font-style:normal;font-variant:normal;font-weight:normal;font-stretch:normal;font-size:45px;line-height:1.25;font-family:Lavi;-inkscape-font-specification:'Lavi, Normal';font-variant-ligatures:normal;font-variant-caps:normal;font-variant-numeric:normal;font-variant-east-asian:normal;text-align:center;letter-spacing:0px;word-spacing:0px;text-anchor:middle;fill:#000000;fill-opacity:1;stroke:none"
       x="2054.5015"
       y="351.36926"
       id="text4246-3-2-2-6-3-7-9-3-3-5-9-2-6"><tspan
         sodipodi:role="line"
         id="tspan336"
         x="2054.5015"
         y="351.36926">и за то</tspan><tspan
         sodipodi:role="line"
         id="tspan338"
         x="2054.5015"
         y="407.61926">как я одета...</tspan></text>
    <text
       xml:space="preserve"
       style="font-style:normal;font-variant:normal;font-weight:normal;font-stretch:normal;font-size:45px;line-height:1.25;font-family:Lavi;-inkscape-font-specification:'Lavi, Normal';text-align:center;letter-spacing:0px;word-spacing:0px;text-anchor:middle;fill:#000000;fill-opacity:1;stroke:none;font-variant-ligatures:normal;font-variant-caps:normal;font-variant-numeric:normal;font-variant-east-asian:normal;"
       x="767.77356"
       y="1855.4686"
       id="text4246-3-2-2-6-3-7-9-3-3-5-9-2-6-3"><tspan
         sodipodi:role="line"
         id="tspan340">Хи хи хи</tspan></text>
    <text
       xml:space="preserve"
       style="font-style:normal;font-variant:normal;font-weight:normal;font-stretch:normal;font-size:45px;line-height:1.25;font-family:Lavi;-inkscape-font-specification:'Lavi, Normal';text-align:center;letter-spacing:0px;word-spacing:0px;text-anchor:middle;fill:#000000;fill-opacity:1;stroke:none;font-variant-ligatures:normal;font-variant-caps:normal;font-variant-numeric:normal;font-variant-east-asian:normal;"
       x="922.21698"
       y="2143.4609"
       id="text4246-3-2-2-6-3-7-9-3-3-5-9-2-6-1"><tspan
         sodipodi:role="line"
         id="tspan342">Ситими,</tspan></text>
    <text
       xml:space="preserve"
       style="font-style:normal;font-variant:normal;font-weight:normal;font-stretch:normal;font-size:45px;line-height:1.25;font-family:Lavi;-inkscape-font-specification:Lavi;text-align:center;letter-spacing:0px;word-spacing:0px;text-anchor:middle;fill:#000000;fill-opacity:1;stroke:none"
       x="1190.3296"
       y="2228.157"
       id="text4246-3-2-2-6-3-7-9-3-3-5-9-2-6-1-9"><tspan
         style="font-size:45px"
         x="1190.3296"
         y="2228.157"
         sodipodi:role="line"
         id="tspan1133">эта молодая ведьма,</tspan><tspan
         style="font-size:45px"
         x="1190.3296"
         y="2284.407"
         sodipodi:role="line"
         id="tspan366">которая прибыла, она</tspan><tspan
         style="font-style:italic;font-variant:normal;font-weight:normal;font-stretch:normal;font-size:45px;font-family:Lavi;-inkscape-font-specification:'Lavi Italic'"
         x="1190.3296"
         y="2340.657"
         sodipodi:role="line"
         id="tspan1137">действительно</tspan><tspan
         style="font-size:45px"
         x="1190.3296"
         y="2396.907"
         sodipodi:role="line"
         id="tspan370">твой друг?</tspan></text>
  </g>
</svg>
