<?xml version="1.0" encoding="UTF-8" standalone="no"?>
<!-- Created with Inkscape (http://www.inkscape.org/) -->

<svg
   xmlns:dc="http://purl.org/dc/elements/1.1/"
   xmlns:cc="http://creativecommons.org/ns#"
   xmlns:rdf="http://www.w3.org/1999/02/22-rdf-syntax-ns#"
   xmlns:svg="http://www.w3.org/2000/svg"
   xmlns="http://www.w3.org/2000/svg"
   xmlns:xlink="http://www.w3.org/1999/xlink"
   xmlns:sodipodi="http://sodipodi.sourceforge.net/DTD/sodipodi-0.dtd"
   xmlns:inkscape="http://www.inkscape.org/namespaces/inkscape"
   id="svg2"
   version="1.1"
   inkscape:version="0.92.3 (2405546, 2018-03-11)"
   width="2481"
   height="3503"
   sodipodi:docname="E02P02.svg">
  <sodipodi:namedview
     pagecolor="#ffffff"
     bordercolor="#666666"
     inkscape:pageopacity="0"
     inkscape:pageshadow="2"
     inkscape:window-width="1920"
     inkscape:window-height="1022"
     id="namedview70"
     showgrid="false"
     inkscape:zoom="1.4100641"
     inkscape:cx="1893.2359"
     inkscape:cy="2833.2993"
     inkscape:current-layer="layer1"
     inkscape:window-x="0"
     inkscape:window-y="0"
     inkscape:window-maximized="1"
     inkscape:snap-global="false" />
  <metadata
     id="metadata8">
    <rdf:RDF>
      <cc:Work
         rdf:about="">
        <dc:format>image/svg+xml</dc:format>
        <dc:type
           rdf:resource="http://purl.org/dc/dcmitype/StillImage" />
        <dc:title></dc:title>
      </cc:Work>
    </rdf:RDF>
  </metadata>
  <defs
     id="defs6">
    <linearGradient
       inkscape:collect="always"
       id="linearGradient3587">
      <stop
         style="stop-color:#b08b67;stop-opacity:1"
         offset="0"
         id="stop3583" />
      <stop
         style="stop-color:#9f8263;stop-opacity:1"
         offset="1"
         id="stop3585" />
    </linearGradient>
    <linearGradient
       id="linearGradient3581"
       inkscape:collect="always">
      <stop
         id="stop3577"
         offset="0"
         style="stop-color:#9f8263;stop-opacity:1" />
      <stop
         id="stop3579"
         offset="1"
         style="stop-color:#d19e6f;stop-opacity:1" />
    </linearGradient>
    <linearGradient
       id="linearGradient3478-2"
       inkscape:collect="always">
      <stop
         id="stop3474"
         offset="0"
         style="stop-color:#b08b67;stop-opacity:1" />
      <stop
         id="stop3476"
         offset="1"
         style="stop-color:#776657;stop-opacity:1" />
    </linearGradient>
    <linearGradient
       inkscape:collect="always"
       id="linearGradient3472">
      <stop
         style="stop-color:#776657;stop-opacity:1"
         offset="0"
         id="stop3468" />
      <stop
         style="stop-color:#d19e6f;stop-opacity:1"
         offset="1"
         id="stop3470" />
    </linearGradient>
    <linearGradient
       id="linearGradient3369"
       inkscape:collect="always">
      <stop
         id="stop3365"
         offset="0"
         style="stop-color:#a6816d;stop-opacity:1" />
      <stop
         id="stop3367"
         offset="1"
         style="stop-color:#d19e6f;stop-opacity:1" />
    </linearGradient>
    <linearGradient
       inkscape:collect="always"
       id="linearGradient3363-8">
      <stop
         style="stop-color:#b08b67;stop-opacity:1"
         offset="0"
         id="stop3359" />
      <stop
         style="stop-color:#a6816d;stop-opacity:1"
         offset="1"
         id="stop3361" />
    </linearGradient>
    <linearGradient
       inkscape:collect="always"
       id="linearGradient3292">
      <stop
         style="stop-color:#836b54;stop-opacity:1"
         offset="0"
         id="stop3288" />
      <stop
         style="stop-color:#d19e6f;stop-opacity:1"
         offset="1"
         id="stop3290" />
    </linearGradient>
    <linearGradient
       id="linearGradient3286-5"
       inkscape:collect="always">
      <stop
         id="stop3282"
         offset="0"
         style="stop-color:#b69870;stop-opacity:1" />
      <stop
         id="stop3284"
         offset="1"
         style="stop-color:#836b54;stop-opacity:1" />
    </linearGradient>
    <linearGradient
       inkscape:collect="always"
       id="linearGradient3215-5">
      <stop
         style="stop-color:#b69270;stop-opacity:1"
         offset="0"
         id="stop3211" />
      <stop
         style="stop-color:#a3805e;stop-opacity:1"
         offset="1"
         id="stop3213" />
    </linearGradient>
    <linearGradient
       id="linearGradient3209"
       inkscape:collect="always">
      <stop
         id="stop3205"
         offset="0"
         style="stop-color:#a3805e;stop-opacity:1" />
      <stop
         id="stop3207"
         offset="1"
         style="stop-color:#d19e6f;stop-opacity:1" />
    </linearGradient>
    <linearGradient
       inkscape:collect="always"
       id="linearGradient3138">
      <stop
         style="stop-color:#685747;stop-opacity:1"
         offset="0"
         id="stop3134" />
      <stop
         style="stop-color:#d19e6f;stop-opacity:1"
         offset="1"
         id="stop3136" />
    </linearGradient>
    <linearGradient
       id="linearGradient3132-0"
       inkscape:collect="always">
      <stop
         id="stop3128"
         offset="0"
         style="stop-color:#b69270;stop-opacity:1" />
      <stop
         id="stop3130"
         offset="1"
         style="stop-color:#685747;stop-opacity:1" />
    </linearGradient>
    <linearGradient
       inkscape:collect="always"
       id="linearGradient3063">
      <stop
         style="stop-color:#634a4b;stop-opacity:1"
         offset="0"
         id="stop3059" />
      <stop
         style="stop-color:#47617e;stop-opacity:1"
         offset="1"
         id="stop3061" />
    </linearGradient>
    <linearGradient
       id="linearGradient3057"
       inkscape:collect="always">
      <stop
         id="stop3053"
         offset="0"
         style="stop-color:#47617e;stop-opacity:1" />
      <stop
         id="stop3055"
         offset="1"
         style="stop-color:#d19e6f;stop-opacity:1" />
    </linearGradient>
    <linearGradient
       id="linearGradient2894-7"
       inkscape:collect="always">
      <stop
         id="stop2890"
         offset="0"
         style="stop-color:#dba674;stop-opacity:1" />
      <stop
         id="stop2892"
         offset="1"
         style="stop-color:#ae8661;stop-opacity:1" />
    </linearGradient>
    <linearGradient
       inkscape:collect="always"
       id="linearGradient2888">
      <stop
         style="stop-color:#ae8661;stop-opacity:1"
         offset="0"
         id="stop2884" />
      <stop
         style="stop-color:#d19e6f;stop-opacity:1"
         offset="1"
         id="stop2886" />
    </linearGradient>
    <linearGradient
       id="linearGradient2822"
       inkscape:collect="always">
      <stop
         id="stop2818"
         offset="0"
         style="stop-color:#c1956f;stop-opacity:1" />
      <stop
         id="stop2820"
         offset="1"
         style="stop-color:#d19e6f;stop-opacity:1" />
    </linearGradient>
    <linearGradient
       inkscape:collect="always"
       id="linearGradient2816-1">
      <stop
         style="stop-color:#dba674;stop-opacity:1"
         offset="0"
         id="stop2812" />
      <stop
         style="stop-color:#c1956f;stop-opacity:1"
         offset="1"
         id="stop2814" />
    </linearGradient>
    <linearGradient
       inkscape:collect="always"
       id="linearGradient2772">
      <stop
         style="stop-color:#ab8a71;stop-opacity:1"
         offset="0"
         id="stop2768" />
      <stop
         style="stop-color:#a07f69;stop-opacity:1"
         offset="1"
         id="stop2770" />
    </linearGradient>
    <linearGradient
       id="linearGradient2766"
       inkscape:collect="always">
      <stop
         id="stop2762"
         offset="0"
         style="stop-color:#a07f69;stop-opacity:1" />
      <stop
         id="stop2764"
         offset="1"
         style="stop-color:#3f3f44;stop-opacity:1" />
    </linearGradient>
    <linearGradient
       id="linearGradient2638-8-6"
       inkscape:collect="always">
      <stop
         id="stop2634"
         offset="0"
         style="stop-color:#cca082;stop-opacity:1" />
      <stop
         id="stop2636"
         offset="1"
         style="stop-color:#c1956f;stop-opacity:1" />
    </linearGradient>
    <linearGradient
       inkscape:collect="always"
       id="linearGradient2632">
      <stop
         style="stop-color:#c1956f;stop-opacity:1"
         offset="0"
         id="stop2628" />
      <stop
         style="stop-color:#927672;stop-opacity:1"
         offset="1"
         id="stop2630" />
    </linearGradient>
    <linearGradient
       id="linearGradient2257"
       inkscape:collect="always">
      <stop
         id="stop2253"
         offset="0"
         style="stop-color:#636261;stop-opacity:1" />
      <stop
         id="stop2255"
         offset="1"
         style="stop-color:#927672;stop-opacity:1" />
    </linearGradient>
    <linearGradient
       inkscape:collect="always"
       id="linearGradient2251">
      <stop
         style="stop-color:#a89788;stop-opacity:1"
         offset="0"
         id="stop2247" />
      <stop
         style="stop-color:#636261;stop-opacity:1"
         offset="1"
         id="stop2249" />
    </linearGradient>
    <linearGradient
       id="linearGradient2080"
       inkscape:collect="always">
      <stop
         id="stop2076"
         offset="0"
         style="stop-color:#66575f;stop-opacity:1" />
      <stop
         id="stop2078"
         offset="1"
         style="stop-color:#927672;stop-opacity:1" />
    </linearGradient>
    <linearGradient
       inkscape:collect="always"
       id="linearGradient2074">
      <stop
         style="stop-color:#695b60;stop-opacity:1"
         offset="0"
         id="stop2070" />
      <stop
         style="stop-color:#66575f;stop-opacity:1"
         offset="1"
         id="stop2072" />
    </linearGradient>
    <linearGradient
       id="linearGradient1880-7"
       inkscape:collect="always">
      <stop
         id="stop1876"
         offset="0"
         style="stop-color:#cca082;stop-opacity:1" />
      <stop
         id="stop1878"
         offset="1"
         style="stop-color:#7873bb;stop-opacity:1" />
    </linearGradient>
    <linearGradient
       inkscape:collect="always"
       id="linearGradient1874-4">
      <stop
         style="stop-color:#7873bb;stop-opacity:1"
         offset="0"
         id="stop1870" />
      <stop
         style="stop-color:#927672;stop-opacity:1"
         offset="1"
         id="stop1872" />
    </linearGradient>
    <linearGradient
       inkscape:collect="always"
       id="linearGradient1711-8">
      <stop
         style="stop-color:#cca082;stop-opacity:1"
         offset="0"
         id="stop1707" />
      <stop
         style="stop-color:#927672;stop-opacity:1"
         offset="1"
         id="stop1709" />
    </linearGradient>
    <linearGradient
       inkscape:collect="always"
       id="linearGradient1079">
      <stop
         style="stop-color:#f7d09f;stop-opacity:0.54237288"
         offset="0"
         id="stop1075" />
      <stop
         style="stop-color:#dab688;stop-opacity:0;"
         offset="1"
         id="stop1077" />
    </linearGradient>
    <linearGradient
       id="linearGradient1063-6-8-8"
       inkscape:collect="always">
      <stop
         id="stop1059"
         offset="0"
         style="stop-color:#dab688;stop-opacity:1" />
      <stop
         id="stop1061"
         offset="1"
         style="stop-color:#927672;stop-opacity:1" />
    </linearGradient>
    <linearGradient
       inkscape:collect="always"
       id="linearGradient828-3">
      <stop
         style="stop-color:#c09d70;stop-opacity:1"
         offset="0"
         id="stop824" />
      <stop
         style="stop-color:#927672;stop-opacity:1"
         offset="1"
         id="stop826" />
    </linearGradient>
    <linearGradient
       inkscape:collect="always"
       xlink:href="#linearGradient828-3"
       id="linearGradient830"
       x1="1708.8768"
       y1="454.56962"
       x2="1786.3651"
       y2="454.56962"
       gradientUnits="userSpaceOnUse"
       gradientTransform="translate(0.13103817,2.424714)" />
    <filter
       inkscape:collect="always"
       style="color-interpolation-filters:sRGB;"
       id="filter864"
       x="-0.039999999999999994"
       width="1.1186565"
       y="-0.087771531"
       height="1.1755431"
       inkscape:label="PepperGrain"
       inkscape:menu="Image Effects"
       inkscape:menu-tooltip="Adds a small scale graininess">
      <feGaussianBlur
         inkscape:collect="always"
         stdDeviation="1.9155206"
         id="feGaussianBlur866"
         result="fbSourceGraphic" />
      <feColorMatrix
         result="fbSourceGraphicAlpha"
         in="fbSourceGraphic"
         values="0 0 0 -1 0 0 0 0 -1 0 0 0 0 -1 0 0 0 0 1 0"
         id="feColorMatrix868" />
      <feTurbulence
         id="feTurbulence870"
         type="turbulence"
         numOctaves="5"
         baseFrequency="0.218"
         seed="77"
         result="result0"
         in="fbSourceGraphic" />
      <feColorMatrix
         id="feColorMatrix872"
         result="result4"
         values="0"
         type="saturate" />
      <feComposite
         in2="result4"
         id="feComposite874"
         in="fbSourceGraphic"
         operator="arithmetic"
         k1="-0.34999999999999998"
         k2="0.23999999999999999"
         k3="0.5"
         result="result2"
         baseFrequency="0.54700000000000004"
         k4="-0.25182778229081926"
         numOctaves="3" />
      <feBlend
         in2="fbSourceGraphic"
         id="feBlend876"
         result="result5"
         mode="overlay"
         in="result2"
         k4="-0.25" />
      <feComposite
         in2="fbSourceGraphic"
         id="feComposite878"
         in="result5"
         operator="in"
         result="result3"
         k1="-0.28000000000000003" />
    </filter>
    <linearGradient
       inkscape:collect="always"
       xlink:href="#linearGradient828-3"
       id="linearGradient830-0"
       x1="1708.8768"
       y1="454.56961"
       x2="1786.3651"
       y2="454.56961"
       gradientUnits="userSpaceOnUse"
       gradientTransform="translate(-1703.7912,-420.66917)" />
    <linearGradient
       inkscape:collect="always"
       xlink:href="#linearGradient1063-6-8-8"
       id="linearGradient1057"
       gradientUnits="userSpaceOnUse"
       gradientTransform="translate(-0.36478605,2.9205382)"
       x1="1874.6544"
       y1="422.85562"
       x2="1952.827"
       y2="414.8287" />
    <linearGradient
       inkscape:collect="always"
       xlink:href="#linearGradient1079"
       id="linearGradient1081"
       x1="1828.279"
       y1="428.95758"
       x2="1936.1066"
       y2="428.95758"
       gradientUnits="userSpaceOnUse" />
    <filter
       inkscape:collect="always"
       style="color-interpolation-filters:sRGB"
       id="filter1151"
       x="-0.011727851"
       width="1.0234557"
       y="-0.038693707"
       height="1.0773874">
      <feGaussianBlur
         inkscape:collect="always"
         stdDeviation="0.52691071"
         id="feGaussianBlur1153" />
    </filter>
    <path
       style="fill:none;fill-rule:evenodd;stroke:none;stroke-width:0;stroke-linecap:butt;stroke-linejoin:miter;stroke-miterlimit:4;stroke-dasharray:none;stroke-opacity:1"
       d="m 1687.989,477.53793 c 37.4398,5.77864 81.1477,-10.01548 101.7802,-27.84544"
       id="path892-6"
       inkscape:connector-curvature="0"
       sodipodi:nodetypes="cc" />
    <path
       style="fill:none;fill-rule:evenodd;stroke:none;stroke-width:0;stroke-linecap:butt;stroke-linejoin:miter;stroke-miterlimit:4;stroke-dasharray:none;stroke-opacity:1"
       d="m 1687.989,477.53793 c 37.4398,5.77864 81.1477,-10.01548 101.7802,-27.84544"
       id="path892-1"
       inkscape:connector-curvature="0"
       sodipodi:nodetypes="cc" />
    <path
       style="fill:none;fill-rule:evenodd;stroke:none;stroke-width:0;stroke-linecap:butt;stroke-linejoin:miter;stroke-miterlimit:4;stroke-dasharray:none;stroke-opacity:1"
       d="m 1687.989,477.53793 c 37.4398,5.77864 81.1477,-10.01548 101.7802,-27.84544"
       id="path892-5"
       inkscape:connector-curvature="0"
       sodipodi:nodetypes="cc" />
    <filter
       inkscape:collect="always"
       style="color-interpolation-filters:sRGB"
       id="filter1275"
       x="-0.021464675"
       width="1.0429294"
       y="-0.046649432"
       height="1.0932989">
      <feGaussianBlur
         inkscape:collect="always"
         stdDeviation="0.83752331"
         id="feGaussianBlur1277" />
    </filter>
    <filter
       inkscape:collect="always"
       style="color-interpolation-filters:sRGB"
       id="filter1639"
       x="-0.0083681663"
       width="1.0167363"
       y="-0.031235692"
       height="1.0624714">
      <feGaussianBlur
         inkscape:collect="always"
         stdDeviation="0.51630518"
         id="feGaussianBlur1641" />
    </filter>
    <linearGradient
       inkscape:collect="always"
       xlink:href="#linearGradient1063-6-8-8"
       id="linearGradient1057-6"
       gradientUnits="userSpaceOnUse"
       gradientTransform="translate(-1804.7103,-377.13402)"
       x1="1874.6544"
       y1="422.85562"
       x2="1952.827"
       y2="414.8287" />
    <linearGradient
       inkscape:collect="always"
       xlink:href="#linearGradient1063-6-8-8"
       id="linearGradient1698"
       x1="2129.2783"
       y1="371.70193"
       x2="2154.8613"
       y2="354.59601"
       gradientUnits="userSpaceOnUse" />
    <linearGradient
       inkscape:collect="always"
       xlink:href="#linearGradient1711-8"
       id="linearGradient1705"
       gradientUnits="userSpaceOnUse"
       gradientTransform="translate(-0.36478605,2.9205382)"
       x1="2055.5828"
       y1="388.40482"
       x2="2129.6433"
       y2="368.7814" />
    <filter
       inkscape:collect="always"
       style="color-interpolation-filters:sRGB"
       id="filter1794"
       x="-0.011035889"
       width="1.0220718"
       y="-0.034044398"
       height="1.0680888">
      <feGaussianBlur
         inkscape:collect="always"
         stdDeviation="0.6733044"
         id="feGaussianBlur1796" />
    </filter>
    <linearGradient
       inkscape:collect="always"
       xlink:href="#linearGradient1711-8"
       id="linearGradient1705-3"
       gradientUnits="userSpaceOnUse"
       gradientTransform="translate(-2017.7204,-331.23685)"
       x1="2055.5828"
       y1="388.40482"
       x2="2129.6433"
       y2="368.7814" />
    <linearGradient
       gradientTransform="translate(-2017.3556,-334.15739)"
       inkscape:collect="always"
       xlink:href="#linearGradient1063-6-8-8"
       id="linearGradient1698-5"
       x1="2129.2783"
       y1="371.70193"
       x2="2154.8613"
       y2="354.59601"
       gradientUnits="userSpaceOnUse" />
    <linearGradient
       inkscape:collect="always"
       xlink:href="#linearGradient1880-7"
       id="linearGradient1861"
       gradientUnits="userSpaceOnUse"
       gradientTransform="translate(-0.36478605,3.9121866)"
       x1="2161.2148"
       y1="368.57184"
       x2="2213.2866"
       y2="367.9191" />
    <linearGradient
       inkscape:collect="always"
       xlink:href="#linearGradient1874-4"
       id="linearGradient1863"
       gradientUnits="userSpaceOnUse"
       x1="2212.9219"
       y1="370.83963"
       x2="2282.051"
       y2="364.94363"
       gradientTransform="translate(0,0.99164845)" />
    <filter
       inkscape:collect="always"
       style="color-interpolation-filters:sRGB"
       id="filter1999"
       x="-0.0087113292"
       width="1.0174227"
       y="-0.051015099"
       height="1.1020302">
      <feGaussianBlur
         inkscape:collect="always"
         stdDeviation="0.61822791"
         id="feGaussianBlur2001" />
    </filter>
    <linearGradient
       inkscape:collect="always"
       xlink:href="#linearGradient1880-7"
       id="linearGradient1861-1"
       gradientUnits="userSpaceOnUse"
       gradientTransform="translate(-2151.9212,-319.96742)"
       x1="2161.2148"
       y1="368.57184"
       x2="2213.2866"
       y2="367.9191" />
    <linearGradient
       inkscape:collect="always"
       xlink:href="#linearGradient1874-4"
       id="linearGradient1863-2"
       gradientUnits="userSpaceOnUse"
       x1="2212.9219"
       y1="370.83963"
       x2="2282.051"
       y2="364.94363"
       gradientTransform="translate(-2151.5564,-322.88795)" />
    <linearGradient
       inkscape:collect="always"
       xlink:href="#linearGradient2080"
       id="linearGradient2066"
       gradientUnits="userSpaceOnUse"
       gradientTransform="translate(0,0.99164845)"
       x1="2338.1433"
       y1="398.95819"
       x2="2354.7844"
       y2="403.18491" />
    <linearGradient
       inkscape:collect="always"
       xlink:href="#linearGradient2074"
       id="linearGradient2068"
       gradientUnits="userSpaceOnUse"
       gradientTransform="translate(-0.36478605,3.9121866)"
       x1="2308.5562"
       y1="372.32098"
       x2="2338.5081"
       y2="396.03766" />
    <filter
       inkscape:collect="always"
       style="color-interpolation-filters:sRGB"
       id="filter1483"
       x="-0.009398777"
       width="1.0187976"
       y="-0.086827889"
       height="1.1736557">
      <feGaussianBlur
         inkscape:collect="always"
         stdDeviation="1.1682832"
         id="feGaussianBlur1485" />
    </filter>
    <filter
       inkscape:collect="always"
       style="color-interpolation-filters:sRGB"
       id="filter2178"
       x="-0.035577732"
       width="1.0711555"
       y="-0.022318958"
       height="1.0446379">
      <feGaussianBlur
         inkscape:collect="always"
         stdDeviation="1.0300299"
         id="feGaussianBlur2180" />
    </filter>
    <linearGradient
       inkscape:collect="always"
       xlink:href="#linearGradient2257"
       id="linearGradient2243"
       gradientUnits="userSpaceOnUse"
       gradientTransform="translate(0,0.99164845)"
       x1="2202.5156"
       y1="931.91779"
       x2="2218.7456"
       y2="966.78021" />
    <linearGradient
       inkscape:collect="always"
       xlink:href="#linearGradient2251"
       id="linearGradient2245"
       gradientUnits="userSpaceOnUse"
       gradientTransform="translate(-0.36478605,3.9121866)"
       x1="2205.4421"
       y1="820.38287"
       x2="2202.8804"
       y2="928.99725" />
    <filter
       inkscape:collect="always"
       style="color-interpolation-filters:sRGB"
       id="filter1483-1"
       x="-0.009398777"
       width="1.0187976"
       y="-0.086827889"
       height="1.1736557">
      <feGaussianBlur
         inkscape:collect="always"
         stdDeviation="1.1682832"
         id="feGaussianBlur1485-1" />
    </filter>
    <filter
       inkscape:collect="always"
       style="color-interpolation-filters:sRGB"
       id="filter1483-1-7"
       x="-0.009398777"
       width="1.0187976"
       y="-0.086827889"
       height="1.1736557">
      <feGaussianBlur
         inkscape:collect="always"
         stdDeviation="1.1682832"
         id="feGaussianBlur1485-1-7" />
    </filter>
    <filter
       inkscape:collect="always"
       style="color-interpolation-filters:sRGB"
       id="filter1483-1-7-3"
       x="-0.009398777"
       width="1.0187976"
       y="-0.086827889"
       height="1.1736557">
      <feGaussianBlur
         inkscape:collect="always"
         stdDeviation="1.1682832"
         id="feGaussianBlur1485-1-7-6" />
    </filter>
    <filter
       inkscape:collect="always"
       style="color-interpolation-filters:sRGB"
       id="filter1483-1-7-3-3"
       x="-0.009398777"
       width="1.0187976"
       y="-0.086827889"
       height="1.1736557">
      <feGaussianBlur
         inkscape:collect="always"
         stdDeviation="1.1682832"
         id="feGaussianBlur1485-1-7-6-9" />
    </filter>
    <filter
       inkscape:collect="always"
       style="color-interpolation-filters:sRGB"
       id="filter1483-1-7-3-3-1"
       x="-0.009398777"
       width="1.0187976"
       y="-0.086827889"
       height="1.1736557">
      <feGaussianBlur
         inkscape:collect="always"
         stdDeviation="1.1682832"
         id="feGaussianBlur1485-1-7-6-9-2" />
    </filter>
    <filter
       inkscape:collect="always"
       style="color-interpolation-filters:sRGB"
       id="filter1483-1-7-3-3-1-9"
       x="-0.009398777"
       width="1.0187976"
       y="-0.086827889"
       height="1.1736557">
      <feGaussianBlur
         inkscape:collect="always"
         stdDeviation="1.1682832"
         id="feGaussianBlur1485-1-7-6-9-2-0" />
    </filter>
    <filter
       inkscape:collect="always"
       style="color-interpolation-filters:sRGB"
       id="filter1483-1-7-3-3-1-9-5"
       x="-0.009398777"
       width="1.0187976"
       y="-0.086827889"
       height="1.1736557">
      <feGaussianBlur
         inkscape:collect="always"
         stdDeviation="1.1682832"
         id="feGaussianBlur1485-1-7-6-9-2-0-0" />
    </filter>
    <filter
       inkscape:collect="always"
       style="color-interpolation-filters:sRGB"
       id="filter1483-1-7-3-3-1-9-5-3"
       x="-0.009398777"
       width="1.0187976"
       y="-0.086827889"
       height="1.1736557">
      <feGaussianBlur
         inkscape:collect="always"
         stdDeviation="1.1682832"
         id="feGaussianBlur1485-1-7-6-9-2-0-0-8" />
    </filter>
    <filter
       inkscape:collect="always"
       style="color-interpolation-filters:sRGB"
       id="filter1483-1-7-3-3-1-9-5-3-1"
       x="-0.009398777"
       width="1.0187976"
       y="-0.086827889"
       height="1.1736557">
      <feGaussianBlur
         inkscape:collect="always"
         stdDeviation="1.1682832"
         id="feGaussianBlur1485-1-7-6-9-2-0-0-8-1" />
    </filter>
    <filter
       inkscape:collect="always"
       style="color-interpolation-filters:sRGB"
       id="filter1483-1-7-3-3-1-9-5-3-1-8"
       x="-0.009398777"
       width="1.0187976"
       y="-0.086827889"
       height="1.1736557">
      <feGaussianBlur
         inkscape:collect="always"
         stdDeviation="1.1682832"
         id="feGaussianBlur1485-1-7-6-9-2-0-0-8-1-4" />
    </filter>
    <linearGradient
       inkscape:collect="always"
       xlink:href="#linearGradient2638-8-6"
       id="linearGradient2624"
       gradientUnits="userSpaceOnUse"
       gradientTransform="translate(-0.36478605,2.9205382)"
       x1="802.25348"
       y1="1588.5449"
       x2="872.09833"
       y2="1586.7551" />
    <linearGradient
       inkscape:collect="always"
       xlink:href="#linearGradient2632"
       id="linearGradient2626"
       gradientUnits="userSpaceOnUse"
       x1="871.73352"
       y1="1589.6757"
       x2="904.90186"
       y2="1588.0966" />
    <linearGradient
       inkscape:collect="always"
       xlink:href="#linearGradient2638-8-6"
       id="linearGradient2624-5"
       gradientUnits="userSpaceOnUse"
       gradientTransform="translate(-799.2388,-1572.4004)"
       x1="802.25348"
       y1="1588.5449"
       x2="872.09833"
       y2="1586.7551" />
    <linearGradient
       gradientTransform="translate(-798.87401,-1575.321)"
       inkscape:collect="always"
       xlink:href="#linearGradient2632"
       id="linearGradient2626-6"
       gradientUnits="userSpaceOnUse"
       x1="871.73352"
       y1="1589.6757"
       x2="904.90186"
       y2="1588.0966" />
    <linearGradient
       inkscape:collect="always"
       xlink:href="#linearGradient2772"
       id="linearGradient2758"
       gradientUnits="userSpaceOnUse"
       gradientTransform="translate(-0.36478605,2.9205382)"
       x1="682.82452"
       y1="1605.791"
       x2="634.53387"
       y2="1611.3308" />
    <linearGradient
       inkscape:collect="always"
       xlink:href="#linearGradient2766"
       id="linearGradient2760"
       gradientUnits="userSpaceOnUse"
       x1="634.16907"
       y1="1614.2513"
       x2="624.22223"
       y2="1623.0198" />
    <linearGradient
       inkscape:collect="always"
       xlink:href="#linearGradient2822"
       id="linearGradient2808"
       gradientUnits="userSpaceOnUse"
       x1="1078.988"
       y1="1567.3635"
       x2="1078.9362"
       y2="1567.272" />
    <linearGradient
       inkscape:collect="always"
       xlink:href="#linearGradient2816-1"
       id="linearGradient2810"
       gradientUnits="userSpaceOnUse"
       gradientTransform="translate(-0.36478605,2.9205382)"
       x1="962.90051"
       y1="1561.7704"
       x2="1079.3528"
       y2="1564.443" />
    <linearGradient
       inkscape:collect="always"
       xlink:href="#linearGradient2816-1"
       id="linearGradient2810-4"
       gradientUnits="userSpaceOnUse"
       gradientTransform="translate(-954.14689,-1543.5397)"
       x1="962.90051"
       y1="1561.7704"
       x2="1079.3528"
       y2="1564.443" />
    <linearGradient
       gradientTransform="translate(-953.7821,-1546.4602)"
       inkscape:collect="always"
       xlink:href="#linearGradient2822"
       id="linearGradient2808-5"
       gradientUnits="userSpaceOnUse"
       x1="1078.988"
       y1="1567.3635"
       x2="1078.9362"
       y2="1567.272" />
    <linearGradient
       inkscape:collect="always"
       xlink:href="#linearGradient2888"
       id="linearGradient2880"
       gradientUnits="userSpaceOnUse"
       x1="1293.6799"
       y1="1551.9929"
       x2="1300.5696"
       y2="1562.3137" />
    <linearGradient
       inkscape:collect="always"
       xlink:href="#linearGradient2894-7"
       id="linearGradient2882"
       gradientUnits="userSpaceOnUse"
       gradientTransform="translate(-0.36478605,2.9205382)"
       x1="1237.0913"
       y1="1533.5084"
       x2="1294.0447"
       y2="1549.0724" />
    <linearGradient
       inkscape:collect="always"
       xlink:href="#linearGradient2894-7"
       id="linearGradient2882-9"
       gradientUnits="userSpaceOnUse"
       gradientTransform="translate(-1192.788,-1527.422)"
       x1="1237.0913"
       y1="1533.5084"
       x2="1294.0447"
       y2="1549.0724" />
    <linearGradient
       gradientTransform="translate(-1192.4232,-1530.3425)"
       inkscape:collect="always"
       xlink:href="#linearGradient2888"
       id="linearGradient2880-8"
       gradientUnits="userSpaceOnUse"
       x1="1293.6799"
       y1="1551.9929"
       x2="1300.5696"
       y2="1562.3137" />
    <linearGradient
       inkscape:collect="always"
       xlink:href="#linearGradient3057"
       id="linearGradient3049"
       gradientUnits="userSpaceOnUse"
       x1="1311.6106"
       y1="1556.2311"
       x2="1315.8922"
       y2="1562.9657" />
    <linearGradient
       inkscape:collect="always"
       xlink:href="#linearGradient3063"
       id="linearGradient3051"
       gradientUnits="userSpaceOnUse"
       gradientTransform="translate(-0.36478605,2.9205382)"
       x1="1305.2279"
       y1="1539.3766"
       x2="1311.9755"
       y2="1553.3105" />
    <linearGradient
       inkscape:collect="always"
       xlink:href="#linearGradient3138"
       id="linearGradient3124"
       gradientUnits="userSpaceOnUse"
       x1="1485.0681"
       y1="1592.6505"
       x2="1493.941"
       y2="1594.5424" />
    <linearGradient
       inkscape:collect="always"
       xlink:href="#linearGradient3132-0"
       id="linearGradient3126"
       gradientUnits="userSpaceOnUse"
       gradientTransform="translate(-0.36478605,2.9205382)"
       x1="1446.825"
       y1="1577.6367"
       x2="1485.4329"
       y2="1589.73" />
    <linearGradient
       inkscape:collect="always"
       xlink:href="#linearGradient3132-0"
       id="linearGradient3126-3"
       gradientUnits="userSpaceOnUse"
       gradientTransform="translate(-1393.5438,-1556.95)"
       x1="1446.825"
       y1="1577.6367"
       x2="1485.4329"
       y2="1589.73" />
    <linearGradient
       gradientTransform="translate(-1393.179,-1559.8705)"
       inkscape:collect="always"
       xlink:href="#linearGradient3138"
       id="linearGradient3124-5"
       gradientUnits="userSpaceOnUse"
       x1="1485.0681"
       y1="1592.6505"
       x2="1493.941"
       y2="1594.5424" />
    <linearGradient
       inkscape:collect="always"
       xlink:href="#linearGradient3209"
       id="linearGradient3201"
       gradientUnits="userSpaceOnUse"
       x1="1655.3729"
       y1="1616.795"
       x2="1658.6409"
       y2="1620.8427" />
    <linearGradient
       inkscape:collect="always"
       xlink:href="#linearGradient3215-5"
       id="linearGradient3203"
       gradientUnits="userSpaceOnUse"
       gradientTransform="translate(-0.36478605,2.9205382)"
       x1="1579.1885"
       y1="1587.1221"
       x2="1655.7377"
       y2="1613.8745" />
    <linearGradient
       inkscape:collect="always"
       xlink:href="#linearGradient3215-5"
       id="linearGradient3203-4"
       gradientUnits="userSpaceOnUse"
       gradientTransform="translate(-1565.329,-1582.9779)"
       x1="1579.1885"
       y1="1587.1221"
       x2="1655.7377"
       y2="1613.8745" />
    <linearGradient
       gradientTransform="translate(-1564.9642,-1585.8985)"
       inkscape:collect="always"
       xlink:href="#linearGradient3209"
       id="linearGradient3201-4"
       gradientUnits="userSpaceOnUse"
       x1="1655.3729"
       y1="1616.795"
       x2="1658.6409"
       y2="1620.8427" />
    <linearGradient
       inkscape:collect="always"
       xlink:href="#linearGradient3292"
       id="linearGradient3278"
       gradientUnits="userSpaceOnUse"
       x1="1889.8978"
       y1="1581.5916"
       x2="1902.5864"
       y2="1577.2101" />
    <linearGradient
       inkscape:collect="always"
       xlink:href="#linearGradient3286-5"
       id="linearGradient3280"
       gradientUnits="userSpaceOnUse"
       gradientTransform="translate(-0.36478605,2.9205382)"
       x1="1788.9221"
       y1="1606.4592"
       x2="1890.2626"
       y2="1578.671" />
    <linearGradient
       inkscape:collect="always"
       xlink:href="#linearGradient3286-5"
       id="linearGradient3280-2"
       gradientUnits="userSpaceOnUse"
       gradientTransform="translate(-1781.2253,-1557.3232)"
       x1="1788.9221"
       y1="1606.4592"
       x2="1890.2626"
       y2="1578.671" />
    <linearGradient
       gradientTransform="translate(-1780.8605,-1560.2437)"
       inkscape:collect="always"
       xlink:href="#linearGradient3292"
       id="linearGradient3278-2"
       gradientUnits="userSpaceOnUse"
       x1="1889.8978"
       y1="1581.5916"
       x2="1902.5864"
       y2="1577.2101" />
    <linearGradient
       inkscape:collect="always"
       xlink:href="#linearGradient3369"
       id="linearGradient3355"
       gradientUnits="userSpaceOnUse"
       x1="2063.4363"
       y1="1503.7472"
       x2="2068.6875"
       y2="1516.7195" />
    <linearGradient
       inkscape:collect="always"
       xlink:href="#linearGradient3363-8"
       id="linearGradient3357"
       gradientUnits="userSpaceOnUse"
       gradientTransform="translate(-0.36478605,2.9205382)"
       x1="1996.6725"
       y1="1560.3475"
       x2="2063.801"
       y2="1500.8267" />
    <linearGradient
       inkscape:collect="always"
       xlink:href="#linearGradient3363-8"
       id="linearGradient3357-7"
       gradientUnits="userSpaceOnUse"
       gradientTransform="translate(-1981.3469,-1475.4752)"
       x1="1996.6725"
       y1="1560.3475"
       x2="2063.801"
       y2="1500.8267" />
    <linearGradient
       gradientTransform="translate(-1980.9822,-1478.3957)"
       inkscape:collect="always"
       xlink:href="#linearGradient3369"
       id="linearGradient3355-1"
       gradientUnits="userSpaceOnUse"
       x1="2063.4363"
       y1="1503.7472"
       x2="2068.6875"
       y2="1516.7195" />
    <linearGradient
       inkscape:collect="always"
       xlink:href="#linearGradient3472"
       id="linearGradient3464"
       gradientUnits="userSpaceOnUse"
       x1="2165.0803"
       y1="1366.4039"
       x2="2182.7271"
       y2="1369.9556" />
    <linearGradient
       inkscape:collect="always"
       xlink:href="#linearGradient3478-2"
       id="linearGradient3466"
       gradientUnits="userSpaceOnUse"
       gradientTransform="translate(-0.36478605,2.9205382)"
       x1="2108.7288"
       y1="1401.6837"
       x2="2165.4451"
       y2="1363.4834" />
    <linearGradient
       inkscape:collect="always"
       xlink:href="#linearGradient3478-2"
       id="linearGradient3466-7"
       gradientUnits="userSpaceOnUse"
       gradientTransform="translate(-2087.0207,-1304.4905)"
       x1="2108.7288"
       y1="1401.6837"
       x2="2165.4451"
       y2="1363.4834" />
    <linearGradient
       gradientTransform="translate(-2086.6559,-1307.411)"
       inkscape:collect="always"
       xlink:href="#linearGradient3472"
       id="linearGradient3464-9"
       gradientUnits="userSpaceOnUse"
       x1="2165.0803"
       y1="1366.4039"
       x2="2182.7271"
       y2="1369.9556" />
    <linearGradient
       inkscape:collect="always"
       xlink:href="#linearGradient3581"
       id="linearGradient3573"
       gradientUnits="userSpaceOnUse"
       x1="2220.2678"
       y1="1275.8621"
       x2="2229.7227"
       y2="1290.1925" />
    <linearGradient
       inkscape:collect="always"
       xlink:href="#linearGradient3587"
       id="linearGradient3575"
       gradientUnits="userSpaceOnUse"
       gradientTransform="translate(-0.36478605,2.9205382)"
       x1="2200.1328"
       y1="1294.7582"
       x2="2220.6326"
       y2="1272.9415" />
  </defs>
  <sodipodi:namedview
     pagecolor="#ffffff"
     bordercolor="#666666"
     borderopacity="1"
     objecttolerance="10"
     gridtolerance="10"
     guidetolerance="10"
     inkscape:pageopacity="0"
     inkscape:pageshadow="2"
     inkscape:window-width="1920"
     inkscape:window-height="1025"
     id="namedview4"
     showgrid="false"
     inkscape:zoom="0.25606623"
     inkscape:cx="1240.5"
     inkscape:cy="1751.5"
     inkscape:window-x="1920"
     inkscape:window-y="26"
     inkscape:window-maximized="1"
     inkscape:current-layer="layer1" />
  <g
     inkscape:groupmode="layer"
     id="layer2"
     inkscape:label="artwork"
     sodipodi:insensitive="true">
    <image
       xlink:href="../gfx_Pepper-and-Carrot_by-David-Revoy_E02P02.png"
       y="0"
       x="-1.6728083e-06"
       id="image10"
       height="3503"
       width="2481" />
  </g>
  <g
     inkscape:groupmode="layer"
     id="layer1"
     inkscape:label="text"
     style="display:inline;opacity:1">
    <path
       style="opacity:1;vector-effect:none;fill:url(#linearGradient3575);fill-opacity:1;fill-rule:evenodd;stroke:url(#linearGradient3573);stroke-width:1px;stroke-linecap:butt;stroke-linejoin:miter;stroke-miterlimit:4;stroke-dasharray:none;stroke-dashoffset:0;stroke-opacity:1;filter:url(#filter864)"
       d="m 2183.9576,1283.1811 1.63,23.4729 9.4544,16.3006 23.1469,-21.8429 c 0,0 19.8867,-29.0151 20.5388,-30.3191 0.652,-1.3041 23.7989,-20.5388 23.7989,-20.5388 0,0 10.4324,-20.5388 9.7804,-22.1689 -0.6521,-1.63 -14.9966,-6.8462 -14.9966,-6.8462 l -19.5608,7.4983 -22.1688,15.3226 -9.1284,13.3665 -12.0624,11.4104 z"
       id="path2505"
       inkscape:connector-curvature="0" />
    <path
       style="opacity:1;vector-effect:none;fill:url(#linearGradient3466);fill-opacity:1;fill-rule:evenodd;stroke:url(#linearGradient3464);stroke-width:1px;stroke-linecap:butt;stroke-linejoin:miter;stroke-miterlimit:4;stroke-dasharray:none;stroke-dashoffset:0;stroke-opacity:1;filter:url(#filter864)"
       d="m 2090.718,1402.1756 c 0.2906,7.9456 -0.7341,15.0144 3.2601,25.429 0,0 8.1503,5.8682 9.7804,2.9341 1.6301,-2.9341 22.8209,-25.755 22.8209,-25.755 l 37.7156,-27.4868 27.9762,-21.2588 -11.7435,-33.7291 -11.8927,-4.8966 -8.1503,4.8902 -20.2128,20.5387 -19.5607,17.6047 -20.8648,24.4509 z"
       id="path2503"
       inkscape:connector-curvature="0"
       sodipodi:nodetypes="ccscccccccccc" />
    <path
       style="opacity:1;vector-effect:none;fill:url(#linearGradient3357);fill-opacity:1;fill-rule:evenodd;stroke:url(#linearGradient3355);stroke-width:1px;stroke-linecap:butt;stroke-linejoin:miter;stroke-miterlimit:4;stroke-dasharray:none;stroke-dashoffset:0;stroke-opacity:1;filter:url(#filter864)"
       d="m 1984.7639,1550.8373 2.9069,9.2029 8.6734,16.1515 25.5987,-15.8184 19.3638,-12.6464 22.6783,-21.9926 13.3665,-12.3884 1.9561,-18.2567 -13.3665,-6.8463 -3.9122,-1.9561 -12.3885,11.0845 -15.3226,12.0624 -12.3884,11.4105 -29.0151,17.6046 -7.4983,8.1503 z"
       id="path2501"
       inkscape:connector-curvature="0"
       sodipodi:nodetypes="cccccccccccccccc" />
    <path
       style="opacity:1;vector-effect:none;fill:url(#linearGradient3280);fill-opacity:1;fill-rule:evenodd;stroke:url(#linearGradient3278);stroke-width:1px;stroke-linecap:butt;stroke-linejoin:miter;stroke-miterlimit:4;stroke-dasharray:none;stroke-dashoffset:0;stroke-opacity:1;filter:url(#filter864)"
       d="m 1787.2004,1606.5854 0.2988,31.0192 18.2975,-3.3962 26.0946,-6.8599 36.004,-11.3696 25.7549,-9.7668 18.1414,-11.5802 -4.2246,-16.4569 -17.6727,-11.6891 -20.8648,6.5202 -23.1469,12.0625 -17.2786,5.8682 -42.7077,6.8463 z"
       id="path2499"
       inkscape:connector-curvature="0"
       sodipodi:nodetypes="cccccccccccccc" />
    <path
       style="opacity:1;vector-effect:none;fill:url(#linearGradient3203);fill-opacity:1;fill-rule:evenodd;stroke:url(#linearGradient3201);stroke-width:1px;stroke-linecap:butt;stroke-linejoin:miter;stroke-miterlimit:4;stroke-dasharray:none;stroke-dashoffset:0;stroke-opacity:1;filter:url(#filter864)"
       d="m 1573.3362,1593.2189 -4.5642,9.7804 6.1943,8.4763 19.2347,3.5862 27.3851,4.5641 16.9526,5.8683 15.6486,2.6081 c 0,0 7.1723,0.326 7.4983,-0.9781 0.326,-1.304 2.2821,-11.0844 2.2821,-11.0844 l -1.9561,-6.5203 -14.9966,-7.8243 -19.5607,-5.8682 -18.5827,-3.2601 -23.7989,-3.2601 z"
       id="path2497"
       inkscape:connector-curvature="0" />
    <path
       style="opacity:1;vector-effect:none;fill:url(#linearGradient3126);fill-opacity:1;fill-rule:evenodd;stroke:url(#linearGradient3124);stroke-width:1px;stroke-linecap:butt;stroke-linejoin:miter;stroke-miterlimit:4;stroke-dasharray:none;stroke-dashoffset:0;stroke-opacity:1;filter:url(#filter864)"
       d="m 1397.3872,1568.7191 6.0313,20.1965 21.908,6.0963 36.7417,5.9009 25.5756,4.3686 8.0851,0.2119 5.5585,-8.0362 1.3041,-6.8463 -3.2601,-8.1503 -26.081,-9.7804 c 0,0 -26.081,-4.5641 -27.7111,-4.8902 -1.63,-0.326 -21.1908,-3.9121 -21.1908,-3.9121 l -15.3226,-0.326 z"
       id="path2495"
       inkscape:connector-curvature="0"
       sodipodi:nodetypes="cccccccccccccc" />
    <path
       style="opacity:1;vector-effect:none;fill:url(#linearGradient2882);fill-opacity:1;fill-rule:evenodd;stroke:url(#linearGradient2880);stroke-width:1px;stroke-linecap:butt;stroke-linejoin:miter;stroke-miterlimit:4;stroke-dasharray:none;stroke-dashoffset:0;stroke-opacity:1;filter:url(#filter864)"
       d="m 1196.7918,1538.7748 1.6301,17.9307 7.8243,3.5862 27.059,-0.9781 41.4036,2.9341 26.733,3.5862 4.5642,0.326 -7.4983,-18.5827 -6.1942,-5.8683 -35.2094,-6.1942 -24.4509,-2.2821 h -16.3007 l -15.6486,0.9781 z"
       id="path2493"
       inkscape:connector-curvature="0" />
    <path
       style="opacity:1;vector-effect:none;fill:url(#linearGradient2810);fill-opacity:1;fill-rule:evenodd;stroke:url(#linearGradient2808);stroke-width:1px;stroke-linecap:butt;stroke-linejoin:miter;stroke-miterlimit:4;stroke-dasharray:none;stroke-dashoffset:0;stroke-opacity:1;filter:url(#filter864)"
       d="m 958.47668,1563.8778 14.34455,-9.4544 29.66717,0.6521 25.4289,-4.2382 28.6891,-1.6301 13.6926,0.326 5.5422,15.3226 -6.5203,9.4544 -35.5353,0.978 -26.7331,2.6081 -18.58268,1.3041 -21.84283,1.304 -6.19424,-0.652 z"
       id="path2491"
       inkscape:connector-curvature="0" />
    <path
       style="opacity:1;vector-effect:none;fill:url(#linearGradient2624);fill-opacity:1;fill-rule:evenodd;stroke:url(#linearGradient2626);stroke-width:1px;stroke-linecap:butt;stroke-linejoin:miter;stroke-miterlimit:4;stroke-dasharray:none;stroke-dashoffset:0;stroke-opacity:1;filter:url(#filter864)"
       d="m 803.94676,1604.6294 -1.95607,-16.9527 9.45436,-6.8463 43.68567,-2.9341 23.14689,1.3041 1.63006,16.6266 -6.84626,9.4544 -19.56075,-1.6301 -19.88676,1.3041 -25.75499,2.2821 z"
       id="path2489"
       inkscape:connector-curvature="0" />
    <path
       style="opacity:1;vector-effect:none;fill:url(#linearGradient2758);fill-opacity:1;fill-rule:evenodd;stroke:url(#linearGradient2760);stroke-width:1.03275156px;stroke-linecap:butt;stroke-linejoin:miter;stroke-miterlimit:4;stroke-dasharray:none;stroke-dashoffset:0;stroke-opacity:1;filter:url(#filter864)"
       d="m 622.0318,1608.5415 c 1.95608,-1.9561 1.63006,-6.8463 3.58614,-8.4763 1.95607,-1.6301 12.06246,-0.9781 12.06246,-0.9781 l 24.77695,-1.63 23.14689,-0.652 7.82429,6.8462 -2.93411,13.3665 -7.17227,6.5203 -25.75499,0.652 -24.12492,2.6081 -10.75841,1.3041 -6.52025,-2.9342 2.6081,-9.7803 z"
       id="path2487"
       inkscape:connector-curvature="0"
       transform="matrix(1.0108081,0,0,0.92755468,-6.2309242,115.73684)" />
    <path
       style="opacity:0.88999999;vector-effect:none;fill:url(#linearGradient2245);fill-opacity:1;fill-rule:evenodd;stroke:url(#linearGradient2243);stroke-width:1px;stroke-linecap:butt;stroke-linejoin:miter;stroke-miterlimit:4;stroke-dasharray:none;stroke-dashoffset:0;stroke-opacity:1;filter:url(#filter864)"
       d="m 2180.4366,811.09592 c 18.8165,-17.10594 66.7132,-57.58998 69.5641,-55.87939 2.851,1.71059 -6.8423,63.29196 -5.7019,74.69592 1.1404,11.40396 2.851,50.74761 3.9913,63.86216 1.1404,13.11455 14.8966,66.16789 -2.2093,74.72086 -17.106,8.55297 -23.9359,32.02633 -34.1994,27.46472 -65.7644,11.91521 -53.1123,-61.70153 -53.1123,-78.80747 0,-17.10594 7.4126,-71.84493 10.8337,-79.8277 3.4212,-7.98277 10.8338,-26.2291 10.8338,-26.2291 z"
       id="path2182"
       inkscape:connector-curvature="0"
       sodipodi:nodetypes="ccscccscc" />
    <flowRoot
       xml:space="preserve"
       id="flowRoot3063-8-9-4-4"
       style="color:#000000;font-style:normal;font-variant:normal;font-weight:normal;font-stretch:normal;line-height:0.01%;font-family:Arial;-inkscape-font-specification:Arial;text-align:start;letter-spacing:0px;word-spacing:0px;text-anchor:start;display:inline;overflow:visible;visibility:visible;fill:#e69d76;fill-opacity:1;fill-rule:nonzero;stroke:#e99f77;stroke-width:3.84797239;stroke-miterlimit:4;stroke-dasharray:none;stroke-opacity:1;marker:none;enable-background:accumulate"
       transform="matrix(0.73603861,0.37310914,-0.15603585,0.72101075,1816.5894,156.4377)"><flowRegion
         id="flowRegion3065-8-8-2-4"
         style="text-align:start;text-anchor:start;stroke-width:7.79626608"><rect
           id="rect3067-6-6-0-4"
           width="153.02928"
           height="91.750099"
           x="92.642677"
           y="425.30325"
           style="color:#000000;font-size:72px;text-align:start;text-anchor:start;display:inline;overflow:visible;visibility:visible;fill:#e69d76;fill-opacity:1;fill-rule:nonzero;stroke:#e99f77;stroke-width:3.84797239;stroke-miterlimit:4;stroke-dasharray:none;stroke-opacity:1;marker:none;enable-background:accumulate" /></flowRegion><flowPara
         style="color:#000000;font-style:normal;font-variant:normal;font-weight:normal;font-stretch:normal;font-size:64px;line-height:1.25;font-family:Chilanka;-inkscape-font-specification:Chilanka;text-align:start;text-anchor:start;display:inline;overflow:visible;visibility:visible;fill:#e69d76;fill-opacity:1;fill-rule:nonzero;stroke:#e99f77;stroke-width:3.84797239;stroke-miterlimit:4;stroke-dasharray:none;stroke-opacity:1;marker:none;enable-background:accumulate"
         id="flowPara3188-0-7-3">ഠക്ക്</flowPara></flowRoot>    <path
       style="fill:url(#linearGradient830);fill-opacity:1;fill-rule:evenodd;stroke:none;stroke-width:1px;stroke-linecap:butt;stroke-linejoin:miter;stroke-opacity:1;filter:url(#filter864)"
       d="m 1708.5746,455.31233 c 16.3544,-0.46727 44.4688,-9.62533 49.6088,-12.42893 5.1399,-2.80361 24.5219,-14.70397 24.5219,-14.70397 l 2.8564,7.76261 0.9345,8.41082 -0.4673,12.553 -21.8212,16.24684 c 0,0 -36.119,13.85671 -45.4643,12.92217 -17.3602,-3.33899 -10.1688,-30.76254 -10.1688,-30.76254 z"
       id="path822"
       inkscape:connector-curvature="0"
       sodipodi:nodetypes="ccccccccc" />
    <text
       id="text4178-6-5-9-0-7-0-4"
       style="font-style:normal;font-variant:normal;font-weight:normal;font-stretch:normal;font-size:8.20772266px;line-height:0%;font-family:Lavi;-inkscape-font-specification:Lavi;text-align:center;letter-spacing:0px;word-spacing:0px;text-anchor:middle;opacity:0.63300003;fill:#2b2b2b;fill-opacity:1;stroke:#000000;stroke-width:1.2064054;stroke-miterlimit:4;stroke-dasharray:none;stroke-opacity:0.6497175;filter:url(#filter1275)"
       xml:space="preserve"
       transform="matrix(0.88981139,-0.0185016,0,1,203.48633,28.807734)"><textPath
         xlink:href="#path892"
         startOffset="50%"
         id="textPath894"
         style="font-style:normal;font-variant:normal;font-weight:normal;font-stretch:normal;font-size:27.82193184px;line-height:1.25;font-family:Fondamento;-inkscape-font-specification:Fondamento;letter-spacing:2.65027547px;fill:#2b2b2b;fill-opacity:1;stroke:#000000;stroke-width:1.2064054;stroke-miterlimit:4;stroke-dasharray:none;stroke-opacity:0.6497175">FIRE D</textPath></text>
    <path
       style="fill:none;fill-rule:evenodd;stroke:none;stroke-width:0;stroke-linecap:butt;stroke-linejoin:miter;stroke-miterlimit:4;stroke-dasharray:none;stroke-opacity:1"
       d="m 1687.989,477.53793 c 37.4398,5.77864 81.1477,-10.01548 101.7802,-27.84544"
       id="path892"
       inkscape:connector-curvature="0"
       sodipodi:nodetypes="cc" />
    <path
       style="opacity:1;vector-effect:none;fill:url(#linearGradient1057);fill-opacity:1;fill-rule:evenodd;stroke:none;stroke-width:1px;stroke-linecap:butt;stroke-linejoin:miter;stroke-miterlimit:4;stroke-dasharray:none;stroke-dashoffset:0;stroke-opacity:1;filter:url(#filter864)"
       d="m 1812.59,412.70195 c 6.3735,0.74983 59.9863,1.12474 65.9849,-0.37492 5.9986,-1.49965 46.1145,-13.49691 50.6134,-17.62097 4.499,-4.12406 15.3715,-8.99794 15.3715,-8.99794 l 5.6237,4.12405 7.2332,9.72935 c 0,0 2.2311,13.25949 -1.518,16.25881 -3.7492,2.99931 -13.2134,11.71377 -13.2134,11.71377 l -42.5482,14.62166 -39.1832,7.96462 -30.7429,-0.67683 -14.6217,-6.74845 -5.3311,-6.08084 z"
       id="path1004"
       inkscape:connector-curvature="0"
       sodipodi:nodetypes="cccccccccccccc" />
    <path
       style="fill:url(#linearGradient1081);fill-opacity:1;fill-rule:evenodd;stroke:none;stroke-width:1.13582981px;stroke-linecap:butt;stroke-linejoin:miter;stroke-opacity:1;filter:url(#filter1151)"
       d="m 1853.3809,428.37635 c 7.1723,-7.17228 17.2787,-10.75841 17.2787,-8.47633 0,2.28209 11.4104,3.26013 13.3665,-1.95607 1.9561,-5.2162 14.6706,-5.2162 14.6706,-5.2162 l -3.5862,8.80234 c 0,0 -6.8462,4.23816 -9.1283,6.84626 -2.2821,2.6081 4.8902,5.2162 4.8902,5.2162 0,0 24.7769,-17.60468 28.037,-19.88676 3.2602,-2.28209 4.5642,-0.97804 3.9122,3.91215 -0.652,4.89018 10.1064,5.2162 12.0624,2.28208 1.9561,-2.93411 0.9781,5.54222 0.9781,5.54222 l -35.725,16.71352 c 0,0 -36.6498,6.43336 -34.6937,0.89115 1.9561,-5.54221 -1.9561,-11.08443 -1.9561,-11.08443 l -15.6486,7.17228 c 0,0 -22.1688,9.45436 -17.2787,1.30405 4.8902,-8.15031 7.1723,-16.95265 0.3261,-12.06246 -6.8463,4.89018 1.956,-9.12835 1.956,-9.12835 0,0 18.9088,-8.80234 16.9527,-3.91215 -1.9561,4.89019 -5.5422,16.62663 -5.5422,16.62663 z"
       id="path1065"
       inkscape:connector-curvature="0"
       transform="matrix(0.77512798,0,0,1,427.28767,-1.435989e-5)" />
    <flowRoot
       xml:space="preserve"
       id="flowRoot1255"
       style="font-style:normal;font-variant:normal;font-weight:normal;font-stretch:normal;font-size:0.66666669px;line-height:0%;font-family:Lavi;-inkscape-font-specification:Lavi;text-align:center;letter-spacing:22.65999985px;word-spacing:-79.63999939px;writing-mode:lr-tb;text-anchor:middle;fill:#000000;fill-opacity:1;stroke:none;stroke-width:1px;stroke-linecap:butt;stroke-linejoin:miter;stroke-opacity:1"><flowRegion
         id="flowRegion1257"><rect
           id="rect1259"
           width="109.94366"
           height="16.814909"
           x="1834.1185"
           y="355.1629" /></flowRegion><flowPara
         id="flowPara1261" /></flowRoot>    <text
       id="text4178-6-5-9-0-7-0-4-0"
       style="font-style:normal;font-variant:normal;font-weight:normal;font-stretch:normal;font-size:6.19657373px;line-height:0%;font-family:Lavi;-inkscape-font-specification:Lavi;text-align:center;letter-spacing:0px;word-spacing:0px;text-anchor:middle;opacity:0.51799999;fill:#2b2b2b;fill-opacity:1;stroke:#000000;stroke-width:2.01290703;stroke-miterlimit:4;stroke-dasharray:none;stroke-opacity:0.6497175;filter:url(#filter1639)"
       xml:space="preserve"
       transform="matrix(0.97958467,0,0,1.2064985,39.496757,-91.364445)"><textPath
         xlink:href="#path1499"
         startOffset="50%"
         id="textPath1504"
         style="stroke-width:2.01290703"><tspan
   id="tspan4293-1-6-3-5-0-2"
   style="font-style:normal;font-variant:normal;font-weight:normal;font-stretch:normal;font-size:21.68024826px;line-height:1.25;font-family:Fondamento;-inkscape-font-specification:Fondamento;letter-spacing:1.65799415px;fill:#2b2b2b;fill-opacity:1;stroke:#000000;stroke-width:2.01290703;stroke-miterlimit:4;stroke-dasharray:none;stroke-opacity:0.6497175">DEEP OCEAN</tspan></textPath></text>
    <path
       style="fill:none;fill-rule:evenodd;stroke:none;stroke-width:1px;stroke-linecap:butt;stroke-linejoin:miter;stroke-opacity:1"
       d="m 1810.2582,436.61426 c 27.7406,8.65931 105.7791,2.62319 144.5827,-22.38359"
       id="path1499"
       inkscape:connector-curvature="0" />
    <path
       style="opacity:1;vector-effect:none;fill:url(#linearGradient1705);fill-opacity:1;fill-rule:evenodd;stroke:url(#linearGradient1698);stroke-width:1px;stroke-linecap:butt;stroke-linejoin:miter;stroke-miterlimit:4;stroke-dasharray:none;stroke-dashoffset:0;stroke-opacity:1;filter:url(#filter864)"
       d="m 2024.4489,370.42514 c 21.6675,-1.71059 56.8355,-10.49287 65.234,-12.75866 8.3986,-3.49837 31.0994,-10.26357 34.5206,-14.25495 8.3515,-8.67513 19.4881,4.54134 19.4881,4.54134 l 7.2041,7.13878 -5.636,24.35349 c 0,0 -7.5879,5.9445 -15.5707,9.70437 -8.9688,5.23894 -46.5869,18.92369 -61.4121,19.49388 -14.8251,0.5702 -41.9008,3.6355 -41.9008,3.6355 l 4.0985,-18.5678 -7.9828,-17.64615 z"
       id="path1643"
       inkscape:connector-curvature="0"
       sodipodi:nodetypes="cccccccscccc" />
    <text
       id="text4178-6-5-9-0-7-0-4-0-9"
       style="font-style:normal;font-variant:normal;font-weight:normal;font-stretch:normal;font-size:6.91080713px;line-height:0%;font-family:Lavi;-inkscape-font-specification:Lavi;text-align:center;letter-spacing:0px;word-spacing:0px;text-anchor:middle;opacity:0.63300003;fill:#2b2b2b;fill-opacity:1;stroke:#000000;stroke-width:2.32200122;stroke-miterlimit:4;stroke-dasharray:none;stroke-opacity:0.6497175;filter:url(#filter1794)"
       xml:space="preserve"
       transform="matrix(0.79747472,0.01134452,-0.11163347,1.1121275,476.1944,-74.331329)"
       y="-89.676819"><textPath
         xlink:href="#path1725"
         startOffset="50%"
         id="textPath1727"
         style="stroke-width:2.32200122"><tspan
   id="tspan4293-1-6-3-5-0-2-3"
   style="font-style:normal;font-variant:normal;font-weight:normal;font-stretch:normal;font-size:24.17917061px;line-height:1.25;font-family:Fondamento;-inkscape-font-specification:Fondamento;letter-spacing:1.84909892px;fill:#2b2b2b;fill-opacity:1;stroke:#000000;stroke-width:2.32200122;stroke-miterlimit:4;stroke-dasharray:none;stroke-opacity:0.6497175">VIOLE(N)T</tspan></textPath></text>
    <path
       style="fill:none;fill-rule:evenodd;stroke:none;stroke-width:0.60000002;stroke-linecap:butt;stroke-linejoin:miter;stroke-miterlimit:4;stroke-dasharray:none;stroke-opacity:1"
       d="m 2013.0463,406.57773 c 34.2119,-0.89637 107.6347,-16.64738 127.9227,-30.24528"
       id="path1725"
       inkscape:connector-curvature="0"
       sodipodi:nodetypes="cc" />
    <path
       style="opacity:0.88999999;vector-effect:none;fill:url(#linearGradient1861);fill-opacity:1;fill-rule:evenodd;stroke:url(#linearGradient1863);stroke-width:1px;stroke-linecap:butt;stroke-linejoin:miter;stroke-miterlimit:4;stroke-dasharray:none;stroke-dashoffset:0;stroke-opacity:1;filter:url(#filter864)"
       d="m 2162.6559,349.25614 c 2.1558,-8.19188 3.018,-13.79685 8.1918,-11.20994 5.1739,2.58691 10.7789,3.44921 31.043,4.31151 21.5424,0.91669 77.1761,-12.93454 80.6253,-11.64108 3.4492,1.29345 13.7969,21.55756 10.7788,25.43793 -3.0181,3.88036 -6.4673,31.47406 -7.3296,33.19866 -0.8623,1.72461 -12.9345,9.91649 -17.6772,11.20994 -4.7426,1.29346 -39.6659,9.05419 -49.5824,6.46728 -9.9165,-2.58691 -34.061,-4.74267 -38.8036,-7.76073 -4.7427,-3.01806 -22.4199,-17.24606 -22.8511,-21.55757 -0.4311,-4.31152 5.605,-28.456 5.605,-28.456 z"
       id="path1798"
       inkscape:connector-curvature="0"
       sodipodi:nodetypes="ccsccccsccc" />
    <text
       id="text4178-6-5-9-0-7-0-4-0-4"
       style="font-style:normal;font-variant:normal;font-weight:normal;font-stretch:normal;font-size:7.2041297px;line-height:0%;font-family:Lavi;-inkscape-font-specification:Lavi;text-align:center;letter-spacing:0px;word-spacing:0px;text-anchor:middle;opacity:0.63300003;fill:#2b2b2b;fill-opacity:1;stroke:#000000;stroke-width:1.82525611;stroke-miterlimit:4;stroke-dasharray:none;stroke-opacity:0.6497175;filter:url(#filter1999)"
       xml:space="preserve"
       transform="matrix(0.81020149,-0.1994889,-0.1629819,1.3526794,493.31471,311.00898)"><textPath
         xlink:href="#path1918"
         startOffset="50%"
         id="textPath1920"
         style="stroke-width:1.82525611"><tspan
   id="tspan4293-1-6-3-5-0-2-3-3"
   style="font-style:normal;font-variant:normal;font-weight:normal;font-stretch:normal;font-size:25.20543289px;line-height:1.25;font-family:Fondamento;-inkscape-font-specification:Fondamento;letter-spacing:1.92758214px;fill:#2b2b2b;fill-opacity:1;stroke:#000000;stroke-width:1.82525611;stroke-miterlimit:4;stroke-dasharray:none;stroke-opacity:0.6497175">ULTRA BLUE</tspan></textPath></text>
    <path
       style="fill:none;fill-rule:evenodd;stroke:none;stroke-width:0.99999994px;stroke-linecap:butt;stroke-linejoin:miter;stroke-opacity:1"
       d="m 2129.5742,360.55409 c 17.4239,7.98277 85.4105,28.19628 158.9077,22.4943"
       id="path1918"
       inkscape:connector-curvature="0"
       sodipodi:nodetypes="cc" />
    <path
       style="opacity:0.88999999;vector-effect:none;fill:url(#linearGradient2068);fill-opacity:1;fill-rule:evenodd;stroke:url(#linearGradient2066);stroke-width:1px;stroke-linecap:butt;stroke-linejoin:miter;stroke-miterlimit:4;stroke-dasharray:none;stroke-dashoffset:0;stroke-opacity:1;filter:url(#filter864)"
       d="m 2303.4737,406.95733 c 5.9987,-16.12132 23.9946,-60.36121 25.1193,-61.86087 1.1247,-1.49966 22.8698,26.244 24.7444,28.86841 1.8745,2.6244 4.4989,4.87388 -1.8746,9.37285 -6.3736,4.49898 -20.2454,47.98904 -20.6203,51.36327 -0.3749,3.37423 -17.621,7.12337 -18.3708,1.49966 -0.7498,-5.62372 -8.998,-29.24332 -8.998,-29.24332 z"
       id="path2003"
       inkscape:connector-curvature="0" />
    <text
       id="text4178-6-5-9-0-7-0-4-0-8"
       style="font-style:normal;font-variant:normal;font-weight:normal;font-stretch:normal;line-height:0%;font-family:Lavi;-inkscape-font-specification:Lavi;text-align:center;letter-spacing:0px;word-spacing:0px;text-anchor:middle;opacity:0.63300003;fill:#2b2b2b;fill-opacity:1;stroke:#000000;stroke-width:1.58831847;stroke-miterlimit:4;stroke-dasharray:none;stroke-opacity:0.6497175;filter:url(#filter1483)"
       xml:space="preserve"
       y="3129.8394"
       x="1318.7137"
       transform="matrix(0.26745914,0.49019662,-0.42771351,1.1085401,3304.7158,-3702.1843)"><tspan
         y="3129.8394"
         x="1320.3191"
         style="font-style:normal;font-variant:normal;font-weight:normal;font-stretch:normal;font-size:41.98497391px;line-height:1.25;font-family:Fondamento;-inkscape-font-specification:Fondamento;letter-spacing:3.2107954px;fill:#2b2b2b;fill-opacity:1;stroke:#000000;stroke-width:1.58831847;stroke-miterlimit:4;stroke-dasharray:none;stroke-opacity:0.6497175"
         sodipodi:role="line"
         id="tspan4293-1-6-3-5-0-2-3-7">PIN</tspan></text>
    <text
       id="text4178-6-5-9-0-7-0-4-0-8-2"
       style="font-style:normal;font-variant:normal;font-weight:normal;font-stretch:normal;line-height:0%;font-family:Lavi;-inkscape-font-specification:Lavi;text-align:center;letter-spacing:0px;word-spacing:0px;text-anchor:middle;display:inline;opacity:0.77600002;fill:#2b2b2b;fill-opacity:1;stroke:#000000;stroke-width:0.87999141;stroke-miterlimit:4;stroke-dasharray:none;stroke-opacity:0.6497175;filter:url(#filter2178)"
       xml:space="preserve"
       y="3129.8394"
       x="1318.7137"
       transform="matrix(-0.00840305,1.0428974,-1.5917178,1.3181824,7174.421,-4615.8496)"><tspan
         y="3129.8394"
         x="1320.3191"
         style="font-style:normal;font-variant:normal;font-weight:normal;font-stretch:normal;font-size:41.98497391px;line-height:1.25;font-family:Fondamento;-inkscape-font-specification:Fondamento;letter-spacing:3.2107954px;fill:#2b2b2b;fill-opacity:1;stroke:#000000;stroke-width:0.87999141;stroke-miterlimit:4;stroke-dasharray:none;stroke-opacity:0.6497175"
         sodipodi:role="line"
         id="tspan4293-1-6-3-5-0-2-3-7-7">MSON</tspan></text>
    <text
       id="text4178-6-5-9-0-7-0-4-0-5"
       style="font-style:normal;font-variant:normal;font-weight:normal;font-stretch:normal;line-height:0%;font-family:Lavi;-inkscape-font-specification:Lavi;text-align:center;letter-spacing:0px;word-spacing:0px;text-anchor:middle;opacity:0.63300003;fill:#2b2b2b;fill-opacity:1;stroke:#000000;stroke-width:2.67102075;stroke-miterlimit:4;stroke-dasharray:none;stroke-opacity:0.6497175;filter:url(#filter1483-1)"
       xml:space="preserve"
       y="3129.8394"
       x="1318.7137"
       transform="matrix(0.38169653,-0.02860781,-0.07588292,0.4745916,392.49297,171.33321)"><tspan
         y="3129.8394"
         x="1320.3191"
         style="font-style:normal;font-variant:normal;font-weight:normal;font-stretch:normal;font-size:41.98497391px;line-height:1.25;font-family:Fondamento;-inkscape-font-specification:Fondamento;letter-spacing:3.2107954px;fill:#2b2b2b;fill-opacity:1;stroke:#000000;stroke-width:2.67102075;stroke-miterlimit:4;stroke-dasharray:none;stroke-opacity:0.6497175"
         sodipodi:role="line"
         id="tspan4293-1-6-3-5-0-2-3-9">NATURE</tspan></text>
    <text
       id="text4178-6-5-9-0-7-0-4-0-5-6"
       style="font-style:normal;font-variant:normal;font-weight:normal;font-stretch:normal;line-height:0%;font-family:Lavi;-inkscape-font-specification:Lavi;text-align:center;letter-spacing:0px;word-spacing:0px;text-anchor:middle;display:inline;opacity:0.67299996;fill:#2b2b2b;fill-opacity:1;stroke:#000000;stroke-width:2.67102075;stroke-miterlimit:4;stroke-dasharray:none;stroke-opacity:0.6497175;filter:url(#filter1483-1-7)"
       xml:space="preserve"
       y="3129.8394"
       x="1318.7137"
       transform="matrix(0.38094171,-0.0266145,-0.05717669,0.47382801,515.52285,152.05072)"><tspan
         y="3129.8394"
         x="1320.3191"
         style="font-style:normal;font-variant:normal;font-weight:normal;font-stretch:normal;font-size:41.98497391px;line-height:1.25;font-family:Fondamento;-inkscape-font-specification:Fondamento;letter-spacing:3.2107954px;fill:#2b2b2b;fill-opacity:1;stroke:#000000;stroke-width:2.67102075;stroke-miterlimit:4;stroke-dasharray:none;stroke-opacity:0.6497175"
         sodipodi:role="line"
         id="tspan4293-1-6-3-5-0-2-3-9-7">YELLOW</tspan></text>
    <text
       id="text4178-6-5-9-0-7-0-4-0-5-6-5"
       style="font-style:normal;font-variant:normal;font-weight:normal;font-stretch:normal;line-height:0%;font-family:Lavi;-inkscape-font-specification:Lavi;text-align:center;letter-spacing:0px;word-spacing:0px;text-anchor:middle;display:inline;opacity:0.68800001;fill:#2b2b2b;fill-opacity:1;stroke:#000000;stroke-width:2.78558087;stroke-miterlimit:4;stroke-dasharray:none;stroke-opacity:0.6497175;filter:url(#filter1483-1-7-3)"
       xml:space="preserve"
       y="3129.8394"
       x="1318.7137"
       transform="matrix(0.3590063,-0.01666038,-0.05388434,0.46087809,708.92377,150.55287)"><tspan
         y="3129.8394"
         x="1320.3191"
         style="font-style:normal;font-variant:normal;font-weight:normal;font-stretch:normal;font-size:41.98497391px;line-height:1.25;font-family:Fondamento;-inkscape-font-specification:Fondamento;letter-spacing:3.2107954px;fill:#2b2b2b;fill-opacity:1;stroke:#000000;stroke-width:2.78558087;stroke-miterlimit:4;stroke-dasharray:none;stroke-opacity:0.6497175"
         sodipodi:role="line"
         id="tspan4293-1-6-3-5-0-2-3-9-7-6">ORANGE TOP</tspan></text>
    <text
       id="text4178-6-5-9-0-7-0-4-0-5-6-5-4"
       style="font-style:normal;font-variant:normal;font-weight:normal;font-stretch:normal;line-height:0%;font-family:Lavi;-inkscape-font-specification:Lavi;text-align:center;letter-spacing:0px;word-spacing:0px;text-anchor:middle;display:inline;opacity:0.67600002;fill:#2b2b2b;fill-opacity:1;stroke:#000000;stroke-width:2.72306108;stroke-miterlimit:4;stroke-dasharray:none;stroke-opacity:0.6497175;filter:url(#filter1483-1-7-3-3)"
       xml:space="preserve"
       y="3129.8394"
       x="1318.7137"
       transform="matrix(0.36892784,0.02480824,0.05924071,0.47075114,576.90117,51.235747)"><tspan
         y="3129.8394"
         x="1320.3191"
         style="font-style:normal;font-variant:normal;font-weight:normal;font-stretch:normal;font-size:41.98497391px;line-height:1.25;font-family:Fondamento;-inkscape-font-specification:Fondamento;letter-spacing:3.2107954px;fill:#2b2b2b;fill-opacity:1;stroke:#000000;stroke-width:2.72306108;stroke-miterlimit:4;stroke-dasharray:none;stroke-opacity:0.6497175"
         sodipodi:role="line"
         id="tspan4293-1-6-3-5-0-2-3-9-7-6-8">FIRE DANCE</tspan></text>
    <text
       id="text4178-6-5-9-0-7-0-4-0-5-6-5-4-9"
       style="font-style:normal;font-variant:normal;font-weight:normal;font-stretch:normal;line-height:0%;font-family:Lavi;-inkscape-font-specification:Lavi;text-align:center;letter-spacing:0px;word-spacing:0px;text-anchor:middle;display:inline;opacity:0.728;fill:#2b2b2b;fill-opacity:1;stroke:#000000;stroke-width:2.83614039;stroke-miterlimit:4;stroke-dasharray:none;stroke-opacity:0.6497175;filter:url(#filter1483-1-7-3-3-1)"
       xml:space="preserve"
       y="3129.8394"
       x="1318.7137"
       transform="matrix(0.31272126,0.04788221,0.031387,0.51243199,940.98033,-75.602433)"><tspan
         y="3129.8394"
         x="1320.3191"
         style="font-style:normal;font-variant:normal;font-weight:normal;font-stretch:normal;font-size:41.98497391px;line-height:1.25;font-family:Fondamento;-inkscape-font-specification:Fondamento;letter-spacing:3.2107954px;fill:#2b2b2b;fill-opacity:1;stroke:#000000;stroke-width:2.83614039;stroke-miterlimit:4;stroke-dasharray:none;stroke-opacity:0.6497175"
         sodipodi:role="line"
         id="tspan4293-1-6-3-5-0-2-3-9-7-6-8-3">DEEP OCEAN</tspan></text>
    <text
       id="text4178-6-5-9-0-7-0-4-0-5-6-5-4-9-8"
       style="font-style:normal;font-variant:normal;font-weight:normal;font-stretch:normal;line-height:0%;font-family:Lavi;-inkscape-font-specification:Lavi;text-align:center;letter-spacing:0px;word-spacing:0px;text-anchor:middle;display:inline;opacity:0.80899999;fill:#2b2b2b;fill-opacity:1;stroke:#000000;stroke-width:2.73916173;stroke-miterlimit:4;stroke-dasharray:none;stroke-opacity:0.6497175;filter:url(#filter1483-1-7-3-3-1-9)"
       xml:space="preserve"
       y="3129.8394"
       x="1318.7137"
       transform="matrix(0.34502779,0.06805058,0.0246526,0.49811269,1085.9998,-29.820448)"><tspan
         y="3129.8394"
         x="1320.3191"
         style="font-style:normal;font-variant:normal;font-weight:normal;font-stretch:normal;font-size:41.98497391px;line-height:1.25;font-family:Fondamento;-inkscape-font-specification:Fondamento;letter-spacing:3.2107954px;fill:#2b2b2b;fill-opacity:1;stroke:#000000;stroke-width:2.73916173;stroke-miterlimit:4;stroke-dasharray:none;stroke-opacity:0.6497175"
         sodipodi:role="line"
         id="tspan4293-1-6-3-5-0-2-3-9-7-6-8-3-8">VIOLE(N)T</tspan></text>
    <text
       id="text4178-6-5-9-0-7-0-4-0-5-6-5-4-9-8-9"
       style="font-style:normal;font-variant:normal;font-weight:normal;font-stretch:normal;line-height:0%;font-family:Lavi;-inkscape-font-specification:Lavi;text-align:center;letter-spacing:0px;word-spacing:0px;text-anchor:middle;display:inline;opacity:0.63300003;fill:#2b2b2b;fill-opacity:1;stroke:#000000;stroke-width:2.54071784;stroke-miterlimit:4;stroke-dasharray:none;stroke-opacity:0.6497175;filter:url(#filter1483-1-7-3-3-1-9-5)"
       xml:space="preserve"
       y="3129.8394"
       x="1318.7137"
       transform="matrix(0.36239879,-0.11498906,-0.00129771,0.54624157,1368.689,50.976183)"><tspan
         y="3129.8394"
         x="1320.3191"
         style="font-style:normal;font-variant:normal;font-weight:normal;font-stretch:normal;font-size:41.98497391px;line-height:1.25;font-family:Fondamento;-inkscape-font-specification:Fondamento;letter-spacing:3.2107954px;fill:#2b2b2b;fill-opacity:1;stroke:#000000;stroke-width:2.54071784;stroke-miterlimit:4;stroke-dasharray:none;stroke-opacity:0.6497175"
         sodipodi:role="line"
         id="tspan4293-1-6-3-5-0-2-3-9-7-6-8-3-8-6">ULTRA BLUE</tspan></text>
    <text
       id="text4178-6-5-9-0-7-0-4-0-5-6-5-4-9-8-9-5"
       style="font-style:normal;font-variant:normal;font-weight:normal;font-stretch:normal;line-height:0%;font-family:Lavi;-inkscape-font-specification:Lavi;text-align:center;letter-spacing:0px;word-spacing:0px;text-anchor:middle;display:inline;opacity:0.55899999;fill:#2b2b2b;fill-opacity:1;stroke:#000000;stroke-width:2.88642168;stroke-miterlimit:4;stroke-dasharray:none;stroke-opacity:0.6497175;filter:url(#filter1483-1-7-3-3-1-9-5-3)"
       xml:space="preserve"
       y="3129.8394"
       x="1318.7137"
       transform="matrix(0.25827907,-0.20585885,0.19526002,0.43777064,1079.4907,438.58483)"><tspan
         y="3129.8394"
         x="1320.3191"
         style="font-style:normal;font-variant:normal;font-weight:normal;font-stretch:normal;font-size:41.98497391px;line-height:1.25;font-family:Fondamento;-inkscape-font-specification:Fondamento;letter-spacing:3.2107954px;fill:#2b2b2b;fill-opacity:1;stroke:#000000;stroke-width:2.88642168;stroke-miterlimit:4;stroke-dasharray:none;stroke-opacity:0.6497175"
         sodipodi:role="line"
         id="tspan4293-1-6-3-5-0-2-3-9-7-6-8-3-8-6-6">META PINK</tspan></text>
    <text
       id="text4178-6-5-9-0-7-0-4-0-5-6-5-4-9-8-9-5-5"
       style="font-style:normal;font-variant:normal;font-weight:normal;font-stretch:normal;line-height:0%;font-family:Lavi;-inkscape-font-specification:Lavi;text-align:center;letter-spacing:0px;word-spacing:0px;text-anchor:middle;display:inline;opacity:0.721;fill:#2b2b2b;fill-opacity:1;stroke:#000000;stroke-width:2.35419106;stroke-miterlimit:4;stroke-dasharray:none;stroke-opacity:0.6497175;filter:url(#filter1483-1-7-3-3-1-9-5-3-1);"
       xml:space="preserve"
       y="3129.8394"
       x="1318.7137"
       transform="matrix(0.28641096,-0.29551723,0.05280189,0.74994113,1590.9891,-568.66446)"><tspan
         y="3129.8394"
         x="1320.3191"
         style="font-style:normal;font-variant:normal;font-weight:normal;font-stretch:normal;font-size:41.98497391px;line-height:1.25;font-family:Fondamento;-inkscape-font-specification:Fondamento;letter-spacing:3.2107954px;fill:#2b2b2b;fill-opacity:1;stroke:#000000;stroke-width:2.35419106;stroke-miterlimit:4;stroke-dasharray:none;stroke-opacity:0.6497175;"
         sodipodi:role="line"
         id="tspan4293-1-6-3-5-0-2-3-9-7-6-8-3-8-6-6-9">MAGENTA X</tspan></text>
    <text
       id="text4178-6-5-9-0-7-0-4-0-5-6-5-4-9-8-9-5-5-8"
       style="font-style:normal;font-variant:normal;font-weight:normal;font-stretch:normal;line-height:0%;font-family:Lavi;-inkscape-font-specification:Lavi;text-align:center;letter-spacing:0px;word-spacing:0px;text-anchor:middle;display:inline;opacity:0.816;fill:#2b2b2b;fill-opacity:1;stroke:#000000;stroke-width:2.11191845;stroke-miterlimit:4;stroke-dasharray:none;stroke-opacity:0.6497175;filter:url(#filter1483-1-7-3-3-1-9-5-3-1-8);"
       xml:space="preserve"
       y="3129.8394"
       x="1318.7137"
       transform="matrix(0.2819084,-0.33341141,0.2050152,0.773064,1207.3912,-699.82546)"><tspan
         y="3129.8394"
         x="1320.3191"
         style="font-style:normal;font-variant:normal;font-weight:normal;font-stretch:normal;font-size:41.98497391px;line-height:1.25;font-family:Fondamento;-inkscape-font-specification:Fondamento;letter-spacing:3.2107954px;fill:#2b2b2b;fill-opacity:1;stroke:#000000;stroke-width:2.11191845;stroke-miterlimit:4;stroke-dasharray:none;stroke-opacity:0.6497175;"
         sodipodi:role="line"
         id="tspan4293-1-6-3-5-0-2-3-9-7-6-8-3-8-6-6-9-1">CRIMSON</tspan></text>
    <path
       style="opacity:1;vector-effect:none;fill:url(#linearGradient3051);fill-opacity:1;fill-rule:evenodd;stroke:url(#linearGradient3049);stroke-width:1px;stroke-linecap:butt;stroke-linejoin:miter;stroke-miterlimit:4;stroke-dasharray:none;stroke-dashoffset:0;stroke-opacity:1;filter:url(#filter864)"
       d="m 1302.3466,1544.2331 11.729,32.457 h 9.747 l -4.1241,-10.8725 -11.6223,-19.1207 -4.1241,-4.8738 z"
       id="path2896"
       inkscape:connector-curvature="0"
       sodipodi:nodetypes="ccccccc" />
  </g>
</svg>
