<?xml version="1.0" encoding="UTF-8" standalone="no"?>
<svg
   xmlns:dc="http://purl.org/dc/elements/1.1/"
   xmlns:cc="http://creativecommons.org/ns#"
   xmlns:rdf="http://www.w3.org/1999/02/22-rdf-syntax-ns#"
   xmlns:svg="http://www.w3.org/2000/svg"
   xmlns="http://www.w3.org/2000/svg"
   xmlns:xlink="http://www.w3.org/1999/xlink"
   xmlns:sodipodi="http://sodipodi.sourceforge.net/DTD/sodipodi-0.dtd"
   xmlns:inkscape="http://www.inkscape.org/namespaces/inkscape"
   sodipodi:docname="E35P01.svg"
   height="3503"
   width="2481"
   inkscape:version="1.0 (4035a4fb49, 2020-05-01)"
   version="1.1"
   id="svg2">
  <metadata
     id="metadata8">
    <rdf:RDF>
      <cc:Work
         rdf:about="">
        <dc:format>image/svg+xml</dc:format>
        <dc:type
           rdf:resource="http://purl.org/dc/dcmitype/StillImage" />
        <dc:title />
      </cc:Work>
    </rdf:RDF>
  </metadata>
  <defs
     id="defs6" />
  <sodipodi:namedview
     inkscape:pagecheckerboard="0"
     inkscape:document-rotation="0"
     inkscape:current-layer="layer1"
     inkscape:window-maximized="1"
     inkscape:window-y="-8"
     inkscape:window-x="1912"
     inkscape:cy="2906.1548"
     inkscape:cx="1806.0519"
     inkscape:zoom="0.60491494"
     showgrid="false"
     id="namedview4"
     inkscape:window-height="1057"
     inkscape:window-width="1920"
     inkscape:pageshadow="2"
     inkscape:pageopacity="0"
     guidetolerance="10"
     gridtolerance="10"
     objecttolerance="10"
     borderopacity="1"
     bordercolor="#666666"
     pagecolor="#ffffff" />
  <g
     sodipodi:insensitive="true"
     inkscape:label="artwork"
     id="layer2"
     inkscape:groupmode="layer">
    <image
       sodipodi:absref="C:\Users\nicol\Documents\Git\Pepper_et_Carrot\webcomics\new-ep35_The-Reflection\lang\gfx_Pepper-and-Carrot_by-David-Revoy_E35P01.png"
       xlink:href="../gfx_Pepper-and-Carrot_by-David-Revoy_E35P01.png"
       y="0"
       x="0"
       id="image10"
       height="3503"
       width="2481" />
  </g>
  <g
     inkscape:label="speechbubbles"
     id="layer3"
     inkscape:groupmode="layer">
    <path
       sodipodi:nodetypes="cccscsc"
       inkscape:connector-curvature="0"
       id="path3970-3"
       d="m 897.55941,2690.8716 c -61.34839,0.5082 -152.41391,-8.9399 -173.35935,-42.1866 -20.94535,-33.2467 -22.91981,-88.0062 10.45228,-110.9286 33.372,-22.9224 93.72937,-34.8201 147.05571,-33.7844 53.32625,1.0364 124.67945,17.56 144.38375,48.7678 19.7043,31.2071 11.992,102.7842 -54.38386,123.3102 -66.3761,20.526 -74.14853,14.8216 -74.14853,14.8216 z"
       style="color:#000000;display:inline;overflow:visible;visibility:visible;fill:#ffffff;fill-opacity:1;fill-rule:nonzero;stroke:none;stroke-width:0.702616px;marker:none;enable-background:accumulate" />
    <path
       sodipodi:nodetypes="cccscsc"
       inkscape:connector-curvature="0"
       id="path3970-3-3"
       d="m 959.90008,2831.7636 c -71.47584,0.5547 -177.57452,-9.7593 -201.97765,-46.0527 -24.40302,-36.2934 -26.70344,-96.0711 12.17775,-121.0941 38.88107,-25.0232 109.20228,-38.0111 171.33174,-36.8806 62.12948,1.1314 145.26168,19.1693 168.21878,53.237 22.9571,34.067 13.9717,112.2034 -63.3617,134.6105 -77.33344,22.407 -86.38892,16.1799 -86.38892,16.1799 z"
       style="color:#000000;display:inline;overflow:visible;visibility:visible;fill:#ffffff;fill-opacity:1;fill-rule:nonzero;stroke:none;stroke-width:0.792384px;marker:none;enable-background:accumulate" />
    <path
       sodipodi:nodetypes="cscscsccc"
       inkscape:connector-curvature="0"
       id="path1085"
       d="m 1082.5035,2791.6336 c 16.785,-19.6056 38.6627,-36.0206 49.0019,-34.6196 10.3392,1.401 38.8276,20.2647 44.0486,-5.9091 5.221,-26.1736 -0.464,-38.1966 10.459,-36.0914 10.9231,2.1053 27.5797,11.864 30.0863,25.9568 -8.4109,-33.022 -32.6982,-39.4387 -40.8556,-33.0423 -8.1574,6.3964 -12.4748,9.1065 -15.8247,34.4602 -6.2288,19.6797 -15.2021,-31.4488 -75.7503,-2.4836 -29.6051,28.4958 -1.1652,51.729 -1.1652,51.729 z"
       style="fill:#ffffff;fill-rule:evenodd;stroke:none;stroke-width:1.06225px;stroke-linecap:butt;stroke-linejoin:miter;stroke-opacity:1" />
    <path
       sodipodi:nodetypes="cssssc"
       inkscape:connector-curvature="0"
       id="path4546-1"
       d="m 1633.2031,2579.3745 c -4.4274,-85.7111 -19.0988,-94.4775 148.1194,-99.0941 90.3624,-2.4948 244.6841,3.4642 234.1375,129.0748 -10.5468,125.6094 -156.8828,115.265 -187.2045,116.7429 -30.322,1.478 -206.5272,-11.9281 -191.8579,-56.1019 9.1827,-27.6519 -2.4566,-64.0224 -3.1945,-90.6217 z"
       style="color:#000000;display:inline;overflow:visible;visibility:visible;fill:#ffffff;fill-opacity:1;fill-rule:nonzero;stroke:none;stroke-width:1.05555px;marker:none;enable-background:accumulate" />
    <path
       sodipodi:nodetypes="cssssc"
       inkscape:connector-curvature="0"
       id="path3280-81"
       d="m 1900.6372,3306.7841 c -3.1967,-104.602 34.4697,-183.4639 220.3963,-175.6736 185.9266,7.7904 280.2595,-2.5287 282.9398,141.4399 0.9573,51.4187 11.7025,112.4549 -16.9742,134.7929 -47.2458,36.8027 -154.4796,15.8228 -241.624,22.6773 -144.3643,11.3552 -235.3045,-27.0051 -244.7379,-123.2365 z"
       style="fill:#ffffff;stroke:none;stroke-width:1.75731" />
    <path
       sodipodi:nodetypes="ccsc"
       inkscape:connector-curvature="0"
       id="path5010-4"
       d="m 1845.2728,2690.1037 c -17.7418,51.5577 -0.5352,96.2189 44.4232,120.3111 -75.8904,-27.089 -92.8027,-105.8188 -83.4584,-127.2019 9.1494,-20.9367 39.0352,6.8908 39.0352,6.8908 z"
       style="color:#000000;display:inline;overflow:visible;visibility:visible;fill:#ffffff;fill-opacity:1;fill-rule:nonzero;stroke:none;stroke-width:1.06477px;marker:none;enable-background:accumulate" />
    <path
       inkscape:connector-curvature="0"
       id="path3072-56"
       d="m 2181.6979,3039.5111 c 15.5881,37.565 19.0292,51.8083 -13.2212,86.5196 -32.2502,34.7102 -19.1075,46.3288 -19.1075,46.3288 l 31.133,-8.0771 c 0,0 63.6316,-78.7837 1.1957,-124.7713 z"
       style="color:#000000;display:inline;overflow:visible;visibility:visible;fill:#ffffff;fill-opacity:1;fill-rule:nonzero;stroke:none;stroke-width:1px;marker:none;enable-background:accumulate" />
  </g>
  <g
     inkscape:label="txt"
     id="layer1"
     inkscape:groupmode="layer">
    <text
       id="text4246-3-2-2"
       y="2581.1858"
       x="868.48053"
       style="font-style:normal;font-variant:normal;font-weight:normal;font-stretch:normal;font-size:45px;line-height:1.25;font-family:Lavi;-inkscape-font-specification:Lavi;text-align:center;letter-spacing:0px;word-spacing:0px;text-anchor:middle;fill:#000000;fill-opacity:1;stroke:none"
       xml:space="preserve"><tspan
         id="tspan873"
         y="2581.1858"
         x="868.48053"
         sodipodi:role="line"
         style="font-size:45px">Oh, tu es </tspan><tspan
         id="tspan858"
         y="2637.4358"
         x="868.48053"
         sodipodi:role="line"
         style="font-size:45px">réveillé !</tspan></text>
    <text
       id="text4246-3-2-2-3"
       y="2721.5044"
       x="933.43304"
       style="font-style:normal;font-variant:normal;font-weight:normal;font-stretch:normal;font-size:45px;line-height:1.25;font-family:Lavi;-inkscape-font-specification:Lavi;text-align:center;letter-spacing:0px;word-spacing:0px;text-anchor:middle;fill:#000000;fill-opacity:1;stroke:none"
       xml:space="preserve"><tspan
         id="tspan857"
         y="2721.5044"
         x="933.43304"
         sodipodi:role="line"
         style="font-size:45px">Ça va ? Pas </tspan><tspan
         id="tspan862"
         y="2777.7544"
         x="933.43304"
         sodipodi:role="line"
         style="font-size:45px">trop froid ?</tspan></text>
    <text
       id="text4246-3-2-2-3-3"
       y="2562.1472"
       x="1829.0115"
       style="font-style:normal;font-variant:normal;font-weight:normal;font-stretch:normal;font-size:45px;line-height:1.25;font-family:Lavi;-inkscape-font-specification:Lavi;text-align:center;letter-spacing:0px;word-spacing:0px;text-anchor:middle;fill:#000000;fill-opacity:1;stroke:none"
       xml:space="preserve"><tspan
         id="tspan870"
         y="2562.1472"
         x="1829.0115"
         sodipodi:role="line"
         style="font-size:45px">Désolée, je </tspan><tspan
         id="tspan871"
         y="2618.3972"
         x="1829.0115"
         sodipodi:role="line"
         style="font-size:45px">n'aurai bientôt </tspan><tspan
         id="tspan878"
         y="2674.6472"
         x="1829.0115"
         sodipodi:role="line"
         style="font-size:45px">plus de Réa,</tspan></text>
    <text
       id="text4246-3-2-2-3-3-9"
       y="3206.6389"
       x="2149.9226"
       style="font-style:normal;font-variant:normal;font-weight:normal;font-stretch:normal;font-size:45px;line-height:1.25;font-family:Lavi;-inkscape-font-specification:Lavi;text-align:center;letter-spacing:0px;word-spacing:0px;text-anchor:middle;fill:#000000;fill-opacity:1;stroke:none"
       xml:space="preserve"><tspan
         id="tspan905"
         y="3206.6389"
         x="2149.9226"
         sodipodi:role="line"
         style="font-size:45px"> et mon aura est </tspan><tspan
         id="tspan889"
         y="3262.8889"
         x="2149.9226"
         sodipodi:role="line"
         style="font-size:45px">trop faible pour nous </tspan><tspan
         id="tspan891"
         y="3319.1389"
         x="2149.9226"
         sodipodi:role="line"
         style="font-size:45px">protéger du froid </tspan><tspan
         id="tspan893"
         y="3375.3889"
         x="2149.9226"
         sodipodi:role="line"
         style="font-size:45px">à cette altitude.</tspan></text>
  </g>
</svg>
