<?xml version="1.0" encoding="UTF-8" standalone="no"?>
<svg
   xmlns:dc="http://purl.org/dc/elements/1.1/"
   xmlns:cc="http://creativecommons.org/ns#"
   xmlns:rdf="http://www.w3.org/1999/02/22-rdf-syntax-ns#"
   xmlns:svg="http://www.w3.org/2000/svg"
   xmlns="http://www.w3.org/2000/svg"
   xmlns:xlink="http://www.w3.org/1999/xlink"
   xmlns:sodipodi="http://sodipodi.sourceforge.net/DTD/sodipodi-0.dtd"
   xmlns:inkscape="http://www.inkscape.org/namespaces/inkscape"
   sodipodi:docname="E34P01.svg"
   height="3503"
   width="2481"
   inkscape:version="0.92.5 (2060ec1f9f, 2020-04-08)"
   version="1.1"
   id="svg2">
  <metadata
     id="metadata8">
    <rdf:RDF>
      <cc:Work
         rdf:about="">
        <dc:format>image/svg+xml</dc:format>
        <dc:type
           rdf:resource="http://purl.org/dc/dcmitype/StillImage" />
        <dc:title />
      </cc:Work>
    </rdf:RDF>
  </metadata>
  <defs
     id="defs6">
    <filter
       inkscape:label="blur-layer-whisper"
       height="1.0251678"
       y="-0.012583922"
       width="1.0076725"
       x="-0.0038362744"
       id="filter7961"
       style="color-interpolation-filters:sRGB"
       inkscape:collect="always">
      <feGaussianBlur
         id="feGaussianBlur7963"
         stdDeviation="2.6222679"
         inkscape:collect="always" />
    </filter>
    <filter
       height="1.5"
       width="1.3"
       id="filter8274"
       inkscape:label="narrator-drop-shadow"
       style="color-interpolation-filters:sRGB;">
      <feFlood
         id="feFlood8264"
         result="flood"
         flood-color="rgb(0,21,64)"
         flood-opacity="0.603922" />
      <feComposite
         id="feComposite8266"
         result="composite1"
         operator="in"
         in2="SourceGraphic"
         in="flood" />
      <feGaussianBlur
         id="feGaussianBlur8268"
         result="blur"
         stdDeviation="2.0230825044646368"
         in="composite1" />
      <feOffset
         id="feOffset8270"
         result="offset"
         dy="4.8380533854166714"
         dx="-7.4077921838061513" />
      <feComposite
         id="feComposite8272"
         result="fbSourceGraphic"
         operator="over"
         in2="offset"
         in="SourceGraphic" />
      <feColorMatrix
         id="feColorMatrix8420"
         values="0 0 0 -1 0 0 0 0 -1 0 0 0 0 -1 0 0 0 0 1 0"
         in="fbSourceGraphic"
         result="fbSourceGraphicAlpha" />
      <feFlood
         in="fbSourceGraphic"
         result="flood"
         flood-color="rgb(0,12,37)"
         flood-opacity="0.061934527228860295"
         id="feFlood8422" />
      <feComposite
         result="composite1"
         operator="in"
         in="flood"
         id="feComposite8424"
         in2="fbSourceGraphic" />
      <feGaussianBlur
         result="blur"
         stdDeviation="1"
         in="composite1"
         id="feGaussianBlur8426" />
      <feOffset
         result="offset"
         dy="-2.8318869588504754"
         dx="-3.3194756113327486"
         id="feOffset8428" />
      <feComposite
         result="composite2"
         operator="over"
         in="fbSourceGraphic"
         id="feComposite8430"
         in2="offset" />
    </filter>
  </defs>
  <sodipodi:namedview
     inkscape:snap-global="false"
     borderlayer="true"
     inkscape:document-rotation="0"
     inkscape:current-layer="layer4"
     inkscape:window-maximized="1"
     inkscape:window-y="27"
     inkscape:window-x="0"
     inkscape:cy="1489.303"
     inkscape:cx="1474.9773"
     inkscape:zoom="0.33475458"
     showgrid="false"
     id="namedview4"
     inkscape:window-height="704"
     inkscape:window-width="1366"
     inkscape:pageshadow="2"
     inkscape:pageopacity="0"
     guidetolerance="10"
     gridtolerance="10"
     objecttolerance="10"
     borderopacity="1"
     bordercolor="#666666"
     pagecolor="#ffffff" />
  <g
     sodipodi:insensitive="true"
     inkscape:label="artwork"
     id="layer2"
     inkscape:groupmode="layer">
    <image
       sodipodi:absref="/home/juanjo/Comics/lang-ep-34-final/es/../gfx_Pepper-and-Carrot_by-David-Revoy_E34P01.png"
       xlink:href="../gfx_Pepper-and-Carrot_by-David-Revoy_E34P01.png"
       y="0"
       x="0"
       id="image10"
       height="3503.7233"
       width="2481" />
  </g>
  <g
     style="display:inline;opacity:0.65;filter:url(#filter7961)"
     inkscape:label="speechbubbles-whisper"
     id="layer3"
     inkscape:groupmode="layer">
    <path
       d="m 1482.4202,2618.997 c -42.1989,0.388 -83.5147,10.4664 -124.913,17.982 -21.5953,3.4099 -43.9143,5.7666 -63.774,16.1238 -29.0865,15.6028 -48.8464,47.63 -53.2496,81.5708 -3.014,22.9668 1.9235,47.3091 14.9064,66.1429 14.4043,21.8957 36.5906,37.0691 60.4029,45.0003 28.3885,10.1477 58.2591,13.9911 87.682,19.2058 50.6514,7.4441 101.9274,4.4605 152.8093,2.0407 34.0743,-1.9558 68.2108,-3.4788 102.1242,-7.6647 20.7108,-2.7429 41.5095,-6.5865 61.0361,-14.6409 22.0254,-9.4681 41.4868,-25.9336 54.495,-47.0812 7.6532,-13.242 11.1092,-29.0338 10.138,-44.502 -0.2354,-20.8519 -4.4047,-41.8953 -13.58,-60.4324 -11.7838,-21.9017 -32.0763,-37.6451 -54.2864,-45.928 -31.1548,-12.3483 -64.4677,-16.6765 -97.4619,-19.0713 -35.4747,-2.8501 -70.8997,-6.5956 -106.4546,-8.1702 -9.9527,-0.4179 -19.9139,-0.6222 -29.8744,-0.5756 z"
       style="fill:#e0ffff;fill-rule:evenodd;stroke:none;stroke-width:1.28778863px;stroke-linecap:butt;stroke-linejoin:miter;stroke-opacity:1"
       id="path1299"
       inkscape:connector-curvature="0" />
    <path
       inkscape:connector-curvature="0"
       id="path1285"
       d="m 1276.7968,2543.6003 c -20.6915,0.5614 -41.73,3.069 -60.6242,10.3829 -22.3365,9.1705 -37.822,29.0739 -37.7682,49.7525 0.5025,10.7813 6.7685,20.9717 15.5687,28.7776 6.3224,5.5779 14.2595,9.6867 22.5374,12.9977 16.6664,6.8891 35.3437,10.0871 53.9211,10.2637 29.6008,1.3549 59.5433,-0.339 88.3519,-6.2833 13.5577,-2.9189 27.0559,-7.5763 37.1029,-15.8774 10.2844,-8.1989 17.8224,-19.2783 18.7119,-31.2088 0.273,-10.6958 -5.3471,-20.8515 -12.665,-29.4447 -9.3254,-11.4117 -23.5761,-20.3273 -39.9667,-23.4203 -19.9408,-4.5044 -40.7451,-5.0176 -61.2768,-5.7462 -7.962,-0.1911 -15.9281,-0.2156 -23.893,-0.1937 z"
       style="fill:#e0ffff;fill-rule:evenodd;stroke:none;stroke-width:1.40848291px;stroke-linecap:butt;stroke-linejoin:miter;stroke-opacity:1" />
    <path
       sodipodi:nodetypes="csssc"
       inkscape:connector-curvature="0"
       id="path3280-8-90"
       d="m 260.92328,2518.8184 c -27.72576,1.0438 -55.88755,6.9669 -80.2324,21.7818 -26.05349,16.2599 -44.80047,45.6845 -48.63758,77.8831 -3.96259,27.8989 0.63962,57.736 15.30835,81.4463 12.62293,19.4126 32.2951,32.4234 53.08198,39.4437 25.7959,9.3524 52.95217,13.2324 79.94704,16.0323 33.87219,2.7308 68.50804,0.6483 101.07611,-10.3045 24.02201,-8.9061 46.06859,-25.7872 59.27098,-49.4147 11.95388,-21.2975 15.2469,-47.3626 11.33766,-71.6728 -2.78228,-23.2171 -11.03482,-46.3564 -26.44118,-63.3143 -16.55095,-18.6841 -39.49224,-29.6993 -62.94721,-33.9267 -33.4391,-7.3773 -67.75155,-8.088 -101.76375,-7.9542 z"
       style="vector-effect:none;fill:#e0ffff;fill-opacity:1;stroke:none;stroke-width:1.2915256px;stroke-linecap:butt;stroke-linejoin:miter;stroke-miterlimit:4;stroke-dasharray:none;stroke-dashoffset:0;stroke-opacity:1" />
    <path
       sodipodi:nodetypes="csccccc"
       inkscape:connector-curvature="0"
       id="path1291"
       d="m 405.61348,2631.9631 c 42.85265,-5.0607 58.06957,-2.3086 68.49973,0.7202 10.42915,3.0295 34.5561,33.0962 43.85358,53.3011 -34.06156,-36.1486 -48.52756,-39.3772 -65.05064,-34.4498 -16.52311,4.9273 -63.29994,23.4366 -63.29994,23.4366 l 11.09296,-45.4041 z"
       style="fill:#e0ffff;fill-opacity:1;fill-rule:evenodd;stroke:none;stroke-width:1.28082px;stroke-linecap:butt;stroke-linejoin:miter;stroke-opacity:1" />
    <path
       sodipodi:nodetypes="cccc"
       inkscape:connector-curvature="0"
       id="path1291-6"
       d="m 1434.2038,2989.2388 c 48.3667,-37.0134 81.9085,-79.2404 77.928,-171.8638 l 30.8393,-3.1198 c -4.7727,67.6875 -17.9327,144.5385 -108.7673,174.9836 z"
       style="fill:#e0ffff;fill-rule:evenodd;stroke:none;stroke-width:0.964753px;stroke-linecap:butt;stroke-linejoin:miter;stroke-opacity:1" />
  </g>
  <g
     style="display:inline"
     inkscape:label="speechbubbles"
     id="layer4"
     inkscape:groupmode="layer">
    <path
       d="M 462.24414 1878.5547 C 400.71151 1879.4379 339.09811 1878.1191 277.64841 1882.0773 C 239.09386 1886.2479 200.83406 1898.4417 168.99385 1920.9783 C 153.36598 1932.0265 139.75615 1947.4017 134.86978 1966.28 C 128.75723 1988.5558 131.2047 2011.8933 133.1019 2034.5709 C 135.24129 2057.8556 138.91033 2081.6706 150.13552 2102.5102 C 162.11027 2124.778 182.86105 2142.0171 206.79484 2150.0718 C 232.14903 2159.4835 259.3303 2162.0285 286.10258 2164.027 C 338.79726 2167.2614 391.6314 2167.209 444.39688 2166.2754 C 471.09616 2165.7203 497.79886 2165.0746 524.47722 2163.8752 C 558.89106 2161.9405 593.59504 2156.5374 625.45396 2142.8653 C 642.73314 2135.7007 660.13885 2126.9658 672.56641 2112.5801 C 684.99331 2097.7896 691.3978 2078.9886 694.85858 2060.2309 C 701.67149 2028.4763 704.62318 1995.264 698.03244 1963.2112 C 692.22235 1935.3381 671.61263 1910.9135 644.81885 1901.059 C 619.87514 1891.1273 592.94365 1888.3178 566.53796 1884.8385 C 531.94554 1880.6275 497.09787 1878.373 462.24414 1878.5547 z "
       style="color:#000000;display:inline;overflow:visible;visibility:visible;fill:#ffffff;fill-opacity:1;fill-rule:nonzero;stroke:none;stroke-width:0.899894px;marker:none;enable-background:accumulate"
       id="path4040-4-1" />
    <path
       sodipodi:nodetypes="ccscc"
       inkscape:connector-curvature="0"
       id="path4440-1"
       d="m 539.19946,1927.3519 c 7.55014,-44.8382 62.74837,-99.1824 137.61984,-61.3131 -80.77928,-16.5552 -107.19343,39.0539 -106.74645,81.3775 0.39562,37.4602 -16.36437,17.1598 -16.36437,17.1598 z"
       style="color:#000000;display:inline;overflow:visible;visibility:visible;fill:#ffffff;fill-opacity:1;fill-rule:nonzero;stroke:none;stroke-width:1.80075px;marker:none;enable-background:accumulate" />
    <path
       sodipodi:nodetypes="zssssz"
       inkscape:connector-curvature="0"
       id="path4040-2"
       d="M 1820.8262 2838.6191 C 1792.0885 2839.5433 1763.4847 2847.4425 1738.6094 2861.9277 C 1720.0781 2875.1933 1712.6983 2901.4762 1721.0624 2922.5801 C 1725.5383 2934.3483 1734.6722 2944.2163 1746.1269 2949.4719 C 1759.279 2956.0329 1773.7407 2959.2487 1787.9538 2962.6123 C 1820.4162 2969.3146 1853.8996 2970.3439 1886.8525 2967.3229 C 1898.3278 2965.8234 1909.1359 2960.4592 1917.5405 2952.5433 C 1929.65 2941.7367 1938.8332 2927.2186 1941.9562 2911.1872 C 1944.4142 2895.8033 1938.789 2879.089 1926.5923 2869.1525 C 1913.7928 2857.8363 1897.0702 2852.7409 1880.958 2848.1729 C 1861.419 2842.591 1841.2438 2838.3276 1820.8262 2838.6191 z "
       style="color:#000000;display:inline;overflow:visible;visibility:visible;fill:#ffffff;fill-opacity:1;fill-rule:nonzero;stroke:none;stroke-width:0.774122px;marker:none;enable-background:accumulate" />
    <path
       sodipodi:nodetypes="ccsc"
       inkscape:connector-curvature="0"
       id="path5010-4"
       d="m 1970.7532,2998.2521 c 42.5246,54.5422 86.7334,47.5024 118.7066,15.8691 -23.32,34.399 -69.359,69.3478 -144.2603,0.1036 -14.3413,-13.258 25.5537,-15.9727 25.5537,-15.9727 z"
       style="color:#000000;display:inline;overflow:visible;visibility:visible;fill:#ffffff;fill-opacity:1;fill-rule:nonzero;stroke:none;stroke-width:0.811733px;marker:none;enable-background:accumulate" />
    <path
       sodipodi:nodetypes="zssssz"
       inkscape:connector-curvature="0"
       id="path4040-2-5"
       d="m 1873.9727,2930.504 c -24.5042,0.6498 -49.2846,4.5416 -70.2476,13.1523 -19.5541,8.0856 -33.3893,21.5209 -39.2388,36.1375 -3.9879,10.2597 -4.3082,21.359 0.8946,31.4588 7.2676,13.5145 23.888,24.3748 43.5003,30.2912 16.5104,4.8652 34.5612,6.711 52.3252,8.4056 25.5882,2.0844 51.5058,2.119 77.1843,0.774 21.6727,-1.4697 43.3954,-6.483 59.6843,-16.2722 12.444,-7.3769 22.5868,-17.1254 25.0808,-28.2162 1.9176,-8.9932 0.061,-18.1751 -3.4418,-26.8994 -5.2768,-12.3333 -16.4273,-23.7841 -32.5926,-31.0924 -21.3612,-10.0826 -47.4799,-14.6561 -73.2661,-16.645 -13.2325,-0.9706 -26.575,-1.3045 -39.8826,-1.0942 z"
       style="color:#000000;display:inline;overflow:visible;visibility:visible;fill:#ffffff;fill-opacity:1;fill-rule:nonzero;stroke:none;stroke-width:0.70354575px;marker:none;enable-background:accumulate" />
    <rect
       y="127.99652"
       x="128.97966"
       height="86.261734"
       width="417.40149"
       id="rect8238"
       style="color:#000000;overflow:visible;fill:#eeffdb;fill-opacity:0.89322001;stroke:#807e00;stroke-width:8.05223;paint-order:stroke fill markers;stop-color:#000000;filter:url(#filter8274);stroke-opacity:1" />
  </g>
  <g
     inkscape:label="txt"
     id="layer1"
     inkscape:groupmode="layer">
    <text
       id="text4246-3-2-2-35"
       y="186.49605"
       x="337.29865"
       style="font-style:normal;font-variant:normal;font-weight:normal;font-stretch:normal;font-size:45px;line-height:1.25;font-family:Lavi;-inkscape-font-specification:Lavi;text-align:center;letter-spacing:0px;word-spacing:0px;text-anchor:middle;fill:#000000;fill-opacity:1;stroke:none"
       xml:space="preserve"><tspan
         id="tspan905-2"
         y="186.49605"
         x="337.29865"
         sodipodi:role="line"
         style="font-size:45px">Esa misma noche...</tspan></text>
    <text
       id="text4246-3-2-2"
       y="1958.8977"
       x="411.95737"
       style="font-style:normal;font-variant:normal;font-weight:normal;font-stretch:normal;font-size:45px;line-height:1.25;font-family:Lavi;-inkscape-font-specification:Lavi;text-align:center;letter-spacing:0px;word-spacing:0px;text-anchor:middle;fill:#000000;fill-opacity:1;stroke:none"
       xml:space="preserve"><tspan
         id="tspan905"
         y="1958.8977"
         x="418.98862"
         sodipodi:role="line"
         style="font-size:45px"> ...así pues, esta noche </tspan><tspan
         id="tspan76"
         y="2015.1477"
         x="418.98862"
         sodipodi:role="line"
         style="font-size:45px">eres investida, Shichimi, </tspan><tspan
         id="tspan78"
         y="2071.3977"
         x="418.98862"
         sodipodi:role="line"
         style="font-size:45px">como nuestra más joven </tspan><tspan
         id="tspan80"
         y="2127.6477"
         x="411.95737"
         sodipodi:role="line"
         style="font-size:45px">Caballera de Ah.</tspan></text>
    <text
       id="text4246-3-2-2-3"
       y="2592.4832"
       x="291.69833"
       style="font-style:normal;font-variant:normal;font-weight:normal;font-stretch:normal;font-size:45px;line-height:1.25;font-family:Lavi;-inkscape-font-specification:Lavi;text-align:center;letter-spacing:0px;word-spacing:0px;text-anchor:middle;fill:#000000;fill-opacity:1;stroke:none"
       xml:space="preserve"><tspan
         id="tspan97"
         y="2592.4832"
         x="298.72958"
         sodipodi:role="line"
         style="font-size:45px;fill:#000000;fill-opacity:1">¿Aún no se </tspan><tspan
         id="tspan95"
         y="2648.7332"
         x="298.72958"
         sodipodi:role="line"
         style="font-size:45px;fill:#000000;fill-opacity:1">sabe nada de </tspan><tspan
         id="tspan101"
         y="2704.9832"
         x="291.69833"
         sodipodi:role="line"
         style="font-size:45px;fill:#000000;fill-opacity:1">Pepper?</tspan></text>
    <text
       id="text4246-3-2-2-3-5"
       y="2611.8853"
       x="1297.6909"
       style="font-style:normal;font-variant:normal;font-weight:normal;font-stretch:normal;font-size:45px;line-height:1.25;font-family:Lavi;-inkscape-font-specification:Lavi;text-align:center;letter-spacing:0px;word-spacing:0px;text-anchor:middle;white-space:pre;fill:#000000;fill-opacity:1;stroke:none"
       xml:space="preserve"><tspan
         x="1297.6909"
         y="2611.8853"
         id="tspan51"><tspan
           y="2611.8853"
           id="tspan49">Aún no.</tspan></tspan></text>
    <text
       id="text4246-3-2-2-3-5-1"
       y="2703.3201"
       x="1508.0704"
       style="font-style:normal;font-variant:normal;font-weight:normal;font-stretch:normal;font-size:45px;line-height:1.25;font-family:Lavi;-inkscape-font-specification:Lavi;text-align:center;letter-spacing:0px;word-spacing:0px;text-anchor:middle;fill:#000000;fill-opacity:1;stroke:none"
       xml:space="preserve"><tspan
         id="tspan7590"
         y="2703.3201"
         x="1515.1017"
         sodipodi:role="line"
         style="font-size:45px;fill:#000000;fill-opacity:1"> Más le vale darse </tspan><tspan
         id="tspan112"
         y="2759.5701"
         x="1515.1017"
         sodipodi:role="line"
         style="font-size:45px;fill:#000000;fill-opacity:1">prisa o se va a perder </tspan><tspan
         id="tspan114"
         y="2815.8201"
         x="1508.0704"
         sodipodi:role="line"
         style="font-size:45px;fill:#000000;fill-opacity:1">el discurso de Shichimi.</tspan></text>
    <text
       id="text4246-3-2-2-3-5-1-7"
       y="2918.1755"
       x="1831.7936"
       style="font-style:normal;font-variant:normal;font-weight:normal;font-stretch:normal;font-size:45px;line-height:1.25;font-family:Lavi;-inkscape-font-specification:Lavi;text-align:center;letter-spacing:0px;word-spacing:0px;text-anchor:middle;fill:#000000;fill-opacity:1;stroke:none"
       xml:space="preserve"><tspan
         id="tspan7676"
         y="2918.1755"
         x="1831.7936"
         sodipodi:role="line"
         style="font-size:45px">Gracias.</tspan></text>
    <text
       id="text4246-3-2-2-3-5-1-7-3"
       y="3007.3691"
       x="1900.54"
       style="font-style:normal;font-variant:normal;font-weight:normal;font-stretch:normal;font-size:45px;line-height:1.25;font-family:Lavi;-inkscape-font-specification:Lavi;text-align:center;letter-spacing:0px;word-spacing:0px;text-anchor:middle;fill:#000000;fill-opacity:1;stroke:none"
       xml:space="preserve"><tspan
         id="tspan118"
         y="3007.3691"
         x="1900.54"
         sodipodi:role="line"
         style="font-size:45px">Quisiera...</tspan></text>
  </g>
</svg>
