<?xml version="1.0" encoding="UTF-8" standalone="no"?>
<!-- Created with Inkscape (http://www.inkscape.org/) -->

<svg
   xmlns:dc="http://purl.org/dc/elements/1.1/"
   xmlns:cc="http://creativecommons.org/ns#"
   xmlns:rdf="http://www.w3.org/1999/02/22-rdf-syntax-ns#"
   xmlns:svg="http://www.w3.org/2000/svg"
   xmlns="http://www.w3.org/2000/svg"
   xmlns:xlink="http://www.w3.org/1999/xlink"
   xmlns:sodipodi="http://sodipodi.sourceforge.net/DTD/sodipodi-0.dtd"
   xmlns:inkscape="http://www.inkscape.org/namespaces/inkscape"
   id="svg2"
   version="1.1"
   inkscape:version="0.92.3 (2405546, 2018-03-11)"
   width="2481"
   height="3503"
   sodipodi:docname="E04P01.svg">
  <sodipodi:namedview
     pagecolor="#ffffff"
     bordercolor="#666666"
     inkscape:pageopacity="0"
     inkscape:pageshadow="2"
     inkscape:window-width="1813"
     inkscape:window-height="955"
     id="namedview70"
     showgrid="false"
     inkscape:zoom="0.4"
     inkscape:cx="1614.3434"
     inkscape:cy="1170.786"
     inkscape:current-layer="layer1"
     inkscape:snap-grids="false"
     inkscape:snap-to-guides="false"
     inkscape:snap-others="false"
     inkscape:snap-nodes="false"
     inkscape:snap-global="false"
     inkscape:window-x="64"
     inkscape:window-y="0"
     inkscape:window-maximized="0" />
  <metadata
     id="metadata8">
    <rdf:RDF>
      <cc:Work
         rdf:about="">
        <dc:format>image/svg+xml</dc:format>
        <dc:type
           rdf:resource="http://purl.org/dc/dcmitype/StillImage" />
        <dc:title />
      </cc:Work>
    </rdf:RDF>
  </metadata>
  <defs
     id="defs6" />
  <sodipodi:namedview
     pagecolor="#ffffff"
     bordercolor="#666666"
     borderopacity="1"
     objecttolerance="10"
     gridtolerance="10"
     guidetolerance="10"
     inkscape:pageopacity="0"
     inkscape:pageshadow="2"
     inkscape:window-width="1920"
     inkscape:window-height="1025"
     id="namedview4"
     showgrid="false"
     inkscape:zoom="0.47669614"
     inkscape:cx="1286.2985"
     inkscape:cy="939.97438"
     inkscape:window-x="0"
     inkscape:window-y="26"
     inkscape:window-maximized="1"
     inkscape:current-layer="layer1" />
  <g
     inkscape:groupmode="layer"
     id="layer2"
     inkscape:label="artwork"
     sodipodi:insensitive="true">
    <image
       sodipodi:absref="/home/fici/Desktop/P&amp;C/all/sl/../gfx_Pepper-and-Carrot_by-David-Revoy_E04P01.png"
       xlink:href="../gfx_Pepper-and-Carrot_by-David-Revoy_E04P01.png"
       width="2481"
       height="3503"
       id="image10"
       x="0"
       y="0" />
  </g>
  <g
     inkscape:groupmode="layer"
     id="layer3"
     inkscape:label="speechbubbles">
    <path
       style="fill:#ffffff;stroke:none;stroke-width:1px;stroke-linecap:butt;stroke-linejoin:miter;stroke-opacity:1"
       d="m 479.75968,2399.6429 c -4.95992,-44.6393 -9.91984,-135.7215 0,-155.5612 6.31263,0 16.68338,-0.4509 16.68338,-0.4509 l -9.91985,-24.3487 18.03608,5.8618 9.01804,-8.1163 -5.86173,-13.527 16.23247,6.3126 8.11624,-13.0762 13.52706,9.469 6.76353,-13.5271 14.87976,10.8217 27.50502,-5.8618 c 67.49435,-2.3892 134.23399,-6.0363 205.16039,-2.7054 l 21.6433,-8.5671 6.31262,12.6252 11.27255,0.4509 10.82165,-5.4108 10.82165,5.8617 36.07215,-4.0581 11.72345,11.7235 13.97797,-9.9199 4.50901,13.0762 13.97797,-8.1162 2.25451,8.5671 33.36674,-9.9199 -4.95992,20.2906 c 0,0 24.79961,9.0181 42.38478,2.2545 1.8036,4.5091 -0.9018,12.6253 -0.9018,12.6253 l 9.018,4.509 0,11.7235 c 0,0 18.0361,15.3306 19.8397,19.3888 1.8036,4.0581 5.8617,114.98 -0.4509,132.5651 4.9599,0 8.1163,2.7054 7.6654,5.4109 -0.4509,2.7054 -4.0582,10.3707 -4.0582,10.3707 0,0 4.96,7.2144 3.6073,9.4689 -1.3528,2.2546 -4.0582,5.4109 -4.0582,5.4109 0,0 4.5091,5.8617 3.1563,7.6653 -1.3527,1.8036 -9.018,4.9599 -12.1743,6.7635 3.6072,3.6072 6.7635,11.2726 4.0581,13.0762 -2.7054,1.8036 -9.018,3.1563 -9.018,3.1563 l -2.2545,4.509 c 0,0 -0.9018,9.0181 -3.1563,9.469 -2.2546,0.4509 -11.7235,-4.5091 -13.0762,-3.6073 -1.3527,0.9018 -4.9599,8.1163 -7.2144,8.1163 -2.2545,0 -9.46898,-8.5672 -9.46898,-8.5672 -0.96362,1.9272 -120.04069,5.1615 -129.85976,3.1564 -9.87862,-2.0173 -48.69741,2.7054 -54.10824,2.7054 -5.41082,0 -27.95592,-1.3527 -31.11223,-2.2545 -3.15632,-0.9018 -15.78157,-4.0582 -20.29059,-3.6073 -4.50902,0.4509 -13.07616,4.96 -18.03608,4.96 -4.95992,0 -33.36674,-2.7054 -38.77757,-2.2545 -5.41082,0.4509 -30.21043,2.2545 -34.26854,2.2545 -4.05812,0 -49.59922,-4.96 -54.55914,-5.4109 -4.95992,-0.4509 -26.60322,4.5091 -30.66133,4.0582 -4.05812,-0.4509 -27.05412,-4.5091 -34.26855,-4.0582 -7.21443,0.4509 -34.26855,-5.8617 -36.07216,-5.4108 -1.80361,0.4509 -4.52726,0.9008 -21.19239,0 8.56714,-6.7635 5.86172,-12.6252 5.86172,-12.6252 l -6.31262,-3.6073 0.9018,-4.0581 -13.07616,-6.7635 1.80361,-4.9599 0.9018,-8.1163 -13.07615,-6.3126 20.74149,-18.0361 z"
       id="path3894"
       inkscape:connector-curvature="0"
       sodipodi:nodetypes="cccccccccccccccccccccccccccccccscscccccsccssscssssssssssscccccccccc" />
    <path
       style="fill:#ffffff;stroke:none;stroke-width:1px;stroke-linecap:butt;stroke-linejoin:miter;stroke-opacity:1;color:#000000;fill-opacity:1;fill-rule:nonzero;marker:none;visibility:visible;display:inline;overflow:visible;enable-background:accumulate"
       d="m 818.04625,2447.3394 c 1.81385,78.9025 3.6277,268.4498 28.11468,311.9822 24.48697,43.5324 33.55622,70.7401 98.85481,79.8094 -68.92629,-32.6493 -89.78557,-105.2033 -96.13404,-230.3589 -6.34847,-125.1557 43.5324,-212.2205 43.5324,-212.2205 l -68.01937,-3.6277 z"
       id="path3896"
       inkscape:connector-curvature="0" />
    <path
       style="color:#000000;display:inline;overflow:visible;visibility:visible;fill:#ffffff;fill-opacity:1;fill-rule:nonzero;stroke:none;stroke-width:1.0098418px;marker:none;enable-background:accumulate"
       d="m 690.2558,2533.385 c 11.5625,-3.8732 11.5625,-11.6197 6.74479,-21.5179 3.37241,-0.4304 14.93489,2.1518 13.00781,-4.734 2.89063,-0.8607 6.74479,-0.8607 4.33594,-6.4554 3.3724,-0.4304 13.0078,1.7214 10.59896,-3.8732 6.26301,-1.2911 65.03903,-3.0125 86.23694,-0.8607 21.1979,2.1518 78.04684,0.4303 83.82809,0 5.78124,-0.4304 50.10414,0 53.95831,0 3.85416,0 19.27082,4.7339 24.08852,7.316 7.22656,-3.4428 16.38021,-2.1517 16.38021,-2.1517 0,0 0,14.6322 1.44532,15.9233 1.4453,1.291 8.67186,-2.1518 10.11721,0 1.4453,2.1517 -10.11721,15.0625 -8.67191,15.4929 1.44532,0.4304 13.00781,5.1643 13.00781,6.8857 0,1.7214 -9.15364,9.8982 -8.67187,10.3286 0.48177,0.4303 7.70837,6.0251 6.74487,10.759 8.6718,1.7214 13.0078,6.025 15.4166,9.0375 -3.8541,5.5947 -13.0078,10.759 -14.9349,13.7715 2.4089,5.1643 8.6719,12.0501 7.2265,14.2019 -1.4453,2.1518 -8.19,1.7214 -13.00775,-0.8607 1.92705,6.4553 1.4453,58.0983 -7.22656,77.0341 2.40885,4.3036 6.74478,7.3161 7.70832,11.6198 0.96354,4.3035 -1.92708,11.1892 -1.44531,13.341 0.48177,2.1518 4.3359,9.468 3.8542,12.9108 -0.4818,3.4429 -2.40889,6.8857 -5.29951,9.0375 -0.48178,3.4429 1.92708,6.0251 -0.48178,6.8858 -2.40885,0.8607 -12.04426,-3.8733 -14.45312,-3.0126 -2.40885,0.8607 -0.48177,12.4805 -2.89062,14.6323 -2.40885,2.1517 -54.44008,7.7464 -66.00258,3.0125 -12.04425,-0.8608 -101.17183,17.6447 -138.26817,10.3286 -4.33592,-0.8607 -3.37239,-3.8732 -6.74478,-4.734 -3.3724,-0.8607 -5.29948,2.1519 -12.52604,1.2912 -6.26302,-4.3037 -14.45311,-4.7341 -27.46093,-25.3913 -4.33593,0 -11.56249,2.1518 -12.52603,-1.2911 -0.96354,-3.4428 0.48177,-6.0249 0.48177,-6.0249 0,0 -4.81771,1.291 -5.29948,-1.2911 -0.48177,-2.5822 6.26302,-9.4679 5.78125,-10.7589 -0.48177,-1.2912 -13.97135,2.5821 -14.45312,-0.4305 -0.48176,-3.0125 5.29948,-10.3286 4.81771,-12.4803 -0.48178,-2.1518 -24.08853,-35.2895 -16.3802,-135.9934 3.85417,-1.2911 7.70832,-2.5821 7.22656,-4.3036 -0.48177,-1.7215 -6.26303,-5.1643 -6.26303,-5.1643 z"
       id="path3915"
       inkscape:connector-curvature="0" />
    <path
       style="color:#000000;fill:#ffffff;fill-opacity:1;fill-rule:nonzero;stroke:none;stroke-width:1px;marker:none;visibility:visible;display:inline;overflow:visible;enable-background:accumulate"
       d="m 2161.9635,2759.6873 c 75.5442,-65.8317 129.3057,-115.4309 140.8923,-189.8298 11.5865,-74.3988 -1.8538,-91.5331 -5.5615,-100.5511 -12.977,1.8036 -33.8327,13.978 -38.0039,19.3888 1.8539,-19.8397 -11.5865,-82.5151 -31.9788,-107.3147 -20.3923,-24.7996 -39.3943,-7.6653 -39.3943,-7.6653 0,0 61.177,94.6894 55.1519,157.8157 12.0501,-12.6253 34.7597,-36.974 40.3212,-32.465 5.5615,4.5091 8.3423,64.9299 -3.7077,92.4349 -12.05,27.5051 -38.9308,101.9039 -117.7192,168.1865 z"
       id="path3923"
       inkscape:connector-curvature="0" />
    <path
       style="color:#000000;display:inline;overflow:visible;visibility:visible;fill:#ffffff;fill-opacity:1;fill-rule:nonzero;stroke:none;stroke-width:0.98402208px;stroke-linecap:butt;stroke-linejoin:miter;stroke-opacity:1;marker:none;enable-background:accumulate"
       d="m 1846.2,2345.9079 c 0,0 37.5681,7.5063 43.5312,11.5483 5.9632,4.0419 29.8159,-2.8871 -3.5779,43.306 33.9901,-15.0128 60.8244,-31.1804 73.3471,-29.4481 -5.3668,11.5483 -11.33,26.5611 -11.33,26.5611 0,0 31.0085,-12.1258 36.9717,-11.5483 -1.789,5.1967 2.3853,15.5901 2.3853,15.5901 l 16.1005,-2.3096 4.7706,13.858 c 0,0 64.4023,-24.2514 72.1544,-21.3644 7.7522,2.8871 -3.5779,33.4901 -3.5779,33.4901 l 17.2933,-12.1257 8.3484,0.5773 20.2748,-19.632 6.5595,10.9709 4.7705,-4.042 9.5411,4.6195 22.6601,-16.7451 7.7521,1.7323 19.6785,26.5609 10.7338,-12.1256 5.3668,-0.5774 35.1828,1.1549 2.3852,-2.8872 5.9632,-1.1549 8.3485,-5.774 4.7705,-13.2806 h 10.1374 l 20.2748,12.1257 9.5411,8.0838 7.1558,-19.632 4.1742,-2.3097 1.1927,-12.1258 23.2564,9.2387 7.1558,5.7741 1.7889,-10.3934 7.7522,-0.5775 14.3116,4.042 15.5043,10.9708 23.2564,12.1257 -35.1828,-44.4609 -8.3484,-8.0837 30.4122,-8.0839 v -92.3862 l -11.9264,-127.0312 -519.3928,6.3515 -13.119,83.7251 0.5963,74.4864 -2.9816,24.8289 26.238,8.6613 -25.6417,13.2805 16.1006,9.2385 z"
       id="path3931"
       inkscape:connector-curvature="0" />
  </g>
  <g
     inkscape:groupmode="layer"
     id="layer1"
     inkscape:label="txt">
    <flowRoot
       xml:space="preserve"
       id="flowRoot2987"
       style="font-style:normal;font-variant:normal;font-weight:normal;font-stretch:normal;line-height:0.01%;font-family:Lavi;-inkscape-font-specification:Lavi;letter-spacing:0px;word-spacing:0px;fill:#000000;fill-opacity:1;stroke:none"
       transform="translate(52.552065,-126.62151)"><flowRegion
         id="flowRegion2989"><rect
           id="rect2991"
           width="973.52362"
           height="213.03587"
           x="120.55251"
           y="265.53046"
           style="font-style:normal;font-variant:normal;font-weight:normal;font-stretch:normal;font-family:Lavi;-inkscape-font-specification:Lavi" /></flowRegion><flowPara
         id="flowPara2993"
         style="font-size:48px;line-height:1.25">Noč pred tekmovanjem v napojih</flowPara><flowPara
         id="flowPara2995"
         style="font-size:48px;line-height:1.25">        2:00 zjutraj</flowPara></flowRoot>    <flowRoot
       xml:space="preserve"
       id="flowRoot2987-4"
       style="font-style:normal;font-variant:normal;font-weight:normal;font-stretch:normal;line-height:0.01%;font-family:Lavi;-inkscape-font-specification:Lavi;text-align:center;letter-spacing:0px;word-spacing:0px;text-anchor:middle;fill:#000000;fill-opacity:1;stroke:none"
       transform="translate(341.31241,1949.0059)"><flowRegion
         id="flowRegion2989-5"><rect
           id="rect2991-7"
           width="602.40173"
           height="310.73996"
           x="120.55251"
           y="265.53046"
           style="font-style:normal;font-variant:normal;font-weight:normal;font-stretch:normal;font-family:Lavi;-inkscape-font-specification:Lavi;text-align:center;text-anchor:middle" /></flowRegion><flowPara
         style="font-size:48px;line-height:1.25;text-align:center;text-anchor:middle"
         id="flowPara3033">Končno ...</flowPara><flowPara
         style="font-size:48px;line-height:1.25;text-align:center;text-anchor:middle"
         id="flowPara3794">S tem napojem, se nihče,</flowPara><flowPara
         style="font-size:48px;line-height:1.25;text-align:center;text-anchor:middle"
         id="flowPara3796">niti Saffron, ne</flowPara><flowPara
         style="font-size:48px;line-height:1.25;text-align:center;text-anchor:middle"
         id="flowPara3798">more kosati z menoj !</flowPara></flowRoot>    <flowRoot
       xml:space="preserve"
       id="flowRoot2987-4-8"
       style="font-style:normal;font-variant:normal;font-weight:normal;font-stretch:normal;line-height:0.01%;font-family:Lavi;-inkscape-font-specification:Lavi;text-align:center;letter-spacing:0px;word-spacing:0px;text-anchor:middle;fill:#000000;fill-opacity:1;stroke:none"
       transform="matrix(0.96141471,0,0,0.91963896,438.19425,2274.298)"><flowRegion
         id="flowRegion2989-5-9"><rect
           id="rect2991-7-4"
           width="602.40173"
           height="310.73996"
           x="120.55251"
           y="265.53046"
           style="font-style:normal;font-variant:normal;font-weight:normal;font-stretch:normal;font-family:Lavi;-inkscape-font-specification:Lavi;text-align:center;text-anchor:middle" /></flowRegion><flowPara
         style="font-size:48px;line-height:1.25;text-align:center;text-anchor:middle"
         id="flowPara63">Moram pa</flowPara><flowPara
         style="font-size:48px;line-height:1.25;text-align:center;text-anchor:middle"
         id="flowPara78">ga preizkusiti </flowPara><flowPara
         style="font-size:48px;line-height:1.25;text-align:center;text-anchor:middle"
         id="flowPara72">na nekomu</flowPara><flowPara
         style="font-size:48px;line-height:1.25;text-align:center;text-anchor:middle"
         id="flowPara59" /><flowPara
         style="font-size:48px;line-height:1.25;text-align:center;text-anchor:middle"
         id="flowPara76"> ...</flowPara></flowRoot>    <flowRoot
       xml:space="preserve"
       id="flowRoot2987-4-8-2"
       style="font-style:normal;font-variant:normal;font-weight:normal;font-stretch:normal;line-height:0.01%;font-family:Lavi;-inkscape-font-specification:Lavi;text-align:center;letter-spacing:0px;word-spacing:0px;text-anchor:middle;fill:#000000;fill-opacity:1;stroke:none"
       transform="matrix(1.4179226,0,0,1.4152108,1526.1833,1735.8167)"><flowRegion
         id="flowRegion2989-5-9-2"><rect
           id="rect2991-7-4-2"
           width="602.40173"
           height="310.73996"
           x="120.55251"
           y="265.53046"
           style="font-style:normal;font-variant:normal;font-weight:normal;font-stretch:normal;font-family:Lavi;-inkscape-font-specification:Lavi;text-align:center;text-anchor:middle" /></flowRegion><flowPara
         style="font-size:48px;line-height:1.25;text-align:center;text-anchor:middle"
         id="flowPara3798-1-6"> </flowPara><flowPara
         style="font-size:48px;line-height:1.25;text-align:center;text-anchor:middle"
         id="flowPara3849-2">KOOREEEE~</flowPara><flowPara
         style="font-size:48px;line-height:1.25;text-align:center;text-anchor:middle"
         id="flowPara3892">~EENČEEK!!!</flowPara></flowRoot>  </g>
</svg>
