<?xml version="1.0" encoding="UTF-8" standalone="no"?>
<!-- Created with Inkscape (http://www.inkscape.org/) -->

<svg
   id="svg2"
   version="1.1"
   inkscape:version="1.1.2 (0a00cf5339, 2022-02-04)"
   width="2481"
   height="3503"
   sodipodi:docname="E09P05.svg"
   xmlns:inkscape="http://www.inkscape.org/namespaces/inkscape"
   xmlns:sodipodi="http://sodipodi.sourceforge.net/DTD/sodipodi-0.dtd"
   xmlns:xlink="http://www.w3.org/1999/xlink"
   xmlns="http://www.w3.org/2000/svg"
   xmlns:svg="http://www.w3.org/2000/svg"
   xmlns:rdf="http://www.w3.org/1999/02/22-rdf-syntax-ns#"
   xmlns:cc="http://creativecommons.org/ns#"
   xmlns:dc="http://purl.org/dc/elements/1.1/">
  <sodipodi:namedview
     pagecolor="#ffffff"
     bordercolor="#666666"
     inkscape:pageopacity="0"
     inkscape:pageshadow="2"
     inkscape:window-width="1813"
     inkscape:window-height="955"
     id="namedview70"
     showgrid="false"
     inkscape:zoom="0.4"
     inkscape:cx="1535"
     inkscape:cy="2593.75"
     inkscape:current-layer="layer1"
     borderopacity="1"
     inkscape:pagecheckerboard="1"
     inkscape:window-x="0"
     inkscape:window-y="44"
     inkscape:window-maximized="0" />
  <metadata
     id="metadata8">
    <rdf:RDF>
      <cc:Work
         rdf:about="">
        <dc:format>image/svg+xml</dc:format>
        <dc:type
           rdf:resource="http://purl.org/dc/dcmitype/StillImage" />
        <dc:title />
      </cc:Work>
    </rdf:RDF>
  </metadata>
  <defs
     id="defs6">
    <filter
       style="color-interpolation-filters:sRGB"
       id="filter4375-4-1-1-1"
       inkscape:label="deevad outline effect">
      <feFlood
         id="feFlood4377-7-9-0-8"
         flood-opacity="1"
         flood-color="rgb(0,0,0)"
         result="flood" />
      <feComposite
         id="feComposite4379-3-8-8-2"
         in2="SourceGraphic"
         in="flood"
         operator="in"
         result="composite1" />
      <feMorphology
         id="feMorphology4393-1-0-49-8"
         operator="dilate"
         radius="4"
         result="result3" />
      <feComposite
         id="feComposite4385-9-5-7-0"
         in2="result3"
         in="SourceGraphic"
         operator="over"
         result="composite2" />
    </filter>
    <filter
       style="color-interpolation-filters:sRGB"
       id="filter4375-4-1-1-1-3"
       inkscape:label="deevad outline effect">
      <feFlood
         id="feFlood4377-7-9-0-8-3"
         flood-opacity="1"
         flood-color="rgb(0,0,0)"
         result="flood" />
      <feComposite
         id="feComposite4379-3-8-8-2-7"
         in2="SourceGraphic"
         in="flood"
         operator="in"
         result="composite1" />
      <feMorphology
         id="feMorphology4393-1-0-49-8-2"
         operator="dilate"
         radius="4"
         result="result3" />
      <feComposite
         id="feComposite4385-9-5-7-0-5"
         in2="result3"
         in="SourceGraphic"
         operator="over"
         result="composite2" />
    </filter>
    <filter
       style="color-interpolation-filters:sRGB"
       id="filter4375-4-1-1-1-8"
       inkscape:label="deevad outline effect">
      <feFlood
         id="feFlood4377-7-9-0-8-1"
         flood-opacity="1"
         flood-color="rgb(0,0,0)"
         result="flood" />
      <feComposite
         id="feComposite4379-3-8-8-2-1"
         in2="SourceGraphic"
         in="flood"
         operator="in"
         result="composite1" />
      <feMorphology
         id="feMorphology4393-1-0-49-8-4"
         operator="dilate"
         radius="4"
         result="result3" />
      <feComposite
         id="feComposite4385-9-5-7-0-6"
         in2="result3"
         in="SourceGraphic"
         operator="over"
         result="composite2" />
    </filter>
    <filter
       style="color-interpolation-filters:sRGB"
       id="filter4375-4-1-1-1-9"
       inkscape:label="deevad outline effect">
      <feFlood
         id="feFlood4377-7-9-0-8-5"
         flood-opacity="1"
         flood-color="rgb(0,0,0)"
         result="flood" />
      <feComposite
         id="feComposite4379-3-8-8-2-74"
         in2="SourceGraphic"
         in="flood"
         operator="in"
         result="composite1" />
      <feMorphology
         id="feMorphology4393-1-0-49-8-3"
         operator="dilate"
         radius="4"
         result="result3" />
      <feComposite
         id="feComposite4385-9-5-7-0-8"
         in2="result3"
         in="SourceGraphic"
         operator="over"
         result="composite2" />
    </filter>
  </defs>
  <sodipodi:namedview
     pagecolor="#ffffff"
     bordercolor="#666666"
     borderopacity="1"
     objecttolerance="10"
     gridtolerance="10"
     guidetolerance="10"
     inkscape:pageopacity="0"
     inkscape:pageshadow="2"
     inkscape:window-width="1920"
     inkscape:window-height="1025"
     id="namedview4"
     showgrid="false"
     inkscape:zoom="0.6956522"
     inkscape:cx="956.75173"
     inkscape:cy="786.33455"
     inkscape:window-x="0"
     inkscape:window-y="26"
     inkscape:window-maximized="1"
     inkscape:current-layer="layer1" />
  <g
     inkscape:groupmode="layer"
     id="layer2"
     inkscape:label="artwork"
     sodipodi:insensitive="true">
    <image
       xlink:href="../gfx_Pepper-and-Carrot_by-David-Revoy_E09P05.png"
       y="0"
       x="0"
       id="image10"
       height="3503"
       width="2481" />
  </g>
  <g
     inkscape:groupmode="layer"
     id="layer3"
     inkscape:label="speechbubbles" />
  <g
     inkscape:groupmode="layer"
     id="layer1"
     inkscape:label="txt">
    <path
       style="color:#000000;display:inline;overflow:visible;visibility:visible;fill:#ffffff;fill-opacity:1;fill-rule:nonzero;stroke:none;stroke-width:1px;marker:none;enable-background:accumulate"
       d="m 1272.3825,2658.4656 c 51.0945,17.9366 103.2004,35.6747 12.3389,81.4808 86.2792,-11.8136 33.4931,13.5287 12.3386,30.4195 135.3998,-3.8326 -23.8879,71.4844 -61.7026,104.1917 34.335,-13.0351 158.233,-84.2802 146.9522,-49.871 10.9164,-2.3383 23.7612,-9.0348 29.1644,1.0864 13.909,-6.9891 17.8646,-9.7183 23.9082,-5.2801 13.6701,-12.719 30.4755,-17.9369 24.5601,-3.5746 23.5537,-18.889 21.156,-4.5355 24.4424,0.1634 22.1808,-22.4959 30.4648,-16.1498 39.2597,-10.8641 12.5585,-13.5068 27.2551,-10.4476 43.7465,6.5184 16.8735,-22.9716 35.0051,-21.574 53.8419,-6.5184 5.5324,-5.659 31.9373,-16.0711 40.257,4.9231 9.3373,-8.7424 33.5477,-27.9269 57.7582,-0.8075 19.4336,-20.747 65.9444,-22.5977 92.6746,3.4892 7.5914,-14.6166 35.4543,-28.4869 70.6673,-15.2096 3.2916,-13.5579 22.1725,-19.0629 54.9635,-17.3827 -33.633,-16.3621 -35.3633,-25.677 42.6248,-17.3826 -54.3581,-13.3991 -104.4517,-26.7981 -20.1907,-40.1972 -19.735,-5.3195 -84.2398,7.1942 -13.4605,-56.4934 -50.2603,14.0563 -95.8869,17.7084 -109.9271,-39.1108 -27.1144,14.9425 -57.1361,22.3447 -80.7626,-11.9506 -21.5195,16.0691 -51.629,12.2112 -67.3023,4.3456 -4.2406,17.5989 -36.2638,44.5895 -79.641,-4.3456 9.5172,27.8138 2.3136,72.1151 -48.2333,-1.0864 -1.0025,12.7338 19.8125,81.9829 -121.1441,-1.0865 17.5832,55.7329 -29.2177,23.3035 -66.1807,4.3456 18.3295,34.9432 -9.2556,37.6454 -69.5456,17.3826 46.5095,33.179 -1.313,24.0185 -31.4078,22.8148 z"
       id="path3549"
       inkscape:connector-curvature="0"
       sodipodi:nodetypes="ccccccccccccccccccccccccccccc" />
    <flowRoot
       xml:space="preserve"
       id="flowRoot3063-8"
       style="color:#000000;font-style:normal;font-variant:normal;font-weight:normal;font-stretch:normal;line-height:0.01%;font-family:Arial;-inkscape-font-specification:Arial;letter-spacing:0px;word-spacing:0px;display:inline;overflow:visible;visibility:visible;fill:#ffd42a;fill-opacity:1;fill-rule:nonzero;stroke:#ffd42a;stroke-width:4.38198;stroke-opacity:1;marker:none;enable-background:accumulate"
       transform="matrix(0.94497198,-0.30283318,0.33037145,1.0309034,866.21843,878.47873)"><flowRegion
         id="flowRegion3065-8"
         style="stroke-width:4.38198"><rect
           id="rect3067-6"
           width="248.66193"
           height="90.046997"
           x="92.642677"
           y="425.30325"
           style="color:#000000;font-size:72px;display:inline;overflow:visible;visibility:visible;fill:#ffd42a;fill-opacity:1;fill-rule:nonzero;stroke:#ffd42a;stroke-width:4.3819828;stroke-opacity:1;marker:none;enable-background:accumulate" /></flowRegion><flowPara
         style="color:#000000;font-style:normal;font-variant:normal;font-weight:normal;font-stretch:normal;font-size:64px;line-height:1.25;font-family:Lavi;-inkscape-font-specification:Lavi;text-align:center;text-anchor:middle;display:inline;overflow:visible;visibility:visible;fill:#ffd42a;fill-opacity:1;fill-rule:nonzero;stroke:#ffd42a;stroke-width:3.45423;stroke-miterlimit:4;stroke-dasharray:none;stroke-opacity:1;marker:none;enable-background:accumulate"
         id="flowPara3188">Guau</flowPara></flowRoot>
    <flowRoot
       xml:space="preserve"
       id="flowRoot3063-8-0"
       style="color:#000000;font-style:normal;font-variant:normal;font-weight:normal;font-stretch:normal;line-height:0.01%;font-family:Arial;-inkscape-font-specification:Arial;letter-spacing:0px;word-spacing:0px;display:inline;overflow:visible;visibility:visible;fill:#ffd42a;fill-opacity:1;fill-rule:nonzero;stroke:#ffd42a;stroke-width:4.38198;stroke-opacity:1;marker:none;enable-background:accumulate"
       transform="matrix(0.7449843,-0.21593102,0.2604538,0.73507145,1009.8852,1048.4176)"><flowRegion
         id="flowRegion3065-8-3"
         style="stroke-width:4.38198"><rect
           id="rect3067-6-9"
           width="248.66193"
           height="90.046997"
           x="92.642677"
           y="425.30325"
           style="color:#000000;font-size:72px;display:inline;overflow:visible;visibility:visible;fill:#ffd42a;fill-opacity:1;fill-rule:nonzero;stroke:#ffd42a;stroke-width:4.3819828;stroke-opacity:1;marker:none;enable-background:accumulate" /></flowRegion><flowPara
         style="color:#000000;font-style:normal;font-variant:normal;font-weight:normal;font-stretch:normal;font-size:64px;line-height:1.25;font-family:Lavi;-inkscape-font-specification:Lavi;text-align:center;text-anchor:middle;display:inline;overflow:visible;visibility:visible;fill:#ffd42a;fill-opacity:1;fill-rule:nonzero;stroke:#ffd42a;stroke-width:3.45423;stroke-miterlimit:4;stroke-dasharray:none;stroke-opacity:1;marker:none;enable-background:accumulate"
         id="flowPara3188-4">Uau</flowPara></flowRoot>
    <flowRoot
       xml:space="preserve"
       id="flowRoot3063-8-03"
       style="color:#000000;font-style:normal;font-variant:normal;font-weight:normal;font-stretch:normal;line-height:0.01%;font-family:Arial;-inkscape-font-specification:Arial;letter-spacing:0px;word-spacing:0px;display:inline;overflow:visible;visibility:visible;fill:#ffc022;fill-opacity:1;fill-rule:nonzero;stroke:#ffc022;stroke-width:4.38198;stroke-opacity:1;marker:none;enable-background:accumulate"
       transform="matrix(0.69985809,-0.7034761,0.76744698,0.76349997,-251.97938,298.69889)"><flowRegion
         id="flowRegion3065-8-1"
         style="stroke-width:4.38198"><rect
           id="rect3067-6-8"
           width="423.32761"
           height="143.73161"
           x="92.642677"
           y="425.30325"
           style="color:#000000;font-size:72px;display:inline;overflow:visible;visibility:visible;fill:#ffc022;fill-opacity:1;fill-rule:nonzero;stroke:#ffc022;stroke-width:4.3819828;stroke-opacity:1;marker:none;enable-background:accumulate" /></flowRegion><flowPara
         style="color:#000000;font-style:normal;font-variant:normal;font-weight:normal;font-stretch:normal;font-size:64px;line-height:1.25;font-family:Lavi;-inkscape-font-specification:Lavi;text-align:center;text-anchor:middle;display:inline;overflow:visible;visibility:visible;fill:#ffc022;fill-opacity:1;fill-rule:nonzero;stroke:#ffc022;stroke-width:3.45423;stroke-miterlimit:4;stroke-dasharray:none;stroke-opacity:1;marker:none;enable-background:accumulate"
         id="flowPara3188-8">¡Mia-Uu-Uu!</flowPara></flowRoot>
    <flowRoot
       xml:space="preserve"
       id="flowRoot3063-8-03-1"
       style="color:#000000;font-style:normal;font-variant:normal;font-weight:normal;font-stretch:normal;line-height:0.01%;font-family:Arial;-inkscape-font-specification:Arial;letter-spacing:0px;word-spacing:0px;display:inline;overflow:visible;visibility:visible;fill:#ffccaa;fill-opacity:1;fill-rule:nonzero;stroke:#ffccaa;stroke-width:4.38198;stroke-opacity:1;marker:none;enable-background:accumulate"
       transform="matrix(0.90934859,-0.39719657,0.43331581,0.99204057,323.39674,1108.6169)"><flowRegion
         id="flowRegion3065-8-1-9"
         style="stroke-width:4.38198"><rect
           id="rect3067-6-8-6"
           width="352.97433"
           height="120.68928"
           x="92.642677"
           y="425.30325"
           style="color:#000000;font-size:72px;display:inline;overflow:visible;visibility:visible;fill:#ffccaa;fill-opacity:1;fill-rule:nonzero;stroke:#ffccaa;stroke-width:4.3819828;stroke-opacity:1;marker:none;enable-background:accumulate" /></flowRegion><flowPara
         style="color:#000000;font-style:normal;font-variant:normal;font-weight:normal;font-stretch:normal;font-size:64px;line-height:1.25;font-family:Lavi;-inkscape-font-specification:Lavi;text-align:center;text-anchor:middle;display:inline;overflow:visible;visibility:visible;fill:#ffccaa;fill-opacity:1;fill-rule:nonzero;stroke:#ffccaa;stroke-width:3.45423;stroke-miterlimit:4;stroke-dasharray:none;stroke-opacity:1;marker:none;enable-background:accumulate"
         id="flowPara3188-8-3">MiaaUu</flowPara></flowRoot>
    <flowRoot
       xml:space="preserve"
       id="flowRoot3063-8-03-1-0"
       style="color:#000000;font-style:normal;font-variant:normal;font-weight:normal;font-stretch:normal;line-height:0.01%;font-family:Arial;-inkscape-font-specification:Arial;letter-spacing:0px;word-spacing:0px;display:inline;overflow:visible;visibility:visible;fill:#ffccaa;fill-opacity:1;fill-rule:nonzero;stroke:#ffccaa;stroke-width:4.38198;stroke-opacity:1;marker:none;enable-background:accumulate"
       transform="matrix(0.77642497,-0.31599775,0.33354997,0.75284562,462.6793,1234.6959)"><flowRegion
         id="flowRegion3065-8-1-9-3"
         style="stroke-width:4.38198"><rect
           id="rect3067-6-8-6-1"
           width="352.97433"
           height="120.68928"
           x="92.642677"
           y="425.30325"
           style="color:#000000;font-size:72px;display:inline;overflow:visible;visibility:visible;fill:#ffccaa;fill-opacity:1;fill-rule:nonzero;stroke:#ffccaa;stroke-width:4.3819828;stroke-opacity:1;marker:none;enable-background:accumulate" /></flowRegion><flowPara
         style="color:#000000;font-style:normal;font-variant:normal;font-weight:normal;font-stretch:normal;font-size:64px;line-height:1.25;font-family:Lavi;-inkscape-font-specification:Lavi;text-align:center;text-anchor:middle;display:inline;overflow:visible;visibility:visible;fill:#ffccaa;fill-opacity:1;fill-rule:nonzero;stroke:#ffccaa;stroke-width:3.45423;stroke-miterlimit:4;stroke-dasharray:none;stroke-opacity:1;marker:none;enable-background:accumulate"
         id="flowPara3188-8-3-5">MiaaUu</flowPara></flowRoot>
    <flowRoot
       xml:space="preserve"
       id="flowRoot3063-8-9"
       style="color:#000000;font-style:normal;font-variant:normal;font-weight:normal;font-stretch:normal;line-height:0.01%;font-family:Arial;-inkscape-font-specification:Arial;letter-spacing:0px;word-spacing:0px;display:inline;overflow:visible;visibility:visible;fill:#6c6753;fill-opacity:1;fill-rule:nonzero;stroke:#6c6753;stroke-width:4.38198;stroke-opacity:1;marker:none;enable-background:accumulate"
       transform="matrix(0.94497198,-0.30283318,0.33037145,1.0309034,1001.1473,1741.5055)"><flowRegion
         id="flowRegion3065-8-34"
         style="stroke-width:4.38198"><rect
           id="rect3067-6-0"
           width="248.66193"
           height="90.046997"
           x="92.642677"
           y="425.30325"
           style="color:#000000;font-size:72px;display:inline;overflow:visible;visibility:visible;fill:#6c6753;fill-opacity:1;fill-rule:nonzero;stroke:#6c6753;stroke-width:4.3819828;stroke-opacity:1;marker:none;enable-background:accumulate" /></flowRegion><flowPara
         style="color:#000000;font-style:normal;font-variant:normal;font-weight:normal;font-stretch:normal;font-size:64px;line-height:1.25;font-family:Lavi;-inkscape-font-specification:Lavi;text-align:center;text-anchor:middle;display:inline;overflow:visible;visibility:visible;fill:#6c6753;fill-opacity:1;fill-rule:nonzero;stroke:#6c6753;stroke-width:3.45423;stroke-miterlimit:4;stroke-dasharray:none;stroke-opacity:1;marker:none;enable-background:accumulate"
         id="flowPara3188-0">Cloc</flowPara></flowRoot>
    <flowRoot
       xml:space="preserve"
       id="flowRoot3063-8-9-1"
       style="color:#000000;font-style:normal;font-variant:normal;font-weight:normal;font-stretch:normal;line-height:0.01%;font-family:Arial;-inkscape-font-specification:Arial;letter-spacing:0px;word-spacing:0px;display:inline;overflow:visible;visibility:visible;fill:#6c6753;fill-opacity:1;fill-rule:nonzero;stroke:#6c6753;stroke-width:4.38198;stroke-opacity:1;marker:none;enable-background:accumulate"
       transform="matrix(0.78901976,-0.0275263,0.03366822,0.76773924,1211.2058,1869.8971)"><flowRegion
         id="flowRegion3065-8-34-7"
         style="stroke-width:4.38198"><rect
           id="rect3067-6-0-3"
           width="248.66193"
           height="90.046997"
           x="92.642677"
           y="425.30325"
           style="color:#000000;font-size:72px;display:inline;overflow:visible;visibility:visible;fill:#6c6753;fill-opacity:1;fill-rule:nonzero;stroke:#6c6753;stroke-width:4.3819828;stroke-opacity:1;marker:none;enable-background:accumulate" /></flowRegion><flowPara
         style="color:#000000;font-style:normal;font-variant:normal;font-weight:normal;font-stretch:normal;font-size:64px;line-height:1.25;font-family:Lavi;-inkscape-font-specification:Lavi;text-align:center;text-anchor:middle;display:inline;overflow:visible;visibility:visible;fill:#6c6753;fill-opacity:1;fill-rule:nonzero;stroke:#6c6753;stroke-width:3.45423;stroke-miterlimit:4;stroke-dasharray:none;stroke-opacity:1;marker:none;enable-background:accumulate"
         id="flowPara3188-0-2">Cloc</flowPara></flowRoot>
    <flowRoot
       xml:space="preserve"
       id="flowRoot2987-4-9-3"
       style="font-style:normal;font-variant:normal;font-weight:normal;font-stretch:normal;line-height:0.01%;font-family:Lavi;-inkscape-font-specification:Lavi;text-align:center;letter-spacing:0px;word-spacing:0px;text-anchor:middle;fill:#000000;fill-opacity:1;stroke:none"
       transform="translate(1089.106,2405.6741)"><flowRegion
         id="flowRegion2989-5-4-5"><rect
           id="rect2991-7-9-6"
           width="807.40167"
           height="138.23993"
           x="120.55251"
           y="265.53046"
           style="font-style:normal;font-variant:normal;font-weight:normal;font-stretch:normal;font-family:Lavi;-inkscape-font-specification:Lavi;text-align:center;text-anchor:middle" /></flowRegion><flowPara
         style="font-size:48px;line-height:1.25;text-align:center;text-anchor:middle"
         id="flowPara4222">¡Vayamos al laboratorio!</flowPara><flowPara
         style="font-size:48px;line-height:1.25;text-align:center;text-anchor:middle"
         id="flowPara3487">¡Esto podría ser letal!</flowPara></flowRoot>
    <path
       style="color:#000000;display:inline;overflow:visible;visibility:visible;fill:#ffffff;fill-opacity:1;fill-rule:nonzero;stroke:none;stroke-width:1px;marker:none;enable-background:accumulate"
       d="m 953.54448,2848.2429 c 4.14472,-14.401 33.42436,-79.1758 182.24402,9.6387 -112.3424,-88.9784 -89.1191,-91.5724 -49.4501,-90.1023 -17.3046,-10.2271 -22.7082,-35.0817 11.8101,-45.218 -17.0907,-9.7431 -15.914,-22.681 1.5622,-38.4698 -38.0224,7.4939 -51.6113,2.8436 -4.1457,-32.1531 -43.5419,19.8653 -85.1115,37.5475 -64.527,-13.5538 -16.4327,6.9417 -29.0933,47.4025 -83.78631,-26.685 -3.95307,34.0852 -20.04652,59.6144 -104.54827,33.0327 7.97099,22.7622 4.24525,42.5313 -53.76851,34.2441 12.10602,20.5674 -24.90725,40.6323 -42.9563,43.9815 49.81317,5.4882 61.99407,17.9599 25.17997,38.5935 103.36137,3.3292 44.34951,23.8053 43.53081,37.7052 64.33049,-12.7208 57.79533,13.246 64.993,32.5075 59.37254,-27.8984 50.56429,-1.2965 73.86209,16.4788 z"
       id="path3549-3"
       inkscape:connector-curvature="0"
       sodipodi:nodetypes="ccccccccccccccc" />
    <flowRoot
       xml:space="preserve"
       id="flowRoot2987-4-9-3-0"
       style="font-style:normal;font-variant:normal;font-weight:normal;font-stretch:normal;line-height:0.01%;font-family:Lavi;-inkscape-font-specification:Lavi;text-align:center;letter-spacing:0px;word-spacing:0px;text-anchor:middle;fill:#000000;fill-opacity:1;stroke:none"
       transform="matrix(1.2398641,0,0,1.2398641,419.33314,2365.9303)"><flowRegion
         id="flowRegion2989-5-4-5-1"><rect
           id="rect2991-7-9-6-4"
           width="602.40173"
           height="310.73996"
           x="120.55251"
           y="265.53046"
           style="font-style:normal;font-variant:normal;font-weight:normal;font-stretch:normal;font-family:Lavi;-inkscape-font-specification:Lavi;text-align:center;text-anchor:middle" /></flowRegion><flowPara
         style="font-size:48px;line-height:1.25;text-align:center;letter-spacing:1.5px;text-anchor:middle;stroke:#000000;stroke-width:1.1;stroke-miterlimit:4;stroke-dasharray:none;stroke-opacity:1"
         id="flowPara3030-8-7">¡Rápido!</flowPara></flowRoot>
    <flowRoot
       xml:space="preserve"
       id="flowRoot3063-8-4"
       style="color:#000000;font-style:normal;font-variant:normal;font-weight:normal;font-stretch:normal;line-height:0.01%;font-family:Arial;-inkscape-font-specification:Arial;letter-spacing:0px;word-spacing:0px;display:inline;overflow:visible;visibility:visible;fill:#ffd42a;fill-opacity:1;fill-rule:nonzero;stroke:#ffd42a;stroke-width:4.38198;stroke-opacity:1;marker:none;enable-background:accumulate"
       transform="matrix(0.7887004,-0.76050837,0.82966552,0.86042118,-238.14966,365.78067)"><flowRegion
         id="flowRegion3065-8-5"
         style="stroke-width:4.38198"><rect
           id="rect3067-6-3"
           width="248.66193"
           height="90.046997"
           x="92.642677"
           y="425.30325"
           style="color:#000000;font-size:72px;display:inline;overflow:visible;visibility:visible;fill:#ffd42a;fill-opacity:1;fill-rule:nonzero;stroke:#ffd42a;stroke-width:4.3819828;stroke-opacity:1;marker:none;enable-background:accumulate" /></flowRegion><flowPara
         style="color:#000000;font-style:normal;font-variant:normal;font-weight:normal;font-stretch:normal;font-size:64px;line-height:1.25;font-family:Lavi;-inkscape-font-specification:Lavi;text-align:center;text-anchor:middle;display:inline;overflow:visible;visibility:visible;fill:#ffd42a;fill-opacity:1;fill-rule:nonzero;stroke:#ffd42a;stroke-width:3.45423;stroke-miterlimit:4;stroke-dasharray:none;stroke-opacity:1;marker:none;enable-background:accumulate"
         id="flowPara3188-9">¡Guau</flowPara></flowRoot>
    <flowRoot
       xml:space="preserve"
       id="flowRoot3063-8-0-2"
       style="color:#000000;font-style:normal;font-variant:normal;font-weight:normal;font-stretch:normal;line-height:0.01%;font-family:Arial;-inkscape-font-specification:Arial;letter-spacing:0px;word-spacing:0px;display:inline;overflow:visible;visibility:visible;fill:#ffd42a;fill-opacity:1;fill-rule:nonzero;stroke:#ffd42a;stroke-width:4.38198;stroke-opacity:1;marker:none;enable-background:accumulate"
       transform="matrix(0.59099277,-0.50234983,0.53889606,0.56369962,52.383887,352.37512)"><flowRegion
         id="flowRegion3065-8-3-4"
         style="stroke-width:4.38198"><rect
           id="rect3067-6-9-9"
           width="248.66193"
           height="90.046997"
           x="92.642677"
           y="425.30325"
           style="color:#000000;font-size:72px;display:inline;overflow:visible;visibility:visible;fill:#ffd42a;fill-opacity:1;fill-rule:nonzero;stroke:#ffd42a;stroke-width:4.3819828;stroke-opacity:1;marker:none;enable-background:accumulate" /></flowRegion><flowPara
         style="color:#000000;font-style:normal;font-variant:normal;font-weight:normal;font-stretch:normal;font-size:64px;line-height:1.25;font-family:Lavi;-inkscape-font-specification:Lavi;text-align:center;text-anchor:middle;display:inline;overflow:visible;visibility:visible;fill:#ffd42a;fill-opacity:1;fill-rule:nonzero;stroke:#ffd42a;stroke-width:3.45423;stroke-miterlimit:4;stroke-dasharray:none;stroke-opacity:1;marker:none;enable-background:accumulate"
         id="flowPara3188-4-0">aau</flowPara></flowRoot>
    <flowRoot
       xml:space="preserve"
       id="flowRoot3063-8-03-4"
       style="color:#000000;font-style:normal;font-variant:normal;font-weight:normal;font-stretch:normal;line-height:0.01%;font-family:Arial;-inkscape-font-specification:Arial;letter-spacing:0px;word-spacing:0px;display:inline;overflow:visible;visibility:visible;fill:#ffc022;fill-opacity:1;fill-rule:nonzero;stroke:#ffc022;stroke-width:4.38198;stroke-opacity:1;marker:none;enable-background:accumulate"
       transform="matrix(0.98240648,-0.13984811,0.15256526,1.071742,1583.9812,1224.0391)"><flowRegion
         id="flowRegion3065-8-1-0"
         style="stroke-width:4.38198"><rect
           id="rect3067-6-8-8"
           width="352.97433"
           height="120.68928"
           x="92.642677"
           y="425.30325"
           style="color:#000000;font-size:72px;display:inline;overflow:visible;visibility:visible;fill:#ffc022;fill-opacity:1;fill-rule:nonzero;stroke:#ffc022;stroke-width:4.3819828;stroke-opacity:1;marker:none;enable-background:accumulate" /></flowRegion><flowPara
         style="color:#000000;font-style:normal;font-variant:normal;font-weight:normal;font-stretch:normal;font-size:64px;line-height:1.25;font-family:Lavi;-inkscape-font-specification:Lavi;text-align:center;text-anchor:middle;display:inline;overflow:visible;visibility:visible;fill:#ffc022;fill-opacity:1;fill-rule:nonzero;stroke:#ffc022;stroke-width:3.45423;stroke-miterlimit:4;stroke-dasharray:none;stroke-opacity:1;marker:none;enable-background:accumulate"
         id="flowPara3188-8-31">MiaUauau</flowPara></flowRoot>
    <flowRoot
       xml:space="preserve"
       id="flowRoot3063-8-03-1-0-2"
       style="color:#000000;font-style:normal;font-variant:normal;font-weight:normal;font-stretch:normal;line-height:0.01%;font-family:Arial;-inkscape-font-specification:Arial;letter-spacing:0px;word-spacing:0px;display:inline;overflow:visible;visibility:visible;fill:#ffccaa;fill-opacity:1;fill-rule:nonzero;stroke:#ffccaa;stroke-width:4.38198;stroke-opacity:1;marker:none;enable-background:accumulate"
       transform="matrix(1.0286168,-0.76308527,0.78008336,0.98704604,-252.8807,428.79751)"><flowRegion
         id="flowRegion3065-8-1-9-3-6"
         style="stroke-width:4.38198"><rect
           id="rect3067-6-8-6-1-9"
           width="352.97433"
           height="120.68928"
           x="92.642677"
           y="425.30325"
           style="color:#000000;font-size:72px;display:inline;overflow:visible;visibility:visible;fill:#ffccaa;fill-opacity:1;fill-rule:nonzero;stroke:#ffccaa;stroke-width:4.3819828;stroke-opacity:1;marker:none;enable-background:accumulate" /></flowRegion><flowPara
         style="color:#000000;font-style:normal;font-variant:normal;font-weight:normal;font-stretch:normal;font-size:64px;line-height:1.25;font-family:Lavi;-inkscape-font-specification:Lavi;text-align:center;text-anchor:middle;display:inline;overflow:visible;visibility:visible;fill:#ffccaa;fill-opacity:1;fill-rule:nonzero;stroke:#ffccaa;stroke-width:3.45423;stroke-miterlimit:4;stroke-dasharray:none;stroke-opacity:1;marker:none;enable-background:accumulate"
         id="flowPara3188-8-3-5-4">¡MiaaUu</flowPara></flowRoot>
    <flowRoot
       xml:space="preserve"
       id="flowRoot3063-8-03-1-05"
       style="color:#000000;font-style:normal;font-variant:normal;font-weight:normal;font-stretch:normal;line-height:0.01%;font-family:Arial;-inkscape-font-specification:Arial;letter-spacing:0px;word-spacing:0px;display:inline;overflow:visible;visibility:visible;fill:#ffccaa;fill-opacity:1;fill-rule:nonzero;stroke:#ffccaa;stroke-width:4.38198;stroke-opacity:1;marker:none;enable-background:accumulate"
       transform="matrix(0.77195084,-0.62351574,0.6802154,0.8421485,-34.960884,383.55763)"><flowRegion
         id="flowRegion3065-8-1-9-9"
         style="stroke-width:4.38198"><rect
           id="rect3067-6-8-6-15"
           width="352.97433"
           height="120.68928"
           x="92.642677"
           y="425.30325"
           style="color:#000000;font-size:72px;display:inline;overflow:visible;visibility:visible;fill:#ffccaa;fill-opacity:1;fill-rule:nonzero;stroke:#ffccaa;stroke-width:4.3819828;stroke-opacity:1;marker:none;enable-background:accumulate" /></flowRegion><flowPara
         style="color:#000000;font-style:normal;font-variant:normal;font-weight:normal;font-stretch:normal;font-size:64px;line-height:1.25;font-family:Lavi;-inkscape-font-specification:Lavi;text-align:center;text-anchor:middle;display:inline;overflow:visible;visibility:visible;fill:#ffccaa;fill-opacity:1;fill-rule:nonzero;stroke:#ffccaa;stroke-width:3.45423;stroke-miterlimit:4;stroke-dasharray:none;stroke-opacity:1;marker:none;enable-background:accumulate"
         id="flowPara3188-8-3-0"> </flowPara></flowRoot>
    <flowRoot
       xml:space="preserve"
       id="flowRoot3063-8-9-4"
       style="color:#000000;font-style:normal;font-variant:normal;font-weight:normal;font-stretch:normal;line-height:0.01%;font-family:Arial;-inkscape-font-specification:Arial;letter-spacing:0px;word-spacing:0px;display:inline;overflow:visible;visibility:visible;fill:#483e37;fill-opacity:1;fill-rule:nonzero;stroke:#483e37;stroke-width:4.38198;stroke-opacity:1;marker:none;enable-background:accumulate"
       transform="matrix(0.94974412,-0.62604982,0.68297993,1.0361095,-86.856923,433.45781)"><flowRegion
         id="flowRegion3065-8-34-1"
         style="stroke-width:4.38198"><rect
           id="rect3067-6-0-6"
           width="248.66193"
           height="90.046997"
           x="92.642677"
           y="425.30325"
           style="color:#000000;font-size:72px;display:inline;overflow:visible;visibility:visible;fill:#483e37;fill-opacity:1;fill-rule:nonzero;stroke:#483e37;stroke-width:4.3819828;stroke-opacity:1;marker:none;enable-background:accumulate" /></flowRegion><flowPara
         style="color:#000000;font-style:normal;font-variant:normal;font-weight:normal;font-stretch:normal;font-size:64px;line-height:1.25;font-family:Lavi;-inkscape-font-specification:Lavi;text-align:center;text-anchor:middle;display:inline;overflow:visible;visibility:visible;fill:#483e37;fill-opacity:1;fill-rule:nonzero;stroke:#483e37;stroke-width:3.45423;stroke-miterlimit:4;stroke-dasharray:none;stroke-opacity:1;marker:none;enable-background:accumulate"
         id="flowPara3188-0-3">¡Cloc</flowPara></flowRoot>
    <flowRoot
       xml:space="preserve"
       id="flowRoot3063-8-9-4-4"
       style="color:#000000;font-style:normal;font-variant:normal;font-weight:normal;font-stretch:normal;line-height:0.01%;font-family:Arial;-inkscape-font-specification:Arial;letter-spacing:0px;word-spacing:0px;display:inline;overflow:visible;visibility:visible;fill:#483e37;fill-opacity:1;fill-rule:nonzero;stroke:#483e37;stroke-width:4.38198;stroke-opacity:1;marker:none;enable-background:accumulate"
       transform="matrix(0.68487433,-0.4571937,0.49486606,0.76023252,159.33923,467.03243)"
       inkscape:transform-center-x="-43.097021"
       inkscape:transform-center-y="50.987355"><flowRegion
         id="flowRegion3065-8-34-1-4"
         style="stroke-width:4.38198"><rect
           id="rect3067-6-0-6-9"
           width="353.99356"
           height="72.084663"
           x="92.642677"
           y="425.30325"
           style="color:#000000;font-size:72px;display:inline;overflow:visible;visibility:visible;fill:#483e37;fill-opacity:1;fill-rule:nonzero;stroke:#483e37;stroke-width:4.3819828;stroke-opacity:1;marker:none;enable-background:accumulate" /></flowRegion><flowPara
         style="color:#000000;font-style:normal;font-variant:normal;font-weight:normal;font-stretch:normal;font-size:64px;line-height:1.25;font-family:Lavi;-inkscape-font-specification:Lavi;text-align:center;text-anchor:middle;display:inline;overflow:visible;visibility:visible;fill:#483e37;fill-opacity:1;fill-rule:nonzero;stroke:#483e37;stroke-width:3.45423;stroke-miterlimit:4;stroke-dasharray:none;stroke-opacity:1;marker:none;enable-background:accumulate"
         id="flowPara3188-0-3-3">Cloc</flowPara></flowRoot>
    <flowRoot
       xml:space="preserve"
       id="flowRoot3063-8-03-1-05-8"
       style="color:#000000;font-style:normal;font-variant:normal;font-weight:normal;font-stretch:normal;line-height:0.01%;font-family:Arial;-inkscape-font-specification:Arial;letter-spacing:0px;word-spacing:0px;display:inline;overflow:visible;visibility:visible;fill:#ffccaa;fill-opacity:1;fill-rule:nonzero;stroke:#ffccaa;stroke-width:4.38198;stroke-opacity:1;marker:none;enable-background:accumulate"
       transform="matrix(0.56474589,-0.45615334,0.49763383,0.61610128,194.20975,381.8921)"><flowRegion
         id="flowRegion3065-8-1-9-9-6"
         style="stroke-width:4.38198"><rect
           id="rect3067-6-8-6-15-7"
           width="262.5029"
           height="154.03389"
           x="176.77422"
           y="422.26297"
           style="color:#000000;font-size:72px;display:inline;overflow:visible;visibility:visible;fill:#ffccaa;fill-opacity:1;fill-rule:nonzero;stroke:#ffccaa;stroke-width:4.3819828;stroke-opacity:1;marker:none;enable-background:accumulate" /></flowRegion><flowPara
         style="color:#000000;font-style:normal;font-variant:normal;font-weight:normal;font-stretch:normal;font-size:64px;line-height:1.25;font-family:Lavi;-inkscape-font-specification:Lavi;text-align:center;text-anchor:middle;display:inline;overflow:visible;visibility:visible;fill:#ffccaa;fill-opacity:1;fill-rule:nonzero;stroke:#ffccaa;stroke-width:3.45423;stroke-miterlimit:4;stroke-dasharray:none;stroke-opacity:1;marker:none;enable-background:accumulate"
         id="flowPara3188-8-3-0-9">MiaaUu!</flowPara></flowRoot>
    <flowRoot
       xml:space="preserve"
       id="flowRoot3063-8-9-4-4-9"
       style="color:#000000;font-style:normal;font-variant:normal;font-weight:normal;font-stretch:normal;line-height:0.01%;font-family:Arial;-inkscape-font-specification:Arial;letter-spacing:0px;word-spacing:0px;display:inline;overflow:visible;visibility:visible;fill:#483e37;fill-opacity:1;fill-rule:nonzero;stroke:#483e37;stroke-width:4.38198;stroke-opacity:1;marker:none;enable-background:accumulate"
       transform="matrix(0.56307455,-0.37588521,0.40685782,0.62503084,323.95837,455.54213)"
       inkscape:transform-center-x="-35.428547"
       inkscape:transform-center-y="41.91695"><flowRegion
         id="flowRegion3065-8-34-1-4-1"
         style="stroke-width:4.38198"><rect
           id="rect3067-6-0-6-9-0"
           width="468.10974"
           height="72.527359"
           x="92.642677"
           y="425.30325"
           style="color:#000000;font-size:72px;display:inline;overflow:visible;visibility:visible;fill:#483e37;fill-opacity:1;fill-rule:nonzero;stroke:#483e37;stroke-width:4.3819828;stroke-opacity:1;marker:none;enable-background:accumulate" /></flowRegion><flowPara
         style="color:#000000;font-style:normal;font-variant:normal;font-weight:normal;font-stretch:normal;font-size:64px;line-height:1.25;font-family:Lavi;-inkscape-font-specification:Lavi;text-align:center;text-anchor:middle;display:inline;overflow:visible;visibility:visible;fill:#483e37;fill-opacity:1;fill-rule:nonzero;stroke:#483e37;stroke-width:3.45423;stroke-miterlimit:4;stroke-dasharray:none;stroke-opacity:1;marker:none;enable-background:accumulate"
         id="flowPara3188-0-3-3-1">Cloc!</flowPara></flowRoot>
    <flowRoot
       xml:space="preserve"
       id="flowRoot3063-8-0-2-7"
       style="color:#000000;font-style:normal;font-variant:normal;font-weight:normal;font-stretch:normal;line-height:0.01%;font-family:Arial;-inkscape-font-specification:Arial;letter-spacing:0px;word-spacing:0px;display:inline;overflow:visible;visibility:visible;fill:#ffd42a;fill-opacity:1;fill-rule:nonzero;stroke:#ffd42a;stroke-width:4.38198;stroke-opacity:1;marker:none;enable-background:accumulate"
       transform="matrix(0.5016147,-0.42637756,0.45739677,0.4784492,212.14382,296.1275)"><flowRegion
         id="flowRegion3065-8-3-4-2"
         style="stroke-width:4.38198"><rect
           id="rect3067-6-9-9-9"
           width="248.66193"
           height="90.046997"
           x="92.642677"
           y="425.30325"
           style="color:#000000;font-size:72px;display:inline;overflow:visible;visibility:visible;fill:#ffd42a;fill-opacity:1;fill-rule:nonzero;stroke:#ffd42a;stroke-width:4.3819828;stroke-opacity:1;marker:none;enable-background:accumulate" /></flowRegion><flowPara
         style="color:#000000;font-style:normal;font-variant:normal;font-weight:normal;font-stretch:normal;font-size:64px;line-height:1.25;font-family:Lavi;-inkscape-font-specification:Lavi;text-align:center;text-anchor:middle;display:inline;overflow:visible;visibility:visible;fill:#ffd42a;fill-opacity:1;fill-rule:nonzero;stroke:#ffd42a;stroke-width:3.45423;stroke-miterlimit:4;stroke-dasharray:none;stroke-opacity:1;marker:none;enable-background:accumulate"
         id="flowPara3188-4-0-3">Guau!</flowPara></flowRoot>
  </g>
</svg>
