<?xml version="1.0" encoding="UTF-8" standalone="no"?>
<!-- Created with Inkscape (http://www.inkscape.org/) -->

<svg
   xmlns:dc="http://purl.org/dc/elements/1.1/"
   xmlns:cc="http://creativecommons.org/ns#"
   xmlns:rdf="http://www.w3.org/1999/02/22-rdf-syntax-ns#"
   xmlns:svg="http://www.w3.org/2000/svg"
   xmlns="http://www.w3.org/2000/svg"
   xmlns:xlink="http://www.w3.org/1999/xlink"
   xmlns:sodipodi="http://sodipodi.sourceforge.net/DTD/sodipodi-0.dtd"
   xmlns:inkscape="http://www.inkscape.org/namespaces/inkscape"
   id="svg2"
   version="1.1"
   inkscape:version="0.92.3 (2405546, 2018-03-11)"
   width="2481"
   height="3503"
   sodipodi:docname="E27P06.svg"
   inkscape:export-filename="C:\Users\ruden\Desktop\E27P06.png"
   inkscape:export-xdpi="96"
   inkscape:export-ydpi="96">
  <metadata
     id="metadata8">
    <rdf:RDF>
      <cc:Work
         rdf:about="">
        <dc:format>image/svg+xml</dc:format>
        <dc:type
           rdf:resource="http://purl.org/dc/dcmitype/StillImage" />
        <dc:title />
      </cc:Work>
    </rdf:RDF>
  </metadata>
  <defs
     id="defs6">
    <filter
       style="color-interpolation-filters:sRGB"
       id="filter4375-4-1-1-1-9"
       inkscape:label="deevad outline effect">
      <feFlood
         id="feFlood4377-7-9-0-8-1"
         flood-opacity="1"
         flood-color="rgb(0,0,0)"
         result="flood" />
      <feComposite
         id="feComposite4379-3-8-8-2-77"
         in2="SourceGraphic"
         in="flood"
         operator="in"
         result="composite1" />
      <feMorphology
         id="feMorphology4393-1-0-49-8-9"
         operator="dilate"
         radius="4"
         result="result3" />
      <feComposite
         id="feComposite4385-9-5-7-0-8"
         in2="result3"
         in="SourceGraphic"
         operator="over"
         result="composite2" />
    </filter>
    <filter
       style="color-interpolation-filters:sRGB"
       id="filter4375-4-1-1-1-9-7-7-0-3"
       inkscape:label="deevad outline effect">
      <feFlood
         id="feFlood4377-7-9-0-8-1-4-8-3-2"
         flood-opacity="1"
         flood-color="rgb(0,0,0)"
         result="flood" />
      <feComposite
         id="feComposite4379-3-8-8-2-77-7-8-1-2"
         in2="SourceGraphic"
         in="flood"
         operator="in"
         result="composite1" />
      <feMorphology
         id="feMorphology4393-1-0-49-8-9-3-9-0-1"
         operator="dilate"
         radius="4"
         result="result3" />
      <feComposite
         id="feComposite4385-9-5-7-0-8-0-0-3-5"
         in2="result3"
         in="SourceGraphic"
         operator="over"
         result="composite2" />
    </filter>
    <filter
       style="color-interpolation-filters:sRGB"
       id="filter4375-4-1-1-1-9-7-7-0"
       inkscape:label="deevad outline effect">
      <feFlood
         id="feFlood4377-7-9-0-8-1-4-8-3"
         flood-opacity="1"
         flood-color="rgb(0,0,0)"
         result="flood" />
      <feComposite
         id="feComposite4379-3-8-8-2-77-7-8-1"
         in2="SourceGraphic"
         in="flood"
         operator="in"
         result="composite1" />
      <feMorphology
         id="feMorphology4393-1-0-49-8-9-3-9-0"
         operator="dilate"
         radius="4"
         result="result3" />
      <feComposite
         id="feComposite4385-9-5-7-0-8-0-0-3"
         in2="result3"
         in="SourceGraphic"
         operator="over"
         result="composite2" />
    </filter>
    <filter
       style="color-interpolation-filters:sRGB"
       id="filter4375-4-1-1-1-9-7-7"
       inkscape:label="deevad outline effect">
      <feFlood
         id="feFlood4377-7-9-0-8-1-4-8"
         flood-opacity="1"
         flood-color="rgb(0,0,0)"
         result="flood" />
      <feComposite
         id="feComposite4379-3-8-8-2-77-7-8"
         in2="SourceGraphic"
         in="flood"
         operator="in"
         result="composite1" />
      <feMorphology
         id="feMorphology4393-1-0-49-8-9-3-9"
         operator="dilate"
         radius="4"
         result="result3" />
      <feComposite
         id="feComposite4385-9-5-7-0-8-0-0"
         in2="result3"
         in="SourceGraphic"
         operator="over"
         result="composite2" />
    </filter>
    <filter
       style="color-interpolation-filters:sRGB"
       id="filter4375-4-1-1-1-9-7"
       inkscape:label="deevad outline effect">
      <feFlood
         id="feFlood4377-7-9-0-8-1-4"
         flood-opacity="1"
         flood-color="rgb(0,0,0)"
         result="flood" />
      <feComposite
         id="feComposite4379-3-8-8-2-77-7"
         in2="SourceGraphic"
         in="flood"
         operator="in"
         result="composite1" />
      <feMorphology
         id="feMorphology4393-1-0-49-8-9-3"
         operator="dilate"
         radius="4"
         result="result3" />
      <feComposite
         id="feComposite4385-9-5-7-0-8-0"
         in2="result3"
         in="SourceGraphic"
         operator="over"
         result="composite2" />
    </filter>
    <filter
       style="color-interpolation-filters:sRGB"
       id="filter4375-4-1-1-1-9-75"
       inkscape:label="deevad outline effect">
      <feFlood
         id="feFlood4377-7-9-0-8-1-3"
         flood-opacity="1"
         flood-color="rgb(0,0,0)"
         result="flood" />
      <feComposite
         id="feComposite4379-3-8-8-2-77-5"
         in2="SourceGraphic"
         in="flood"
         operator="in"
         result="composite1" />
      <feMorphology
         id="feMorphology4393-1-0-49-8-9-6"
         operator="dilate"
         radius="4"
         result="result3" />
      <feComposite
         id="feComposite4385-9-5-7-0-8-2"
         in2="result3"
         in="SourceGraphic"
         operator="over"
         result="composite2" />
    </filter>
    <linearGradient
       gradientTransform="matrix(0.9620232,0,0,1.1282469,-764.28464,-38.250005)"
       inkscape:collect="always"
       xlink:href="#linearGradient964"
       id="linearGradient966"
       x1="483.93088"
       y1="252.79726"
       x2="521.5141"
       y2="254.66634"
       gradientUnits="userSpaceOnUse" />
    <linearGradient
       inkscape:collect="always"
       id="linearGradient964">
      <stop
         style="stop-color:#918a6f;stop-opacity:1;"
         offset="0"
         id="stop960" />
      <stop
         style="stop-color:#c2bb9f;stop-opacity:1"
         offset="1"
         id="stop962" />
    </linearGradient>
    <radialGradient
       inkscape:collect="always"
       xlink:href="#linearGradient928"
       id="radialGradient932"
       cx="322.14978"
       cy="230.87151"
       fx="322.14978"
       fy="230.87151"
       r="182.11266"
       gradientTransform="matrix(1.0760297,-0.00865386,0.00801478,1.3707011,-845.99625,-48.45967)"
       gradientUnits="userSpaceOnUse" />
    <linearGradient
       inkscape:collect="always"
       id="linearGradient928">
      <stop
         style="stop-color:#f3efe0;stop-opacity:1"
         offset="0"
         id="stop924" />
      <stop
         style="stop-color:#d9cc9d;stop-opacity:1"
         offset="1"
         id="stop926" />
    </linearGradient>
    <filter
       style="color-interpolation-filters:sRGB"
       id="filter4375-4-1-1-1-9-30-2-7-6"
       inkscape:label="Roughen">
      <feFlood
         id="feFlood4377-7-9-0-8-1-78-6-7-3"
         flood-opacity="1"
         flood-color="rgb(0,0,0)"
         result="flood" />
      <feComposite
         id="feComposite4379-3-8-8-2-77-68-1-1-9"
         in2="SourceGraphic"
         in="flood"
         operator="in"
         result="composite1" />
      <feMorphology
         id="feMorphology4393-1-0-49-8-9-8-0-1-4"
         operator="dilate"
         radius="4"
         result="result3" />
      <feComposite
         id="feComposite4385-9-5-7-0-8-4-6-5-8"
         in2="result3"
         in="SourceGraphic"
         operator="over"
         result="fbSourceGraphic" />
      <feColorMatrix
         result="fbSourceGraphicAlpha"
         in="fbSourceGraphic"
         values="0 0 0 -1 0 0 0 0 -1 0 0 0 0 -1 0 0 0 0 1 0"
         id="feColorMatrix333-3-1-9-1" />
      <feTurbulence
         id="feTurbulence335-1-5-7-2"
         type="fractalNoise"
         numOctaves="5"
         seed="1"
         baseFrequency="0.013 0.013"
         result="turbulence" />
      <feDisplacementMap
         in2="turbulence"
         id="feDisplacementMap337-4-9-7-9"
         in="fbSourceGraphic"
         scale="6.6"
         yChannelSelector="G"
         xChannelSelector="R"
         result="fbSourceGraphic" />
      <feColorMatrix
         result="fbSourceGraphicAlpha"
         in="fbSourceGraphic"
         values="0 0 0 -1 0 0 0 0 -1 0 0 0 0 -1 0 0 0 0 1 0"
         id="feColorMatrix435-92-4-6-3" />
      <feTurbulence
         id="feTurbulence437-06-9-7-9"
         type="fractalNoise"
         numOctaves="5"
         seed="27"
         baseFrequency="0.001 0.4414"
         result="turbulence" />
      <feDisplacementMap
         in2="turbulence"
         id="feDisplacementMap439-8-0-3-0"
         in="fbSourceGraphic"
         scale="4.27461"
         yChannelSelector="G"
         xChannelSelector="R" />
    </filter>
    <filter
       style="color-interpolation-filters:sRGB"
       id="filter4375-4-1-1-1-9-30-2-7"
       inkscape:label="Roughen">
      <feFlood
         id="feFlood4377-7-9-0-8-1-78-6-7"
         flood-opacity="1"
         flood-color="rgb(0,0,0)"
         result="flood" />
      <feComposite
         id="feComposite4379-3-8-8-2-77-68-1-1"
         in2="SourceGraphic"
         in="flood"
         operator="in"
         result="composite1" />
      <feMorphology
         id="feMorphology4393-1-0-49-8-9-8-0-1"
         operator="dilate"
         radius="4"
         result="result3" />
      <feComposite
         id="feComposite4385-9-5-7-0-8-4-6-5"
         in2="result3"
         in="SourceGraphic"
         operator="over"
         result="fbSourceGraphic" />
      <feColorMatrix
         result="fbSourceGraphicAlpha"
         in="fbSourceGraphic"
         values="0 0 0 -1 0 0 0 0 -1 0 0 0 0 -1 0 0 0 0 1 0"
         id="feColorMatrix333-3-1-9" />
      <feTurbulence
         id="feTurbulence335-1-5-7"
         type="fractalNoise"
         numOctaves="5"
         seed="1"
         baseFrequency="0.013 0.013"
         result="turbulence" />
      <feDisplacementMap
         in2="turbulence"
         id="feDisplacementMap337-4-9-7"
         in="fbSourceGraphic"
         scale="6.6"
         yChannelSelector="G"
         xChannelSelector="R"
         result="fbSourceGraphic" />
      <feColorMatrix
         result="fbSourceGraphicAlpha"
         in="fbSourceGraphic"
         values="0 0 0 -1 0 0 0 0 -1 0 0 0 0 -1 0 0 0 0 1 0"
         id="feColorMatrix435-92-4-6" />
      <feTurbulence
         id="feTurbulence437-06-9-7"
         type="fractalNoise"
         numOctaves="5"
         seed="27"
         baseFrequency="0.001 0.4414"
         result="turbulence" />
      <feDisplacementMap
         in2="turbulence"
         id="feDisplacementMap439-8-0-3"
         in="fbSourceGraphic"
         scale="4.27461"
         yChannelSelector="G"
         xChannelSelector="R" />
    </filter>
    <filter
       style="color-interpolation-filters:sRGB"
       id="filter4375-4-1-1-1-9-30-2"
       inkscape:label="Roughen">
      <feFlood
         id="feFlood4377-7-9-0-8-1-78-6"
         flood-opacity="1"
         flood-color="rgb(0,0,0)"
         result="flood" />
      <feComposite
         id="feComposite4379-3-8-8-2-77-68-1"
         in2="SourceGraphic"
         in="flood"
         operator="in"
         result="composite1" />
      <feMorphology
         id="feMorphology4393-1-0-49-8-9-8-0"
         operator="dilate"
         radius="4"
         result="result3" />
      <feComposite
         id="feComposite4385-9-5-7-0-8-4-6"
         in2="result3"
         in="SourceGraphic"
         operator="over"
         result="fbSourceGraphic" />
      <feColorMatrix
         result="fbSourceGraphicAlpha"
         in="fbSourceGraphic"
         values="0 0 0 -1 0 0 0 0 -1 0 0 0 0 -1 0 0 0 0 1 0"
         id="feColorMatrix333-3-1" />
      <feTurbulence
         id="feTurbulence335-1-5"
         type="fractalNoise"
         numOctaves="5"
         seed="1"
         baseFrequency="0.013 0.013"
         result="turbulence" />
      <feDisplacementMap
         in2="turbulence"
         id="feDisplacementMap337-4-9"
         in="fbSourceGraphic"
         scale="6.6"
         yChannelSelector="G"
         xChannelSelector="R"
         result="fbSourceGraphic" />
      <feColorMatrix
         result="fbSourceGraphicAlpha"
         in="fbSourceGraphic"
         values="0 0 0 -1 0 0 0 0 -1 0 0 0 0 -1 0 0 0 0 1 0"
         id="feColorMatrix435-92-4" />
      <feTurbulence
         id="feTurbulence437-06-9"
         type="fractalNoise"
         numOctaves="5"
         seed="27"
         baseFrequency="0.001 0.4414"
         result="turbulence" />
      <feDisplacementMap
         in2="turbulence"
         id="feDisplacementMap439-8-0"
         in="fbSourceGraphic"
         scale="4.27461"
         yChannelSelector="G"
         xChannelSelector="R" />
    </filter>
    <filter
       style="color-interpolation-filters:sRGB"
       id="filter4375-4-1-1-1-9-30"
       inkscape:label="Roughen">
      <feFlood
         id="feFlood4377-7-9-0-8-1-78"
         flood-opacity="1"
         flood-color="rgb(0,0,0)"
         result="flood" />
      <feComposite
         id="feComposite4379-3-8-8-2-77-68"
         in2="SourceGraphic"
         in="flood"
         operator="in"
         result="composite1" />
      <feMorphology
         id="feMorphology4393-1-0-49-8-9-8"
         operator="dilate"
         radius="4"
         result="result3" />
      <feComposite
         id="feComposite4385-9-5-7-0-8-4"
         in2="result3"
         in="SourceGraphic"
         operator="over"
         result="fbSourceGraphic" />
      <feColorMatrix
         result="fbSourceGraphicAlpha"
         in="fbSourceGraphic"
         values="0 0 0 -1 0 0 0 0 -1 0 0 0 0 -1 0 0 0 0 1 0"
         id="feColorMatrix333-3" />
      <feTurbulence
         id="feTurbulence335-1"
         type="fractalNoise"
         numOctaves="5"
         seed="1"
         baseFrequency="0.013 0.013"
         result="turbulence" />
      <feDisplacementMap
         in2="turbulence"
         id="feDisplacementMap337-4"
         in="fbSourceGraphic"
         scale="6.6"
         yChannelSelector="G"
         xChannelSelector="R"
         result="fbSourceGraphic" />
      <feColorMatrix
         result="fbSourceGraphicAlpha"
         in="fbSourceGraphic"
         values="0 0 0 -1 0 0 0 0 -1 0 0 0 0 -1 0 0 0 0 1 0"
         id="feColorMatrix435-92" />
      <feTurbulence
         id="feTurbulence437-06"
         type="fractalNoise"
         numOctaves="5"
         seed="27"
         baseFrequency="0.001 0.4414"
         result="turbulence" />
      <feDisplacementMap
         in2="turbulence"
         id="feDisplacementMap439-8"
         in="fbSourceGraphic"
         scale="4.27461"
         yChannelSelector="G"
         xChannelSelector="R" />
    </filter>
    <filter
       style="color-interpolation-filters:sRGB"
       id="filter4375-4-1-1-1-9-3"
       inkscape:label="Roughen">
      <feFlood
         id="feFlood4377-7-9-0-8-1-6"
         flood-opacity="1"
         flood-color="rgb(0,0,0)"
         result="flood" />
      <feComposite
         id="feComposite4379-3-8-8-2-77-75"
         in2="SourceGraphic"
         in="flood"
         operator="in"
         result="composite1" />
      <feMorphology
         id="feMorphology4393-1-0-49-8-9-35"
         operator="dilate"
         radius="4"
         result="result3" />
      <feComposite
         id="feComposite4385-9-5-7-0-8-6"
         in2="result3"
         in="SourceGraphic"
         operator="over"
         result="fbSourceGraphic" />
      <feColorMatrix
         result="fbSourceGraphicAlpha"
         in="fbSourceGraphic"
         values="0 0 0 -1 0 0 0 0 -1 0 0 0 0 -1 0 0 0 0 1 0"
         id="feColorMatrix333" />
      <feTurbulence
         id="feTurbulence335"
         type="fractalNoise"
         numOctaves="5"
         seed="1"
         baseFrequency="0.013 0.013"
         result="turbulence" />
      <feDisplacementMap
         in2="turbulence"
         id="feDisplacementMap337"
         in="fbSourceGraphic"
         scale="6.6"
         yChannelSelector="G"
         xChannelSelector="R"
         result="fbSourceGraphic" />
      <feColorMatrix
         result="fbSourceGraphicAlpha"
         in="fbSourceGraphic"
         values="0 0 0 -1 0 0 0 0 -1 0 0 0 0 -1 0 0 0 0 1 0"
         id="feColorMatrix435" />
      <feTurbulence
         id="feTurbulence437"
         type="fractalNoise"
         numOctaves="5"
         seed="27"
         baseFrequency="0.001 0.4414"
         result="turbulence" />
      <feDisplacementMap
         in2="turbulence"
         id="feDisplacementMap439"
         in="fbSourceGraphic"
         scale="4.27461"
         yChannelSelector="G"
         xChannelSelector="R" />
    </filter>
    <filter
       inkscape:collect="always"
       style="color-interpolation-filters:sRGB"
       id="filter4210-3"
       x="-0.0015578248"
       width="1.0031157"
       y="-0.0045528179"
       height="1.0091056">
      <feGaussianBlur
         inkscape:collect="always"
         stdDeviation="0.2079876"
         id="feGaussianBlur4212-9" />
    </filter>
    <filter
       inkscape:collect="always"
       style="color-interpolation-filters:sRGB"
       id="filter4210"
       x="-0.0015578248"
       width="1.0031157"
       y="-0.0045528179"
       height="1.0091056">
      <feGaussianBlur
         inkscape:collect="always"
         stdDeviation="0.2079876"
         id="feGaussianBlur4212" />
    </filter>
  </defs>
  <sodipodi:namedview
     pagecolor="#ffffff"
     bordercolor="#666666"
     borderopacity="1"
     objecttolerance="10"
     gridtolerance="10"
     guidetolerance="10"
     inkscape:pageopacity="0"
     inkscape:pageshadow="2"
     inkscape:window-width="1366"
     inkscape:window-height="704"
     id="namedview4"
     showgrid="false"
     inkscape:zoom="0.31979025"
     inkscape:cx="889.78006"
     inkscape:cy="1504.2999"
     inkscape:window-x="0"
     inkscape:window-y="27"
     inkscape:window-maximized="1"
     inkscape:current-layer="layer1"
     inkscape:snap-global="false" />
  <g
     inkscape:groupmode="layer"
     id="layer2"
     inkscape:label="artwork"
     sodipodi:insensitive="true">
    <image
       sodipodi:absref="/home/konstantin/projects/contrib/webcomics/ep27_Coriander-s-Invention/lang/ru/../gfx_Pepper-and-Carrot_by-David-Revoy_E27P06.png"
       xlink:href="../gfx_Pepper-and-Carrot_by-David-Revoy_E27P06.png"
       width="2481"
       height="3503"
       id="image10"
       x="0"
       y="0" />
  </g>
  <g
     inkscape:groupmode="layer"
     id="layer3"
     inkscape:label="speechbubbles">
    <path
       style="fill:#ffffff;fill-rule:evenodd;stroke:none;stroke-width:1.07425594px;stroke-linecap:butt;stroke-linejoin:miter;stroke-opacity:1"
       d="m 124.51579,244.93227 c 0,-58.80628 13.81676,-85.36394 32.23908,-98.64278 18.42234,-13.27884 82.9005,-22.76372 113.60439,-17.07279 30.70389,5.69093 59.87258,-3.79395 72.15414,-3.79395 12.28155,0 78.29491,1.89698 104.39321,9.48488 26.09831,7.5879 47.59104,-3.79395 61.4078,3.79395 13.81674,7.58791 52.1966,64.49721 52.1966,91.05488 0,26.55767 -16.88713,104.3337 -36.84467,115.71557 -19.95753,11.38186 -87.50608,28.45465 -121.28036,28.45465 -33.77427,0 -87.50607,0 -138.16749,-7.58791 C 213.55707,358.75086 169.03643,351.16296 149.0789,320.81133 129.12137,290.4597 126.05098,282.8718 124.51579,244.93227 Z"
       id="path1055"
       inkscape:connector-curvature="0" />
    <path
       style="fill:#ffffff;fill-rule:evenodd;stroke:none;stroke-width:1px;stroke-linecap:butt;stroke-linejoin:miter;stroke-opacity:1"
       d="m 331.00243,306.49609 c 0,0 -11.34439,15.12497 -17.23952,40.59312 -5.89513,25.46814 -7.35913,39.49755 -2.53393,61.15161 3.67951,16.51251 22.29674,57.72327 31.08248,67.32511 -23.57697,-24.17146 -47.44853,-51.19112 -54.87711,-89.33367 -3.46351,-17.78368 11.1671,-71.13643 15.72728,-83.70363 4.56019,-12.56722 27.8408,3.96746 27.8408,3.96746 z"
       id="path1057"
       inkscape:connector-curvature="0"
       sodipodi:nodetypes="csscssc" />
    <g
       transform="matrix(1.039476,0,0,0.88633082,839.29237,-4.1908013)"
       id="g975">
      <path
         inkscape:connector-curvature="0"
         id="path101"
         d="m 524.22751,191.63146 c -3.54348,-0.0348 -7.29462,0.1157 -11.15995,0.53804 0,0 -30.0934,62.27058 -34.39246,76.5103 11.46417,0 17.19658,2.58826 28.66075,3.88278 11.46419,1.29452 32.95953,-2.58907 41.55766,-3.23633 8.59813,-0.64726 15.76193,2.58904 44.42238,0 -2.86603,0.64726 -12.18043,-6.47148 -16.47949,-9.06051 -4.29907,-2.58904 -2.86564,-7.7685 -5.73169,-13.59384 -7.1651,4.53081 -12.18133,-3e-5 -15.76388,-3.23633 -3.58256,-3.2363 0,-6.73429 0,-6.73429 l 12.77953,-8.85507 c -3.1956,-18.67125 -9.78598,-23.87711 1.97813,-29.67315 l 19.34646,-0.64645 10.74778,-5.82622 -16.48174,0.64645 c -12.78626,1.01278 -21.80405,1.84038 -32.66837,1.29495 0,0 -11.46004,-1.8597 -26.81511,-2.01033 z m 14.40511,17.99219 c 0,0 11.92148,1.46891 13.54683,3.42659 1.62535,1.95768 4.33226,0.4895 6.4994,1.95776 2.16714,1.46826 4.87786,9.7878 2.71073,10.76663 -2.16714,0.97885 -5.41927,3.42554 -7.58642,2.44669 -2.16713,-0.97883 -4.87568,-5.87327 -4.87568,-5.87327 -0.54179,-4.40479 0,-6.85113 0,-6.85113 z"
         style="fill:url(#linearGradient966);fill-opacity:1;fill-rule:evenodd;stroke:none;stroke-width:0.99999994px;stroke-linecap:butt;stroke-linejoin:miter;stroke-opacity:1"
         sodipodi:nodetypes="cccsscscccccccccccssccccc" />
      <path
         inkscape:connector-curvature="0"
         id="path958"
         d="m 479.1379,267.64029 c 0,0 8.1984,-5.23752 15.06909,-6.63932 6.87069,-1.40181 24.66762,-6.18478 30.68906,-7.94356 6.02146,-1.75878 6.02146,-1.75878 6.02146,-1.75878 l -4.64731,-30.01543 -8.70287,-22.89613 -30.68908,2.80361 -5.49655,49.06313 z"
         style="fill:#6c6753;fill-rule:evenodd;stroke:#6c6753;stroke-width:1px;stroke-linecap:butt;stroke-linejoin:miter;stroke-opacity:1" />
      <path
         inkscape:connector-curvature="0"
         id="path99"
         d="m 541.89921,152.34375 c -0.14714,0.0194 -0.29648,0.0584 -0.44937,0.11719 -4.89222,1.87969 -40.11706,-0.93945 -46.96617,3.75976 -6.84911,4.69921 -102.98621,-0.94062 -119.61976,-2.82031 -16.63354,-1.87968 -98.82297,7.8e-4 -112.52117,2.82031 -13.69822,2.81953 -48.9227,6.57969 -91.97424,2.82032 l 2.93411,9.39843 0.98007,7.51758 -3.91418,7.51953 h 2.93411 l 15.65675,5.63867 v 8.45899 l -6.85034,6.57812 -10.76248,1.88086 c 0,16.44857 -8.57201,31.59947 -15.89192,50.34227 18.59043,-1.87969 21.76302,-3.75937 44.26723,-4.69922 22.50421,-0.93984 93.93032,10.33789 108.60698,10.33789 14.67666,0 46.9658,-2.81915 67.51312,-5.63867 20.54732,-2.81953 105.92276,1.14917 116.68564,0.20932 10.76288,-0.93985 24.46114,-7.51873 39.1378,-4.69921 l 10.76249,-41.15316 c 0,-4.69921 4.89223,-6.58008 4.89223,-6.58008 l -4.89223,-9.39843 c 0,0 3.91378,-12.21799 4.89223,-18.79688 0.94786,-6.37331 -0.85928,-24.21344 -5.4209,-23.61328 z m -352.27346,74.98942 c 1.88302,0.02 3.3984,0.6712 3.61122,2.30664 0.48646,3.73815 2.43327,8.87803 -0.97194,11.68164 -3.40522,2.80361 -12.16143,-0.46687 -12.16143,-2.33594 0,-1.86907 2.43188,-9.3457 2.43188,-9.3457 1.64181,-1.31419 4.66925,-2.33231 7.09027,-2.30664 z"
         style="fill:url(#radialGradient932);fill-opacity:1;fill-rule:evenodd;stroke:none;stroke-width:0.99999994px;stroke-linecap:butt;stroke-linejoin:miter;stroke-opacity:1"
         sodipodi:nodetypes="ccsssccccccccccsssscccccccccscc" />
      <path
         inkscape:connector-curvature="0"
         id="path111"
         d="m 515.27248,172.97336 c 7.29689,-4.20541 14.59379,-4.20541 16.05316,0.93454 1.45939,5.13994 4.8646,8.87808 0.48646,10.74716 -4.37813,1.86907 -10.7021,9.81262 -13.62086,4.20541 -2.91876,-5.60722 -9.72919,-8.41082 -8.75627,-9.81263 0.97291,-1.4018 5.83751,-6.07448 5.83751,-6.07448 z"
         style="opacity:0.53299997;vector-effect:none;fill:#cbc29a;fill-opacity:1;fill-rule:evenodd;stroke:none;stroke-width:0.99999994px;stroke-linecap:butt;stroke-linejoin:miter;stroke-miterlimit:4;stroke-dasharray:none;stroke-dashoffset:0;stroke-opacity:1" />
      <path
         inkscape:connector-curvature="0"
         id="path113"
         d="m 508.02036,204.75351 c 4.8646,-2.80361 8.75627,0 8.75627,3.27087 0,3.27088 2.4323,6.54175 -2.91875,6.54175 -5.35106,0 -9.72919,0.46727 -9.72919,-3.27087 0,-3.73814 3.89167,-6.54175 3.89167,-6.54175 z"
         style="opacity:0.53299997;vector-effect:none;fill:#cbc29a;fill-opacity:1;fill-rule:evenodd;stroke:none;stroke-width:0.99999994px;stroke-linecap:butt;stroke-linejoin:miter;stroke-miterlimit:4;stroke-dasharray:none;stroke-dashoffset:0;stroke-opacity:1" />
      <path
         inkscape:connector-curvature="0"
         id="path115"
         d="m 487.65472,226.68348 c 3.40522,-6.07449 6.81043,-4.67268 6.81043,-4.67268 l 4.37813,4.67268 -5.35104,5.60721 z"
         style="opacity:0.53299997;vector-effect:none;fill:#cbc29a;fill-opacity:1;fill-rule:evenodd;stroke:none;stroke-width:0.99999994px;stroke-linecap:butt;stroke-linejoin:miter;stroke-miterlimit:4;stroke-dasharray:none;stroke-dashoffset:0;stroke-opacity:1" />
    </g>
    <path
       style="fill:#ffffff;fill-rule:evenodd;stroke:none;stroke-width:1px;stroke-linecap:butt;stroke-linejoin:miter;stroke-opacity:1"
       d="m 192.38578,1169.5119 c 24.85883,-24.8589 149.15301,-34.5862 174.01185,-34.5862 24.85883,0 146.99138,3.2424 159.9612,49.7176 12.96983,46.4752 6.48492,63.7683 -25.93965,83.2231 -32.42457,19.4547 -90.68975,21.1211 -131.76087,20.0403 -41.07112,-1.0808 -141.68633,4.8185 -165.46435,-14.6362 -23.77801,-19.4548 -36.74784,-59.4451 -10.80818,-103.7586 z"
       id="path1095"
       inkscape:connector-curvature="0"
       sodipodi:nodetypes="csscscc" />
    <path
       style="fill:#ffffff;fill-rule:evenodd;stroke:none;stroke-width:1px;stroke-linecap:butt;stroke-linejoin:miter;stroke-opacity:1"
       d="m 482.13924,1201.3255 c 0,0 -8.62566,-5.3172 28.0282,-19.4148 36.65386,-14.0977 107.9013,-25.0538 135.15673,-23.1741 27.25544,1.8796 110.30926,1.2359 170.45918,31.3108 60.14993,30.075 115.60064,56.3906 153.19434,105.2624 -49.81165,-46.0523 -134.66245,-85.1159 -164.66532,-93.6365 -53.48105,-15.1883 -115.40776,-21.0243 -146.42257,-21.0243 -31.0148,0 -99.62331,14.0976 -140.03654,27.2554 -40.41323,13.1578 -69.54835,14.0977 -69.54835,14.0977 z"
       id="path1097"
       inkscape:connector-curvature="0"
       sodipodi:nodetypes="cccccssscc" />
    <path
       style="fill:#ffffff;fill-rule:evenodd;stroke:none;stroke-width:1px;stroke-linecap:butt;stroke-linejoin:miter;stroke-opacity:1"
       d="m 2258.0739,1501.5439 c 18.7969,6.5381 45.7663,17.1624 49.0353,28.6039 3.269,11.4416 20.4314,32.6902 14.7106,51.4871 -5.7208,18.7968 -22.0659,37.5937 -37.5937,48.218 -15.5279,10.6243 -44.949,18.7968 -63.7459,20.4313 -18.7968,1.6346 -67.0148,-9.807 -80.9081,-6.538 -13.8934,3.269 -64.5631,4.9035 -89.898,-3.269 -25.3349,-8.1726 -53.9388,-38.411 -58.0251,-57.2078 -4.0863,-18.7969 13.8933,-56.3906 17.1623,-66.1976 3.2691,-9.8071 17.1624,-13.0761 17.1624,-13.0761 38.7893,-5.6098 174.943,-10.8872 232.1002,-2.4518 z"
       id="path1099"
       inkscape:connector-curvature="0"
       sodipodi:nodetypes="ccccccccccc" />
    <path
       style="fill:#ffffff;fill-rule:evenodd;stroke:none;stroke-width:1px;stroke-linecap:butt;stroke-linejoin:miter;stroke-opacity:1"
       d="m 2031.7655,1513.8738 c -21.3196,-11.3705 -40.5074,-16.3451 -48.3246,-24.1623 -7.8172,-7.8172 -12.7918,-25.5836 -12.0811,-31.2688 0.7106,-5.6853 8.5278,-30.5583 17.7664,-33.4009 9.2385,-2.8426 39.7967,-17.7664 54.0098,-22.0303 14.2132,-4.2639 73.1976,-4.2639 87.4107,-1.4213 14.2131,2.8426 24.873,7.1065 28.4263,7.1065 3.5532,0 15.6344,-1.4213 24.1623,0 8.5278,1.4213 22.741,5.6853 29.1369,6.3959 6.3959,0.7107 12.7918,-3.5532 22.741,0.7107 9.9491,4.2639 23.4516,9.2385 30.5582,20.609 7.1065,11.3705 17.7664,14.9238 13.5024,35.5328 -4.2639,20.609 -12.1523,26.5074 -20.9999,29.5988 -8.8476,3.0914 -44.3804,11.6193 -57.1722,10.9086 -12.7918,-0.7106 -109.4411,-2.8426 -109.4411,-2.8426 l -42.6393,3.5533 z"
       id="path1101"
       inkscape:connector-curvature="0" />
    <path
       style="fill:#ffffff;fill-rule:evenodd;stroke:none;stroke-width:1px;stroke-linecap:butt;stroke-linejoin:miter;stroke-opacity:1"
       d="m 2009.0245,1445.6508 c -21.3196,-32.6901 -31.2688,-43.35 -49.7459,-55.4311 -18.477,-12.0812 -45.482,-11.3705 -78.8828,-5.6853 54.7205,-1.4213 65.3804,11.3705 73.9082,17.7664 8.5279,6.3959 29.1369,31.2689 35.5328,50.4566 6.3959,19.1877 19.1877,-7.1066 19.1877,-7.1066 z"
       id="path1103"
       inkscape:connector-curvature="0" />
    <path
       style="fill:#ffffff;fill-rule:evenodd;stroke:none;stroke-width:1.1010474px;stroke-linecap:butt;stroke-linejoin:miter;stroke-opacity:1"
       d="m 612.65938,1888.9622 13.56141,8.7006 -27.12284,6.2147 7.53413,43.503 -3.01365,31.0735 1.50682,24.8589 -4.52048,7.4576 21.09556,1.2429 36.16379,-1.2429 88.90267,1.2429 19.58872,-7.4576 66.30029,3.7288 67.80712,-12.4294 57.25935,2.4859 -6.02731,-8.7006 13.56143,-11.1865 -10.54777,-52.2035 6.02729,-19.8871 -6.02729,-4.9718 7.53412,-7.4576 -113.01186,-4.9718 h -27.12285 l -7.53412,-3.7288 -22.60238,2.4859 -45.20474,3.7288 -24.1092,-3.7288 -27.12284,8.7006 -24.1092,1.2429 z"
       id="path1105"
       inkscape:connector-curvature="0" />
    <path
       style="fill:#ffffff;fill-rule:evenodd;stroke:none;stroke-width:1.26017296px;stroke-linecap:butt;stroke-linejoin:miter;stroke-opacity:1"
       d="m 631.94987,2050.6378 107.26276,-9.675 66.18338,1.075 111.82714,-5.3751 146.05995,1.075 25.1041,1.0751 -4.5644,29.0251 -47.926,2.15 52.4904,8.6 -9.1288,25.8002 -15.9753,3.2251 22.8219,4.2999 -15.9753,4.3001 H 940.04497 l -79.87648,-2.15 -47.92591,1.075 -91.28744,5.375 -36.51499,1.075 -52.49028,-6.45 9.12875,-26.8752 31.95058,-7.525 -38.79715,-4.3001 z"
       id="path1107"
       inkscape:connector-curvature="0" />
    <path
       style="fill:#ffffff;fill-rule:evenodd;stroke:none;stroke-width:1.05811274px;stroke-linecap:butt;stroke-linejoin:miter;stroke-opacity:1"
       d="m 667.22908,2155.6021 82.14509,3.5665 2.93376,-5.3497 19.0694,2.6748 h 107.082 l 57.20818,-8.0245 26.40378,-3.5665 14.66872,8.0247 66.00959,-9.8078 10.268,-2.6749 73.3438,1.7832 -2.9337,6.2413 45.4733,4.4582 -1.4669,9.8077 -2.9339,10.6992 -24.9369,2.675 -2.9336,4.458 32.2713,3.5663 -2.9337,12.4826 -2.934,5.3498 -22.0031,2.6749 22.0031,5.3496 2.934,9.8077 -1.4671,32.0981 v 31.2064 l 5.8676,15.1574 v 8.0246 l -14.6688,-1.7833 7.3343,9.8077 -68.9431,-0.8917 -63.0757,3.5666 h -27.8707 l -54.2744,-0.8916 -36.6719,5.3496 -54.27444,-4.458 -45.47318,0.8916 -49.87382,1.7832 -83.61197,-0.8916 -14.66877,1.7832 v -10.6993 l 7.33439,-1.7833 -7.33439,-4.4579 -4.40062,-29.4235 22.00315,-6.2412 -2.93376,-7.1327 -14.66877,-0.8918 -7.33437,-24.9651 2.93375,-6.2413 20.53627,-3.5664 v -3.5664 l -26.40378,-6.2413 2.93376,-7.133 8.80125,-29.4232 z"
       id="path1109"
       inkscape:connector-curvature="0" />
    <path
       style="fill:#ffffff;fill-rule:evenodd;stroke:none;stroke-width:1px;stroke-linecap:butt;stroke-linejoin:miter;stroke-opacity:1"
       d="m 1192.053,2451.3632 -38.9095,-116.7285 -20.5355,-3.2425 -1.0808,35.6671 -159.9612,-194.5474 -27.02047,37.8286 -86.46552,-154.5571 -20.53556,19.4548 -32.42457,-110.2436 -50.79849,-8.6465 77.81896,143.7489 16.33097,-14.4505 85.04421,161.7527 40.21211,-44.6244 154.55706,190.2241 12.9698,3.2425 3.2425,-25.9397 z"
       id="path1111"
       inkscape:connector-curvature="0"
       sodipodi:nodetypes="cccccccccccccccccc" />
  </g>
  <g
     inkscape:groupmode="layer"
     id="layer1"
     inkscape:label="txt">
    <text
       xml:space="preserve"
       style="font-style:normal;font-variant:normal;font-weight:normal;font-stretch:normal;line-height:0%;font-family:Lavi;-inkscape-font-specification:Lavi;text-align:center;letter-spacing:0px;word-spacing:0px;text-anchor:middle;fill:#000000;fill-opacity:1;stroke:none"
       x="338.13303"
       y="182.99304"
       id="text4246"><tspan
         sodipodi:role="line"
         style="font-size:45px;line-height:1.20000005"
         x="338.13303"
         y="182.99304"
         id="tspan762">Я придумала</tspan><tspan
         sodipodi:role="line"
         style="font-size:45px;line-height:1.20000005"
         x="338.13303"
         y="236.99304"
         id="tspan177">как мы сможем</tspan><tspan
         sodipodi:role="line"
         style="font-size:45px;line-height:1.20000005"
         x="338.13303"
         y="290.99304"
         id="tspan179">использовать</tspan><tspan
         sodipodi:role="line"
         style="font-size:45px;line-height:1.20000005"
         x="338.13303"
         y="344.99304"
         id="tspan181">этот глюк.</tspan></text>
    <text
       xml:space="preserve"
       style="font-style:normal;font-variant:normal;font-weight:normal;font-stretch:normal;line-height:0%;font-family:Lavi;-inkscape-font-specification:Lavi;letter-spacing:0px;word-spacing:0px;fill:#000000;fill-opacity:1;stroke:#000000;stroke-width:0.99236238;stroke-miterlimit:4;stroke-dasharray:none;stroke-opacity:1;filter:url(#filter4375-4-1-1-1-9)"
       x="787.65729"
       y="1584.5073"
       id="text4580"
       transform="matrix(0.77821249,-0.28959874,-0.30299683,1.0489343,541.49337,-699.9517)"><tspan
         sodipodi:role="line"
         id="tspan4582"
         x="787.65729"
         y="1584.5073"
         style="font-size:70px;line-height:1.25;fill:#ffffff">Динь!<tspan
   style="font-size:80.40014648px"
   id="tspan4617" /></tspan></text>
    <text
       xml:space="preserve"
       style="font-style:normal;font-variant:normal;font-weight:normal;font-stretch:normal;line-height:1.20000005;font-family:Lavi;-inkscape-font-specification:Lavi;text-align:center;letter-spacing:0px;word-spacing:0px;text-anchor:middle;fill:#000000;fill-opacity:1;stroke:none"
       x="1220.785"
       y="197.28235"
       id="text4246-3"><tspan
         sodipodi:role="line"
         style="font-style:italic;font-variant:normal;font-weight:normal;font-stretch:normal;font-size:60px;line-height:1.20000005;font-family:Lavi;-inkscape-font-specification:'Lavi, Italic';font-variant-ligatures:normal;font-variant-caps:normal;font-variant-numeric:normal;font-feature-settings:normal;text-align:center;writing-mode:lr-tb;text-anchor:middle"
         x="1220.785"
         y="197.28235"
         id="tspan18">Вечером...</tspan></text>
    <text
       xml:space="preserve"
       style="font-style:normal;font-variant:normal;font-weight:normal;font-stretch:normal;line-height:0%;font-family:Lavi;-inkscape-font-specification:Lavi;text-align:center;letter-spacing:0px;word-spacing:0px;text-anchor:middle;fill:#000000;fill-opacity:1;stroke:none"
       x="351.06015"
       y="1197.5922"
       id="text4246-2"><tspan
         sodipodi:role="line"
         style="font-size:45px;line-height:1.20000005"
         x="351.06015"
         y="1197.5922"
         id="tspan939">Перчинка, ты</tspan><tspan
         sodipodi:role="line"
         style="font-size:45px;line-height:1.20000005"
         x="351.06015"
         y="1251.5922"
         id="tspan189">просто гений!</tspan></text>
    <text
       xml:space="preserve"
       style="font-style:normal;font-variant:normal;font-weight:normal;font-stretch:normal;line-height:0%;font-family:Lavi;-inkscape-font-specification:Lavi;text-align:center;letter-spacing:0px;word-spacing:0px;text-anchor:middle;fill:#000000;fill-opacity:1;stroke:none"
       x="2129.0879"
       y="1472.6672"
       id="text4246-2-0"><tspan
         sodipodi:role="line"
         style="font-size:45px;line-height:1.20000005"
         x="2129.0879"
         y="1472.6672"
         id="tspan939-3">Нет, это ты.</tspan></text>
    <text
       xml:space="preserve"
       style="font-style:normal;font-variant:normal;font-weight:normal;font-stretch:normal;line-height:0%;font-family:Lavi;-inkscape-font-specification:Lavi;text-align:center;letter-spacing:0px;word-spacing:0px;text-anchor:middle;fill:#000000;fill-opacity:1;stroke:none"
       x="2152.8889"
       y="1553.8828"
       id="text4246-2-0-6"><tspan
         sodipodi:role="line"
         style="font-size:45px;line-height:1.20000005"
         x="2152.8889"
         y="1553.8828"
         id="tspan982">Это же <tspan
   style="-inkscape-font-specification:'Lavi, Bold';font-family:Lavi;font-weight:bold;font-style:normal;font-stretch:normal;font-variant:normal;font-size:45px;text-anchor:middle;text-align:center;writing-mode:lr;font-variant-ligatures:normal;font-variant-caps:normal;font-variant-numeric:normal;font-feature-settings:normal"
   id="tspan196">твоё</tspan></tspan><tspan
         sodipodi:role="line"
         style="font-size:45px;line-height:1.20000005"
         x="2152.8889"
         y="1607.8828"
         id="tspan194">изобретение!</tspan></text>
    <text
       xml:space="preserve"
       style="font-style:normal;font-variant:normal;font-weight:normal;font-stretch:normal;line-height:0%;font-family:Lavi;-inkscape-font-specification:Lavi;text-align:center;letter-spacing:0px;word-spacing:0px;text-anchor:middle;fill:#000000;fill-opacity:1;stroke:none"
       x="795.09375"
       y="1937.0803"
       id="text4246-3-3-2"><tspan
         sodipodi:role="line"
         style="font-style:normal;font-variant:normal;font-weight:normal;font-stretch:normal;font-size:32px;line-height:1.39999998;font-family:'Press Start 2P';-inkscape-font-specification:'Press Start 2P'"
         x="795.09375"
         y="1937.0803"
         id="tspan998">Следующий,</tspan><tspan
         sodipodi:role="line"
         style="font-style:normal;font-variant:normal;font-weight:normal;font-stretch:normal;font-size:32px;line-height:1.39999998;font-family:'Press Start 2P';-inkscape-font-specification:'Press Start 2P'"
         x="795.09375"
         y="1981.8804"
         id="tspan200">пожалуйста,</tspan></text>
    <text
       xml:space="preserve"
       style="font-style:normal;font-variant:normal;font-weight:normal;font-stretch:normal;line-height:0%;font-family:Lavi;-inkscape-font-specification:Lavi;text-align:center;letter-spacing:0px;word-spacing:0px;text-anchor:middle;fill:#000000;fill-opacity:1;stroke:none"
       x="873.11725"
       y="2088.6641"
       id="text4246-3-3-2-6"><tspan
         sodipodi:role="line"
         style="font-style:normal;font-variant:normal;font-weight:normal;font-stretch:normal;font-size:32px;line-height:1.39999998;font-family:'Press Start 2P';-inkscape-font-specification:'Press Start 2P'"
         x="889.11725"
         y="2088.6641"
         id="tspan998-6">приветствую, </tspan></text>
    <text
       xml:space="preserve"
       style="font-style:normal;font-variant:normal;font-weight:normal;font-stretch:normal;line-height:0%;font-family:Lavi;-inkscape-font-specification:Lavi;text-align:center;letter-spacing:0px;word-spacing:0px;text-anchor:middle;fill:#000000;fill-opacity:1;stroke:none"
       x="920.9223"
       y="2203.5618"
       id="text4246-3-3-2-6-1"><tspan
         sodipodi:role="line"
         style="font-style:normal;font-variant:normal;font-weight:normal;font-stretch:normal;font-size:32px;line-height:1.39999998;font-family:'Press Start 2P';-inkscape-font-specification:'Press Start 2P'"
         x="920.9223"
         y="2203.5618"
         id="tspan128">планируете</tspan><tspan
         sodipodi:role="line"
         style="font-style:normal;font-variant:normal;font-weight:normal;font-stretch:normal;font-size:32px;line-height:1.39999998;font-family:'Press Start 2P';-inkscape-font-specification:'Press Start 2P'"
         x="920.9223"
         y="2248.3618"
         id="tspan215">ли вы сегодня</tspan><tspan
         sodipodi:role="line"
         style="font-style:normal;font-variant:normal;font-weight:normal;font-stretch:normal;font-size:32px;line-height:1.39999998;font-family:'Press Start 2P';-inkscape-font-specification:'Press Start 2P'"
         x="920.9223"
         y="2293.1619"
         id="tspan217">покушение?</tspan></text>
    <text
       xml:space="preserve"
       style="font-style:normal;font-variant:normal;font-weight:normal;font-stretch:normal;font-size:43.85733414px;line-height:0%;font-family:Lavi;-inkscape-font-specification:'Lavi, Normal';font-variant-ligatures:normal;font-variant-caps:normal;font-variant-numeric:normal;font-feature-settings:normal;text-align:end;letter-spacing:0px;word-spacing:0px;writing-mode:lr-tb;text-anchor:end;display:inline;fill:#241c1c;fill-opacity:1;stroke:#000000;stroke-width:0.82200003;stroke-miterlimit:4;stroke-dasharray:none;stroke-opacity:1"
       x="2694.4773"
       y="3326.9355"
       id="text4213"
       transform="matrix(0.96049651,0,-0.32716292,1.0411282,0,0)"><tspan
         sodipodi:role="line"
         id="tspan3562"
         x="2694.4773"
         y="3326.9355"
         style="font-style:normal;font-variant:normal;font-weight:normal;font-stretch:normal;font-size:43.85733414px;line-height:1.25;font-family:Lavi;-inkscape-font-specification:'Lavi, Normal';font-variant-ligatures:normal;font-variant-caps:normal;font-variant-numeric:normal;font-feature-settings:normal;text-align:end;writing-mode:lr-tb;text-anchor:end;stroke-width:0.82200003">ПРОДОЛЖЕНИЕ СЛЕДУЕТ...</tspan></text>
    <text
       xml:space="preserve"
       style="font-style:normal;font-variant:normal;font-weight:normal;font-stretch:normal;line-height:0%;font-family:Lavi;-inkscape-font-specification:Lavi;letter-spacing:0px;word-spacing:0px;fill:#000000;fill-opacity:1;stroke:#000000;stroke-width:0;stroke-linecap:square;stroke-miterlimit:4;stroke-dasharray:none;stroke-opacity:1;filter:url(#filter4375-4-1-1-1-9-3)"
       x="787.65729"
       y="1584.5073"
       id="text4580-2"
       transform="matrix(1.1613654,-0.69321719,0.44569052,1.6077045,-156.83333,-1430.875)"><tspan
         sodipodi:role="line"
         id="tspan4582-9"
         x="787.65729"
         y="1584.5073"
         style="font-style:normal;font-variant:normal;font-weight:normal;font-stretch:normal;font-size:70px;line-height:1.25;font-family:ComicSpice;-inkscape-font-specification:ComicSpice;fill:#ffffff;stroke-width:0;stroke-linecap:square;stroke-miterlimit:4;stroke-dasharray:none">Б</tspan></text>
    <text
       xml:space="preserve"
       style="font-style:normal;font-variant:normal;font-weight:normal;font-stretch:normal;line-height:0%;font-family:Lavi;-inkscape-font-specification:Lavi;letter-spacing:0px;word-spacing:0px;fill:#000000;fill-opacity:1;stroke:#000000;stroke-width:0;stroke-linecap:square;stroke-miterlimit:4;stroke-dasharray:none;stroke-opacity:1;filter:url(#filter4375-4-1-1-1-9-30)"
       x="787.65729"
       y="1584.5073"
       id="text4580-9-1"
       transform="matrix(1.0231831,-0.61448535,0.39266108,1.4251102,81.385407,-1213.691)"><tspan
         sodipodi:role="line"
         id="tspan4582-26"
         x="787.65729"
         y="1584.5073"
         style="font-style:normal;font-variant:normal;font-weight:normal;font-stretch:normal;font-size:70px;line-height:1.25;font-family:ComicSpice;-inkscape-font-specification:ComicSpice;fill:#ffffff;stroke-width:0;stroke-linecap:square;stroke-miterlimit:4;stroke-dasharray:none">З</tspan></text>
    <text
       xml:space="preserve"
       style="font-style:normal;font-variant:normal;font-weight:normal;font-stretch:normal;line-height:0%;font-family:Lavi;-inkscape-font-specification:Lavi;letter-spacing:0px;word-spacing:0px;fill:#000000;fill-opacity:1;stroke:#000000;stroke-width:0;stroke-linecap:square;stroke-miterlimit:4;stroke-dasharray:none;stroke-opacity:1;filter:url(#filter4375-4-1-1-1-9-30-2)"
       x="787.65729"
       y="1584.5073"
       id="text4580-9-9"
       transform="matrix(0.96706972,-0.54046136,0.32409822,1.325527,277.0066,-1122.6108)"><tspan
         sodipodi:role="line"
         id="tspan4582-26-1"
         x="787.65729"
         y="1584.5073"
         style="font-style:normal;font-variant:normal;font-weight:normal;font-stretch:normal;font-size:70px;line-height:1.25;font-family:ComicSpice;-inkscape-font-specification:ComicSpice;fill:#ffffff;stroke-width:0;stroke-linecap:square;stroke-miterlimit:4;stroke-dasharray:none">З</tspan></text>
    <text
       xml:space="preserve"
       style="font-style:normal;font-variant:normal;font-weight:normal;font-stretch:normal;line-height:0%;font-family:Lavi;-inkscape-font-specification:Lavi;letter-spacing:0px;word-spacing:0px;fill:#000000;fill-opacity:1;stroke:#000000;stroke-width:0;stroke-linecap:square;stroke-miterlimit:4;stroke-dasharray:none;stroke-opacity:1;filter:url(#filter4375-4-1-1-1-9-30-2-7)"
       x="787.65729"
       y="1584.5073"
       id="text4580-9-9-6"
       transform="matrix(0.79978398,-0.46065546,0.26803503,1.1297963,538.53638,-881.29232)"><tspan
         sodipodi:role="line"
         id="tspan4582-26-1-5"
         x="787.65729"
         y="1584.5073"
         style="font-style:normal;font-variant:normal;font-weight:normal;font-stretch:normal;font-size:70px;line-height:1.25;font-family:ComicSpice;-inkscape-font-specification:ComicSpice;fill:#ffffff;stroke-width:0;stroke-linecap:square;stroke-miterlimit:4;stroke-dasharray:none">З</tspan></text>
    <text
       xml:space="preserve"
       style="font-style:normal;font-variant:normal;font-weight:normal;font-stretch:normal;line-height:0%;font-family:Lavi;-inkscape-font-specification:Lavi;letter-spacing:0px;word-spacing:0px;fill:#000000;fill-opacity:1;stroke:#000000;stroke-width:0;stroke-linecap:square;stroke-miterlimit:4;stroke-dasharray:none;stroke-opacity:1;filter:url(#filter4375-4-1-1-1-9-30-2-7-6)"
       x="787.65729"
       y="1584.5073"
       id="text4580-9-9-6-8"
       transform="matrix(1.2353491,-0.45667938,0.06126805,1.7149541,559.73632,-1837.3338)"><tspan
         sodipodi:role="line"
         id="tspan4582-26-1-5-8"
         x="787.65729"
         y="1584.5073"
         style="font-style:normal;font-variant:normal;font-weight:normal;font-stretch:normal;font-size:70px;line-height:1.25;font-family:ComicSpice;-inkscape-font-specification:ComicSpice;fill:#ffffff;stroke-width:0;stroke-linecap:square;stroke-miterlimit:4;stroke-dasharray:none">!</tspan></text>
    <text
       xml:space="preserve"
       style="font-style:normal;font-variant:normal;font-weight:normal;font-stretch:normal;line-height:0%;font-family:Lavi;-inkscape-font-specification:Lavi;text-align:center;letter-spacing:0px;word-spacing:0px;text-anchor:middle;display:inline;opacity:0.6;fill:#c9bbb2;fill-opacity:1;stroke:#c9bbb2;stroke-width:2.68153024;stroke-miterlimit:4;stroke-dasharray:none;stroke-opacity:1;filter:url(#filter4210)"
       x="1174.0292"
       y="1085.962"
       id="text4246-5-9"
       transform="matrix(0.43806884,-0.0642896,-0.00211348,0.65091426,1449.4618,-231.63771)"><tspan
         sodipodi:role="line"
         style="font-style:normal;font-variant:normal;font-weight:normal;font-stretch:normal;font-size:45.00812149px;line-height:1;font-family:Fondamento;-inkscape-font-specification:Fondamento;fill:#c9bbb2;fill-opacity:1;stroke:#c9bbb2;stroke-width:2.68153024;stroke-miterlimit:4;stroke-dasharray:none;stroke-opacity:1"
         x="1174.0292"
         y="1085.962"
         id="tspan754-5">КОРОНАЦИЯ</tspan><tspan
         sodipodi:role="line"
         style="font-style:normal;font-variant:normal;font-weight:normal;font-stretch:normal;font-size:45.00812149px;line-height:1;font-family:Fondamento;-inkscape-font-specification:Fondamento;fill:#c9bbb2;fill-opacity:1;stroke:#c9bbb2;stroke-width:2.68153024;stroke-miterlimit:4;stroke-dasharray:none;stroke-opacity:1"
         x="1174.0292"
         y="1130.9702"
         id="tspan182"> ЕЁ</tspan><tspan
         sodipodi:role="line"
         style="font-style:normal;font-variant:normal;font-weight:normal;font-stretch:normal;font-size:45.00812149px;line-height:1;font-family:Fondamento;-inkscape-font-specification:Fondamento;fill:#c9bbb2;fill-opacity:1;stroke:#c9bbb2;stroke-width:2.68153024;stroke-miterlimit:4;stroke-dasharray:none;stroke-opacity:1"
         x="1174.0292"
         y="1175.9783"
         id="tspan184">ВЕЛИЧЕСТВА</tspan></text>
    <text
       xml:space="preserve"
       style="font-style:normal;font-variant:normal;font-weight:normal;font-stretch:normal;line-height:0%;font-family:Lavi;-inkscape-font-specification:Lavi;text-align:center;letter-spacing:0px;word-spacing:0px;text-anchor:middle;display:inline;opacity:0.6;fill:#fff6d5;fill-opacity:1;stroke:#fff6d5;stroke-width:2.70249391;stroke-miterlimit:4;stroke-dasharray:none;filter:url(#filter4210-3)"
       x="1174.0292"
       y="1085.962"
       id="text4246-5-9-4"
       transform="matrix(0.4925121,-0.03589434,-0.01265848,0.74746394,1393.8484,-59.60428)"><tspan
         sodipodi:role="line"
         style="font-style:normal;font-variant:normal;font-weight:normal;font-stretch:normal;font-size:45.00812149px;line-height:1;font-family:Fondamento;-inkscape-font-specification:Fondamento;fill:#fff6d5;stroke:#fff6d5;stroke-width:2.70249391;stroke-miterlimit:4;stroke-dasharray:none;stroke-opacity:1"
         x="1174.0292"
         y="1085.962"
         id="tspan121-0">КОРОЛЕВЫ</tspan><tspan
         sodipodi:role="line"
         style="font-style:normal;font-variant:normal;font-weight:normal;font-stretch:normal;font-size:45.00812149px;line-height:1;font-family:Fondamento;-inkscape-font-specification:Fondamento;fill:#fff6d5;stroke:#fff6d5;stroke-width:2.70249391;stroke-miterlimit:4;stroke-dasharray:none;stroke-opacity:1"
         x="1174.0292"
         y="1130.9702"
         id="tspan188">КОРИАНДРЫ</tspan></text>
    <text
       xml:space="preserve"
       style="font-style:normal;font-weight:normal;font-size:40px;line-height:1.25;font-family:sans-serif;letter-spacing:0px;word-spacing:0px;fill:#000000;fill-opacity:1;stroke:none"
       x="348.25739"
       y="1238.7742"
       id="text185"><tspan
         sodipodi:role="line"
         id="tspan183"
         x="348.25739"
         y="1274.1648" /></text>
    <text
       xml:space="preserve"
       style="font-style:normal;font-weight:normal;font-size:40px;line-height:1.25;font-family:sans-serif;letter-spacing:0px;word-spacing:0px;fill:#000000;fill-opacity:1;stroke:none"
       x="833.60657"
       y="2085.6477"
       id="text204"><tspan
         sodipodi:role="line"
         id="tspan202"
         x="833.60657"
         y="2121.0383" /></text>
  </g>
</svg>
