<?xml version="1.0" encoding="UTF-8" standalone="no"?>
<!-- Created with Inkscape (http://www.inkscape.org/) -->

<svg
   xmlns:dc="http://purl.org/dc/elements/1.1/"
   xmlns:cc="http://creativecommons.org/ns#"
   xmlns:rdf="http://www.w3.org/1999/02/22-rdf-syntax-ns#"
   xmlns:svg="http://www.w3.org/2000/svg"
   xmlns="http://www.w3.org/2000/svg"
   xmlns:xlink="http://www.w3.org/1999/xlink"
   xmlns:sodipodi="http://sodipodi.sourceforge.net/DTD/sodipodi-0.dtd"
   xmlns:inkscape="http://www.inkscape.org/namespaces/inkscape"
   id="svg2"
   version="1.1"
   inkscape:version="0.92.2 (5c3e80d, 2017-08-06)"
   width="2481"
   height="3503"
   sodipodi:docname="E32P05.svg">
  <metadata
     id="metadata8">
    <rdf:RDF>
      <cc:Work
         rdf:about="">
        <dc:format>image/svg+xml</dc:format>
        <dc:type
           rdf:resource="http://purl.org/dc/dcmitype/StillImage" />
        <dc:title />
      </cc:Work>
    </rdf:RDF>
  </metadata>
  <defs
     id="defs6">
    <filter
       style="color-interpolation-filters:sRGB"
       id="filter4375-4-1-1-1-9-6-9-2-1-7-1"
       inkscape:label="deevad outline effect">
      <feFlood
         id="feFlood4377-7-9-0-8-1-0-2-2-06-3-9"
         flood-opacity="1"
         flood-color="rgb(0,0,0)"
         result="flood" />
      <feComposite
         id="feComposite4379-3-8-8-2-77-6-0-8-3-6-4"
         in2="SourceGraphic"
         in="flood"
         operator="in"
         result="composite1" />
      <feMorphology
         id="feMorphology4393-1-0-49-8-9-2-2-9-2-1-7"
         operator="dilate"
         radius="4"
         result="result3" />
      <feComposite
         id="feComposite4385-9-5-7-0-8-6-3-7-0-2-8"
         in2="result3"
         in="SourceGraphic"
         operator="over"
         result="composite2" />
    </filter>
    <filter
       style="color-interpolation-filters:sRGB"
       id="filter4375-4-1-1-1-9-6-9-2-1-7-1-2"
       inkscape:label="deevad outline effect">
      <feFlood
         id="feFlood4377-7-9-0-8-1-0-2-2-06-3-9-7"
         flood-opacity="1"
         flood-color="rgb(0,0,0)"
         result="flood" />
      <feComposite
         id="feComposite4379-3-8-8-2-77-6-0-8-3-6-4-0"
         in2="SourceGraphic"
         in="flood"
         operator="in"
         result="composite1" />
      <feMorphology
         id="feMorphology4393-1-0-49-8-9-2-2-9-2-1-7-9"
         operator="dilate"
         radius="4"
         result="result3" />
      <feComposite
         id="feComposite4385-9-5-7-0-8-6-3-7-0-2-8-3"
         in2="result3"
         in="SourceGraphic"
         operator="over"
         result="composite2" />
    </filter>
    <filter
       style="color-interpolation-filters:sRGB"
       id="filter4375-4-1-1-1-9"
       inkscape:label="deevad outline effect">
      <feFlood
         id="feFlood4377-7-9-0-8-1"
         flood-opacity="1"
         flood-color="rgb(0,0,0)"
         result="flood" />
      <feComposite
         id="feComposite4379-3-8-8-2-77"
         in2="SourceGraphic"
         in="flood"
         operator="in"
         result="composite1" />
      <feMorphology
         id="feMorphology4393-1-0-49-8-9"
         operator="dilate"
         radius="4"
         result="result3" />
      <feComposite
         id="feComposite4385-9-5-7-0-8"
         in2="result3"
         in="SourceGraphic"
         operator="over"
         result="composite2" />
    </filter>
    <filter
       inkscape:collect="always"
       style="color-interpolation-filters:sRGB"
       id="filter1101"
       x="-0.12972304"
       width="1.2594461"
       y="-0.36928496"
       height="1.7385699">
      <feGaussianBlur
         inkscape:collect="always"
         stdDeviation="22.559027"
         id="feGaussianBlur1103" />
    </filter>
  </defs>
  <sodipodi:namedview
     pagecolor="#ffffff"
     bordercolor="#666666"
     borderopacity="1"
     objecttolerance="10"
     gridtolerance="10"
     guidetolerance="10"
     inkscape:pageopacity="0"
     inkscape:pageshadow="2"
     inkscape:window-width="1326"
     inkscape:window-height="1030"
     id="namedview4"
     showgrid="false"
     inkscape:zoom="0.52900001"
     inkscape:cx="1227.3668"
     inkscape:cy="772.3604"
     inkscape:window-x="586"
     inkscape:window-y="-5"
     inkscape:window-maximized="0"
     inkscape:current-layer="layer3"
     inkscape:snap-global="false" />
  <g
     inkscape:groupmode="layer"
     id="layer2"
     inkscape:label="artwork"
     sodipodi:insensitive="true">
    <image
       sodipodi:absref="C:\Users\Kari\Documents\Pepper and Carrot\Episode 32\fi\../lang/en/./../gfx_Pepper-and-Carrot_by-David-Revoy_E32P05.png"
       xlink:href="../gfx_Pepper-and-Carrot_by-David-Revoy_E32P05.png"
       y="0"
       x="0"
       id="image10"
       height="3503"
       width="2481" />
  </g>
  <g
     inkscape:groupmode="layer"
     id="layer3"
     inkscape:label="speechbubbles"
     style="display:inline">
    <path
       style="display:inline;fill:#ffffff;fill-rule:evenodd;stroke:none;stroke-width:0.99999988px;stroke-linecap:butt;stroke-linejoin:miter;stroke-opacity:1"
       d="m 1167.9395,1463.957 c -0.9739,10.9428 -0.3195,22.5718 -5.5779,32.5871 -6.8795,10.9342 -19.9247,16.623 -32.5189,17.0951 -11.8746,0.5421 -23.8302,-1.3381 -35.0224,-5.3189 -3.2722,1.8776 -2.4432,6.844 0.2902,8.8192 6.3906,9.2679 12.8005,19.4396 13.2157,31.0363 0.7463,8.0174 -3.0602,17.061 -10.843,20.2527 -5.8901,2.5551 -12.462,2.0176 -18.7078,1.6848 1.662,3.2226 5.0594,4.9871 7.1765,7.8619 4.4548,4.5439 8.8806,10.4496 8.0411,17.1846 -1.2231,9.2375 -9.017,16.5786 -17.8021,18.8827 -3.3006,1.6961 -6.6012,3.3923 -9.9018,5.0884 16.2961,-0.8155 33.0139,-2.7152 48.9804,1.7226 8.9654,3.3543 11.3448,16.9548 4.0743,23.1699 -5.4449,6.3539 -12.2436,11.3083 -18.4922,16.8125 23.3994,-3.4291 46.7691,-9.3587 70.5917,-7.7721 6.4507,0.3856 13.3258,1.4594 18.338,5.9033 4.1733,3.3093 7.4788,7.6649 9.6894,12.5017 7.4443,2.6087 15.202,-0.3538 22.3373,-2.5664 16.4381,-5.4376 32.2317,-12.9953 49.2858,-16.4376 3.5884,0.7788 6.5872,3.5474 7.8886,6.9493 8.0152,2.2412 15.9839,-1.3097 23.794,-2.7571 6.2403,-1.3461 12.5318,-2.7699 18.9482,-2.8015 3.0995,3.638 7.2466,7.4776 12.4082,6.9019 15.4288,0.835 31.3523,-0.6599 46.2309,4.3807 9.2536,4.1195 16.4666,11.8812 21.3453,20.6256 15.8086,-8.9909 29.3816,-22.0493 46.834,-28.0098 11.9971,-4.3383 26.6897,-2.6979 36.2016,6.2522 2.6821,2.5261 4.992,5.411 7.1792,8.3669 6.973,-5.1811 12.9509,-12.4992 21.7813,-14.5117 12.8546,-3.9962 26.5062,-1.6573 39.3711,1.0176 11.3813,2.161 22.6923,4.68 33.9433,7.4375 -6.1156,-5.1788 -11.2384,-12.5211 -11.2441,-20.8125 1.6413,-6.7253 8.6192,-11.6557 15.5078,-10.9355 -1.9708,-4.2752 -2.8941,-10.1594 0.7968,-13.7996 5.8594,-5.6264 14.3681,-6.5322 22.0719,-7.2891 2.034,-0.2719 4.068,-0.5438 6.102,-0.8156 -13.6473,-7.597 -17.3812,-28.2054 -7.1973,-40.0703 6.6971,-7.0826 15.0321,-12.34 23.5645,-16.9258 -12.2465,-0.6773 -24.6647,2.2892 -36.7734,-0.584 -6.7618,-4.2904 -9.5782,-12.2299 -14.702,-18.0419 -2.8385,-5.7999 0.08,-13.0044 5.154,-16.5283 10.9452,-11.0312 21.4161,-22.641 29.9405,-35.6784 4.9476,-7.1868 9.5017,-14.6358 13.8887,-22.1752 -14.4823,19.6818 -34.6969,35.769 -58.3662,42.6724 -7.8508,2.4632 -15.9193,5.5553 -24.2979,4.5815 -4.1788,-1.9666 -7.7361,-5.992 -12.6953,-5.7344 -8.83,3.3561 -17.6601,6.7122 -26.4902,10.0683 -2.6034,-2.0256 -4.5493,-4.8843 -5.459,-8.0566 -8.5163,0.411 -17.3457,-1.0989 -24.6875,-5.6133 -3.6359,-5.9477 -4.1389,-13.616 -1.5039,-20.0469 -11.8784,8.4929 -22.154,18.932 -33.2539,28.3672 -11.3256,-2.193 -20.6784,-10.7951 -32.5039,-10.9922 -31.9046,-2.6757 -63.9984,-5.4418 -96.0112,-3.0677 -15.4692,2.452 -31.0569,6.9416 -46.8385,4.6844 -15.4519,-1.6019 -31.3025,-4.4384 -46.6725,-0.6881 -7.6873,1.796 -16.4611,2.7429 -23.4894,-1.6373 -11.206,-6.4628 -18.3144,-17.6313 -26.6444,-27.1508 -2.2891,-2.7756 -4.641,-5.4987 -7.0315,-8.1873 -0.081,0.6992 -0.1628,1.3984 -0.2441,2.0976 z"
       id="path4508-9"
       inkscape:connector-curvature="0"
       sodipodi:nodetypes="cccccccccccccccccccccccccccccccccccccccccccccccccccc" />
    <path
       style="display:inline;fill:#ffffff;fill-rule:evenodd;stroke:none;stroke-width:1.00941932px;stroke-linecap:butt;stroke-linejoin:miter;stroke-opacity:1"
       d="m 1235.2648,1551.6001 c -0.6203,14.9763 -3.328,30.4744 -11.8809,43.1992 -15.1658,9.9032 -36.9368,8.0436 -50.3711,-3.9336 -3.5932,1.0549 -2.9096,5.9619 -0.6698,7.9977 4.6517,13.7745 9.4175,27.5385 12.8988,41.6546 -4.574,4.279 -13.0941,2.8847 -16.0082,-2.6171 1.3927,8.6577 9.2715,15.0735 9.4589,24.0527 -3.3039,6.8509 -9.2226,8.5402 -20.5032,10.7721 5.413,6.4634 11.8482,13.6119 11.4076,22.5472 -0.37,10.3506 -9.1429,18.5756 -18.6252,21.838 -1.2462,0.4177 -0.7009,1.3365 0.4286,1.0804 16.6073,2.5904 34.2268,0.1279 49.9851,6.9673 11.2325,3.8318 20.878,14.403 20.4085,26.5313 -0.1856,2.4172 -1.2639,4.6955 -1.2876,7.1289 10.1737,-3.685 20.1978,-8.7143 31.2424,-9.1211 4.3889,2.217 5.332,8.9238 1.6418,12.1739 12.6055,-0.8761 21.4165,-12.6591 34.2447,-12.661 4.1448,-0.2209 8.0544,3.728 7.2374,7.7668 1.9434,2.4778 5.8224,-3.4752 8.3879,-3.6732 7.2864,-1.7096 6.145,-2.3202 13.752,-2.6628 2.7153,1.0566 6.1579,1.9214 9.3747,6.7575 5.3846,-1.6599 7.846,-3.2964 11.2846,-3.2618 11.1439,-1.9429 18.18,-9.5681 33.8108,-4.0373 10.4072,2.6901 15.6794,11.4501 21.5066,16.5363 3.2738,-4.9904 7.1609,-8.3773 10.5338,-11.6886 6.0718,-9.0484 17.3782,-11.7554 28.132,-13.0204 9.2135,-2.4924 18.7404,1.1364 28.0615,4.914 5.6988,2.837 10.7634,6.8716 16.8212,9.009 4.7479,-2.9935 9.9074,-7.6176 16.0071,-5.8788 6.3079,1.2629 11.8315,4.7237 17.9319,6.6014 -3.5891,-5.2749 -9.1971,-9.9378 -9.5843,-16.6953 2.3439,-4.1426 7.2444,-5.7219 11.6201,-6.8906 -0.2014,-5.8386 4.5952,-10.7273 9.9226,-12.6035 1.1217,-4.2932 -3.9476,-6.3524 -5.5806,-9.6772 -4.0184,-6.1856 -2.3118,-16.333 5.2794,-18.9876 4.3716,-1.6863 9.3186,-1.1902 13.5891,-3.2024 -0.1834,-3.6135 -4.7058,-3.559 -7.3295,-4.4551 -7.6162,-2.3525 -16.1694,-5.8666 -19.4578,-13.6003 -1.3148,-4.5717 2.5219,-8.5977 2.6272,-12.9751 -1.9304,-3.1602 -6.6403,-5.5187 -5.4966,-9.8157 2.8127,-12.6493 12.7728,-21.8467 19.7861,-32.3092 10.4891,-14.1637 20.9781,-28.3274 31.467,-42.4911 -17.169,16.7767 -34.2726,33.8856 -54.2837,47.4531 -4.8099,-0.2747 -7.5312,-6.8783 -4.2687,-10.3574 -7.2004,1.8352 -12.1283,7.7663 -18.5656,11.041 -2.5578,-3.2623 -2.2166,-8.188 0.4358,-11.2968 -3.3479,-2.8821 -7.9174,2.6571 -11.0927,-0.7012 -4.201,-4.4836 -2.1848,-10.9601 -1.2432,-16.2618 1.0898,-5.1539 2.6977,-10.1858 3.8224,-15.332 -11.1864,12.8442 -19.0314,28.756 -33.1704,38.929 -2.3938,1.8328 -5.9862,2.7874 -8.4767,0.5686 -2.3622,-1.538 -4.0325,-4.1363 -4.2385,-6.9312 -8.5801,0.8047 -16.1607,7.2402 -25.0513,5.5059 -9.3722,-4.4956 -20.4901,-2.5912 -29.6266,1.5215 -8.8138,-0.014 -15.4515,-8.2277 -24.4541,-7.1392 -5.6142,-0.9398 -9.2114,-5.8572 -12.2887,-9.9732 -5.5448,-0.6012 -8.4632,5.1911 -13.1331,6.9807 -11.411,5.829 -25.7814,2.6338 -35.5022,-4.9761 -2.259,-2.1426 -5.5677,-4.8476 -8.7873,-2.7953 -3.6569,1.7483 -5.085,6.6255 -9.2493,7.4051 -6.7763,0.772 -12.5693,-5.2245 -13.4113,-11.485 -7.344,-15.108 -13.0541,-30.9005 -19.4077,-46.4174 -0.02,0.9974 -0.041,1.9948 -0.062,2.9922 z"
       id="path4508-9-6"
       inkscape:connector-curvature="0"
       sodipodi:nodetypes="cccccccccccccccccccccccccccccccccccccccccccccccccccccccccccccccc" />
    <path
       style="color:#000000;display:inline;overflow:visible;visibility:visible;fill:#ffffff;fill-opacity:1;fill-rule:nonzero;stroke:none;stroke-width:0.99999994px;marker:none;enable-background:accumulate"
       d="m 1322.5586,1728.1016 c -11.0094,9.9702 -17.1146,23.8053 -25.197,35.9928 -5.7365,9.1028 -17.9114,24.8135 -26.046,32.2016 7.6812,0.2097 5.7344,0.8326 10.9478,2.0534 3.3706,1.3513 7.7807,2.3941 9.3038,6.0235 -1.4478,7.677 -8.2527,12.4101 -13.2117,17.8317 -21.2393,19.7738 -50.3466,30.4414 -79.2715,30.188 30.5673,5.5836 63.676,0.269 89.5548,-17.4158 15.5847,-11.4657 31.0045,-29.6098 44.4036,-43.4287 -3.8521,-0.6581 -8.7325,-0.5391 -12.6274,-0.7071 -7.2015,-0.9549 -9.1708,-6.0664 -6.2213,-10.4154 3.8653,-10.2383 12.9809,-16.9751 20.7567,-24.1405 4.6114,-3.9349 9.2499,-7.8384 13.8074,-11.8359 -7.5773,-6.8137 -16.4342,-11.9448 -25.0566,-17.289 -0.3809,0.3138 -0.7617,0.6276 -1.1426,0.9414 z"
       id="path5066-6"
       inkscape:connector-curvature="0"
       sodipodi:nodetypes="ccccccccccccccc" />
    <path
       style="color:#000000;display:inline;overflow:visible;visibility:visible;fill:#ffffff;fill-opacity:1;fill-rule:nonzero;stroke:none;stroke-width:1.01325822px;marker:none;enable-background:accumulate"
       d="m 1445.8481,355.47571 c -41.4345,1.56885 -83.2834,9.04093 -119.9945,26.42932 -14.7964,7.72462 -27.5915,19.97094 -31.1066,35.07399 -1.3216,14.86684 6.5922,29.5407 18.5672,39.81667 12.1007,9.68135 28.3443,13.94957 44.1801,16.32272 55.4859,11.04226 112.5243,15.05977 169.3427,15.05427 33.9635,1.1268 68.3053,1.52522 101.8049,-4.25109 22.853,-2.77574 45.8299,-7.29498 66.2698,-16.97571 16.2544,-7.2199 30.0587,-19.95299 34.6811,-35.62661 3.0397,-11.99215 0.4736,-24.79439 -5.7718,-35.6868 -5.7655,-9.0593 -15.9632,-15.62515 -27.3256,-18.38008 -20.3553,-6.23528 -41.8787,-8.50314 -62.9967,-11.8868 -62.065,-8.17039 -124.9861,-9.72031 -187.6506,-9.88988 z"
       id="path3365-74"
       inkscape:connector-curvature="0"
       sodipodi:nodetypes="csssssc" />
    <path
       style="display:inline;fill:#ffffff;fill-rule:evenodd;stroke:none;stroke-width:1.1356107px;stroke-linecap:butt;stroke-linejoin:miter;stroke-opacity:1"
       d="m 1460.6777,124.9505 c -37.5187,0.38599 -75.7093,-1.22989 -112.3682,6.98826 -24.4697,5.52943 -47.3041,19.43318 -58.0516,39.54702 -7.5502,15.81305 -1.3085,34.66567 12.2226,46.63739 7.4943,6.76206 15.8152,13.60859 26.4242,16.42522 9.7978,2.54143 20.0945,0.99986 30.1361,1.29424 18.4243,-0.14066 36.8455,0.44407 55.2237,1.51249 72.8099,2.41748 145.6976,1.62733 218.5304,0.57368 24.0254,-0.7183 48.7819,-1.89015 71.1266,-10.24833 14.2838,-5.74789 26.3465,-16.63156 29.7455,-30.14875 4.5886,-14.82251 1.2246,-32.22842 -11.9785,-43.13396 -12.3472,-10.48285 -28.6576,-16.54769 -44.8131,-21.35899 -21.3426,-5.79725 -43.9579,-6.40673 -66.1549,-6.02763 -29.2503,-0.37607 -58.4972,-0.89413 -87.7389,-1.61992 -20.7645,-0.44807 -41.5342,-0.48431 -62.3039,-0.44072 z"
       id="path1297"
       inkscape:connector-curvature="0" />
    <path
       style="display:inline;fill:#ffffff;fill-rule:evenodd;stroke:none;stroke-width:1.15958703px;stroke-linecap:butt;stroke-linejoin:miter;stroke-opacity:1"
       d="m 1609.5105,217.83784 c -69.408,2.36382 -138.8385,4.31977 -208.2123,7.3593 -17.8056,0.93053 -35.7094,1.35654 -53.2985,4.11747 -20.1782,3.01229 -40.2673,7.62554 -58.5871,15.60331 -16.2379,8.42151 -27.1295,22.23959 -37.3122,35.57617 -5.0987,6.6825 -8.5764,14.37755 -8.7271,22.43246 -0.7477,13.87734 3.9743,27.43167 9.0367,40.45484 4.6592,11.01406 12.5365,21.14699 23.5052,28.26521 12.9712,8.98912 27.63,16.62526 43.7975,20.4878 11.1027,2.67817 22.71,2.98826 34.1649,2.68808 28.0115,-0.0612 56.0221,0.0476 84.033,0.12782 77.8102,-0.009 155.7618,0.0867 233.3438,-5.67886 16.4154,-1.26073 32.7879,-4.26979 47.997,-9.79302 12.5006,-4.42698 23.0561,-11.97797 32.404,-20.20679 8.6853,-7.83016 15.3776,-17.65192 16.8722,-28.51841 2.8371,-15.53143 1.1,-31.30416 1.9911,-46.93465 -0.8036,-12.50531 -9.3091,-23.83333 -20.603,-31.44112 -16.8019,-13.0573 -37.1316,-23.27715 -59.5674,-27.05856 -17.603,-3.31752 -35.548,-5.09184 -53.451,-6.72014 -9.1077,-0.63527 -18.2505,-0.87333 -27.3868,-0.76091 z"
       id="path1299"
       inkscape:connector-curvature="0" />
    <path
       style="display:inline;fill:#ffffff;fill-rule:evenodd;stroke:none;stroke-width:1px;stroke-linecap:butt;stroke-linejoin:miter;stroke-opacity:1"
       d="m 1516.8322,467.18878 c -6.6131,0.47706 -14.4131,0.53134 -19.0606,6.05273 -9.2681,15.84095 -16.7496,33.90699 -15.1611,52.61768 2.1917,20.11622 13.9704,37.89228 28.3815,51.53834 8.5346,8.09616 15.6793,18.09456 18.3938,29.69937 4.3317,16.40289 0.7816,35.11834 -10.8279,47.78415 -2.1207,2.52133 -4.4197,4.88481 -6.7453,7.21593 17.3235,-9.37091 31.4532,-26.25408 34.2349,-46.13162 1.2634,-15.92483 -6.122,-31.08454 -15.4694,-43.50249 -9.5013,-13.2266 -21.135,-25.79068 -25.2403,-41.97989 -3.1205,-17.66298 3.3092,-35.58183 12.9847,-50.18689 1.9316,-3.08666 4.9581,-6.76026 3.4836,-10.5888 -1.0225,-1.66362 -3.0088,-2.74768 -4.9739,-2.51851 z"
       id="path1303"
       inkscape:connector-curvature="0"
       sodipodi:nodetypes="cccccccc" />
    <path
       style="color:#000000;display:inline;overflow:visible;visibility:visible;fill:#ffffff;fill-opacity:1;fill-rule:nonzero;stroke:none;stroke-width:1px;marker:none;filter:url(#filter1101);enable-background:accumulate"
       d="m 2064.5541,245.38398 c -39.6392,1.7245 -79.6747,9.93788 -114.7951,29.05136 -14.1553,8.49097 -26.3959,21.95224 -29.7587,38.55366 -1.2644,16.34177 6.3065,32.47141 17.7626,43.76686 11.5765,10.64183 27.1161,15.33349 42.2658,17.94208 53.0817,12.13776 107.6486,16.55384 162.005,16.5478 32.4919,1.23859 65.3456,1.67653 97.3937,-4.67284 21.8628,-3.05112 43.8441,-8.01871 63.3983,-18.65986 15.5501,-7.93618 28.7562,-21.93251 33.1784,-39.16111 2.9079,-13.18188 0.453,-27.25422 -5.5218,-39.22726 -5.5156,-9.95807 -15.2715,-17.17531 -26.1416,-20.20356 -19.4733,-6.85388 -40.064,-9.34673 -60.267,-13.06608 -59.3757,-8.98097 -119.5704,-10.68466 -179.5196,-10.87105 z"
       id="path3365-74-3"
       inkscape:connector-curvature="0"
       sodipodi:nodetypes="csssssc" />
  </g>
  <g
     inkscape:groupmode="layer"
     id="layer1"
     inkscape:label="txt"
     style="display:inline">
    <text
       xml:space="preserve"
       style="font-style:normal;font-variant:normal;font-weight:normal;font-stretch:normal;line-height:0%;font-family:Lavi;-inkscape-font-specification:Lavi;text-align:center;letter-spacing:0px;word-spacing:0px;text-anchor:middle;fill:#000000;fill-opacity:1;stroke:none"
       x="1509.0961"
       y="197.70142"
       id="text4246-86"><tspan
         sodipodi:role="line"
         style="font-size:45px;line-height:1.20000005"
         x="1509.0961"
         y="197.70142"
         id="tspan1167">Voi sinua, Carrot?</tspan></text>
    <text
       xml:space="preserve"
       style="font-style:normal;font-variant:normal;font-weight:normal;font-stretch:normal;line-height:0%;font-family:Lavi;-inkscape-font-specification:Lavi;text-align:center;letter-spacing:0px;word-spacing:0px;text-anchor:middle;fill:#000000;fill-opacity:1;stroke:none"
       x="1510.4191"
       y="296.72693"
       id="text4246-86-3"><tspan
         sodipodi:role="line"
         style="font-size:45px;line-height:1.20000005"
         x="1510.4191"
         y="296.72693"
         id="tspan861">Toivottavasti tämä</tspan><tspan
         sodipodi:role="line"
         style="font-size:45px;line-height:1.20000005"
         x="1518.3292"
         y="350.72693"
         id="tspan54">ateria oli sen arvoinen. </tspan><tspan
         sodipodi:role="line"
         style="font-size:45px;line-height:1.20000005"
         x="1510.4191"
         y="368.13547"
         id="tspan855" /></text>
    <text
       xml:space="preserve"
       style="font-style:normal;font-variant:normal;font-weight:normal;font-stretch:normal;line-height:0%;font-family:Lavi;-inkscape-font-specification:Lavi;text-align:center;letter-spacing:0px;word-spacing:0px;text-anchor:middle;fill:#000000;fill-opacity:1;stroke:none"
       x="1521.1128"
       y="437.07376"
       id="text4246-86-3-7"><tspan
         sodipodi:role="line"
         style="font-size:45px;line-height:1.20000005"
         x="1521.1128"
         y="437.07376"
         id="tspan855-5">Näytät hirveältä...</tspan></text>
    <text
       xml:space="preserve"
       style="font-style:normal;font-variant:normal;font-weight:normal;font-stretch:normal;line-height:0%;font-family:Lavi;-inkscape-font-specification:Lavi;letter-spacing:0px;word-spacing:0px;display:inline;fill:#ffffff;fill-opacity:1;stroke:#ffffff;stroke-width:1.14998245;stroke-miterlimit:4;stroke-dasharray:none;stroke-opacity:1;filter:url(#filter4375-4-1-1-1-9-6-9-2-1-7-1)"
       x="787.65729"
       y="1584.5073"
       id="text4580-1-7-3-6-9-4"
       transform="matrix(0.8084187,0.00200213,-0.18183537,0.93491494,1593.3651,-1147.577)"><tspan
         sodipodi:role="line"
         id="tspan4582-8-5-6-1-3-5"
         x="787.65729"
         y="1584.5073"
         style="font-size:70px;line-height:1.25;letter-spacing:3.44994736px;fill:#ffffff;fill-opacity:1;stroke:#ffffff;stroke-width:1.14998245;stroke-miterlimit:4;stroke-dasharray:none;stroke-opacity:1">...Näytät...</tspan></text>
    <text
       xml:space="preserve"
       style="font-style:normal;font-variant:normal;font-weight:normal;font-stretch:normal;font-size:13.85896969px;line-height:0%;font-family:Lavi;-inkscape-font-specification:Lavi;text-align:center;letter-spacing:0px;word-spacing:0px;text-anchor:middle;display:inline;fill:#000000;fill-opacity:1;stroke:none;stroke-width:3.5999999;stroke-miterlimit:4;stroke-dasharray:none"
       x="1769.1177"
       y="1408.2057"
       id="text4246-2-3-1-3-9-0-5-3-3-6-9-3-7-3-9-4"
       transform="matrix(0.87552817,0,-0.14342897,1.1421677,0,0)"><tspan
         sodipodi:role="line"
         style="font-style:normal;font-variant:normal;font-weight:bold;font-stretch:normal;font-size:64.97789001px;line-height:1.25;font-family:Lavi;-inkscape-font-specification:'Lavi Bold';stroke:none;stroke-width:3.5999999;stroke-miterlimit:4;stroke-dasharray:none;stroke-opacity:1"
         x="1769.1177"
         y="1408.2057"
         id="tspan4579-4">Ulkonäkö!</tspan></text>
    <text
       xml:space="preserve"
       style="font-style:normal;font-variant:normal;font-weight:normal;font-stretch:normal;font-size:12.51824951px;line-height:0%;font-family:Lavi;-inkscape-font-specification:Lavi;text-align:center;letter-spacing:0px;word-spacing:0px;text-anchor:middle;display:inline;fill:#000000;fill-opacity:1;stroke:none;stroke-width:3.5999999;stroke-miterlimit:4;stroke-dasharray:none"
       x="1621.1006"
       y="1561.4998"
       id="text4246-2-3-1-3-9-0-5-3-3-6-9-3-7-3-9-4-6"
       transform="matrix(0.92759422,0,-0.09976132,1.0780576,0,0)"><tspan
         sodipodi:role="line"
         style="font-style:normal;font-variant:normal;font-weight:bold;font-stretch:normal;font-size:58.69190979px;line-height:1.25;font-family:Lavi;-inkscape-font-specification:'Lavi Bold';stroke:none;stroke-width:3.5999999;stroke-miterlimit:4;stroke-dasharray:none;stroke-opacity:1"
         x="1621.1006"
         y="1561.4998"
         id="tspan4579-4-2">Siinäpä se!</tspan></text>
    <text
       xml:space="preserve"
       style="font-style:normal;font-variant:normal;font-weight:normal;font-stretch:normal;line-height:0%;font-family:Lavi;-inkscape-font-specification:Lavi;letter-spacing:0px;word-spacing:0px;fill:#000000;fill-opacity:1;stroke:#000000;stroke-width:1.19005191;stroke-miterlimit:4;stroke-dasharray:none;stroke-opacity:1;filter:url(#filter4375-4-1-1-1-9)"
       x="787.65729"
       y="1584.5073"
       id="text4580"
       transform="matrix(0.81821305,-0.33688634,-0.15105419,1.1716012,481.86174,1568.9719)"><tspan
         sodipodi:role="line"
         id="tspan4582"
         x="787.65729"
         y="1584.5073"
         style="font-size:70px;line-height:1.25;fill:#ffffff;stroke-width:1.19005191">Krak<tspan
   style="font-size:80.40014648px;stroke-width:1.19005191"
   id="tspan4617">!</tspan></tspan></text>
  </g>
</svg>
